%!PS-Adobe-3.0 EPSF-3.0
%%Creator: MATLAB, The MathWorks, Inc. Version 7.12.0.635 (R2011a). Operating System: Linux 3.16.0-4-amd64 #1 SMP Debian 3.16.7-ckt20-1+deb8u3 (2016-01-17) x86_64.
%%Title: /home/jaemin/Research/codes_MATSIM/HIGHDIM_BO_MATSIM/results/logsumSE2/logsumSE2_avr_cumulative_regret_50.eps
%%CreationDate: 05/22/2016  22:34:42
%%DocumentNeededFonts: Helvetica
%%DocumentProcessColors: Cyan Magenta Yellow Black
%%LanguageLevel: 2
%%Pages: 1
%%BoundingBox:    43   199   546   591
%%EndComments

%%BeginProlog
% MathWorks dictionary
/MathWorks 160 dict begin
% definition operators
/bdef {bind def} bind def
/ldef {load def} bind def
/xdef {exch def} bdef
/xstore {exch store} bdef
% operator abbreviations
/c  /clip ldef
/cc /concat ldef
/cp /closepath ldef
/gr /grestore ldef
/gs /gsave ldef
/mt /moveto ldef
/np /newpath ldef
/cm /currentmatrix ldef
/sm /setmatrix ldef
/rm /rmoveto ldef
/rl /rlineto ldef
/s {show newpath} bdef
/sc {setcmykcolor} bdef
/sr /setrgbcolor ldef
/sg /setgray ldef
/w /setlinewidth ldef
/j /setlinejoin ldef
/cap /setlinecap ldef
/rc {rectclip} bdef
/rf {rectfill} bdef
% page state control
/pgsv () def
/bpage {/pgsv save def} bdef
/epage {pgsv restore} bdef
/bplot /gsave ldef
/eplot {stroke grestore} bdef
% orientation switch
/portraitMode 0 def /landscapeMode 1 def /rotateMode 2 def
% coordinate system mappings
/dpi2point 0 def
% font control
/FontSize 0 def
/FMS {/FontSize xstore findfont [FontSize 0 0 FontSize neg 0 0]
  makefont setfont} bdef
/reencode {exch dup where {pop load} {pop StandardEncoding} ifelse
  exch dup 3 1 roll findfont dup length dict begin
  { 1 index /FID ne {def}{pop pop} ifelse } forall
  /Encoding exch def currentdict end definefont pop} bdef
/isroman {findfont /CharStrings get /Agrave known} bdef
/FMSR {3 1 roll 1 index dup isroman {reencode} {pop pop} ifelse
  exch FMS} bdef
/csm {1 dpi2point div -1 dpi2point div scale neg translate
 dup landscapeMode eq {pop -90 rotate}
  {rotateMode eq {90 rotate} if} ifelse} bdef
% line types: solid, dotted, dashed, dotdash
/SO { [] 0 setdash } bdef
/DO { [.5 dpi2point mul 4 dpi2point mul] 0 setdash } bdef
/DA { [6 dpi2point mul] 0 setdash } bdef
/DD { [.5 dpi2point mul 4 dpi2point mul 6 dpi2point mul 4
  dpi2point mul] 0 setdash } bdef
% macros for lines and objects
/L {lineto stroke} bdef
/MP {3 1 roll moveto 1 sub {rlineto} repeat} bdef
/AP {{rlineto} repeat} bdef
/PDlw -1 def
/W {/PDlw currentlinewidth def setlinewidth} def
/PP {closepath eofill} bdef
/DP {closepath stroke} bdef
/MR {4 -2 roll moveto dup  0 exch rlineto exch 0 rlineto
  neg 0 exch rlineto closepath} bdef
/FR {MR stroke} bdef
/PR {MR fill} bdef
/L1i {{currentfile picstr readhexstring pop} image} bdef
/tMatrix matrix def
/MakeOval {newpath tMatrix currentmatrix pop translate scale
0 0 1 0 360 arc tMatrix setmatrix} bdef
/FO {MakeOval stroke} bdef
/PO {MakeOval fill} bdef
/PD {currentlinewidth 2 div 0 360 arc fill
   PDlw -1 eq not {PDlw w /PDlw -1 def} if} def
/FA {newpath tMatrix currentmatrix pop translate scale
  0 0 1 5 -2 roll arc tMatrix setmatrix stroke} bdef
/PA {newpath tMatrix currentmatrix pop	translate 0 0 moveto scale
  0 0 1 5 -2 roll arc closepath tMatrix setmatrix fill} bdef
/FAn {newpath tMatrix currentmatrix pop translate scale
  0 0 1 5 -2 roll arcn tMatrix setmatrix stroke} bdef
/PAn {newpath tMatrix currentmatrix pop translate 0 0 moveto scale
  0 0 1 5 -2 roll arcn closepath tMatrix setmatrix fill} bdef
/vradius 0 def /hradius 0 def /lry 0 def
/lrx 0 def /uly 0 def /ulx 0 def /rad 0 def
/MRR {/vradius xdef /hradius xdef /lry xdef /lrx xdef /uly xdef
  /ulx xdef newpath tMatrix currentmatrix pop ulx hradius add uly
  vradius add translate hradius vradius scale 0 0 1 180 270 arc 
  tMatrix setmatrix lrx hradius sub uly vradius add translate
  hradius vradius scale 0 0 1 270 360 arc tMatrix setmatrix
  lrx hradius sub lry vradius sub translate hradius vradius scale
  0 0 1 0 90 arc tMatrix setmatrix ulx hradius add lry vradius sub
  translate hradius vradius scale 0 0 1 90 180 arc tMatrix setmatrix
  closepath} bdef
/FRR {MRR stroke } bdef
/PRR {MRR fill } bdef
/MlrRR {/lry xdef /lrx xdef /uly xdef /ulx xdef /rad lry uly sub 2 div def
  newpath tMatrix currentmatrix pop ulx rad add uly rad add translate
  rad rad scale 0 0 1 90 270 arc tMatrix setmatrix lrx rad sub lry rad
  sub translate rad rad scale 0 0 1 270 90 arc tMatrix setmatrix
  closepath} bdef
/FlrRR {MlrRR stroke } bdef
/PlrRR {MlrRR fill } bdef
/MtbRR {/lry xdef /lrx xdef /uly xdef /ulx xdef /rad lrx ulx sub 2 div def
  newpath tMatrix currentmatrix pop ulx rad add uly rad add translate
  rad rad scale 0 0 1 180 360 arc tMatrix setmatrix lrx rad sub lry rad
  sub translate rad rad scale 0 0 1 0 180 arc tMatrix setmatrix
  closepath} bdef
/FtbRR {MtbRR stroke } bdef
/PtbRR {MtbRR fill } bdef
/stri 6 array def /dtri 6 array def
/smat 6 array def /dmat 6 array def
/tmat1 6 array def /tmat2 6 array def /dif 3 array def
/asub {/ind2 exch def /ind1 exch def dup dup
  ind1 get exch ind2 get sub exch } bdef
/tri_to_matrix {
  2 0 asub 3 1 asub 4 0 asub 5 1 asub
  dup 0 get exch 1 get 7 -1 roll astore } bdef
/compute_transform {
  dmat dtri tri_to_matrix tmat1 invertmatrix 
  smat stri tri_to_matrix tmat2 concatmatrix } bdef
/ds {stri astore pop} bdef
/dt {dtri astore pop} bdef
/db {2 copy /cols xdef /rows xdef mul dup 3 mul string
  currentfile 
  3 index 0 eq {/ASCIIHexDecode filter}
  {/ASCII85Decode filter 3 index 2 eq {/RunLengthDecode filter} if }
  ifelse exch readstring pop
  dup 0 3 index getinterval /rbmap xdef
  dup 2 index dup getinterval /gbmap xdef
  1 index dup 2 mul exch getinterval /bbmap xdef pop pop}bdef
/it {gs np dtri aload pop moveto lineto lineto cp c
  cols rows 8 compute_transform 
  rbmap gbmap bbmap true 3 colorimage gr}bdef
/il {newpath moveto lineto stroke}bdef
currentdict end def
%%EndProlog

%%BeginSetup
MathWorks begin

0 cap

end
%%EndSetup

%%Page: 1 1
%%BeginPageSetup
%%PageBoundingBox:    43   199   546   591
MathWorks begin
bpage
%%EndPageSetup

%%BeginObject: obj1
bplot

/dpi2point 12 def
portraitMode 0216 7344 csm

  304   247  6041  4708 rc
88 dict begin %Colortable dictionary
/c0 { 0.000000 0.000000 0.000000 sr} bdef
/c1 { 1.000000 1.000000 1.000000 sr} bdef
/c2 { 0.900000 0.000000 0.000000 sr} bdef
/c3 { 0.000000 0.820000 0.000000 sr} bdef
/c4 { 0.000000 0.000000 0.800000 sr} bdef
/c5 { 0.910000 0.820000 0.320000 sr} bdef
/c6 { 1.000000 0.260000 0.820000 sr} bdef
/c7 { 0.000000 0.820000 0.820000 sr} bdef
c0
1 j
1 sg
   0    0 6913 5186 rf
6 w
0 4226 5356 0 0 -4226 899 4615 4 MP
PP
-5356 0 0 4226 5356 0 0 -4226 899 4615 5 MP stroke
4 w
DO
SO
6 w
0 sg
 899 4615 mt 6255 4615 L
 899  389 mt 6255  389 L
 899 4615 mt  899  389 L
6255 4615 mt 6255  389 L
 899 4615 mt 6255 4615 L
 899 4615 mt  899  389 L
 899 4615 mt  899 4561 L
 899  389 mt  899  442 L
%%IncludeResource: font Helvetica
/Helvetica /ISOLatin1Encoding 120 FMSR

 866 4760 mt 
(0) s
1385 4615 mt 1385 4561 L
1385  389 mt 1385  442 L
1319 4760 mt 
(50) s
1872 4615 mt 1872 4561 L
1872  389 mt 1872  442 L
1772 4760 mt 
(100) s
2359 4615 mt 2359 4561 L
2359  389 mt 2359  442 L
2259 4760 mt 
(150) s
2846 4615 mt 2846 4561 L
2846  389 mt 2846  442 L
2746 4760 mt 
(200) s
3333 4615 mt 3333 4561 L
3333  389 mt 3333  442 L
3233 4760 mt 
(250) s
3820 4615 mt 3820 4561 L
3820  389 mt 3820  442 L
3720 4760 mt 
(300) s
4307 4615 mt 4307 4561 L
4307  389 mt 4307  442 L
4207 4760 mt 
(350) s
4794 4615 mt 4794 4561 L
4794  389 mt 4794  442 L
4694 4760 mt 
(400) s
5281 4615 mt 5281 4561 L
5281  389 mt 5281  442 L
5181 4760 mt 
(450) s
5768 4615 mt 5768 4561 L
5768  389 mt 5768  442 L
5668 4760 mt 
(500) s
 899 4615 mt  899 4615 L
 899 4615 mt  899 4615 L
 899 4615 mt  899 4615 L
 899 4615 mt  899 4615 L
 899 4615 mt  899 4615 L
 899 4615 mt  899 4615 L
 899 4615 mt  899 4615 L
 899 4615 mt  899 4615 L
 899 4615 mt  899 4615 L
 899 4615 mt  899 4615 L
 899 4615 mt  899 4615 L
 899 4615 mt  899 4615 L
 899 4615 mt  899 4615 L
 899 4615 mt  899 4615 L
 899 4615 mt  899 4615 L
 899 4615 mt  899 4615 L
 899 4615 mt  899 4615 L
 899 4615 mt  899 4615 L
 899 4589 mt  952 4589 L
6255 4589 mt 6201 4589 L
 576 4633 mt 
(10) s
%%IncludeResource: font Helvetica
/Helvetica /ISOLatin1Encoding 80 FMSR

 709 4559 mt 
(0.22) s
 899 4615 mt  899 4615 L
 899 4615 mt  899 4615 L
 899 4615 mt  899 4615 L
 899 4615 mt  899 4615 L
 899 4615 mt  899 4615 L
 899 4615 mt  899 4615 L
 899 4615 mt  899 4615 L
 899 4615 mt  899 4615 L
 899 4615 mt  899 4615 L
 899 4615 mt  899 4615 L
 899 4615 mt  899 4615 L
 899 4615 mt  899 4615 L
 899 4615 mt  899 4615 L
 899 4615 mt  899 4615 L
 899 4615 mt  899 4615 L
 899 4615 mt  899 4615 L
 899 4615 mt  899 4615 L
 899 4615 mt  899 4615 L
 899 3894 mt  952 3894 L
6255 3894 mt 6201 3894 L
%%IncludeResource: font Helvetica
/Helvetica /ISOLatin1Encoding 120 FMSR

 576 3938 mt 
(10) s
%%IncludeResource: font Helvetica
/Helvetica /ISOLatin1Encoding 80 FMSR

 709 3864 mt 
(0.24) s
 899 4615 mt  899 4615 L
 899 4615 mt  899 4615 L
 899 4615 mt  899 4615 L
 899 4615 mt  899 4615 L
 899 4615 mt  899 4615 L
 899 4615 mt  899 4615 L
 899 4615 mt  899 4615 L
 899 4615 mt  899 4615 L
 899 4615 mt  899 4615 L
 899 4615 mt  899 4615 L
 899 4615 mt  899 4615 L
 899 4615 mt  899 4615 L
 899 4615 mt  899 4615 L
 899 4615 mt  899 4615 L
 899 4615 mt  899 4615 L
 899 4615 mt  899 4615 L
 899 4615 mt  899 4615 L
 899 4615 mt  899 4615 L
 899 3200 mt  952 3200 L
6255 3200 mt 6201 3200 L
%%IncludeResource: font Helvetica
/Helvetica /ISOLatin1Encoding 120 FMSR

 576 3244 mt 
(10) s
%%IncludeResource: font Helvetica
/Helvetica /ISOLatin1Encoding 80 FMSR

 709 3170 mt 
(0.26) s
 899 4615 mt  899 4615 L
 899 4615 mt  899 4615 L
 899 4615 mt  899 4615 L
 899 4615 mt  899 4615 L
 899 4615 mt  899 4615 L
 899 4615 mt  899 4615 L
 899 4615 mt  899 4615 L
 899 4615 mt  899 4615 L
 899 4615 mt  899 4615 L
 899 4615 mt  899 4615 L
 899 4615 mt  899 4615 L
 899 4615 mt  899 4615 L
 899 4615 mt  899 4615 L
 899 4615 mt  899 4615 L
 899 4615 mt  899 4615 L
 899 4615 mt  899 4615 L
 899 4615 mt  899 4615 L
 899 4615 mt  899 4615 L
 899 2505 mt  952 2505 L
6255 2505 mt 6201 2505 L
%%IncludeResource: font Helvetica
/Helvetica /ISOLatin1Encoding 120 FMSR

 576 2549 mt 
(10) s
%%IncludeResource: font Helvetica
/Helvetica /ISOLatin1Encoding 80 FMSR

 709 2475 mt 
(0.28) s
 899 4615 mt  899 4615 L
 899 4615 mt  899 4615 L
 899 4615 mt  899 4615 L
 899 4615 mt  899 4615 L
 899 4615 mt  899 4615 L
 899 4615 mt  899 4615 L
 899 4615 mt  899 4615 L
 899 4615 mt  899 4615 L
 899 4615 mt  899 4615 L
 899 4615 mt  899 4615 L
 899 4615 mt  899 4615 L
 899 4615 mt  899 4615 L
 899 4615 mt  899 4615 L
 899 4615 mt  899 4615 L
 899 4615 mt  899 4615 L
 899 4615 mt  899 4615 L
 899 4615 mt  899 4615 L
 899 4615 mt  899 4615 L
 899 1811 mt  952 1811 L
6255 1811 mt 6201 1811 L
%%IncludeResource: font Helvetica
/Helvetica /ISOLatin1Encoding 120 FMSR

 620 1855 mt 
(10) s
%%IncludeResource: font Helvetica
/Helvetica /ISOLatin1Encoding 80 FMSR

 753 1781 mt 
(0.3) s
 899 4615 mt  899 4615 L
 899 4615 mt  899 4615 L
 899 4615 mt  899 4615 L
 899 4615 mt  899 4615 L
 899 4615 mt  899 4615 L
 899 4615 mt  899 4615 L
 899 4615 mt  899 4615 L
 899 4615 mt  899 4615 L
 899 4615 mt  899 4615 L
 899 4615 mt  899 4615 L
 899 4615 mt  899 4615 L
 899 4615 mt  899 4615 L
 899 4615 mt  899 4615 L
 899 4615 mt  899 4615 L
 899 4615 mt  899 4615 L
 899 4615 mt  899 4615 L
 899 4615 mt  899 4615 L
 899 4615 mt  899 4615 L
 899 1116 mt  952 1116 L
6255 1116 mt 6201 1116 L
%%IncludeResource: font Helvetica
/Helvetica /ISOLatin1Encoding 120 FMSR

 576 1160 mt 
(10) s
%%IncludeResource: font Helvetica
/Helvetica /ISOLatin1Encoding 80 FMSR

 709 1086 mt 
(0.32) s
 899 4615 mt  899 4615 L
 899 4615 mt  899 4615 L
 899 4615 mt  899 4615 L
 899 4615 mt  899 4615 L
 899 4615 mt  899 4615 L
 899 4615 mt  899 4615 L
 899 4615 mt  899 4615 L
 899 4615 mt  899 4615 L
 899 4615 mt  899 4615 L
 899 4615 mt  899 4615 L
 899 4615 mt  899 4615 L
 899 4615 mt  899 4615 L
 899 4615 mt  899 4615 L
 899 4615 mt  899 4615 L
 899 4615 mt  899 4615 L
 899 4615 mt  899 4615 L
 899 4615 mt  899 4615 L
 899 4615 mt  899 4615 L
 899  422 mt  952  422 L
6255  422 mt 6201  422 L
%%IncludeResource: font Helvetica
/Helvetica /ISOLatin1Encoding 120 FMSR

 576  466 mt 
(10) s
%%IncludeResource: font Helvetica
/Helvetica /ISOLatin1Encoding 80 FMSR

 709  392 mt 
(0.34) s
 899 4615 mt  899 4615 L
 899 4615 mt  899 4615 L
 899 4615 mt  899 4615 L
 899 4615 mt  899 4615 L
 899 4615 mt  899 4615 L
 899 4615 mt  899 4615 L
 899 4615 mt  899 4615 L
 899 4615 mt  899 4615 L
 899 4615 mt  899 4615 L
 899 4615 mt  899 4615 L
 899 4615 mt  899 4615 L
 899 4615 mt  899 4615 L
 899 4615 mt  899 4615 L
 899 4615 mt  899 4615 L
 899 4615 mt  899 4615 L
 899 4615 mt  899 4615 L
 899 4615 mt  899 4615 L
 899 4615 mt  899 4615 L
 899 4615 mt 6255 4615 L
 899  389 mt 6255  389 L
 899 4615 mt  899  389 L
6255 4615 mt 6255  389 L
gs 899 389 5357 4227 rc
gr

0 j
41 71 -82 0 41 -71 1084 1808 4 MP
/c8 { 0.000000 1.000000 0.000000 sr} bdef
c8
DP
41 71 -82 0 41 -71 1278 1829 4 MP
DP
41 71 -82 0 41 -71 1473 1820 4 MP
DP
41 71 -82 0 41 -71 1668 1831 4 MP
DP
41 71 -82 0 41 -71 1863 1836 4 MP
DP
41 71 -82 0 41 -71 2057 1846 4 MP
DP
41 71 -82 0 41 -71 2252 1849 4 MP
DP
41 71 -82 0 41 -71 2447 1853 4 MP
DP
41 71 -82 0 41 -71 2642 1849 4 MP
DP
41 71 -82 0 41 -71 2836 1851 4 MP
DP
41 71 -82 0 41 -71 3031 1852 4 MP
DP
41 71 -82 0 41 -71 3226 1857 4 MP
DP
41 71 -82 0 41 -71 3421 1857 4 MP
DP
41 71 -82 0 41 -71 3615 1857 4 MP
DP
41 71 -82 0 41 -71 3810 1854 4 MP
DP
41 71 -82 0 41 -71 4005 1852 4 MP
DP
41 71 -82 0 41 -71 4200 1851 4 MP
DP
41 71 -82 0 41 -71 4395 1848 4 MP
DP
41 71 -82 0 41 -71 4589 1846 4 MP
DP
41 71 -82 0 41 -71 4784 1843 4 MP
DP
41 71 -82 0 41 -71 4979 1841 4 MP
DP
41 71 -82 0 41 -71 5174 1841 4 MP
DP
41 71 -82 0 41 -71 5368 1840 4 MP
DP
41 71 -82 0 41 -71 5563 1838 4 MP
DP
41 71 -82 0 41 -71 5758 1837 4 MP
DP
gs 899 389 5357 4227 rc
gr

0 -58 -58 0 0 58 58 0 1055 1544 5 MP
/c9 { 1.000000 0.000000 0.000000 sr} bdef
c9
DP
0 -58 -58 0 0 58 58 0 1249 1560 5 MP
DP
0 -58 -58 0 0 58 58 0 1444 1570 5 MP
DP
0 -58 -58 0 0 58 58 0 1639 1570 5 MP
DP
0 -58 -58 0 0 58 58 0 1834 1578 5 MP
DP
0 -58 -58 0 0 58 58 0 2028 1584 5 MP
DP
0 -58 -58 0 0 58 58 0 2223 1585 5 MP
DP
0 -58 -58 0 0 58 58 0 2418 1589 5 MP
DP
0 -58 -58 0 0 58 58 0 2613 1588 5 MP
DP
0 -58 -58 0 0 58 58 0 2807 1590 5 MP
DP
0 -58 -58 0 0 58 58 0 3002 1592 5 MP
DP
0 -58 -58 0 0 58 58 0 3197 1593 5 MP
DP
0 -58 -58 0 0 58 58 0 3392 1598 5 MP
DP
0 -58 -58 0 0 58 58 0 3586 1602 5 MP
DP
0 -58 -58 0 0 58 58 0 3781 1605 5 MP
DP
0 -58 -58 0 0 58 58 0 3976 1610 5 MP
DP
0 -58 -58 0 0 58 58 0 4171 1616 5 MP
DP
0 -58 -58 0 0 58 58 0 4366 1621 5 MP
DP
0 -58 -58 0 0 58 58 0 4560 1625 5 MP
DP
0 -58 -58 0 0 58 58 0 4755 1629 5 MP
DP
0 -58 -58 0 0 58 58 0 4950 1633 5 MP
DP
0 -58 -58 0 0 58 58 0 5145 1637 5 MP
DP
0 -58 -58 0 0 58 58 0 5339 1640 5 MP
DP
0 -58 -58 0 0 58 58 0 5534 1645 5 MP
DP
0 -58 -58 0 0 58 58 0 5729 1650 5 MP
DP
gs 899 389 5357 4227 rc
gr

/c10 { 0.000000 1.000000 1.000000 sr} bdef
c10
  36   36 1084  412 FO
  36   36 1278  417 FO
  36   36 1473  421 FO
  36   36 1668  423 FO
  36   36 1863  428 FO
  36   36 2057  430 FO
  36   36 2252  430 FO
  36   36 2447  431 FO
  36   36 2642  433 FO
  36   36 2836  435 FO
  36   36 3031  437 FO
  36   36 3226  438 FO
  36   36 3421  440 FO
  36   36 3615  441 FO
  36   36 3810  443 FO
  36   36 4005  444 FO
  36   36 4200  446 FO
  36   36 4395  447 FO
  36   36 4589  448 FO
  36   36 4784  449 FO
  36   36 4979  450 FO
  36   36 5174  451 FO
  36   36 5368  451 FO
  36   36 5563  452 FO
  36   36 5758  453 FO
gs 899 389 5357 4227 rc
gr

/c11 { 0.000000 0.000000 1.000000 sr} bdef
c11
1048 1298 mt 1120 1298 L
1084 1262 mt 1084 1334 L
1242 1336 mt 1314 1336 L
1278 1300 mt 1278 1372 L
1437 1329 mt 1509 1329 L
1473 1293 mt 1473 1365 L
1632 1326 mt 1704 1326 L
1668 1290 mt 1668 1362 L
1827 1324 mt 1899 1324 L
1863 1288 mt 1863 1360 L
2021 1326 mt 2093 1326 L
2057 1290 mt 2057 1362 L
2216 1328 mt 2288 1328 L
2252 1292 mt 2252 1364 L
2411 1333 mt 2483 1333 L
2447 1297 mt 2447 1369 L
2606 1336 mt 2678 1336 L
2642 1300 mt 2642 1372 L
2800 1340 mt 2872 1340 L
2836 1304 mt 2836 1376 L
2995 1343 mt 3067 1343 L
3031 1307 mt 3031 1379 L
3190 1344 mt 3262 1344 L
3226 1308 mt 3226 1380 L
3385 1348 mt 3457 1348 L
3421 1312 mt 3421 1384 L
3579 1350 mt 3651 1350 L
3615 1314 mt 3615 1386 L
3774 1352 mt 3846 1352 L
3810 1316 mt 3810 1388 L
3969 1355 mt 4041 1355 L
4005 1319 mt 4005 1391 L
4164 1359 mt 4236 1359 L
4200 1323 mt 4200 1395 L
4359 1359 mt 4431 1359 L
4395 1323 mt 4395 1395 L
4553 1359 mt 4625 1359 L
4589 1323 mt 4589 1395 L
4748 1362 mt 4820 1362 L
4784 1326 mt 4784 1398 L
4943 1363 mt 5015 1363 L
4979 1327 mt 4979 1399 L
5138 1366 mt 5210 1366 L
5174 1330 mt 5174 1402 L
5332 1367 mt 5404 1367 L
5368 1331 mt 5368 1403 L
5527 1370 mt 5599 1370 L
5563 1334 mt 5563 1406 L
5722 1373 mt 5794 1373 L
5758 1337 mt 5758 1409 L
1059 1273 mt 1109 1323 L
1109 1273 mt 1059 1323 L
1253 1311 mt 1303 1361 L
1303 1311 mt 1253 1361 L
1448 1304 mt 1498 1354 L
1498 1304 mt 1448 1354 L
1643 1301 mt 1693 1351 L
1693 1301 mt 1643 1351 L
1838 1299 mt 1888 1349 L
1888 1299 mt 1838 1349 L
2032 1301 mt 2082 1351 L
2082 1301 mt 2032 1351 L
2227 1303 mt 2277 1353 L
2277 1303 mt 2227 1353 L
2422 1308 mt 2472 1358 L
2472 1308 mt 2422 1358 L
2617 1311 mt 2667 1361 L
2667 1311 mt 2617 1361 L
2811 1315 mt 2861 1365 L
2861 1315 mt 2811 1365 L
3006 1318 mt 3056 1368 L
3056 1318 mt 3006 1368 L
3201 1319 mt 3251 1369 L
3251 1319 mt 3201 1369 L
3396 1323 mt 3446 1373 L
3446 1323 mt 3396 1373 L
3590 1325 mt 3640 1375 L
3640 1325 mt 3590 1375 L
3785 1327 mt 3835 1377 L
3835 1327 mt 3785 1377 L
3980 1330 mt 4030 1380 L
4030 1330 mt 3980 1380 L
4175 1334 mt 4225 1384 L
4225 1334 mt 4175 1384 L
4370 1334 mt 4420 1384 L
4420 1334 mt 4370 1384 L
4564 1334 mt 4614 1384 L
4614 1334 mt 4564 1384 L
4759 1337 mt 4809 1387 L
4809 1337 mt 4759 1387 L
4954 1338 mt 5004 1388 L
5004 1338 mt 4954 1388 L
5149 1341 mt 5199 1391 L
5199 1341 mt 5149 1391 L
5343 1342 mt 5393 1392 L
5393 1342 mt 5343 1392 L
5538 1345 mt 5588 1395 L
5588 1345 mt 5538 1395 L
5733 1348 mt 5783 1398 L
5783 1348 mt 5733 1398 L
gs 899 389 5357 4227 rc
gr

36 47 -36 47 -36 -47 36 -47 1084 1738 5 MP
/c12 { 1.000000 0.000000 1.000000 sr} bdef
c12
DP
36 47 -36 47 -36 -47 36 -47 1278 1879 5 MP
DP
36 47 -36 47 -36 -47 36 -47 1473 1940 5 MP
DP
36 47 -36 47 -36 -47 36 -47 1668 1929 5 MP
DP
36 47 -36 47 -36 -47 36 -47 1863 1987 5 MP
DP
36 47 -36 47 -36 -47 36 -47 2057 1979 5 MP
DP
36 47 -36 47 -36 -47 36 -47 2252 1996 5 MP
DP
36 47 -36 47 -36 -47 36 -47 2447 2023 5 MP
DP
36 47 -36 47 -36 -47 36 -47 2642 2042 5 MP
DP
36 47 -36 47 -36 -47 36 -47 2836 2096 5 MP
DP
36 47 -36 47 -36 -47 36 -47 3031 2100 5 MP
DP
36 47 -36 47 -36 -47 36 -47 3226 2133 5 MP
DP
36 47 -36 47 -36 -47 36 -47 3421 2162 5 MP
DP
36 47 -36 47 -36 -47 36 -47 3615 2179 5 MP
DP
36 47 -36 47 -36 -47 36 -47 3810 2215 5 MP
DP
36 47 -36 47 -36 -47 36 -47 4005 2229 5 MP
DP
36 47 -36 47 -36 -47 36 -47 4200 2259 5 MP
DP
36 47 -36 47 -36 -47 36 -47 4395 2292 5 MP
DP
36 47 -36 47 -36 -47 36 -47 4589 2322 5 MP
DP
36 47 -36 47 -36 -47 36 -47 4784 2376 5 MP
DP
36 47 -36 47 -36 -47 36 -47 4979 2394 5 MP
DP
36 47 -36 47 -36 -47 36 -47 5174 2436 5 MP
DP
36 47 -36 47 -36 -47 36 -47 5368 2473 5 MP
DP
36 47 -36 47 -36 -47 36 -47 5563 2498 5 MP
DP
36 47 -36 47 -36 -47 36 -47 5758 2550 5 MP
DP
gs 899 389 5357 4227 rc
gr

0 sg
1048 2585 mt 1120 2585 L
1084 2549 mt 1084 2621 L
1242 2931 mt 1314 2931 L
1278 2895 mt 1278 2967 L
1437 3068 mt 1509 3068 L
1473 3032 mt 1473 3104 L
1632 3258 mt 1704 3258 L
1668 3222 mt 1668 3294 L
1827 3389 mt 1899 3389 L
1863 3353 mt 1863 3425 L
2021 3476 mt 2093 3476 L
2057 3440 mt 2057 3512 L
2216 3587 mt 2288 3587 L
2252 3551 mt 2252 3623 L
2411 3642 mt 2483 3642 L
2447 3606 mt 2447 3678 L
2606 3726 mt 2678 3726 L
2642 3690 mt 2642 3762 L
2800 3802 mt 2872 3802 L
2836 3766 mt 2836 3838 L
2995 3853 mt 3067 3853 L
3031 3817 mt 3031 3889 L
3190 3930 mt 3262 3930 L
3226 3894 mt 3226 3966 L
3385 3979 mt 3457 3979 L
3421 3943 mt 3421 4015 L
3579 4049 mt 3651 4049 L
3615 4013 mt 3615 4085 L
3774 4109 mt 3846 4109 L
3810 4073 mt 3810 4145 L
3969 4149 mt 4041 4149 L
4005 4113 mt 4005 4185 L
4164 4209 mt 4236 4209 L
4200 4173 mt 4200 4245 L
4359 4248 mt 4431 4248 L
4395 4212 mt 4395 4284 L
4553 4305 mt 4625 4305 L
4589 4269 mt 4589 4341 L
4748 4354 mt 4820 4354 L
4784 4318 mt 4784 4390 L
4943 4389 mt 5015 4389 L
4979 4353 mt 4979 4425 L
5138 4438 mt 5210 4438 L
5174 4402 mt 5174 4474 L
5332 4470 mt 5404 4470 L
5368 4434 mt 5368 4506 L
5527 4516 mt 5599 4516 L
5563 4480 mt 5563 4552 L
5722 4559 mt 5794 4559 L
5758 4523 mt 5758 4595 L
gs 899 389 5357 4227 rc
gr

%%IncludeResource: font Helvetica
/Helvetica /ISOLatin1Encoding 120 FMSR

3330 4903 mt 
(Iterations) s
 440 2628 mt  -90 rotate
(R) s
90 rotate
%%IncludeResource: font Helvetica
/Helvetica /ISOLatin1Encoding 96 FMSR

 500 2542 mt  -90 rotate
(T) s
90 rotate
%%IncludeResource: font Helvetica
/Helvetica /ISOLatin1Encoding 120 FMSR

 440 2484 mt  -90 rotate
(/T) s
90 rotate
 882 4658 mt 
( ) s
6239  431 mt 
( ) s
gs 899 389 5357 4227 rc
c8
10 0 10 0 9 0 10 -1 10 0 10 0 9 0 10 0 
10 0 10 0 9 0 10 1 10 0 9 0 10 0 10 0 
10 0 9 -1 10 0 10 0 10 -1 9 0 10 0 10 0 
10 0 9 0 10 0 10 0 10 0 9 -1 10 1 10 0 
10 -1 9 0 10 0 10 0 9 1 10 -1 10 0 10 0 
9 0 10 0 10 -1 10 1 9 0 10 0 10 0 10 0 
9 0 10 0 10 0 10 0 9 -1 10 0 10 0 9 0 
10 0 10 0 10 0 9 0 10 0 10 -1 10 0 9 0 
10 0 10 0 10 0 9 0 10 1 10 0 10 0 9 0 
10 -1 10 1 10 0 9 0 10 -1 10 1 9 0 10 0 
10 0 10 -1 9 0 10 0 10 0 10 0 9 0 10 -1 
10 1 10 0 9 -1 10 0 10 0 10 1 9 0 10 -1 
10 0 9 0 10 0 10 0 10 0 9 -1 10 0 10 0 
10 -1 9 0 10 0 10 0 10 0 9 0 10 -1 10 0 
10 0 9 0 10 0 10 0 10 0 9 0 10 0 10 0 
9 -1 10 1 10 -1 10 0 9 -1 10 0 10 0 10 1 
9 0 10 0 10 0 10 0 9 0 10 0 10 0 10 0 
9 -1 10 0 10 0 9 0 10 -1 10 1 10 -1 9 0 
10 -1 10 0 10 1 9 -1 10 0 10 0 10 0 9 0 
10 -1 10 0 10 0 9 0 10 0 10 0 10 0 9 0 
10 0 10 0 9 0 10 0 10 -1 10 0 9 0 10 1 
10 -1 10 0 9 0 10 0 10 -1 10 0 9 0 10 1 
10 0 10 -1 9 1 10 0 10 0 9 1 10 0 10 -1 
10 0 9 0 10 0 10 0 10 0 9 -1 10 0 10 -1 
10 0 9 0 10 0 10 0 10 -1 9 1 10 0 10 0 
10 0 9 0 10 0 10 0 9 -1 10 1 10 0 10 -1 
9 0 10 -1 10 0 10 -1 9 1 10 0 10 0 10 0 
9 0 10 0 10 0 10 -1 9 1 10 0 10 0 9 0 
10 0 10 -1 10 0 9 -1 10 0 10 0 10 1 9 0 
10 -1 10 1 10 -1 9 0 10 1 10 0 10 0 9 0 
10 0 10 0 10 1 9 -1 10 1 10 0 9 0 10 -1 
10 0 10 0 9 -1 10 0 10 1 10 0 9 0 10 1 
10 0 10 -1 9 0 10 0 10 0 10 0 9 0 10 0 
10 0 10 0 9 1 10 0 10 1 9 0 10 0 10 0 
10 1 9 0 10 0 10 1 10 0 9 0 10 1 10 0 
10 0 9 0 10 0 10 -1 10 0 9 0 10 0 10 0 
9 0 10 0 10 0 10 1 9 1 10 0 10 0 10 -1 
9 1 10 0 10 0 2846 1804 300 MP stroke
10 0 9 -1 10 1 10 1 10 0 9 0 10 1 10 0 
10 0 9 0 10 0 10 0 9 0 10 0 10 -1 10 0 
9 0 10 1 10 -1 10 1 9 0 10 0 10 1 10 0 
9 0 10 0 10 0 10 0 9 -1 10 -1 10 0 9 -1 
10 -1 10 0 10 0 9 -1 10 -1 10 1 10 0 9 0 
10 0 10 0 10 0 9 1 10 -1 10 0 10 0 9 0 
10 0 10 0 10 1 9 0 10 1 10 -1 9 1 10 0 
10 -1 10 0 9 2 10 0 10 1 10 -1 9 1 10 1 
10 0 10 0 9 0 10 0 10 0 10 -1 9 1 10 1 
10 -1 9 0 10 0 10 1 10 0 9 0 10 0 10 1 
10 0 9 -1 10 1 10 0 10 -1 9 -1 10 1 10 1 
10 2 9 1 10 -1 10 -1 10 1 9 0 10 2 10 0 
9 2 10 0 10 2 10 1 9 1 10 1 10 1 10 -1 
9 0 10 0 10 0 10 2 9 -2 10 1 10 -1 10 0 
9 0 10 -2 10 1 9 1 10 3 10 3 10 -1 9 0 
10 -1 10 -1 10 2 9 2 10 2 10 2 10 1 9 -1 
10 -2 10 1 10 0 9 0 10 0 10 2 10 -1 9 1 
10 -2 10 1 9 3 10 1 10 0 10 -2 9 -1 10 -2 
10 1 10 0 9 1 10 -1 10 2 10 1 9 -3 10 1 
10 -1 10 1 9 -1 10 -1 10 0 9 1 10 -2 10 -1 
10 -2 9 3 10 5 10 3 10 2 9 -2 10 1 10 0 
10 5 9 5 10 1 10 -7 10 0 9 5 10 3 10 0 
10 1 9 0 10 -4 10 -5 9 5 10 2 10 1 10 -4 
9 6 10 12 10 -8 10 -3 9 4 10 -5 10 4 10 -1 
9 8 10 14 10 -11 10 22 9 17 10 13 10 -19 9 0 
899 1709 201 MP stroke
0 47 1084 1737 2 MP stroke
93 0 1037 1737 2 MP stroke
93 0 1037 1784 2 MP stroke
0 37 1278 1763 2 MP stroke
93 0 1232 1763 2 MP stroke
93 0 1232 1800 2 MP stroke
0 26 1473 1760 2 MP stroke
94 0 1426 1760 2 MP stroke
94 0 1426 1786 2 MP stroke
0 27 1668 1771 2 MP stroke
94 0 1621 1771 2 MP stroke
94 0 1621 1798 2 MP stroke
0 24 1863 1777 2 MP stroke
93 0 1816 1777 2 MP stroke
93 0 1816 1801 2 MP stroke
0 21 2057 1789 2 MP stroke
93 0 2011 1789 2 MP stroke
93 0 2011 1810 2 MP stroke
0 20 2252 1792 2 MP stroke
94 0 2205 1792 2 MP stroke
94 0 2205 1812 2 MP stroke
0 20 2447 1796 2 MP stroke
94 0 2400 1796 2 MP stroke
94 0 2400 1816 2 MP stroke
0 19 2642 1793 2 MP stroke
93 0 2595 1793 2 MP stroke
93 0 2595 1812 2 MP stroke
0 17 2836 1796 2 MP stroke
93 0 2790 1796 2 MP stroke
93 0 2790 1813 2 MP stroke
0 17 3031 1797 2 MP stroke
94 0 2984 1797 2 MP stroke
94 0 2984 1814 2 MP stroke
0 18 3226 1801 2 MP stroke
94 0 3179 1801 2 MP stroke
94 0 3179 1819 2 MP stroke
0 17 3421 1801 2 MP stroke
93 0 3374 1801 2 MP stroke
93 0 3374 1818 2 MP stroke
0 17 3615 1801 2 MP stroke
93 0 3569 1801 2 MP stroke
93 0 3569 1818 2 MP stroke
0 17 3810 1799 2 MP stroke
94 0 3763 1799 2 MP stroke
94 0 3763 1816 2 MP stroke
0 16 4005 1797 2 MP stroke
94 0 3958 1797 2 MP stroke
94 0 3958 1813 2 MP stroke
0 15 4200 1797 2 MP stroke
93 0 4153 1797 2 MP stroke
93 0 4153 1812 2 MP stroke
0 15 4395 1794 2 MP stroke
93 0 4348 1794 2 MP stroke
93 0 4348 1809 2 MP stroke
0 14 4589 1792 2 MP stroke
93 0 4543 1792 2 MP stroke
93 0 4543 1806 2 MP stroke
0 14 4784 1789 2 MP stroke
94 0 4737 1789 2 MP stroke
94 0 4737 1803 2 MP stroke
0 15 4979 1787 2 MP stroke
94 0 4932 1787 2 MP stroke
94 0 4932 1802 2 MP stroke
0 15 5174 1787 2 MP stroke
93 0 5127 1787 2 MP stroke
93 0 5127 1802 2 MP stroke
0 15 5368 1786 2 MP stroke
93 0 5322 1786 2 MP stroke
93 0 5322 1801 2 MP stroke
0 15 5563 1784 2 MP stroke
94 0 5516 1784 2 MP stroke
94 0 5516 1799 2 MP stroke
0 15 5758 1783 2 MP stroke
94 0 5711 1783 2 MP stroke
94 0 5711 1798 2 MP stroke
gr

c8
41 71 -82 0 41 -71 1084 1808 4 MP
DP
41 71 -82 0 41 -71 1278 1829 4 MP
DP
41 71 -82 0 41 -71 1473 1820 4 MP
DP
41 71 -82 0 41 -71 1668 1831 4 MP
DP
41 71 -82 0 41 -71 1863 1836 4 MP
DP
41 71 -82 0 41 -71 2057 1846 4 MP
DP
41 71 -82 0 41 -71 2252 1849 4 MP
DP
41 71 -82 0 41 -71 2447 1853 4 MP
DP
41 71 -82 0 41 -71 2642 1849 4 MP
DP
41 71 -82 0 41 -71 2836 1851 4 MP
DP
41 71 -82 0 41 -71 3031 1852 4 MP
DP
41 71 -82 0 41 -71 3226 1857 4 MP
DP
41 71 -82 0 41 -71 3421 1857 4 MP
DP
41 71 -82 0 41 -71 3615 1857 4 MP
DP
41 71 -82 0 41 -71 3810 1854 4 MP
DP
41 71 -82 0 41 -71 4005 1852 4 MP
DP
41 71 -82 0 41 -71 4200 1851 4 MP
DP
41 71 -82 0 41 -71 4395 1848 4 MP
DP
41 71 -82 0 41 -71 4589 1846 4 MP
DP
41 71 -82 0 41 -71 4784 1843 4 MP
DP
41 71 -82 0 41 -71 4979 1841 4 MP
DP
41 71 -82 0 41 -71 5174 1841 4 MP
DP
41 71 -82 0 41 -71 5368 1840 4 MP
DP
41 71 -82 0 41 -71 5563 1838 4 MP
DP
41 71 -82 0 41 -71 5758 1837 4 MP
DP
gs 899 389 5357 4227 rc
c9
10 0 10 1 9 0 10 0 10 0 10 0 9 1 10 0 
10 0 10 0 9 0 10 0 10 1 9 0 10 1 10 0 
10 1 9 0 10 0 10 0 10 0 9 1 10 0 10 0 
10 0 9 0 10 0 10 1 10 0 9 1 10 0 10 0 
10 0 9 0 10 1 10 0 9 0 10 0 10 1 10 0 
9 0 10 0 10 1 10 0 9 0 10 0 10 0 10 0 
9 1 10 0 10 0 10 0 9 0 10 0 10 0 9 0 
10 0 10 1 10 0 9 0 10 0 10 0 10 1 9 0 
10 0 10 1 10 0 9 0 10 0 10 0 10 1 9 0 
10 0 10 1 10 0 9 0 10 0 10 0 9 0 10 0 
10 1 10 0 9 0 10 0 10 0 10 0 9 1 10 0 
10 0 10 1 9 0 10 0 10 0 10 1 9 0 10 0 
10 0 9 0 10 0 10 0 10 1 9 0 10 0 10 0 
10 0 9 0 10 0 10 0 10 0 9 0 10 1 10 0 
10 0 9 0 10 0 10 1 10 0 9 0 10 0 10 1 
9 0 10 0 10 0 10 1 9 0 10 0 10 0 10 1 
9 0 10 1 10 0 10 0 9 0 10 0 10 1 10 0 
9 0 10 0 10 0 9 0 10 1 10 0 10 0 9 1 
10 0 10 0 10 0 9 0 10 1 10 0 10 0 9 1 
10 0 10 0 10 0 9 0 10 1 10 0 10 0 9 0 
10 0 10 1 9 0 10 1 10 1 10 0 9 0 10 0 
10 1 10 0 9 0 10 0 10 1 10 0 9 1 10 -1 
10 1 10 0 9 0 10 0 10 1 9 0 10 0 10 0 
10 1 9 0 10 0 10 0 10 0 9 1 10 0 10 1 
10 -1 9 1 10 0 10 0 10 0 9 1 10 0 10 0 
10 0 9 0 10 0 10 1 9 -1 10 0 10 0 10 0 
9 1 10 0 10 0 10 0 9 0 10 0 10 1 10 0 
9 0 10 1 10 0 10 0 9 0 10 0 10 0 9 0 
10 1 10 0 10 0 9 -1 10 0 10 0 10 1 9 0 
10 0 10 1 10 0 9 0 10 1 10 0 10 0 9 1 
10 0 10 0 10 0 9 0 10 0 10 0 9 0 10 0 
10 0 10 0 9 1 10 1 10 0 10 1 9 0 10 0 
10 1 10 0 9 0 10 1 10 0 10 0 9 0 10 0 
10 1 10 0 9 0 10 0 10 0 9 0 10 0 10 0 
10 0 9 1 10 0 10 0 10 -1 9 1 10 -1 10 0 
10 0 9 1 10 1 10 -1 10 1 9 -1 10 1 10 -1 
9 0 10 0 10 0 10 1 9 0 10 0 10 0 10 0 
9 0 10 0 10 -1 2846 1620 300 MP stroke
10 1 9 0 10 0 10 0 10 -1 9 1 10 0 10 1 
10 0 9 1 10 0 10 0 9 0 10 0 10 1 10 -1 
9 0 10 0 10 -1 10 0 9 1 10 -1 10 0 10 0 
9 0 10 -1 10 0 10 0 9 0 10 0 10 0 9 0 
10 0 10 0 10 0 9 0 10 0 10 1 10 0 9 0 
10 0 10 0 10 0 9 1 10 0 10 0 10 1 9 -1 
10 1 10 0 10 0 9 -1 10 1 10 0 9 0 10 0 
10 0 10 0 9 1 10 -1 10 2 10 1 9 0 10 -1 
10 0 10 0 9 0 10 1 10 0 10 -1 9 0 10 1 
10 0 9 1 10 0 10 0 10 0 9 -1 10 1 10 -1 
10 0 9 0 10 -1 10 -1 10 1 9 0 10 2 10 2 
10 2 9 -1 10 -1 10 1 10 0 9 1 10 -2 10 0 
9 1 10 1 10 -1 10 0 9 2 10 1 10 2 10 0 
9 1 10 0 10 1 10 0 9 2 10 1 10 1 10 -1 
9 0 10 0 10 0 9 1 10 1 10 -1 10 -2 9 0 
10 1 10 0 10 0 9 0 10 1 10 -2 10 -1 9 -1 
10 -2 10 0 10 2 9 3 10 -1 10 -1 10 1 9 0 
10 1 10 1 9 0 10 0 10 -1 10 1 9 -1 10 -2 
10 1 10 1 9 1 10 -1 10 0 10 0 9 0 10 1 
10 1 10 1 9 -1 10 0 10 2 9 1 10 -2 10 1 
10 6 9 5 10 -2 10 2 10 1 9 0 10 1 10 1 
10 1 9 2 10 5 10 -1 10 -1 9 -3 10 4 10 7 
10 -1 9 2 10 -8 10 0 9 1 10 -8 10 -1 10 -4 
9 1 10 -4 10 6 10 12 9 1 10 -6 10 -3 10 2 
9 26 10 -2 10 0 10 5 9 -35 10 33 10 75 9 0 
899 1475 201 MP stroke
0 37 1084 1555 2 MP stroke
93 0 1037 1555 2 MP stroke
93 0 1037 1592 2 MP stroke
0 26 1278 1576 2 MP stroke
93 0 1232 1576 2 MP stroke
93 0 1232 1602 2 MP stroke
0 22 1473 1588 2 MP stroke
94 0 1426 1588 2 MP stroke
94 0 1426 1610 2 MP stroke
0 20 1668 1589 2 MP stroke
94 0 1621 1589 2 MP stroke
94 0 1621 1609 2 MP stroke
0 20 1863 1597 2 MP stroke
93 0 1816 1597 2 MP stroke
93 0 1816 1617 2 MP stroke
0 24 2057 1601 2 MP stroke
93 0 2011 1601 2 MP stroke
93 0 2011 1625 2 MP stroke
0 26 2252 1601 2 MP stroke
94 0 2205 1601 2 MP stroke
94 0 2205 1627 2 MP stroke
0 22 2447 1607 2 MP stroke
94 0 2400 1607 2 MP stroke
94 0 2400 1629 2 MP stroke
0 23 2642 1606 2 MP stroke
93 0 2595 1606 2 MP stroke
93 0 2595 1629 2 MP stroke
0 23 2836 1608 2 MP stroke
93 0 2790 1608 2 MP stroke
93 0 2790 1631 2 MP stroke
0 22 3031 1610 2 MP stroke
94 0 2984 1610 2 MP stroke
94 0 2984 1632 2 MP stroke
0 21 3226 1612 2 MP stroke
94 0 3179 1612 2 MP stroke
94 0 3179 1633 2 MP stroke
0 22 3421 1616 2 MP stroke
93 0 3374 1616 2 MP stroke
93 0 3374 1638 2 MP stroke
0 22 3615 1620 2 MP stroke
93 0 3569 1620 2 MP stroke
93 0 3569 1642 2 MP stroke
0 22 3810 1623 2 MP stroke
94 0 3763 1623 2 MP stroke
94 0 3763 1645 2 MP stroke
0 23 4005 1627 2 MP stroke
94 0 3958 1627 2 MP stroke
94 0 3958 1650 2 MP stroke
0 23 4200 1633 2 MP stroke
93 0 4153 1633 2 MP stroke
93 0 4153 1656 2 MP stroke
0 23 4395 1638 2 MP stroke
93 0 4348 1638 2 MP stroke
93 0 4348 1661 2 MP stroke
0 23 4589 1643 2 MP stroke
93 0 4543 1643 2 MP stroke
93 0 4543 1666 2 MP stroke
0 23 4784 1646 2 MP stroke
94 0 4737 1646 2 MP stroke
94 0 4737 1669 2 MP stroke
0 23 4979 1650 2 MP stroke
94 0 4932 1650 2 MP stroke
94 0 4932 1673 2 MP stroke
0 23 5174 1654 2 MP stroke
93 0 5127 1654 2 MP stroke
93 0 5127 1677 2 MP stroke
0 24 5368 1657 2 MP stroke
93 0 5322 1657 2 MP stroke
93 0 5322 1681 2 MP stroke
0 25 5563 1662 2 MP stroke
94 0 5516 1662 2 MP stroke
94 0 5516 1687 2 MP stroke
0 25 5758 1667 2 MP stroke
94 0 5711 1667 2 MP stroke
94 0 5711 1692 2 MP stroke
gr

c9
0 -58 -58 0 0 58 58 0 1055 1544 5 MP
DP
0 -58 -58 0 0 58 58 0 1249 1560 5 MP
DP
0 -58 -58 0 0 58 58 0 1444 1570 5 MP
DP
0 -58 -58 0 0 58 58 0 1639 1570 5 MP
DP
0 -58 -58 0 0 58 58 0 1834 1578 5 MP
DP
0 -58 -58 0 0 58 58 0 2028 1584 5 MP
DP
0 -58 -58 0 0 58 58 0 2223 1585 5 MP
DP
0 -58 -58 0 0 58 58 0 2418 1589 5 MP
DP
0 -58 -58 0 0 58 58 0 2613 1588 5 MP
DP
0 -58 -58 0 0 58 58 0 2807 1590 5 MP
DP
0 -58 -58 0 0 58 58 0 3002 1592 5 MP
DP
0 -58 -58 0 0 58 58 0 3197 1593 5 MP
DP
0 -58 -58 0 0 58 58 0 3392 1598 5 MP
DP
0 -58 -58 0 0 58 58 0 3586 1602 5 MP
DP
0 -58 -58 0 0 58 58 0 3781 1605 5 MP
DP
0 -58 -58 0 0 58 58 0 3976 1610 5 MP
DP
0 -58 -58 0 0 58 58 0 4171 1616 5 MP
DP
0 -58 -58 0 0 58 58 0 4366 1621 5 MP
DP
0 -58 -58 0 0 58 58 0 4560 1625 5 MP
DP
0 -58 -58 0 0 58 58 0 4755 1629 5 MP
DP
0 -58 -58 0 0 58 58 0 4950 1633 5 MP
DP
0 -58 -58 0 0 58 58 0 5145 1637 5 MP
DP
0 -58 -58 0 0 58 58 0 5339 1640 5 MP
DP
0 -58 -58 0 0 58 58 0 5534 1645 5 MP
DP
0 -58 -58 0 0 58 58 0 5729 1650 5 MP
DP
gs 899 389 5357 4227 rc
c10
10 0 10 0 9 0 10 0 10 1 10 0 9 0 10 0 
10 0 10 0 9 0 10 0 10 0 9 0 10 0 10 0 
10 0 9 0 10 0 10 0 10 0 9 0 10 0 10 0 
10 0 9 0 10 0 10 0 10 0 9 0 10 0 10 1 
10 0 9 0 10 0 10 0 9 0 10 0 10 0 10 0 
9 0 10 0 10 0 10 0 9 0 10 0 10 0 10 0 
9 0 10 0 10 0 10 0 9 0 10 0 10 0 9 0 
10 0 10 0 10 0 9 0 10 0 10 0 10 0 9 0 
10 1 10 0 10 0 9 0 10 0 10 0 10 0 9 0 
10 0 10 0 10 0 9 0 10 0 10 0 9 0 10 0 
10 0 10 0 9 0 10 1 10 -1 10 0 9 0 10 1 
10 0 10 0 9 0 10 0 10 0 10 0 9 0 10 0 
10 0 9 0 10 0 10 0 10 0 9 0 10 0 10 0 
10 0 9 0 10 0 10 0 10 0 9 0 10 0 10 0 
10 0 9 0 10 0 10 0 10 0 9 0 10 1 10 0 
9 0 10 0 10 0 10 0 9 0 10 0 10 0 10 0 
9 0 10 0 10 0 10 0 9 0 10 0 10 0 10 0 
9 1 10 0 10 0 9 0 10 0 10 0 10 0 9 0 
10 0 10 0 10 1 9 0 10 0 10 0 10 0 9 0 
10 0 10 0 10 0 9 0 10 0 10 0 10 0 9 0 
10 1 10 0 9 0 10 0 10 0 10 0 9 0 10 0 
10 0 10 0 9 0 10 0 10 0 10 0 9 0 10 1 
10 0 10 -1 9 1 10 0 10 0 9 0 10 0 10 0 
10 0 9 0 10 0 10 1 10 0 9 0 10 0 10 0 
10 0 9 0 10 0 10 0 10 0 9 0 10 0 10 0 
10 0 9 0 10 0 10 0 9 0 10 0 10 1 10 0 
9 0 10 0 10 0 10 0 9 0 10 0 10 0 10 0 
9 0 10 0 10 0 10 1 9 0 10 0 10 0 9 0 
10 0 10 0 10 0 9 0 10 1 10 -1 10 1 9 -1 
10 0 10 1 10 0 9 0 10 0 10 0 10 0 9 0 
10 0 10 0 10 1 9 0 10 0 10 0 9 0 10 0 
10 0 10 0 9 1 10 0 10 -1 10 0 9 0 10 1 
10 0 10 0 9 0 10 0 10 0 10 0 9 0 10 0 
10 0 10 1 9 0 10 0 10 0 9 0 10 0 10 0 
10 0 9 0 10 0 10 0 10 0 9 0 10 0 10 0 
10 0 9 0 10 0 10 0 10 0 9 1 10 0 10 0 
9 0 10 0 10 0 10 0 9 0 10 1 10 0 10 0 
9 0 10 0 10 0 2846 435 300 MP stroke
10 0 9 0 10 0 10 0 10 0 9 0 10 0 10 1 
10 0 9 0 10 0 10 0 9 0 10 0 10 0 10 0 
9 0 10 1 10 0 10 0 9 0 10 0 10 0 10 0 
9 0 10 0 10 0 10 0 9 0 10 0 10 1 9 0 
10 0 10 0 10 0 9 0 10 1 10 0 10 0 9 0 
10 0 10 0 10 0 9 0 10 0 10 0 10 0 9 0 
10 0 10 0 10 0 9 0 10 0 10 0 9 0 10 0 
10 0 10 0 9 0 10 1 10 0 10 0 9 0 10 -1 
10 0 10 0 9 0 10 0 10 0 10 0 9 1 10 -1 
10 1 9 0 10 0 10 0 10 0 9 0 10 0 10 0 
10 0 9 1 10 0 10 0 10 0 9 0 10 0 10 0 
10 0 9 0 10 0 10 1 10 0 9 0 10 0 10 0 
9 0 10 0 10 0 10 0 9 0 10 0 10 1 10 0 
9 0 10 0 10 0 10 1 9 -1 10 1 10 0 10 0 
9 0 10 1 10 0 9 0 10 0 10 1 10 0 9 0 
10 1 10 0 10 0 9 0 10 0 10 1 10 0 9 0 
10 0 10 0 10 0 9 0 10 1 10 -1 10 1 9 0 
10 0 10 0 9 0 10 0 10 0 10 0 9 1 10 0 
10 0 10 0 9 1 10 0 10 0 10 1 9 1 10 0 
10 0 10 0 9 0 10 0 10 0 9 0 10 0 10 0 
10 0 9 1 10 0 10 0 10 0 9 0 10 0 10 -1 
10 1 9 0 10 1 10 0 10 1 9 0 10 1 10 2 
10 -1 9 -1 10 0 10 0 9 1 10 0 10 3 10 1 
9 0 10 4 10 -1 10 1 9 0 10 -2 10 -1 10 0 
9 1 10 5 10 0 10 2 9 2 10 8 10 -9 9 0 
899 398 201 MP stroke
0 10 1084 407 2 MP stroke
93 0 1037 407 2 MP stroke
93 0 1037 417 2 MP stroke
0 9 1278 413 2 MP stroke
93 0 1232 413 2 MP stroke
93 0 1232 422 2 MP stroke
0 7 1473 418 2 MP stroke
94 0 1426 418 2 MP stroke
94 0 1426 425 2 MP stroke
0 7 1668 420 2 MP stroke
94 0 1621 420 2 MP stroke
94 0 1621 427 2 MP stroke
0 7 1863 424 2 MP stroke
93 0 1816 424 2 MP stroke
93 0 1816 431 2 MP stroke
0 6 2057 427 2 MP stroke
93 0 2011 427 2 MP stroke
93 0 2011 433 2 MP stroke
0 6 2252 427 2 MP stroke
94 0 2205 427 2 MP stroke
94 0 2205 433 2 MP stroke
0 7 2447 428 2 MP stroke
94 0 2400 428 2 MP stroke
94 0 2400 435 2 MP stroke
0 6 2642 430 2 MP stroke
93 0 2595 430 2 MP stroke
93 0 2595 436 2 MP stroke
0 6 2836 432 2 MP stroke
93 0 2790 432 2 MP stroke
93 0 2790 438 2 MP stroke
0 6 3031 434 2 MP stroke
94 0 2984 434 2 MP stroke
94 0 2984 440 2 MP stroke
0 6 3226 435 2 MP stroke
94 0 3179 435 2 MP stroke
94 0 3179 441 2 MP stroke
0 6 3421 437 2 MP stroke
93 0 3374 437 2 MP stroke
93 0 3374 443 2 MP stroke
0 5 3615 439 2 MP stroke
93 0 3569 439 2 MP stroke
93 0 3569 444 2 MP stroke
0 6 3810 440 2 MP stroke
94 0 3763 440 2 MP stroke
94 0 3763 446 2 MP stroke
0 6 4005 441 2 MP stroke
94 0 3958 441 2 MP stroke
94 0 3958 447 2 MP stroke
0 5 4200 443 2 MP stroke
93 0 4153 443 2 MP stroke
93 0 4153 448 2 MP stroke
0 6 4395 444 2 MP stroke
93 0 4348 444 2 MP stroke
93 0 4348 450 2 MP stroke
0 6 4589 445 2 MP stroke
93 0 4543 445 2 MP stroke
93 0 4543 451 2 MP stroke
0 6 4784 446 2 MP stroke
94 0 4737 446 2 MP stroke
94 0 4737 452 2 MP stroke
0 6 4979 447 2 MP stroke
94 0 4932 447 2 MP stroke
94 0 4932 453 2 MP stroke
0 6 5174 448 2 MP stroke
93 0 5127 448 2 MP stroke
93 0 5127 454 2 MP stroke
0 6 5368 448 2 MP stroke
93 0 5322 448 2 MP stroke
93 0 5322 454 2 MP stroke
0 6 5563 449 2 MP stroke
94 0 5516 449 2 MP stroke
94 0 5516 455 2 MP stroke
0 6 5758 450 2 MP stroke
94 0 5711 450 2 MP stroke
94 0 5711 456 2 MP stroke
gr

c10
  36   36 1084  412 FO
  36   36 1278  417 FO
  36   36 1473  421 FO
  36   36 1668  423 FO
  36   36 1863  428 FO
  36   36 2057  430 FO
  36   36 2252  430 FO
  36   36 2447  431 FO
  36   36 2642  433 FO
  36   36 2836  435 FO
  36   36 3031  437 FO
  36   36 3226  438 FO
  36   36 3421  440 FO
  36   36 3615  441 FO
  36   36 3810  443 FO
  36   36 4005  444 FO
  36   36 4200  446 FO
  36   36 4395  447 FO
  36   36 4589  448 FO
  36   36 4784  449 FO
  36   36 4979  450 FO
  36   36 5174  451 FO
  36   36 5368  451 FO
  36   36 5563  452 FO
  36   36 5758  453 FO
gs 899 389 5357 4227 rc
c11
10 0 10 0 9 0 10 0 10 1 10 0 9 0 10 0 
10 0 10 0 9 0 10 0 10 0 9 1 10 0 10 0 
10 0 9 1 10 0 10 0 10 0 9 0 10 0 10 0 
10 0 9 0 10 0 10 1 10 0 9 0 10 0 10 0 
10 0 9 1 10 0 10 0 9 0 10 0 10 0 10 1 
9 0 10 0 10 0 10 0 9 0 10 0 10 0 10 0 
9 0 10 0 10 0 10 0 9 0 10 0 10 1 9 0 
10 0 10 0 10 0 9 0 10 0 10 0 10 0 9 0 
10 0 10 0 10 0 9 0 10 0 10 1 10 0 9 0 
10 0 10 1 10 0 9 0 10 0 10 0 9 1 10 0 
10 0 10 0 9 0 10 0 10 0 10 0 9 1 10 0 
10 0 10 0 9 1 10 -1 10 1 10 -1 9 1 10 -1 
10 0 9 1 10 -1 10 0 10 0 9 0 10 1 10 0 
10 0 9 0 10 0 10 1 10 0 9 0 10 0 10 1 
10 0 9 0 10 0 10 0 10 0 9 0 10 0 10 0 
9 0 10 0 10 0 10 0 9 1 10 0 10 0 10 0 
9 0 10 -1 10 0 10 1 9 -1 10 0 10 0 10 0 
9 0 10 0 10 0 9 0 10 0 10 0 10 0 9 0 
10 0 10 0 10 0 9 -1 10 0 10 0 10 0 9 0 
10 0 10 0 10 0 9 1 10 0 10 0 10 0 9 0 
10 0 10 0 9 1 10 0 10 0 10 0 9 0 10 0 
10 0 10 1 9 0 10 0 10 0 10 0 9 0 10 0 
10 1 10 0 9 1 10 0 10 0 9 0 10 0 10 0 
10 0 9 0 10 0 10 1 10 0 9 0 10 0 10 0 
10 0 9 0 10 1 10 0 10 0 9 1 10 0 10 0 
10 0 9 0 10 0 10 0 9 -1 10 1 10 0 10 0 
9 -1 10 1 10 0 10 0 9 0 10 1 10 0 10 0 
9 0 10 0 10 0 10 1 9 -1 10 1 10 0 9 0 
10 0 10 1 10 -1 9 1 10 0 10 0 10 0 9 1 
10 0 10 0 10 0 9 0 10 1 10 0 10 -1 9 0 
10 1 10 0 10 0 9 0 10 0 10 -1 9 1 10 0 
10 0 10 0 9 1 10 -1 10 1 10 0 9 0 10 0 
10 1 10 0 9 0 10 1 10 0 10 0 9 0 10 0 
10 0 10 0 9 0 10 0 10 0 9 1 10 -1 10 0 
10 0 9 0 10 0 10 0 10 1 9 1 10 -1 10 0 
10 1 9 -1 10 0 10 0 10 0 9 0 10 0 10 1 
9 -1 10 0 10 1 10 0 9 1 10 0 10 1 10 -1 
9 1 10 0 10 0 2846 1340 300 MP stroke
10 0 9 1 10 0 10 0 10 0 9 1 10 0 10 0 
10 0 9 0 10 0 10 0 9 0 10 0 10 0 10 1 
9 0 10 -1 10 0 10 1 9 1 10 0 10 0 10 0 
9 0 10 1 10 1 10 -1 9 0 10 0 10 0 9 0 
10 1 10 0 10 -1 9 0 10 0 10 0 10 1 9 0 
10 1 10 0 10 0 9 0 10 0 10 1 10 0 9 1 
10 0 10 0 10 0 9 -1 10 0 10 0 9 0 10 1 
10 0 10 0 9 2 10 1 10 0 10 -1 9 -1 10 1 
10 -1 10 0 9 0 10 0 10 1 10 0 9 0 10 0 
10 1 9 2 10 0 10 -1 10 0 9 1 10 0 10 0 
10 0 9 -1 10 1 10 1 10 0 9 0 10 0 10 -1 
10 -1 9 0 10 0 10 1 10 1 9 -2 10 1 10 0 
9 1 10 1 10 0 10 1 9 -1 10 -1 10 0 10 0 
9 0 10 0 10 -1 10 -1 9 0 10 1 10 0 10 1 
9 0 10 0 10 -1 9 0 10 0 10 0 10 0 9 0 
10 0 10 0 10 1 9 0 10 0 10 -1 10 1 9 -1 
10 0 10 0 10 0 9 -1 10 1 10 -1 10 -1 9 0 
10 1 10 -2 9 -1 10 1 10 0 10 1 9 1 10 1 
10 -2 10 -2 9 1 10 -1 10 0 10 0 9 -1 10 1 
10 -2 10 0 9 -1 10 0 10 0 9 0 10 -2 10 -2 
10 1 9 0 10 1 10 0 10 2 9 3 10 3 10 2 
10 -1 9 -1 10 0 10 6 10 4 9 1 10 0 10 3 
10 0 9 2 10 0 10 3 9 10 10 1 10 9 10 -1 
9 -3 10 0 10 9 10 2 9 8 10 9 10 -4 10 7 
9 11 10 17 10 -6 10 -17 9 46 10 20 10 -5 9 0 
899 1195 201 MP stroke
0 90 1084 1253 2 MP stroke
93 0 1037 1253 2 MP stroke
93 0 1037 1343 2 MP stroke
0 62 1278 1305 2 MP stroke
93 0 1232 1305 2 MP stroke
93 0 1232 1367 2 MP stroke
0 43 1473 1308 2 MP stroke
94 0 1426 1308 2 MP stroke
94 0 1426 1351 2 MP stroke
0 44 1668 1304 2 MP stroke
94 0 1621 1304 2 MP stroke
94 0 1621 1348 2 MP stroke
0 40 1863 1304 2 MP stroke
93 0 1816 1304 2 MP stroke
93 0 1816 1344 2 MP stroke
0 39 2057 1307 2 MP stroke
93 0 2011 1307 2 MP stroke
93 0 2011 1346 2 MP stroke
0 38 2252 1309 2 MP stroke
94 0 2205 1309 2 MP stroke
94 0 2205 1347 2 MP stroke
0 38 2447 1314 2 MP stroke
94 0 2400 1314 2 MP stroke
94 0 2400 1352 2 MP stroke
0 39 2642 1317 2 MP stroke
93 0 2595 1317 2 MP stroke
93 0 2595 1356 2 MP stroke
0 38 2836 1321 2 MP stroke
93 0 2790 1321 2 MP stroke
93 0 2790 1359 2 MP stroke
0 38 3031 1324 2 MP stroke
94 0 2984 1324 2 MP stroke
94 0 2984 1362 2 MP stroke
0 38 3226 1325 2 MP stroke
94 0 3179 1325 2 MP stroke
94 0 3179 1363 2 MP stroke
0 39 3421 1328 2 MP stroke
93 0 3374 1328 2 MP stroke
93 0 3374 1367 2 MP stroke
0 39 3615 1331 2 MP stroke
93 0 3569 1331 2 MP stroke
93 0 3569 1370 2 MP stroke
0 38 3810 1333 2 MP stroke
94 0 3763 1333 2 MP stroke
94 0 3763 1371 2 MP stroke
0 39 4005 1335 2 MP stroke
94 0 3958 1335 2 MP stroke
94 0 3958 1374 2 MP stroke
0 39 4200 1339 2 MP stroke
93 0 4153 1339 2 MP stroke
93 0 4153 1378 2 MP stroke
0 40 4395 1339 2 MP stroke
93 0 4348 1339 2 MP stroke
93 0 4348 1379 2 MP stroke
0 40 4589 1339 2 MP stroke
93 0 4543 1339 2 MP stroke
93 0 4543 1379 2 MP stroke
0 41 4784 1341 2 MP stroke
94 0 4737 1341 2 MP stroke
94 0 4737 1382 2 MP stroke
0 42 4979 1342 2 MP stroke
94 0 4932 1342 2 MP stroke
94 0 4932 1384 2 MP stroke
0 42 5174 1345 2 MP stroke
93 0 5127 1345 2 MP stroke
93 0 5127 1387 2 MP stroke
0 43 5368 1346 2 MP stroke
93 0 5322 1346 2 MP stroke
93 0 5322 1389 2 MP stroke
0 42 5563 1349 2 MP stroke
94 0 5516 1349 2 MP stroke
94 0 5516 1391 2 MP stroke
0 42 5758 1352 2 MP stroke
94 0 5711 1352 2 MP stroke
94 0 5711 1394 2 MP stroke
gr

c11
1048 1298 mt 1120 1298 L
1084 1262 mt 1084 1334 L
1242 1336 mt 1314 1336 L
1278 1300 mt 1278 1372 L
1437 1329 mt 1509 1329 L
1473 1293 mt 1473 1365 L
1632 1326 mt 1704 1326 L
1668 1290 mt 1668 1362 L
1827 1324 mt 1899 1324 L
1863 1288 mt 1863 1360 L
2021 1326 mt 2093 1326 L
2057 1290 mt 2057 1362 L
2216 1328 mt 2288 1328 L
2252 1292 mt 2252 1364 L
2411 1333 mt 2483 1333 L
2447 1297 mt 2447 1369 L
2606 1336 mt 2678 1336 L
2642 1300 mt 2642 1372 L
2800 1340 mt 2872 1340 L
2836 1304 mt 2836 1376 L
2995 1343 mt 3067 1343 L
3031 1307 mt 3031 1379 L
3190 1344 mt 3262 1344 L
3226 1308 mt 3226 1380 L
3385 1348 mt 3457 1348 L
3421 1312 mt 3421 1384 L
3579 1350 mt 3651 1350 L
3615 1314 mt 3615 1386 L
3774 1352 mt 3846 1352 L
3810 1316 mt 3810 1388 L
3969 1355 mt 4041 1355 L
4005 1319 mt 4005 1391 L
4164 1359 mt 4236 1359 L
4200 1323 mt 4200 1395 L
4359 1359 mt 4431 1359 L
4395 1323 mt 4395 1395 L
4553 1359 mt 4625 1359 L
4589 1323 mt 4589 1395 L
4748 1362 mt 4820 1362 L
4784 1326 mt 4784 1398 L
4943 1363 mt 5015 1363 L
4979 1327 mt 4979 1399 L
5138 1366 mt 5210 1366 L
5174 1330 mt 5174 1402 L
5332 1367 mt 5404 1367 L
5368 1331 mt 5368 1403 L
5527 1370 mt 5599 1370 L
5563 1334 mt 5563 1406 L
5722 1373 mt 5794 1373 L
5758 1337 mt 5758 1409 L
1059 1273 mt 1109 1323 L
1109 1273 mt 1059 1323 L
1253 1311 mt 1303 1361 L
1303 1311 mt 1253 1361 L
1448 1304 mt 1498 1354 L
1498 1304 mt 1448 1354 L
1643 1301 mt 1693 1351 L
1693 1301 mt 1643 1351 L
1838 1299 mt 1888 1349 L
1888 1299 mt 1838 1349 L
2032 1301 mt 2082 1351 L
2082 1301 mt 2032 1351 L
2227 1303 mt 2277 1353 L
2277 1303 mt 2227 1353 L
2422 1308 mt 2472 1358 L
2472 1308 mt 2422 1358 L
2617 1311 mt 2667 1361 L
2667 1311 mt 2617 1361 L
2811 1315 mt 2861 1365 L
2861 1315 mt 2811 1365 L
3006 1318 mt 3056 1368 L
3056 1318 mt 3006 1368 L
3201 1319 mt 3251 1369 L
3251 1319 mt 3201 1369 L
3396 1323 mt 3446 1373 L
3446 1323 mt 3396 1373 L
3590 1325 mt 3640 1375 L
3640 1325 mt 3590 1375 L
3785 1327 mt 3835 1377 L
3835 1327 mt 3785 1377 L
3980 1330 mt 4030 1380 L
4030 1330 mt 3980 1380 L
4175 1334 mt 4225 1384 L
4225 1334 mt 4175 1384 L
4370 1334 mt 4420 1384 L
4420 1334 mt 4370 1384 L
4564 1334 mt 4614 1384 L
4614 1334 mt 4564 1384 L
4759 1337 mt 4809 1387 L
4809 1337 mt 4759 1387 L
4954 1338 mt 5004 1388 L
5004 1338 mt 4954 1388 L
5149 1341 mt 5199 1391 L
5199 1341 mt 5149 1391 L
5343 1342 mt 5393 1392 L
5393 1342 mt 5343 1392 L
5538 1345 mt 5588 1395 L
5588 1345 mt 5538 1395 L
5733 1348 mt 5783 1398 L
5783 1348 mt 5733 1398 L
gs 899 389 5357 4227 rc
c12
10 3 10 4 9 2 10 3 10 3 10 3 9 2 10 3 
10 3 10 2 9 3 10 3 10 2 9 2 10 3 10 2 
10 2 9 2 10 2 10 3 10 2 9 1 10 2 10 2 
10 2 9 1 10 1 10 2 10 1 9 1 10 1 10 1 
10 1 9 2 10 1 10 1 9 1 10 1 10 0 10 1 
9 0 10 1 10 0 10 1 9 0 10 0 10 1 10 0 
9 0 10 3 10 3 10 3 9 4 10 3 10 3 9 3 
10 3 10 3 10 4 9 2 10 3 10 3 10 2 9 3 
10 3 10 3 10 2 9 2 10 3 10 2 10 1 9 3 
10 2 10 1 10 2 9 1 10 2 10 1 9 2 10 1 
10 1 10 1 9 1 10 1 10 1 10 1 9 1 10 1 
10 2 10 0 9 1 10 1 10 1 10 0 9 1 10 1 
10 0 9 0 10 0 10 3 10 3 9 3 10 3 10 2 
10 3 9 3 10 3 10 2 10 3 9 3 10 3 10 3 
10 3 9 2 10 3 10 3 10 3 9 2 10 2 10 2 
9 3 10 2 10 2 10 2 9 2 10 2 10 1 10 2 
9 1 10 2 10 2 10 2 9 1 10 1 10 1 10 1 
9 1 10 1 10 1 9 0 10 1 10 0 10 1 9 0 
10 1 10 0 10 0 9 0 10 0 10 3 10 2 9 4 
10 2 10 3 10 2 9 4 10 2 10 3 10 3 9 2 
10 2 10 2 9 2 10 2 10 2 10 2 9 1 10 2 
10 2 10 1 9 2 10 1 10 1 10 1 9 2 10 0 
10 2 10 1 9 1 10 1 10 1 9 2 10 0 10 1 
10 1 9 1 10 1 10 1 10 1 9 0 10 0 10 1 
10 0 9 1 10 0 10 1 10 -1 9 1 10 0 10 2 
10 3 9 2 10 2 10 2 9 2 10 2 10 2 10 2 
9 1 10 2 10 2 10 2 9 2 10 1 10 2 10 1 
9 2 10 1 10 2 10 1 9 1 10 2 10 1 9 1 
10 1 10 0 10 1 9 1 10 0 10 1 10 1 9 1 
10 2 10 0 10 1 9 1 10 1 10 0 10 1 9 0 
10 0 10 0 10 0 9 0 10 0 10 1 9 0 10 0 
10 0 10 2 9 3 10 2 10 2 10 3 9 3 10 3 
10 2 10 3 9 3 10 2 10 2 10 3 9 2 10 2 
10 2 10 2 9 2 10 2 10 2 9 1 10 2 10 1 
10 2 9 2 10 1 10 2 10 2 9 1 10 0 10 0 
10 1 9 0 10 -1 10 1 10 0 9 1 10 -1 10 1 
9 1 10 1 10 1 10 0 9 0 10 0 10 -1 10 0 
9 0 10 -1 10 -1 2846 2051 300 MP stroke
10 2 9 3 10 3 10 2 10 3 9 3 10 3 10 3 
10 3 9 3 10 3 10 2 9 3 10 2 10 2 10 3 
9 3 10 3 10 2 10 2 9 3 10 1 10 1 10 2 
9 1 10 2 10 1 10 1 9 2 10 1 10 1 9 2 
10 0 10 1 10 1 9 1 10 1 10 1 10 -2 9 1 
10 0 10 -1 10 0 9 0 10 -1 10 0 10 -2 9 -1 
10 -1 10 0 10 4 9 3 10 4 10 3 9 4 10 3 
10 3 10 3 9 2 10 2 10 2 10 3 9 2 10 1 
10 1 10 2 9 2 10 2 10 0 10 1 9 0 10 1 
10 1 9 0 10 1 10 -1 10 1 9 -1 10 2 10 -1 
10 0 9 1 10 1 10 0 10 2 9 -1 10 -1 10 -2 
10 0 9 -1 10 0 10 0 10 -2 9 -1 10 -2 10 -2 
9 -2 10 0 10 -1 10 -2 9 5 10 6 10 5 10 5 
9 4 10 2 10 4 10 4 9 4 10 3 10 4 10 3 
9 2 10 3 10 3 9 -1 10 3 10 1 10 2 9 1 
10 0 10 1 10 0 9 0 10 -1 10 2 10 2 9 -1 
10 -1 10 -2 10 -1 9 -2 10 2 10 0 10 0 9 0 
10 -1 10 0 9 0 10 -6 10 -3 10 -2 9 -4 10 -5 
10 -2 10 -1 9 -6 10 -2 10 -1 10 -2 9 8 10 7 
10 7 10 9 9 8 10 9 10 8 9 10 10 5 10 7 
10 8 9 9 10 7 10 7 10 7 9 10 10 9 10 7 
10 6 9 9 10 7 10 11 10 6 9 3 10 3 10 7 
10 5 9 4 10 10 10 6 9 8 10 1 10 3 10 -12 
9 0 10 6 10 5 10 9 9 -4 10 9 10 3 10 5 
9 4 10 16 10 14 10 9 9 24 10 104 10 42 9 0 
899 1453 201 MP stroke
0 71 1084 1655 2 MP stroke
93 0 1037 1655 2 MP stroke
93 0 1037 1726 2 MP stroke
0 134 1278 1765 2 MP stroke
93 0 1232 1765 2 MP stroke
93 0 1232 1899 2 MP stroke
0 129 1473 1829 2 MP stroke
94 0 1426 1829 2 MP stroke
94 0 1426 1958 2 MP stroke
0 102 1668 1831 2 MP stroke
94 0 1621 1831 2 MP stroke
94 0 1621 1933 2 MP stroke
0 96 1863 1892 2 MP stroke
93 0 1816 1892 2 MP stroke
93 0 1816 1988 2 MP stroke
0 80 2057 1892 2 MP stroke
93 0 2011 1892 2 MP stroke
93 0 2011 1972 2 MP stroke
0 73 2252 1913 2 MP stroke
94 0 2205 1913 2 MP stroke
94 0 2205 1986 2 MP stroke
0 70 2447 1941 2 MP stroke
94 0 2400 1941 2 MP stroke
94 0 2400 2011 2 MP stroke
0 79 2642 1956 2 MP stroke
93 0 2595 1956 2 MP stroke
93 0 2595 2035 2 MP stroke
0 95 2836 2001 2 MP stroke
93 0 2790 2001 2 MP stroke
93 0 2790 2096 2 MP stroke
0 89 3031 2008 2 MP stroke
94 0 2984 2008 2 MP stroke
94 0 2984 2097 2 MP stroke
0 81 3226 2046 2 MP stroke
94 0 3179 2046 2 MP stroke
94 0 3179 2127 2 MP stroke
0 77 3421 2077 2 MP stroke
93 0 3374 2077 2 MP stroke
93 0 3374 2154 2 MP stroke
0 76 3615 2094 2 MP stroke
93 0 3569 2094 2 MP stroke
93 0 3569 2170 2 MP stroke
0 85 3810 2125 2 MP stroke
94 0 3763 2125 2 MP stroke
94 0 3763 2210 2 MP stroke
0 85 4005 2139 2 MP stroke
94 0 3958 2139 2 MP stroke
94 0 3958 2224 2 MP stroke
0 89 4200 2167 2 MP stroke
93 0 4153 2167 2 MP stroke
93 0 4153 2256 2 MP stroke
0 90 4395 2200 2 MP stroke
93 0 4348 2200 2 MP stroke
93 0 4348 2290 2 MP stroke
0 91 4589 2229 2 MP stroke
93 0 4543 2229 2 MP stroke
93 0 4543 2320 2 MP stroke
0 94 4784 2282 2 MP stroke
94 0 4737 2282 2 MP stroke
94 0 4737 2376 2 MP stroke
0 93 4979 2301 2 MP stroke
94 0 4932 2301 2 MP stroke
94 0 4932 2394 2 MP stroke
0 95 5174 2341 2 MP stroke
93 0 5127 2341 2 MP stroke
93 0 5127 2436 2 MP stroke
0 94 5368 2379 2 MP stroke
93 0 5322 2379 2 MP stroke
93 0 5322 2473 2 MP stroke
0 96 5563 2403 2 MP stroke
94 0 5516 2403 2 MP stroke
94 0 5516 2499 2 MP stroke
0 99 5758 2453 2 MP stroke
94 0 5711 2453 2 MP stroke
94 0 5711 2552 2 MP stroke
gr

c12
36 47 -36 47 -36 -47 36 -47 1084 1738 5 MP
DP
36 47 -36 47 -36 -47 36 -47 1278 1879 5 MP
DP
36 47 -36 47 -36 -47 36 -47 1473 1940 5 MP
DP
36 47 -36 47 -36 -47 36 -47 1668 1929 5 MP
DP
36 47 -36 47 -36 -47 36 -47 1863 1987 5 MP
DP
36 47 -36 47 -36 -47 36 -47 2057 1979 5 MP
DP
36 47 -36 47 -36 -47 36 -47 2252 1996 5 MP
DP
36 47 -36 47 -36 -47 36 -47 2447 2023 5 MP
DP
36 47 -36 47 -36 -47 36 -47 2642 2042 5 MP
DP
36 47 -36 47 -36 -47 36 -47 2836 2096 5 MP
DP
36 47 -36 47 -36 -47 36 -47 3031 2100 5 MP
DP
36 47 -36 47 -36 -47 36 -47 3226 2133 5 MP
DP
36 47 -36 47 -36 -47 36 -47 3421 2162 5 MP
DP
36 47 -36 47 -36 -47 36 -47 3615 2179 5 MP
DP
36 47 -36 47 -36 -47 36 -47 3810 2215 5 MP
DP
36 47 -36 47 -36 -47 36 -47 4005 2229 5 MP
DP
36 47 -36 47 -36 -47 36 -47 4200 2259 5 MP
DP
36 47 -36 47 -36 -47 36 -47 4395 2292 5 MP
DP
36 47 -36 47 -36 -47 36 -47 4589 2322 5 MP
DP
36 47 -36 47 -36 -47 36 -47 4784 2376 5 MP
DP
36 47 -36 47 -36 -47 36 -47 4979 2394 5 MP
DP
36 47 -36 47 -36 -47 36 -47 5174 2436 5 MP
DP
36 47 -36 47 -36 -47 36 -47 5368 2473 5 MP
DP
36 47 -36 47 -36 -47 36 -47 5563 2498 5 MP
DP
36 47 -36 47 -36 -47 36 -47 5758 2550 5 MP
DP
gs 899 389 5357 4227 rc
0 sg
10 2 10 2 9 2 10 2 10 3 10 3 9 2 10 2 
10 1 10 1 9 2 10 3 10 2 9 2 10 2 10 2 
10 2 9 3 10 2 10 3 10 2 9 2 10 2 10 3 
10 2 9 2 10 3 10 2 10 2 9 2 10 3 10 3 
10 2 9 3 10 3 10 1 9 1 10 3 10 3 10 2 
9 3 10 3 10 2 10 3 9 1 10 0 10 -1 10 -1 
9 -3 10 3 10 1 10 3 9 2 10 3 10 3 9 2 
10 1 10 2 10 3 9 2 10 3 10 2 10 3 9 3 
10 2 10 2 10 2 9 2 10 3 10 3 10 2 9 2 
10 3 10 2 10 3 9 2 10 3 10 2 9 2 10 3 
10 3 10 3 9 3 10 2 10 3 10 2 9 3 10 3 
10 2 10 3 9 2 10 3 10 2 10 2 9 1 10 1 
10 -1 9 -1 10 -3 10 2 10 2 9 2 10 3 10 1 
10 3 9 2 10 2 10 3 10 3 9 3 10 3 10 3 
10 2 9 2 10 2 10 2 10 3 9 3 10 2 10 3 
9 3 10 3 10 2 10 3 9 2 10 3 10 3 10 4 
9 3 10 3 10 3 10 3 9 3 10 3 10 3 10 3 
9 2 10 3 10 3 9 2 10 3 10 3 10 3 9 3 
10 1 10 1 10 0 9 -1 10 -4 10 4 10 3 9 3 
10 2 10 2 10 3 9 2 10 3 10 2 10 3 9 3 
10 3 10 3 9 4 10 4 10 3 10 3 9 2 10 1 
10 3 10 3 9 3 10 3 10 3 10 4 9 2 10 3 
10 3 10 3 9 4 10 3 10 3 9 3 10 4 10 3 
10 4 9 3 10 4 10 4 10 3 9 3 10 3 10 3 
10 2 9 2 10 0 10 1 10 -2 9 -2 10 -4 10 3 
10 3 9 3 10 2 10 4 9 4 10 3 10 2 10 3 
9 3 10 3 10 2 10 3 9 3 10 4 10 4 10 3 
9 4 10 2 10 3 10 2 9 4 10 3 10 4 9 2 
10 4 10 3 10 3 9 4 10 4 10 3 10 4 9 2 
10 3 10 4 10 4 9 4 10 3 10 5 10 3 9 4 
10 5 10 4 10 4 9 3 10 2 10 0 9 0 10 -2 
10 -5 10 3 9 3 10 4 10 3 10 3 9 5 10 3 
10 4 10 4 9 3 10 3 10 3 10 5 9 4 10 2 
10 4 10 3 9 5 10 4 10 4 9 4 10 4 10 4 
10 4 9 4 10 3 10 4 10 5 9 4 10 4 10 3 
10 3 9 2 10 4 10 5 10 4 9 5 10 4 10 4 
9 3 10 4 10 5 10 4 9 3 10 5 10 2 10 2 
9 -2 10 -4 10 -5 2846 3805 300 MP stroke
10 3 9 4 10 3 10 4 10 4 9 3 10 3 10 3 
10 5 9 3 10 4 10 4 9 5 10 3 10 4 10 3 
9 3 10 4 10 5 10 4 9 5 10 5 10 4 10 5 
9 5 10 3 10 5 10 5 9 3 10 4 10 5 9 5 
10 4 10 4 10 4 9 5 10 2 10 4 10 3 9 5 
10 4 10 5 10 6 9 5 10 3 10 0 10 0 9 -4 
10 -4 10 -8 10 4 9 6 10 5 10 4 9 4 10 3 
10 3 10 5 9 6 10 6 10 6 10 5 9 6 10 4 
10 5 10 2 9 4 10 6 10 6 10 7 9 6 10 8 
10 6 9 4 10 5 10 5 10 5 9 8 10 8 10 7 
10 4 9 5 10 5 10 6 10 7 9 5 10 5 10 7 
10 6 9 8 10 9 10 9 10 8 9 6 10 6 10 4 
9 1 10 -3 10 -4 10 -11 9 8 10 6 10 6 10 5 
9 4 10 5 10 6 10 7 9 6 10 7 10 5 10 8 
9 6 10 6 10 8 9 9 10 10 10 8 10 8 9 6 
10 5 10 9 10 8 9 8 10 5 10 10 10 8 9 10 
10 6 10 10 10 10 9 8 10 10 10 11 10 10 9 7 
10 10 10 11 9 13 10 11 10 15 10 14 9 10 10 5 
10 7 10 0 9 -1 10 -5 10 -14 10 -18 9 13 10 9 
10 12 10 12 9 17 10 14 10 12 9 15 10 14 10 10 
10 11 9 16 10 15 10 16 10 18 9 15 10 12 10 20 
10 17 9 14 10 18 10 18 10 14 9 21 10 19 10 17 
10 15 9 14 10 21 10 23 9 23 10 18 10 19 10 24 
9 22 10 33 10 29 10 31 9 26 10 30 10 26 10 22 
9 44 10 41 10 68 10 179 9 164 10 276 10 239 9 0 
899 1294 201 MP stroke
0 171 1084 2500 2 MP stroke
93 0 1037 2500 2 MP stroke
93 0 1037 2671 2 MP stroke
0 172 1278 2845 2 MP stroke
93 0 1232 2845 2 MP stroke
93 0 1232 3017 2 MP stroke
0 138 1473 2999 2 MP stroke
94 0 1426 2999 2 MP stroke
94 0 1426 3137 2 MP stroke
0 125 1668 3195 2 MP stroke
94 0 1621 3195 2 MP stroke
94 0 1621 3320 2 MP stroke
0 122 1863 3328 2 MP stroke
93 0 1816 3328 2 MP stroke
93 0 1816 3450 2 MP stroke
0 122 2057 3415 2 MP stroke
93 0 2011 3415 2 MP stroke
93 0 2011 3537 2 MP stroke
0 123 2252 3526 2 MP stroke
94 0 2205 3526 2 MP stroke
94 0 2205 3649 2 MP stroke
0 119 2447 3582 2 MP stroke
94 0 2400 3582 2 MP stroke
94 0 2400 3701 2 MP stroke
0 119 2642 3667 2 MP stroke
93 0 2595 3667 2 MP stroke
93 0 2595 3786 2 MP stroke
0 120 2836 3743 2 MP stroke
93 0 2790 3743 2 MP stroke
93 0 2790 3863 2 MP stroke
0 115 3031 3795 2 MP stroke
94 0 2984 3795 2 MP stroke
94 0 2984 3910 2 MP stroke
0 114 3226 3873 2 MP stroke
94 0 3179 3873 2 MP stroke
94 0 3179 3987 2 MP stroke
0 113 3421 3922 2 MP stroke
93 0 3374 3922 2 MP stroke
93 0 3374 4035 2 MP stroke
0 113 3615 3992 2 MP stroke
93 0 3569 3992 2 MP stroke
93 0 3569 4105 2 MP stroke
0 113 3810 4053 2 MP stroke
94 0 3763 4053 2 MP stroke
94 0 3763 4166 2 MP stroke
0 112 4005 4093 2 MP stroke
94 0 3958 4093 2 MP stroke
94 0 3958 4205 2 MP stroke
0 113 4200 4153 2 MP stroke
93 0 4153 4153 2 MP stroke
93 0 4153 4266 2 MP stroke
0 110 4395 4193 2 MP stroke
93 0 4348 4193 2 MP stroke
93 0 4348 4303 2 MP stroke
0 110 4589 4250 2 MP stroke
93 0 4543 4250 2 MP stroke
93 0 4543 4360 2 MP stroke
0 110 4784 4299 2 MP stroke
94 0 4737 4299 2 MP stroke
94 0 4737 4409 2 MP stroke
0 111 4979 4333 2 MP stroke
94 0 4932 4333 2 MP stroke
94 0 4932 4444 2 MP stroke
0 112 5174 4382 2 MP stroke
93 0 5127 4382 2 MP stroke
93 0 5127 4494 2 MP stroke
0 110 5368 4415 2 MP stroke
93 0 5322 4415 2 MP stroke
93 0 5322 4525 2 MP stroke
0 110 5563 4461 2 MP stroke
94 0 5516 4461 2 MP stroke
94 0 5516 4571 2 MP stroke
0 111 5758 4504 2 MP stroke
94 0 5711 4504 2 MP stroke
94 0 5711 4615 2 MP stroke
gr

0 sg
1048 2585 mt 1120 2585 L
1084 2549 mt 1084 2621 L
1242 2931 mt 1314 2931 L
1278 2895 mt 1278 2967 L
1437 3068 mt 1509 3068 L
1473 3032 mt 1473 3104 L
1632 3258 mt 1704 3258 L
1668 3222 mt 1668 3294 L
1827 3389 mt 1899 3389 L
1863 3353 mt 1863 3425 L
2021 3476 mt 2093 3476 L
2057 3440 mt 2057 3512 L
2216 3587 mt 2288 3587 L
2252 3551 mt 2252 3623 L
2411 3642 mt 2483 3642 L
2447 3606 mt 2447 3678 L
2606 3726 mt 2678 3726 L
2642 3690 mt 2642 3762 L
2800 3802 mt 2872 3802 L
2836 3766 mt 2836 3838 L
2995 3853 mt 3067 3853 L
3031 3817 mt 3031 3889 L
3190 3930 mt 3262 3930 L
3226 3894 mt 3226 3966 L
3385 3979 mt 3457 3979 L
3421 3943 mt 3421 4015 L
3579 4049 mt 3651 4049 L
3615 4013 mt 3615 4085 L
3774 4109 mt 3846 4109 L
3810 4073 mt 3810 4145 L
3969 4149 mt 4041 4149 L
4005 4113 mt 4005 4185 L
4164 4209 mt 4236 4209 L
4200 4173 mt 4200 4245 L
4359 4248 mt 4431 4248 L
4395 4212 mt 4395 4284 L
4553 4305 mt 4625 4305 L
4589 4269 mt 4589 4341 L
4748 4354 mt 4820 4354 L
4784 4318 mt 4784 4390 L
4943 4389 mt 5015 4389 L
4979 4353 mt 4979 4425 L
5138 4438 mt 5210 4438 L
5174 4402 mt 5174 4474 L
5332 4470 mt 5404 4470 L
5368 4434 mt 5368 4506 L
5527 4516 mt 5599 4516 L
5563 4480 mt 5563 4552 L
5722 4559 mt 5794 4559 L
5758 4523 mt 5758 4595 L
gs 899 389 5357 4227 rc
gr

1 sg
0 918 1538 0 0 -918 4658 1367 4 MP
PP
-1538 0 0 918 1538 0 0 -918 4658 1367 5 MP stroke
4 w
DO
SO
6 w
0 sg
4658 1367 mt 6196 1367 L
4658  449 mt 6196  449 L
4658 1367 mt 4658  449 L
6196 1367 mt 6196  449 L
4658 1367 mt 6196 1367 L
4658 1367 mt 4658  449 L
4658 1367 mt 6196 1367 L
4658  449 mt 6196  449 L
4658 1367 mt 4658  449 L
6196 1367 mt 6196  449 L
5125  581 mt 
(original BO) s
gs 4658 449 1539 919 rc
gs 4836 465 147 147 rc
41 71 -82 0 41 -71 4909 585 4 MP
c8
DP
gr

c8
gr

c8
0 sg
5125  729 mt 
(random basis) s
gs 4658 449 1539 919 rc
gs 4836 613 147 147 rc
0 -58 -58 0 0 58 58 0 4880 657 5 MP
c9
DP
gr

c9
gr

c9
0 sg
5125  877 mt 
(random embedding) s
gs 4658 449 1539 919 rc
gs 4836 761 147 147 rc
c10
  36   36 4909  834 FO
gr

c10
gr

c10
0 sg
5125 1024 mt 
(subpsace learning) s
gs 4658 449 1539 919 rc
gs 4836 908 147 147 rc
c11
4873  981 mt 4945  981 L
4909  945 mt 4909 1017 L
4884  956 mt 4934 1006 L
4934  956 mt 4884 1006 L
gr

c11
gr

c11
0 sg
5125 1172 mt 
(additive model) s
gs 4658 449 1539 919 rc
gs 4836 1056 147 147 rc
36 47 -36 47 -36 -47 36 -47 4909 1176 5 MP
c12
DP
gr

c12
gr

c12
0 sg
5125 1320 mt 
(anova ve) s
gs 4658 449 1539 919 rc
gs 4836 1204 147 147 rc
4873 1277 mt 4945 1277 L
4909 1241 mt 4909 1313 L
gr

gr


end %%Color Dict

eplot
%%EndObject

epage
end

showpage

%%Trailer
%%EOF
