%!PS-Adobe-3.0 EPSF-3.0
%%Creator: MATLAB, The MathWorks, Inc. Version 7.12.0.635 (R2011a). Operating System: Linux 3.16.0-4-amd64 #1 SMP Debian 3.16.7-ckt20-1+deb8u3 (2016-01-17) x86_64.
%%Title: /home/jaemin/Research/codes_MATSIM/HIGHDIM_BO_MATSIM/results/logsumSE2/logsumSE2_simple_regret_20.eps
%%CreationDate: 05/21/2016  15:42:19
%%DocumentNeededFonts: Helvetica
%%DocumentProcessColors: Cyan Magenta Yellow Black
%%LanguageLevel: 2
%%Pages: 1
%%BoundingBox:    53   199   546   591
%%EndComments

%%BeginProlog
% MathWorks dictionary
/MathWorks 160 dict begin
% definition operators
/bdef {bind def} bind def
/ldef {load def} bind def
/xdef {exch def} bdef
/xstore {exch store} bdef
% operator abbreviations
/c  /clip ldef
/cc /concat ldef
/cp /closepath ldef
/gr /grestore ldef
/gs /gsave ldef
/mt /moveto ldef
/np /newpath ldef
/cm /currentmatrix ldef
/sm /setmatrix ldef
/rm /rmoveto ldef
/rl /rlineto ldef
/s {show newpath} bdef
/sc {setcmykcolor} bdef
/sr /setrgbcolor ldef
/sg /setgray ldef
/w /setlinewidth ldef
/j /setlinejoin ldef
/cap /setlinecap ldef
/rc {rectclip} bdef
/rf {rectfill} bdef
% page state control
/pgsv () def
/bpage {/pgsv save def} bdef
/epage {pgsv restore} bdef
/bplot /gsave ldef
/eplot {stroke grestore} bdef
% orientation switch
/portraitMode 0 def /landscapeMode 1 def /rotateMode 2 def
% coordinate system mappings
/dpi2point 0 def
% font control
/FontSize 0 def
/FMS {/FontSize xstore findfont [FontSize 0 0 FontSize neg 0 0]
  makefont setfont} bdef
/reencode {exch dup where {pop load} {pop StandardEncoding} ifelse
  exch dup 3 1 roll findfont dup length dict begin
  { 1 index /FID ne {def}{pop pop} ifelse } forall
  /Encoding exch def currentdict end definefont pop} bdef
/isroman {findfont /CharStrings get /Agrave known} bdef
/FMSR {3 1 roll 1 index dup isroman {reencode} {pop pop} ifelse
  exch FMS} bdef
/csm {1 dpi2point div -1 dpi2point div scale neg translate
 dup landscapeMode eq {pop -90 rotate}
  {rotateMode eq {90 rotate} if} ifelse} bdef
% line types: solid, dotted, dashed, dotdash
/SO { [] 0 setdash } bdef
/DO { [.5 dpi2point mul 4 dpi2point mul] 0 setdash } bdef
/DA { [6 dpi2point mul] 0 setdash } bdef
/DD { [.5 dpi2point mul 4 dpi2point mul 6 dpi2point mul 4
  dpi2point mul] 0 setdash } bdef
% macros for lines and objects
/L {lineto stroke} bdef
/MP {3 1 roll moveto 1 sub {rlineto} repeat} bdef
/AP {{rlineto} repeat} bdef
/PDlw -1 def
/W {/PDlw currentlinewidth def setlinewidth} def
/PP {closepath eofill} bdef
/DP {closepath stroke} bdef
/MR {4 -2 roll moveto dup  0 exch rlineto exch 0 rlineto
  neg 0 exch rlineto closepath} bdef
/FR {MR stroke} bdef
/PR {MR fill} bdef
/L1i {{currentfile picstr readhexstring pop} image} bdef
/tMatrix matrix def
/MakeOval {newpath tMatrix currentmatrix pop translate scale
0 0 1 0 360 arc tMatrix setmatrix} bdef
/FO {MakeOval stroke} bdef
/PO {MakeOval fill} bdef
/PD {currentlinewidth 2 div 0 360 arc fill
   PDlw -1 eq not {PDlw w /PDlw -1 def} if} def
/FA {newpath tMatrix currentmatrix pop translate scale
  0 0 1 5 -2 roll arc tMatrix setmatrix stroke} bdef
/PA {newpath tMatrix currentmatrix pop	translate 0 0 moveto scale
  0 0 1 5 -2 roll arc closepath tMatrix setmatrix fill} bdef
/FAn {newpath tMatrix currentmatrix pop translate scale
  0 0 1 5 -2 roll arcn tMatrix setmatrix stroke} bdef
/PAn {newpath tMatrix currentmatrix pop translate 0 0 moveto scale
  0 0 1 5 -2 roll arcn closepath tMatrix setmatrix fill} bdef
/vradius 0 def /hradius 0 def /lry 0 def
/lrx 0 def /uly 0 def /ulx 0 def /rad 0 def
/MRR {/vradius xdef /hradius xdef /lry xdef /lrx xdef /uly xdef
  /ulx xdef newpath tMatrix currentmatrix pop ulx hradius add uly
  vradius add translate hradius vradius scale 0 0 1 180 270 arc 
  tMatrix setmatrix lrx hradius sub uly vradius add translate
  hradius vradius scale 0 0 1 270 360 arc tMatrix setmatrix
  lrx hradius sub lry vradius sub translate hradius vradius scale
  0 0 1 0 90 arc tMatrix setmatrix ulx hradius add lry vradius sub
  translate hradius vradius scale 0 0 1 90 180 arc tMatrix setmatrix
  closepath} bdef
/FRR {MRR stroke } bdef
/PRR {MRR fill } bdef
/MlrRR {/lry xdef /lrx xdef /uly xdef /ulx xdef /rad lry uly sub 2 div def
  newpath tMatrix currentmatrix pop ulx rad add uly rad add translate
  rad rad scale 0 0 1 90 270 arc tMatrix setmatrix lrx rad sub lry rad
  sub translate rad rad scale 0 0 1 270 90 arc tMatrix setmatrix
  closepath} bdef
/FlrRR {MlrRR stroke } bdef
/PlrRR {MlrRR fill } bdef
/MtbRR {/lry xdef /lrx xdef /uly xdef /ulx xdef /rad lrx ulx sub 2 div def
  newpath tMatrix currentmatrix pop ulx rad add uly rad add translate
  rad rad scale 0 0 1 180 360 arc tMatrix setmatrix lrx rad sub lry rad
  sub translate rad rad scale 0 0 1 0 180 arc tMatrix setmatrix
  closepath} bdef
/FtbRR {MtbRR stroke } bdef
/PtbRR {MtbRR fill } bdef
/stri 6 array def /dtri 6 array def
/smat 6 array def /dmat 6 array def
/tmat1 6 array def /tmat2 6 array def /dif 3 array def
/asub {/ind2 exch def /ind1 exch def dup dup
  ind1 get exch ind2 get sub exch } bdef
/tri_to_matrix {
  2 0 asub 3 1 asub 4 0 asub 5 1 asub
  dup 0 get exch 1 get 7 -1 roll astore } bdef
/compute_transform {
  dmat dtri tri_to_matrix tmat1 invertmatrix 
  smat stri tri_to_matrix tmat2 concatmatrix } bdef
/ds {stri astore pop} bdef
/dt {dtri astore pop} bdef
/db {2 copy /cols xdef /rows xdef mul dup 3 mul string
  currentfile 
  3 index 0 eq {/ASCIIHexDecode filter}
  {/ASCII85Decode filter 3 index 2 eq {/RunLengthDecode filter} if }
  ifelse exch readstring pop
  dup 0 3 index getinterval /rbmap xdef
  dup 2 index dup getinterval /gbmap xdef
  1 index dup 2 mul exch getinterval /bbmap xdef pop pop}bdef
/it {gs np dtri aload pop moveto lineto lineto cp c
  cols rows 8 compute_transform 
  rbmap gbmap bbmap true 3 colorimage gr}bdef
/il {newpath moveto lineto stroke}bdef
currentdict end def
%%EndProlog

%%BeginSetup
MathWorks begin

0 cap

end
%%EndSetup

%%Page: 1 1
%%BeginPageSetup
%%PageBoundingBox:    53   199   546   591
MathWorks begin
bpage
%%EndPageSetup

%%BeginObject: obj1
bplot

/dpi2point 12 def
portraitMode 0216 7344 csm

  422   247  5923  4708 rc
88 dict begin %Colortable dictionary
/c0 { 0.000000 0.000000 0.000000 sr} bdef
/c1 { 1.000000 1.000000 1.000000 sr} bdef
/c2 { 0.900000 0.000000 0.000000 sr} bdef
/c3 { 0.000000 0.820000 0.000000 sr} bdef
/c4 { 0.000000 0.000000 0.800000 sr} bdef
/c5 { 0.910000 0.820000 0.320000 sr} bdef
/c6 { 1.000000 0.260000 0.820000 sr} bdef
/c7 { 0.000000 0.820000 0.820000 sr} bdef
c0
1 j
1 sg
   0    0 6913 5186 rf
6 w
0 4226 5356 0 0 -4226 899 4615 4 MP
PP
-5356 0 0 4226 5356 0 0 -4226 899 4615 5 MP stroke
4 w
DO
SO
6 w
0 sg
 899 4615 mt 6255 4615 L
 899  389 mt 6255  389 L
 899 4615 mt  899  389 L
6255 4615 mt 6255  389 L
 899 4615 mt 6255 4615 L
 899 4615 mt  899  389 L
 899 4615 mt  899 4561 L
 899  389 mt  899  442 L
%%IncludeResource: font Helvetica
/Helvetica /ISOLatin1Encoding 120 FMSR

 866 4760 mt 
(0) s
1385 4615 mt 1385 4561 L
1385  389 mt 1385  442 L
1319 4760 mt 
(50) s
1872 4615 mt 1872 4561 L
1872  389 mt 1872  442 L
1772 4760 mt 
(100) s
2359 4615 mt 2359 4561 L
2359  389 mt 2359  442 L
2259 4760 mt 
(150) s
2846 4615 mt 2846 4561 L
2846  389 mt 2846  442 L
2746 4760 mt 
(200) s
3333 4615 mt 3333 4561 L
3333  389 mt 3333  442 L
3233 4760 mt 
(250) s
3820 4615 mt 3820 4561 L
3820  389 mt 3820  442 L
3720 4760 mt 
(300) s
4307 4615 mt 4307 4561 L
4307  389 mt 4307  442 L
4207 4760 mt 
(350) s
4794 4615 mt 4794 4561 L
4794  389 mt 4794  442 L
4694 4760 mt 
(400) s
5281 4615 mt 5281 4561 L
5281  389 mt 5281  442 L
5181 4760 mt 
(450) s
5768 4615 mt 5768 4561 L
5768  389 mt 5768  442 L
5668 4760 mt 
(500) s
 899 4566 mt  925 4566 L
6255 4566 mt 6228 4566 L
 899 4566 mt  952 4566 L
6255 4566 mt 6201 4566 L
 640 4610 mt 
(10) s
%%IncludeResource: font Helvetica
/Helvetica /ISOLatin1Encoding 80 FMSR

 773 4536 mt 
(0) s
 899  558 mt  925  558 L
6255  558 mt 6228  558 L
 899 4615 mt 6255 4615 L
 899  389 mt 6255  389 L
 899 4615 mt  899  389 L
6255 4615 mt 6255  389 L
gs 899 389 5357 4227 rc
gr

0 j
41 71 -82 0 41 -71 1084 1442 4 MP
/c8 { 0.000000 1.000000 0.000000 sr} bdef
c8
DP
41 71 -82 0 41 -71 1278 1442 4 MP
DP
41 71 -82 0 41 -71 1473 1442 4 MP
DP
41 71 -82 0 41 -71 1668 1442 4 MP
DP
41 71 -82 0 41 -71 1863 1442 4 MP
DP
41 71 -82 0 41 -71 2057 1442 4 MP
DP
41 71 -82 0 41 -71 2252 1442 4 MP
DP
41 71 -82 0 41 -71 2447 1442 4 MP
DP
41 71 -82 0 41 -71 2642 1442 4 MP
DP
41 71 -82 0 41 -71 2836 1442 4 MP
DP
41 71 -82 0 41 -71 3031 1442 4 MP
DP
41 71 -82 0 41 -71 3226 1442 4 MP
DP
41 71 -82 0 41 -71 3421 1442 4 MP
DP
41 71 -82 0 41 -71 3615 1442 4 MP
DP
41 71 -82 0 41 -71 3810 1442 4 MP
DP
41 71 -82 0 41 -71 4005 1442 4 MP
DP
41 71 -82 0 41 -71 4200 1442 4 MP
DP
41 71 -82 0 41 -71 4395 1442 4 MP
DP
41 71 -82 0 41 -71 4589 1442 4 MP
DP
41 71 -82 0 41 -71 4784 1442 4 MP
DP
41 71 -82 0 41 -71 4979 1442 4 MP
DP
41 71 -82 0 41 -71 5174 1442 4 MP
DP
41 71 -82 0 41 -71 5368 1442 4 MP
DP
41 71 -82 0 41 -71 5563 1442 4 MP
DP
41 71 -82 0 41 -71 5758 1442 4 MP
DP
gs 899 389 5357 4227 rc
gr

0 -58 -58 0 0 58 58 0 1055 1073 5 MP
/c9 { 1.000000 0.000000 0.000000 sr} bdef
c9
DP
0 -58 -58 0 0 58 58 0 1249 1085 5 MP
DP
0 -58 -58 0 0 58 58 0 1444 1115 5 MP
DP
0 -58 -58 0 0 58 58 0 1639 1131 5 MP
DP
0 -58 -58 0 0 58 58 0 1834 1146 5 MP
DP
0 -58 -58 0 0 58 58 0 2028 1147 5 MP
DP
0 -58 -58 0 0 58 58 0 2223 1192 5 MP
DP
0 -58 -58 0 0 58 58 0 2418 1194 5 MP
DP
0 -58 -58 0 0 58 58 0 2613 1226 5 MP
DP
0 -58 -58 0 0 58 58 0 2807 1239 5 MP
DP
0 -58 -58 0 0 58 58 0 3002 1259 5 MP
DP
0 -58 -58 0 0 58 58 0 3197 1261 5 MP
DP
0 -58 -58 0 0 58 58 0 3392 1271 5 MP
DP
0 -58 -58 0 0 58 58 0 3586 1290 5 MP
DP
0 -58 -58 0 0 58 58 0 3781 1291 5 MP
DP
0 -58 -58 0 0 58 58 0 3976 1316 5 MP
DP
0 -58 -58 0 0 58 58 0 4171 1328 5 MP
DP
0 -58 -58 0 0 58 58 0 4366 1328 5 MP
DP
0 -58 -58 0 0 58 58 0 4560 1328 5 MP
DP
0 -58 -58 0 0 58 58 0 4755 1328 5 MP
DP
0 -58 -58 0 0 58 58 0 4950 1338 5 MP
DP
0 -58 -58 0 0 58 58 0 5145 1351 5 MP
DP
0 -58 -58 0 0 58 58 0 5339 1353 5 MP
DP
0 -58 -58 0 0 58 58 0 5534 1362 5 MP
DP
0 -58 -58 0 0 58 58 0 5729 1370 5 MP
DP
gs 899 389 5357 4227 rc
gr

/c10 { 0.000000 1.000000 1.000000 sr} bdef
c10
  36   36 1084  418 FO
  36   36 1278  418 FO
  36   36 1473  420 FO
  36   36 1668  426 FO
  36   36 1863  439 FO
  36   36 2057  450 FO
  36   36 2252  450 FO
  36   36 2447  474 FO
  36   36 2642  475 FO
  36   36 2836  480 FO
  36   36 3031  530 FO
  36   36 3226  530 FO
  36   36 3421  538 FO
  36   36 3615  538 FO
  36   36 3810  547 FO
  36   36 4005  559 FO
  36   36 4200  563 FO
  36   36 4395  586 FO
  36   36 4589  590 FO
  36   36 4784  591 FO
  36   36 4979  592 FO
  36   36 5174  596 FO
  36   36 5368  598 FO
  36   36 5563  599 FO
  36   36 5758  599 FO
gs 899 389 5357 4227 rc
gr

/c11 { 0.000000 0.000000 1.000000 sr} bdef
c11
1048 1136 mt 1120 1136 L
1084 1100 mt 1084 1172 L
1242 1144 mt 1314 1144 L
1278 1108 mt 1278 1180 L
1437 1159 mt 1509 1159 L
1473 1123 mt 1473 1195 L
1632 1160 mt 1704 1160 L
1668 1124 mt 1668 1196 L
1827 1181 mt 1899 1181 L
1863 1145 mt 1863 1217 L
2021 1187 mt 2093 1187 L
2057 1151 mt 2057 1223 L
2216 1202 mt 2288 1202 L
2252 1166 mt 2252 1238 L
2411 1227 mt 2483 1227 L
2447 1191 mt 2447 1263 L
2606 1229 mt 2678 1229 L
2642 1193 mt 2642 1265 L
2800 1229 mt 2872 1229 L
2836 1193 mt 2836 1265 L
2995 1232 mt 3067 1232 L
3031 1196 mt 3031 1268 L
3190 1232 mt 3262 1232 L
3226 1196 mt 3226 1268 L
3385 1232 mt 3457 1232 L
3421 1196 mt 3421 1268 L
3579 1232 mt 3651 1232 L
3615 1196 mt 3615 1268 L
3774 1236 mt 3846 1236 L
3810 1200 mt 3810 1272 L
3969 1237 mt 4041 1237 L
4005 1201 mt 4005 1273 L
4164 1237 mt 4236 1237 L
4200 1201 mt 4200 1273 L
4359 1237 mt 4431 1237 L
4395 1201 mt 4395 1273 L
4553 1242 mt 4625 1242 L
4589 1206 mt 4589 1278 L
4748 1242 mt 4820 1242 L
4784 1206 mt 4784 1278 L
4943 1244 mt 5015 1244 L
4979 1208 mt 4979 1280 L
5138 1244 mt 5210 1244 L
5174 1208 mt 5174 1280 L
5332 1251 mt 5404 1251 L
5368 1215 mt 5368 1287 L
5527 1251 mt 5599 1251 L
5563 1215 mt 5563 1287 L
5722 1255 mt 5794 1255 L
5758 1219 mt 5758 1291 L
1059 1111 mt 1109 1161 L
1109 1111 mt 1059 1161 L
1253 1119 mt 1303 1169 L
1303 1119 mt 1253 1169 L
1448 1134 mt 1498 1184 L
1498 1134 mt 1448 1184 L
1643 1135 mt 1693 1185 L
1693 1135 mt 1643 1185 L
1838 1156 mt 1888 1206 L
1888 1156 mt 1838 1206 L
2032 1162 mt 2082 1212 L
2082 1162 mt 2032 1212 L
2227 1177 mt 2277 1227 L
2277 1177 mt 2227 1227 L
2422 1202 mt 2472 1252 L
2472 1202 mt 2422 1252 L
2617 1204 mt 2667 1254 L
2667 1204 mt 2617 1254 L
2811 1204 mt 2861 1254 L
2861 1204 mt 2811 1254 L
3006 1207 mt 3056 1257 L
3056 1207 mt 3006 1257 L
3201 1207 mt 3251 1257 L
3251 1207 mt 3201 1257 L
3396 1207 mt 3446 1257 L
3446 1207 mt 3396 1257 L
3590 1207 mt 3640 1257 L
3640 1207 mt 3590 1257 L
3785 1211 mt 3835 1261 L
3835 1211 mt 3785 1261 L
3980 1212 mt 4030 1262 L
4030 1212 mt 3980 1262 L
4175 1212 mt 4225 1262 L
4225 1212 mt 4175 1262 L
4370 1212 mt 4420 1262 L
4420 1212 mt 4370 1262 L
4564 1217 mt 4614 1267 L
4614 1217 mt 4564 1267 L
4759 1217 mt 4809 1267 L
4809 1217 mt 4759 1267 L
4954 1219 mt 5004 1269 L
5004 1219 mt 4954 1269 L
5149 1219 mt 5199 1269 L
5199 1219 mt 5149 1269 L
5343 1226 mt 5393 1276 L
5393 1226 mt 5343 1276 L
5538 1226 mt 5588 1276 L
5588 1226 mt 5538 1276 L
5733 1230 mt 5783 1280 L
5783 1230 mt 5733 1280 L
gs 899 389 5357 4227 rc
gr

36 47 -36 47 -36 -47 36 -47 1084 1512 5 MP
/c12 { 1.000000 0.000000 1.000000 sr} bdef
c12
DP
36 47 -36 47 -36 -47 36 -47 1278 1624 5 MP
DP
36 47 -36 47 -36 -47 36 -47 1473 1685 5 MP
DP
36 47 -36 47 -36 -47 36 -47 1668 1762 5 MP
DP
36 47 -36 47 -36 -47 36 -47 1863 1863 5 MP
DP
36 47 -36 47 -36 -47 36 -47 2057 1871 5 MP
DP
36 47 -36 47 -36 -47 36 -47 2252 1954 5 MP
DP
36 47 -36 47 -36 -47 36 -47 2447 2044 5 MP
DP
36 47 -36 47 -36 -47 36 -47 2642 2076 5 MP
DP
36 47 -36 47 -36 -47 36 -47 2836 2208 5 MP
DP
36 47 -36 47 -36 -47 36 -47 3031 2284 5 MP
DP
36 47 -36 47 -36 -47 36 -47 3226 2367 5 MP
DP
36 47 -36 47 -36 -47 36 -47 3421 2391 5 MP
DP
36 47 -36 47 -36 -47 36 -47 3615 2461 5 MP
DP
36 47 -36 47 -36 -47 36 -47 3810 2467 5 MP
DP
36 47 -36 47 -36 -47 36 -47 4005 2467 5 MP
DP
36 47 -36 47 -36 -47 36 -47 4200 2467 5 MP
DP
36 47 -36 47 -36 -47 36 -47 4395 2471 5 MP
DP
36 47 -36 47 -36 -47 36 -47 4589 2471 5 MP
DP
36 47 -36 47 -36 -47 36 -47 4784 2471 5 MP
DP
36 47 -36 47 -36 -47 36 -47 4979 2471 5 MP
DP
36 47 -36 47 -36 -47 36 -47 5174 2471 5 MP
DP
36 47 -36 47 -36 -47 36 -47 5368 2471 5 MP
DP
36 47 -36 47 -36 -47 36 -47 5563 2471 5 MP
DP
36 47 -36 47 -36 -47 36 -47 5758 2471 5 MP
DP
gs 899 389 5357 4227 rc
gr

0 sg
1048 1936 mt 1120 1936 L
1084 1900 mt 1084 1972 L
1242 2089 mt 1314 2089 L
1278 2053 mt 1278 2125 L
1437 2366 mt 1509 2366 L
1473 2330 mt 1473 2402 L
1632 2580 mt 1704 2580 L
1668 2544 mt 1668 2616 L
1827 2700 mt 1899 2700 L
1863 2664 mt 1863 2736 L
2021 2853 mt 2093 2853 L
2057 2817 mt 2057 2889 L
2216 2999 mt 2288 2999 L
2252 2963 mt 2252 3035 L
2411 3150 mt 2483 3150 L
2447 3114 mt 2447 3186 L
2606 3275 mt 2678 3275 L
2642 3239 mt 2642 3311 L
2800 3389 mt 2872 3389 L
2836 3353 mt 2836 3425 L
2995 3471 mt 3067 3471 L
3031 3435 mt 3031 3507 L
3190 3508 mt 3262 3508 L
3226 3472 mt 3226 3544 L
3385 3550 mt 3457 3550 L
3421 3514 mt 3421 3586 L
3579 3680 mt 3651 3680 L
3615 3644 mt 3615 3716 L
3774 3780 mt 3846 3780 L
3810 3744 mt 3810 3816 L
3969 3911 mt 4041 3911 L
4005 3875 mt 4005 3947 L
4164 4020 mt 4236 4020 L
4200 3984 mt 4200 4056 L
4359 4059 mt 4431 4059 L
4395 4023 mt 4395 4095 L
4553 4180 mt 4625 4180 L
4589 4144 mt 4589 4216 L
4748 4241 mt 4820 4241 L
4784 4205 mt 4784 4277 L
4943 4328 mt 5015 4328 L
4979 4292 mt 4979 4364 L
5138 4395 mt 5210 4395 L
5174 4359 mt 5174 4431 L
5332 4422 mt 5404 4422 L
5368 4386 mt 5368 4458 L
5527 4472 mt 5599 4472 L
5563 4436 mt 5563 4508 L
5722 4516 mt 5794 4516 L
5758 4480 mt 5758 4552 L
gs 899 389 5357 4227 rc
gr

%%IncludeResource: font Helvetica
/Helvetica /ISOLatin1Encoding 120 FMSR

3330 4903 mt 
(Iterations) s
 558 2883 mt  -90 rotate
(Simple Regret) s
90 rotate
 882 4658 mt 
( ) s
6239  431 mt 
( ) s
gs 899 389 5357 4227 rc
c8
10 0 10 0 9 0 10 0 10 0 10 0 9 0 10 0 
10 0 10 0 9 0 10 0 10 0 9 0 10 0 10 0 
10 0 9 0 10 0 10 0 10 0 9 0 10 0 10 0 
10 0 9 0 10 0 10 0 10 0 9 0 10 0 10 0 
10 0 9 0 10 0 10 0 9 0 10 0 10 0 10 0 
9 0 10 0 10 0 10 0 9 0 10 0 10 0 10 0 
9 0 10 0 10 0 10 0 9 0 10 0 10 0 9 0 
10 0 10 0 10 0 9 0 10 0 10 0 10 0 9 0 
10 0 10 0 10 0 9 0 10 0 10 0 10 0 9 0 
10 0 10 0 10 0 9 0 10 0 10 0 9 0 10 0 
10 0 10 0 9 0 10 0 10 0 10 0 9 0 10 0 
10 0 10 0 9 0 10 0 10 0 10 0 9 0 10 0 
10 0 9 0 10 0 10 0 10 0 9 0 10 0 10 0 
10 0 9 0 10 0 10 0 10 0 9 0 10 0 10 0 
10 0 9 0 10 0 10 0 10 0 9 0 10 0 10 0 
9 0 10 0 10 0 10 0 9 0 10 0 10 0 10 0 
9 0 10 0 10 0 10 0 9 0 10 0 10 0 10 0 
9 0 10 0 10 0 9 0 10 0 10 0 10 0 9 0 
10 0 10 0 10 0 9 0 10 0 10 0 10 0 9 0 
10 0 10 0 10 0 9 0 10 0 10 0 10 0 9 0 
10 0 10 0 9 0 10 0 10 0 10 0 9 0 10 0 
10 0 10 0 9 0 10 0 10 0 10 0 9 0 10 0 
10 0 10 0 9 0 10 0 10 0 9 0 10 0 10 0 
10 0 9 0 10 0 10 0 10 0 9 0 10 0 10 0 
10 0 9 0 10 0 10 0 10 0 9 0 10 0 10 0 
10 0 9 0 10 0 10 0 9 0 10 0 10 0 10 0 
9 0 10 0 10 0 10 0 9 0 10 0 10 0 10 0 
9 0 10 0 10 0 10 0 9 0 10 0 10 0 9 0 
10 0 10 0 10 0 9 0 10 0 10 0 10 0 9 0 
10 0 10 0 10 0 9 0 10 0 10 0 10 0 9 0 
10 0 10 0 10 0 9 0 10 0 10 0 9 0 10 0 
10 0 10 0 9 0 10 0 10 0 10 0 9 0 10 0 
10 0 10 0 9 0 10 0 10 0 10 0 9 0 10 0 
10 0 10 0 9 0 10 0 10 0 9 0 10 0 10 0 
10 0 9 0 10 0 10 0 10 0 9 0 10 0 10 0 
10 0 9 0 10 0 10 0 10 0 9 0 10 0 10 0 
9 0 10 0 10 0 10 0 9 0 10 0 10 0 10 0 
9 0 10 0 10 0 2846 1395 300 MP stroke
10 0 9 0 10 0 10 0 10 0 9 0 10 0 10 0 
10 0 9 0 10 0 10 0 9 0 10 0 10 0 10 0 
9 0 10 0 10 0 10 0 9 0 10 0 10 0 10 0 
9 0 10 0 10 0 10 0 9 0 10 0 10 0 9 0 
10 0 10 0 10 0 9 0 10 0 10 0 10 0 9 0 
10 0 10 0 10 0 9 0 10 0 10 0 10 0 9 0 
10 0 10 0 10 0 9 0 10 0 10 0 9 0 10 0 
10 0 10 0 9 0 10 0 10 0 10 0 9 0 10 0 
10 0 10 0 9 0 10 0 10 0 10 0 9 0 10 0 
10 0 9 0 10 0 10 0 10 0 9 0 10 0 10 0 
10 0 9 0 10 0 10 0 10 0 9 0 10 0 10 0 
10 0 9 0 10 0 10 0 10 0 9 0 10 0 10 0 
9 0 10 0 10 0 10 0 9 0 10 0 10 0 10 0 
9 0 10 0 10 0 10 0 9 0 10 0 10 0 10 0 
9 0 10 0 10 0 9 0 10 0 10 0 10 0 9 0 
10 0 10 0 10 0 9 0 10 0 10 0 10 0 9 0 
10 0 10 0 10 0 9 0 10 0 10 0 10 0 9 0 
10 0 10 0 9 0 10 0 10 0 10 0 9 0 10 0 
10 0 10 0 9 0 10 0 10 0 10 0 9 0 10 0 
10 0 10 0 9 0 10 0 10 0 9 0 10 0 10 0 
10 0 9 0 10 0 10 0 10 0 9 0 10 0 10 0 
10 0 9 0 10 0 10 0 10 0 9 0 10 0 10 0 
10 0 9 0 10 0 10 0 9 0 10 0 10 0 10 0 
9 0 10 0 10 0 10 0 9 0 10 0 10 0 10 0 
9 0 10 0 10 0 10 0 9 0 10 0 10 0 9 0 
899 1395 201 MP stroke
0 103 1084 1343 2 MP stroke
93 0 1037 1343 2 MP stroke
93 0 1037 1446 2 MP stroke
0 103 1278 1343 2 MP stroke
93 0 1232 1343 2 MP stroke
93 0 1232 1446 2 MP stroke
0 103 1473 1343 2 MP stroke
94 0 1426 1343 2 MP stroke
94 0 1426 1446 2 MP stroke
0 103 1668 1343 2 MP stroke
94 0 1621 1343 2 MP stroke
94 0 1621 1446 2 MP stroke
0 103 1863 1343 2 MP stroke
93 0 1816 1343 2 MP stroke
93 0 1816 1446 2 MP stroke
0 103 2057 1343 2 MP stroke
93 0 2011 1343 2 MP stroke
93 0 2011 1446 2 MP stroke
0 103 2252 1343 2 MP stroke
94 0 2205 1343 2 MP stroke
94 0 2205 1446 2 MP stroke
0 103 2447 1343 2 MP stroke
94 0 2400 1343 2 MP stroke
94 0 2400 1446 2 MP stroke
0 103 2642 1343 2 MP stroke
93 0 2595 1343 2 MP stroke
93 0 2595 1446 2 MP stroke
0 103 2836 1343 2 MP stroke
93 0 2790 1343 2 MP stroke
93 0 2790 1446 2 MP stroke
0 103 3031 1343 2 MP stroke
94 0 2984 1343 2 MP stroke
94 0 2984 1446 2 MP stroke
0 103 3226 1343 2 MP stroke
94 0 3179 1343 2 MP stroke
94 0 3179 1446 2 MP stroke
0 103 3421 1343 2 MP stroke
93 0 3374 1343 2 MP stroke
93 0 3374 1446 2 MP stroke
0 103 3615 1343 2 MP stroke
93 0 3569 1343 2 MP stroke
93 0 3569 1446 2 MP stroke
0 103 3810 1343 2 MP stroke
94 0 3763 1343 2 MP stroke
94 0 3763 1446 2 MP stroke
0 103 4005 1343 2 MP stroke
94 0 3958 1343 2 MP stroke
94 0 3958 1446 2 MP stroke
0 103 4200 1343 2 MP stroke
93 0 4153 1343 2 MP stroke
93 0 4153 1446 2 MP stroke
0 103 4395 1343 2 MP stroke
93 0 4348 1343 2 MP stroke
93 0 4348 1446 2 MP stroke
0 103 4589 1343 2 MP stroke
93 0 4543 1343 2 MP stroke
93 0 4543 1446 2 MP stroke
0 103 4784 1343 2 MP stroke
94 0 4737 1343 2 MP stroke
94 0 4737 1446 2 MP stroke
0 103 4979 1343 2 MP stroke
94 0 4932 1343 2 MP stroke
94 0 4932 1446 2 MP stroke
0 103 5174 1343 2 MP stroke
93 0 5127 1343 2 MP stroke
93 0 5127 1446 2 MP stroke
0 103 5368 1343 2 MP stroke
93 0 5322 1343 2 MP stroke
93 0 5322 1446 2 MP stroke
0 103 5563 1343 2 MP stroke
94 0 5516 1343 2 MP stroke
94 0 5516 1446 2 MP stroke
0 103 5758 1343 2 MP stroke
94 0 5711 1343 2 MP stroke
94 0 5711 1446 2 MP stroke
gr

c8
41 71 -82 0 41 -71 1084 1442 4 MP
DP
41 71 -82 0 41 -71 1278 1442 4 MP
DP
41 71 -82 0 41 -71 1473 1442 4 MP
DP
41 71 -82 0 41 -71 1668 1442 4 MP
DP
41 71 -82 0 41 -71 1863 1442 4 MP
DP
41 71 -82 0 41 -71 2057 1442 4 MP
DP
41 71 -82 0 41 -71 2252 1442 4 MP
DP
41 71 -82 0 41 -71 2447 1442 4 MP
DP
41 71 -82 0 41 -71 2642 1442 4 MP
DP
41 71 -82 0 41 -71 2836 1442 4 MP
DP
41 71 -82 0 41 -71 3031 1442 4 MP
DP
41 71 -82 0 41 -71 3226 1442 4 MP
DP
41 71 -82 0 41 -71 3421 1442 4 MP
DP
41 71 -82 0 41 -71 3615 1442 4 MP
DP
41 71 -82 0 41 -71 3810 1442 4 MP
DP
41 71 -82 0 41 -71 4005 1442 4 MP
DP
41 71 -82 0 41 -71 4200 1442 4 MP
DP
41 71 -82 0 41 -71 4395 1442 4 MP
DP
41 71 -82 0 41 -71 4589 1442 4 MP
DP
41 71 -82 0 41 -71 4784 1442 4 MP
DP
41 71 -82 0 41 -71 4979 1442 4 MP
DP
41 71 -82 0 41 -71 5174 1442 4 MP
DP
41 71 -82 0 41 -71 5368 1442 4 MP
DP
41 71 -82 0 41 -71 5563 1442 4 MP
DP
41 71 -82 0 41 -71 5758 1442 4 MP
DP
gs 899 389 5357 4227 rc
c9
10 0 10 0 9 0 10 0 10 0 10 0 9 0 10 0 
10 0 10 8 9 0 10 0 10 0 9 0 10 0 10 0 
10 0 9 0 10 0 10 0 10 0 9 0 10 0 10 0 
10 0 9 0 10 1 10 0 10 0 9 0 10 0 10 0 
10 6 9 0 10 0 10 0 9 0 10 0 10 0 10 2 
9 0 10 0 10 0 10 0 9 0 10 0 10 0 10 0 
9 0 10 0 10 0 10 0 9 0 10 2 10 0 9 0 
10 0 10 0 10 0 9 0 10 0 10 0 10 0 9 0 
10 0 10 0 10 0 9 0 10 0 10 0 10 0 9 0 
10 13 10 0 10 0 9 0 10 0 10 0 9 0 10 0 
10 0 10 0 9 0 10 0 10 0 10 0 9 0 10 0 
10 0 10 0 9 0 10 4 10 6 10 0 9 0 10 0 
10 0 9 0 10 0 10 0 10 0 9 0 10 0 10 0 
10 0 9 0 10 0 10 0 10 0 9 0 10 0 10 0 
10 0 9 0 10 0 10 0 10 0 9 0 10 0 10 0 
9 0 10 0 10 0 10 0 9 0 10 0 10 0 10 0 
9 0 10 0 10 0 10 0 9 0 10 0 10 0 10 0 
9 0 10 0 10 0 9 0 10 0 10 0 10 0 9 0 
10 0 10 0 10 0 9 0 10 0 10 0 10 0 9 0 
10 0 10 0 10 0 9 0 10 0 10 0 10 0 9 0 
10 0 10 4 9 0 10 0 10 0 10 0 9 0 10 0 
10 0 10 0 9 0 10 0 10 0 10 0 9 8 10 0 
10 0 10 0 9 0 10 0 10 0 9 7 10 0 10 0 
10 0 9 0 10 18 10 0 10 0 9 0 10 0 10 0 
10 0 9 0 10 0 10 0 10 0 9 0 10 0 10 0 
10 0 9 0 10 1 10 0 9 0 10 0 10 0 10 0 
9 0 10 0 10 0 10 0 9 0 10 0 10 0 10 0 
9 0 10 0 10 0 10 0 9 0 10 0 10 0 9 0 
10 0 10 0 10 0 9 0 10 0 10 0 10 0 9 0 
10 0 10 0 10 7 9 0 10 0 10 0 10 0 9 12 
10 0 10 0 10 0 9 0 10 0 10 0 9 0 10 0 
10 0 10 0 9 0 10 6 10 0 10 0 9 0 10 4 
10 0 10 0 9 0 10 0 10 0 10 0 9 0 10 0 
10 0 10 0 9 0 10 0 10 0 9 0 10 0 10 0 
10 0 9 2 10 0 10 0 10 0 9 0 10 0 10 0 
10 0 9 0 10 0 10 0 10 0 9 0 10 0 10 0 
9 0 10 0 10 0 10 0 9 0 10 0 10 0 10 0 
9 0 10 20 10 0 2846 1268 300 MP stroke
10 0 9 0 10 0 10 0 10 0 9 3 10 0 10 0 
10 0 9 0 10 0 10 0 9 0 10 0 10 0 10 6 
9 0 10 0 10 0 10 0 9 4 10 0 10 3 10 0 
9 0 10 3 10 0 10 0 9 0 10 15 10 0 9 0 
10 11 10 0 10 0 9 0 10 0 10 0 10 0 9 0 
10 0 10 0 10 0 9 0 10 0 10 0 10 0 9 0 
10 0 10 0 10 0 9 0 10 0 10 2 9 0 10 0 
10 0 10 0 9 0 10 0 10 0 10 1 9 0 10 0 
10 0 10 0 9 0 10 0 10 0 10 0 9 0 10 0 
10 0 9 0 10 14 10 15 10 0 9 0 10 0 10 0 
10 15 9 0 10 0 10 0 10 0 9 0 10 0 10 0 
10 0 9 0 10 0 10 1 10 0 9 0 10 0 10 0 
9 0 10 0 10 0 10 0 9 0 10 0 10 0 10 0 
9 0 10 0 10 0 10 0 9 0 10 13 10 2 10 0 
9 0 10 0 10 0 9 0 10 0 10 0 10 0 9 0 
10 0 10 0 10 0 9 0 10 0 10 0 10 6 9 0 
10 7 10 0 10 0 9 0 10 0 10 0 10 0 9 0 
10 0 10 0 9 0 10 2 10 1 10 0 9 0 10 0 
10 0 10 0 9 0 10 1 10 9 10 0 9 0 10 0 
10 0 10 17 9 0 10 0 10 0 9 0 10 3 10 0 
10 0 9 0 10 0 10 0 10 0 9 0 10 0 10 0 
10 0 9 0 10 0 10 5 10 0 9 0 10 0 10 0 
10 0 9 0 10 0 10 0 9 7 10 0 10 0 10 0 
9 0 10 0 10 0 10 0 9 0 10 0 10 0 10 0 
9 0 10 0 10 0 10 0 9 0 10 0 10 0 9 0 
899 1102 201 MP stroke
0 82 1084 1061 2 MP stroke
93 0 1037 1061 2 MP stroke
93 0 1037 1143 2 MP stroke
0 84 1278 1072 2 MP stroke
93 0 1232 1072 2 MP stroke
93 0 1232 1156 2 MP stroke
0 73 1473 1107 2 MP stroke
94 0 1426 1107 2 MP stroke
94 0 1426 1180 2 MP stroke
0 67 1668 1126 2 MP stroke
94 0 1621 1126 2 MP stroke
94 0 1621 1193 2 MP stroke
0 75 1863 1138 2 MP stroke
93 0 1816 1138 2 MP stroke
93 0 1816 1213 2 MP stroke
0 76 2057 1138 2 MP stroke
93 0 2011 1138 2 MP stroke
93 0 2011 1214 2 MP stroke
0 85 2252 1178 2 MP stroke
94 0 2205 1178 2 MP stroke
94 0 2205 1263 2 MP stroke
0 84 2447 1181 2 MP stroke
94 0 2400 1181 2 MP stroke
94 0 2400 1265 2 MP stroke
0 82 2642 1214 2 MP stroke
93 0 2595 1214 2 MP stroke
93 0 2595 1296 2 MP stroke
0 84 2836 1226 2 MP stroke
93 0 2790 1226 2 MP stroke
93 0 2790 1310 2 MP stroke
0 95 3031 1241 2 MP stroke
94 0 2984 1241 2 MP stroke
94 0 2984 1336 2 MP stroke
0 94 3226 1243 2 MP stroke
94 0 3179 1243 2 MP stroke
94 0 3179 1337 2 MP stroke
0 97 3421 1252 2 MP stroke
93 0 3374 1252 2 MP stroke
93 0 3374 1349 2 MP stroke
0 97 3615 1271 2 MP stroke
93 0 3569 1271 2 MP stroke
93 0 3569 1368 2 MP stroke
0 97 3810 1272 2 MP stroke
94 0 3763 1272 2 MP stroke
94 0 3763 1369 2 MP stroke
0 92 4005 1299 2 MP stroke
94 0 3958 1299 2 MP stroke
94 0 3958 1391 2 MP stroke
0 86 4200 1315 2 MP stroke
93 0 4153 1315 2 MP stroke
93 0 4153 1401 2 MP stroke
0 86 4395 1315 2 MP stroke
93 0 4348 1315 2 MP stroke
93 0 4348 1401 2 MP stroke
0 86 4589 1315 2 MP stroke
93 0 4543 1315 2 MP stroke
93 0 4543 1401 2 MP stroke
0 86 4784 1315 2 MP stroke
94 0 4737 1315 2 MP stroke
94 0 4737 1401 2 MP stroke
0 88 4979 1323 2 MP stroke
94 0 4932 1323 2 MP stroke
94 0 4932 1411 2 MP stroke
0 84 5174 1338 2 MP stroke
93 0 5127 1338 2 MP stroke
93 0 5127 1422 2 MP stroke
0 81 5368 1342 2 MP stroke
93 0 5322 1342 2 MP stroke
93 0 5322 1423 2 MP stroke
0 78 5563 1352 2 MP stroke
94 0 5516 1352 2 MP stroke
94 0 5516 1430 2 MP stroke
0 80 5758 1359 2 MP stroke
94 0 5711 1359 2 MP stroke
94 0 5711 1439 2 MP stroke
gr

c9
0 -58 -58 0 0 58 58 0 1055 1073 5 MP
DP
0 -58 -58 0 0 58 58 0 1249 1085 5 MP
DP
0 -58 -58 0 0 58 58 0 1444 1115 5 MP
DP
0 -58 -58 0 0 58 58 0 1639 1131 5 MP
DP
0 -58 -58 0 0 58 58 0 1834 1146 5 MP
DP
0 -58 -58 0 0 58 58 0 2028 1147 5 MP
DP
0 -58 -58 0 0 58 58 0 2223 1192 5 MP
DP
0 -58 -58 0 0 58 58 0 2418 1194 5 MP
DP
0 -58 -58 0 0 58 58 0 2613 1226 5 MP
DP
0 -58 -58 0 0 58 58 0 2807 1239 5 MP
DP
0 -58 -58 0 0 58 58 0 3002 1259 5 MP
DP
0 -58 -58 0 0 58 58 0 3197 1261 5 MP
DP
0 -58 -58 0 0 58 58 0 3392 1271 5 MP
DP
0 -58 -58 0 0 58 58 0 3586 1290 5 MP
DP
0 -58 -58 0 0 58 58 0 3781 1291 5 MP
DP
0 -58 -58 0 0 58 58 0 3976 1316 5 MP
DP
0 -58 -58 0 0 58 58 0 4171 1328 5 MP
DP
0 -58 -58 0 0 58 58 0 4366 1328 5 MP
DP
0 -58 -58 0 0 58 58 0 4560 1328 5 MP
DP
0 -58 -58 0 0 58 58 0 4755 1328 5 MP
DP
0 -58 -58 0 0 58 58 0 4950 1338 5 MP
DP
0 -58 -58 0 0 58 58 0 5145 1351 5 MP
DP
0 -58 -58 0 0 58 58 0 5339 1353 5 MP
DP
0 -58 -58 0 0 58 58 0 5534 1362 5 MP
DP
0 -58 -58 0 0 58 58 0 5729 1370 5 MP
DP
gs 899 389 5357 4227 rc
c10
10 0 10 0 9 0 10 0 10 0 10 0 9 0 10 0 
10 0 10 0 9 0 10 0 10 0 9 0 10 0 10 0 
10 0 9 0 10 0 10 0 10 0 9 0 10 0 10 0 
10 0 9 0 10 0 10 0 10 0 9 0 10 1 10 0 
10 0 9 0 10 0 10 0 9 0 10 0 10 0 10 0 
9 0 10 0 10 0 10 0 9 0 10 0 10 0 10 0 
9 0 10 0 10 0 10 0 9 0 10 0 10 0 9 0 
10 0 10 0 10 2 9 0 10 0 10 0 10 0 9 0 
10 0 10 0 10 0 9 0 10 0 10 0 10 0 9 0 
10 0 10 0 10 0 9 4 10 0 10 0 9 0 10 0 
10 0 10 0 9 0 10 0 10 0 10 0 9 0 10 0 
10 0 10 0 9 0 10 0 10 0 10 0 9 0 10 0 
10 0 9 0 10 0 10 1 10 0 9 0 10 0 10 0 
10 0 9 0 10 0 10 0 10 0 9 0 10 0 10 0 
10 0 9 0 10 0 10 0 10 0 9 0 10 1 10 0 
9 0 10 0 10 0 10 0 9 0 10 0 10 0 10 0 
9 0 10 0 10 0 10 0 9 0 10 0 10 4 10 0 
9 0 10 0 10 0 9 0 10 0 10 0 10 0 9 0 
10 0 10 11 10 0 9 0 10 0 10 8 10 0 9 0 
10 0 10 4 10 0 9 0 10 0 10 0 10 0 9 0 
10 0 10 0 9 0 10 0 10 0 10 0 9 0 10 0 
10 0 10 0 9 0 10 4 10 0 10 0 9 0 10 0 
10 0 10 0 9 0 10 0 10 0 9 0 10 0 10 0 
10 0 9 0 10 0 10 0 10 12 9 0 10 0 10 0 
10 0 9 0 10 0 10 0 10 0 9 0 10 0 10 0 
10 0 9 5 10 0 10 0 9 0 10 0 10 0 10 0 
9 3 10 1 10 0 10 0 9 0 10 0 10 0 10 0 
9 0 10 0 10 0 10 0 9 0 10 0 10 0 9 0 
10 0 10 0 10 0 9 0 10 0 10 0 10 0 9 0 
10 0 10 0 10 0 9 0 10 0 10 0 10 0 9 0 
10 0 10 0 10 5 9 0 10 0 10 0 9 0 10 0 
10 0 10 0 9 0 10 0 10 0 10 0 9 0 10 3 
10 0 10 0 9 0 10 0 10 0 10 0 9 0 10 0 
10 0 10 0 9 0 10 0 10 0 9 0 10 0 10 0 
10 0 9 0 10 0 10 0 10 0 9 0 10 0 10 0 
10 24 9 0 10 0 10 0 10 5 9 0 10 0 10 0 
9 0 10 1 10 0 10 6 9 0 10 0 10 14 10 0 
9 0 10 0 10 0 2846 480 300 MP stroke
10 0 9 0 10 0 10 0 10 0 9 0 10 0 10 0 
10 0 9 0 10 0 10 0 9 0 10 0 10 0 10 0 
9 0 10 0 10 0 10 5 9 0 10 0 10 0 10 0 
9 0 10 0 10 0 10 0 9 0 10 0 10 0 9 0 
10 0 10 1 10 0 9 0 10 0 10 0 10 0 9 0 
10 0 10 0 10 0 9 0 10 0 10 0 10 0 9 0 
10 22 10 0 10 0 9 2 10 0 10 0 9 0 10 0 
10 0 10 0 9 0 10 0 10 0 10 0 9 0 10 0 
10 0 10 0 9 0 10 0 10 0 10 0 9 0 10 0 
10 0 9 0 10 0 10 0 10 0 9 0 10 0 10 0 
10 0 9 0 10 0 10 0 10 0 9 0 10 1 10 0 
10 0 9 0 10 0 10 0 10 0 9 0 10 0 10 0 
9 0 10 4 10 4 10 0 9 2 10 0 10 0 10 0 
9 0 10 0 10 0 10 0 9 0 10 0 10 0 10 9 
9 0 10 0 10 0 9 2 10 0 10 2 10 0 9 0 
10 0 10 0 10 0 9 0 10 0 10 0 10 0 9 0 
10 0 10 4 10 0 9 0 10 0 10 0 10 0 9 1 
10 0 10 0 9 1 10 0 10 0 10 0 9 0 10 0 
10 0 10 0 9 0 10 0 10 0 10 0 9 0 10 2 
10 0 10 0 9 0 10 0 10 0 9 0 10 0 10 0 
10 0 9 0 10 0 10 0 10 0 9 0 10 0 10 0 
10 0 9 0 10 0 10 0 10 0 9 0 10 0 10 0 
10 0 9 0 10 0 10 0 9 0 10 0 10 0 10 0 
9 0 10 3 10 0 10 0 9 0 10 0 10 0 10 0 
9 1 10 0 10 0 10 0 9 0 10 0 10 0 9 1 
899 413 201 MP stroke
0 58 1084 389 2 MP stroke
93 0 1037 389 2 MP stroke
93 0 1037 447 2 MP stroke
0 58 1278 389 2 MP stroke
93 0 1232 389 2 MP stroke
93 0 1232 447 2 MP stroke
0 56 1473 392 2 MP stroke
94 0 1426 392 2 MP stroke
94 0 1426 448 2 MP stroke
0 55 1668 398 2 MP stroke
94 0 1621 398 2 MP stroke
94 0 1621 453 2 MP stroke
0 50 1863 414 2 MP stroke
93 0 1816 414 2 MP stroke
93 0 1816 464 2 MP stroke
0 47 2057 427 2 MP stroke
93 0 2011 427 2 MP stroke
93 0 2011 474 2 MP stroke
0 47 2252 427 2 MP stroke
94 0 2205 427 2 MP stroke
94 0 2205 474 2 MP stroke
0 58 2447 445 2 MP stroke
94 0 2400 445 2 MP stroke
94 0 2400 503 2 MP stroke
0 57 2642 447 2 MP stroke
93 0 2595 447 2 MP stroke
93 0 2595 504 2 MP stroke
0 56 2836 452 2 MP stroke
93 0 2790 452 2 MP stroke
93 0 2790 508 2 MP stroke
0 69 3031 496 2 MP stroke
94 0 2984 496 2 MP stroke
94 0 2984 565 2 MP stroke
0 69 3226 496 2 MP stroke
94 0 3179 496 2 MP stroke
94 0 3179 565 2 MP stroke
0 69 3421 503 2 MP stroke
93 0 3374 503 2 MP stroke
93 0 3374 572 2 MP stroke
0 69 3615 503 2 MP stroke
93 0 3569 503 2 MP stroke
93 0 3569 572 2 MP stroke
0 66 3810 514 2 MP stroke
94 0 3763 514 2 MP stroke
94 0 3763 580 2 MP stroke
0 64 4005 527 2 MP stroke
94 0 3958 527 2 MP stroke
94 0 3958 591 2 MP stroke
0 63 4200 531 2 MP stroke
93 0 4153 531 2 MP stroke
93 0 4153 594 2 MP stroke
0 71 4395 550 2 MP stroke
93 0 4348 550 2 MP stroke
93 0 4348 621 2 MP stroke
0 71 4589 554 2 MP stroke
93 0 4543 554 2 MP stroke
93 0 4543 625 2 MP stroke
0 71 4784 556 2 MP stroke
94 0 4737 556 2 MP stroke
94 0 4737 627 2 MP stroke
0 70 4979 557 2 MP stroke
94 0 4932 557 2 MP stroke
94 0 4932 627 2 MP stroke
0 70 5174 561 2 MP stroke
93 0 5127 561 2 MP stroke
93 0 5127 631 2 MP stroke
0 69 5368 564 2 MP stroke
93 0 5322 564 2 MP stroke
93 0 5322 633 2 MP stroke
0 68 5563 565 2 MP stroke
94 0 5516 565 2 MP stroke
94 0 5516 633 2 MP stroke
0 69 5758 565 2 MP stroke
94 0 5711 565 2 MP stroke
94 0 5711 634 2 MP stroke
gr

c10
  36   36 1084  418 FO
  36   36 1278  418 FO
  36   36 1473  420 FO
  36   36 1668  426 FO
  36   36 1863  439 FO
  36   36 2057  450 FO
  36   36 2252  450 FO
  36   36 2447  474 FO
  36   36 2642  475 FO
  36   36 2836  480 FO
  36   36 3031  530 FO
  36   36 3226  530 FO
  36   36 3421  538 FO
  36   36 3615  538 FO
  36   36 3810  547 FO
  36   36 4005  559 FO
  36   36 4200  563 FO
  36   36 4395  586 FO
  36   36 4589  590 FO
  36   36 4784  591 FO
  36   36 4979  592 FO
  36   36 5174  596 FO
  36   36 5368  598 FO
  36   36 5563  599 FO
  36   36 5758  599 FO
gs 899 389 5357 4227 rc
c11
10 0 10 0 9 0 10 0 10 0 10 0 9 0 10 0 
10 0 10 0 9 0 10 0 10 0 9 0 10 4 10 0 
10 0 9 0 10 0 10 0 10 0 9 0 10 0 10 0 
10 0 9 0 10 0 10 0 10 0 9 0 10 0 10 0 
10 0 9 0 10 0 10 0 9 0 10 0 10 0 10 0 
9 0 10 0 10 0 10 0 9 0 10 0 10 5 10 0 
9 0 10 0 10 0 10 0 9 0 10 0 10 0 9 0 
10 0 10 2 10 0 9 0 10 0 10 0 10 0 9 0 
10 0 10 0 10 0 9 0 10 0 10 0 10 0 9 0 
10 0 10 0 10 0 9 0 10 0 10 0 9 0 10 0 
10 0 10 0 9 0 10 1 10 0 10 0 9 0 10 0 
10 1 10 0 9 0 10 0 10 0 10 0 9 0 10 0 
10 0 9 0 10 0 10 0 10 0 9 0 10 0 10 0 
10 0 9 0 10 0 10 0 10 0 9 0 10 0 10 0 
10 0 9 0 10 0 10 0 10 0 9 0 10 0 10 0 
9 0 10 5 10 0 10 0 9 0 10 0 10 0 10 0 
9 0 10 0 10 0 10 0 9 0 10 0 10 0 10 0 
9 0 10 0 10 0 9 0 10 0 10 0 10 0 9 0 
10 0 10 0 10 0 9 0 10 0 10 0 10 0 9 0 
10 0 10 0 10 0 9 0 10 0 10 0 10 0 9 0 
10 0 10 0 9 0 10 0 10 0 10 0 9 0 10 0 
10 0 10 0 9 0 10 0 10 0 10 0 9 0 10 0 
10 0 10 0 9 0 10 0 10 0 9 0 10 0 10 0 
10 1 9 0 10 0 10 0 10 0 9 0 10 0 10 0 
10 0 9 0 10 0 10 0 10 0 9 0 10 0 10 0 
10 0 9 0 10 0 10 0 9 0 10 0 10 0 10 0 
9 0 10 0 10 0 10 0 9 0 10 0 10 0 10 0 
9 0 10 4 10 0 10 0 9 0 10 0 10 0 9 0 
10 0 10 0 10 0 9 0 10 0 10 0 10 0 9 0 
10 0 10 0 10 0 9 0 10 0 10 0 10 0 9 0 
10 0 10 0 10 0 9 0 10 0 10 0 9 0 10 0 
10 0 10 0 9 0 10 0 10 0 10 0 9 0 10 0 
10 0 10 0 9 0 10 0 10 0 10 0 9 0 10 0 
10 0 10 0 9 0 10 0 10 0 9 0 10 0 10 0 
10 0 9 0 10 0 10 0 10 0 9 0 10 0 10 0 
10 0 9 0 10 0 10 0 10 0 9 0 10 3 10 0 
9 0 10 0 10 0 10 0 9 0 10 0 10 0 10 0 
9 0 10 0 10 0 2846 1229 300 MP stroke
10 0 9 0 10 0 10 0 10 0 9 0 10 0 10 0 
10 0 9 0 10 0 10 0 9 0 10 0 10 0 10 0 
9 0 10 0 10 0 10 0 9 0 10 0 10 2 10 0 
9 0 10 0 10 0 10 0 9 0 10 0 10 0 9 0 
10 0 10 0 10 0 9 0 10 0 10 0 10 0 9 0 
10 0 10 0 10 0 9 0 10 0 10 0 10 0 9 0 
10 0 10 0 10 0 9 0 10 0 10 0 9 9 10 0 
10 0 10 0 9 0 10 16 10 0 10 0 9 0 10 0 
10 0 10 0 9 0 10 15 10 0 10 0 9 0 10 0 
10 0 9 0 10 0 10 0 10 0 9 0 10 0 10 0 
10 0 9 0 10 0 10 0 10 0 9 0 10 0 10 0 
10 0 9 0 10 3 10 0 10 1 9 0 10 0 10 0 
9 0 10 2 10 0 10 0 9 0 10 0 10 0 10 0 
9 0 10 17 10 0 10 0 9 0 10 0 10 4 10 0 
9 0 10 0 10 0 9 0 10 0 10 0 10 0 9 0 
10 0 10 1 10 0 9 0 10 0 10 0 10 0 9 0 
10 0 10 0 10 0 9 0 10 0 10 0 10 0 9 0 
10 0 10 0 9 0 10 0 10 0 10 0 9 0 10 0 
10 0 10 0 9 0 10 0 10 0 10 0 9 0 10 0 
10 0 10 0 9 0 10 0 10 0 9 0 10 0 10 14 
10 1 9 0 10 0 10 0 10 0 9 0 10 0 10 0 
10 0 9 0 10 0 10 0 10 3 9 0 10 0 10 3 
10 0 9 0 10 2 10 0 9 0 10 0 10 20 10 0 
9 2 10 0 10 0 10 0 9 11 10 0 10 11 10 0 
9 0 10 10 10 0 10 4 9 5 10 0 10 0 9 6 
899 1067 201 MP stroke
0 102 1084 1085 2 MP stroke
93 0 1037 1085 2 MP stroke
93 0 1037 1187 2 MP stroke
0 99 1278 1094 2 MP stroke
93 0 1232 1094 2 MP stroke
93 0 1232 1193 2 MP stroke
0 97 1473 1111 2 MP stroke
94 0 1426 1111 2 MP stroke
94 0 1426 1208 2 MP stroke
0 97 1668 1112 2 MP stroke
94 0 1621 1112 2 MP stroke
94 0 1621 1209 2 MP stroke
0 91 1863 1136 2 MP stroke
93 0 1816 1136 2 MP stroke
93 0 1816 1227 2 MP stroke
0 89 2057 1143 2 MP stroke
93 0 2011 1143 2 MP stroke
93 0 2011 1232 2 MP stroke
0 90 2252 1157 2 MP stroke
94 0 2205 1157 2 MP stroke
94 0 2205 1247 2 MP stroke
0 85 2447 1184 2 MP stroke
94 0 2400 1184 2 MP stroke
94 0 2400 1269 2 MP stroke
0 84 2642 1187 2 MP stroke
93 0 2595 1187 2 MP stroke
93 0 2595 1271 2 MP stroke
0 84 2836 1187 2 MP stroke
93 0 2790 1187 2 MP stroke
93 0 2790 1271 2 MP stroke
0 83 3031 1191 2 MP stroke
94 0 2984 1191 2 MP stroke
94 0 2984 1274 2 MP stroke
0 83 3226 1191 2 MP stroke
94 0 3179 1191 2 MP stroke
94 0 3179 1274 2 MP stroke
0 83 3421 1191 2 MP stroke
93 0 3374 1191 2 MP stroke
93 0 3374 1274 2 MP stroke
0 83 3615 1191 2 MP stroke
93 0 3569 1191 2 MP stroke
93 0 3569 1274 2 MP stroke
0 85 3810 1194 2 MP stroke
94 0 3763 1194 2 MP stroke
94 0 3763 1279 2 MP stroke
0 84 4005 1195 2 MP stroke
94 0 3958 1195 2 MP stroke
94 0 3958 1279 2 MP stroke
0 84 4200 1195 2 MP stroke
93 0 4153 1195 2 MP stroke
93 0 4153 1279 2 MP stroke
0 84 4395 1195 2 MP stroke
93 0 4348 1195 2 MP stroke
93 0 4348 1279 2 MP stroke
0 86 4589 1199 2 MP stroke
93 0 4543 1199 2 MP stroke
93 0 4543 1285 2 MP stroke
0 86 4784 1199 2 MP stroke
94 0 4737 1199 2 MP stroke
94 0 4737 1285 2 MP stroke
0 85 4979 1202 2 MP stroke
94 0 4932 1202 2 MP stroke
94 0 4932 1287 2 MP stroke
0 85 5174 1202 2 MP stroke
93 0 5127 1202 2 MP stroke
93 0 5127 1287 2 MP stroke
0 79 5368 1212 2 MP stroke
93 0 5322 1212 2 MP stroke
93 0 5322 1291 2 MP stroke
0 79 5563 1212 2 MP stroke
94 0 5516 1212 2 MP stroke
94 0 5516 1291 2 MP stroke
0 79 5758 1215 2 MP stroke
94 0 5711 1215 2 MP stroke
94 0 5711 1294 2 MP stroke
gr

c11
1048 1136 mt 1120 1136 L
1084 1100 mt 1084 1172 L
1242 1144 mt 1314 1144 L
1278 1108 mt 1278 1180 L
1437 1159 mt 1509 1159 L
1473 1123 mt 1473 1195 L
1632 1160 mt 1704 1160 L
1668 1124 mt 1668 1196 L
1827 1181 mt 1899 1181 L
1863 1145 mt 1863 1217 L
2021 1187 mt 2093 1187 L
2057 1151 mt 2057 1223 L
2216 1202 mt 2288 1202 L
2252 1166 mt 2252 1238 L
2411 1227 mt 2483 1227 L
2447 1191 mt 2447 1263 L
2606 1229 mt 2678 1229 L
2642 1193 mt 2642 1265 L
2800 1229 mt 2872 1229 L
2836 1193 mt 2836 1265 L
2995 1232 mt 3067 1232 L
3031 1196 mt 3031 1268 L
3190 1232 mt 3262 1232 L
3226 1196 mt 3226 1268 L
3385 1232 mt 3457 1232 L
3421 1196 mt 3421 1268 L
3579 1232 mt 3651 1232 L
3615 1196 mt 3615 1268 L
3774 1236 mt 3846 1236 L
3810 1200 mt 3810 1272 L
3969 1237 mt 4041 1237 L
4005 1201 mt 4005 1273 L
4164 1237 mt 4236 1237 L
4200 1201 mt 4200 1273 L
4359 1237 mt 4431 1237 L
4395 1201 mt 4395 1273 L
4553 1242 mt 4625 1242 L
4589 1206 mt 4589 1278 L
4748 1242 mt 4820 1242 L
4784 1206 mt 4784 1278 L
4943 1244 mt 5015 1244 L
4979 1208 mt 4979 1280 L
5138 1244 mt 5210 1244 L
5174 1208 mt 5174 1280 L
5332 1251 mt 5404 1251 L
5368 1215 mt 5368 1287 L
5527 1251 mt 5599 1251 L
5563 1215 mt 5563 1287 L
5722 1255 mt 5794 1255 L
5758 1219 mt 5758 1291 L
1059 1111 mt 1109 1161 L
1109 1111 mt 1059 1161 L
1253 1119 mt 1303 1169 L
1303 1119 mt 1253 1169 L
1448 1134 mt 1498 1184 L
1498 1134 mt 1448 1184 L
1643 1135 mt 1693 1185 L
1693 1135 mt 1643 1185 L
1838 1156 mt 1888 1206 L
1888 1156 mt 1838 1206 L
2032 1162 mt 2082 1212 L
2082 1162 mt 2032 1212 L
2227 1177 mt 2277 1227 L
2277 1177 mt 2227 1227 L
2422 1202 mt 2472 1252 L
2472 1202 mt 2422 1252 L
2617 1204 mt 2667 1254 L
2667 1204 mt 2617 1254 L
2811 1204 mt 2861 1254 L
2861 1204 mt 2811 1254 L
3006 1207 mt 3056 1257 L
3056 1207 mt 3006 1257 L
3201 1207 mt 3251 1257 L
3251 1207 mt 3201 1257 L
3396 1207 mt 3446 1257 L
3446 1207 mt 3396 1257 L
3590 1207 mt 3640 1257 L
3640 1207 mt 3590 1257 L
3785 1211 mt 3835 1261 L
3835 1211 mt 3785 1261 L
3980 1212 mt 4030 1262 L
4030 1212 mt 3980 1262 L
4175 1212 mt 4225 1262 L
4225 1212 mt 4175 1262 L
4370 1212 mt 4420 1262 L
4420 1212 mt 4370 1262 L
4564 1217 mt 4614 1267 L
4614 1217 mt 4564 1267 L
4759 1217 mt 4809 1267 L
4809 1217 mt 4759 1267 L
4954 1219 mt 5004 1269 L
5004 1219 mt 4954 1269 L
5149 1219 mt 5199 1269 L
5199 1219 mt 5149 1269 L
5343 1226 mt 5393 1276 L
5393 1226 mt 5343 1276 L
5538 1226 mt 5588 1276 L
5588 1226 mt 5538 1276 L
5733 1230 mt 5783 1280 L
5783 1230 mt 5733 1280 L
gs 899 389 5357 4227 rc
c12
10 0 10 0 9 0 10 0 10 0 10 0 9 0 10 0 
10 0 10 0 9 0 10 0 10 0 9 0 10 0 10 0 
10 0 9 0 10 0 10 0 10 0 9 0 10 0 10 0 
10 0 9 0 10 0 10 0 10 0 9 0 10 0 10 0 
10 0 9 0 10 0 10 0 9 0 10 0 10 0 10 0 
9 0 10 0 10 0 10 0 9 0 10 0 10 0 10 0 
9 0 10 0 10 0 10 0 9 0 10 0 10 0 9 0 
10 0 10 0 10 0 9 0 10 0 10 0 10 0 9 0 
10 0 10 0 10 0 9 0 10 0 10 0 10 0 9 0 
10 0 10 0 10 0 9 0 10 0 10 0 9 0 10 0 
10 0 10 0 9 0 10 0 10 0 10 0 9 0 10 0 
10 0 10 0 9 0 10 0 10 0 10 0 9 0 10 0 
10 0 9 0 10 0 10 0 10 0 9 0 10 0 10 0 
10 0 9 0 10 0 10 0 10 0 9 0 10 0 10 0 
10 0 9 0 10 0 10 0 10 0 9 0 10 0 10 0 
9 0 10 0 10 0 10 0 9 0 10 0 10 0 10 0 
9 0 10 0 10 0 10 0 9 0 10 0 10 0 10 0 
9 0 10 0 10 0 9 0 10 0 10 0 10 0 9 0 
10 0 10 0 10 0 9 0 10 0 10 0 10 0 9 0 
10 0 10 0 10 0 9 0 10 0 10 4 10 0 9 0 
10 0 10 0 9 0 10 0 10 0 10 0 9 0 10 0 
10 0 10 0 9 0 10 0 10 0 10 0 9 0 10 0 
10 0 10 0 9 0 10 0 10 0 9 0 10 0 10 0 
10 0 9 0 10 0 10 0 10 0 9 0 10 0 10 0 
10 0 9 0 10 0 10 0 10 0 9 0 10 0 10 0 
10 0 9 0 10 0 10 1 9 0 10 0 10 0 10 0 
9 0 10 0 10 0 10 2 9 0 10 0 10 0 10 0 
9 0 10 3 10 0 10 0 9 4 10 0 10 0 9 0 
10 0 10 7 10 6 9 0 10 0 10 7 10 7 9 0 
10 0 10 0 10 6 9 11 10 0 10 0 10 22 9 0 
10 0 10 0 10 0 9 0 10 0 10 0 9 0 10 1 
10 2 10 3 9 0 10 0 10 0 10 0 9 0 10 4 
10 0 10 0 9 0 10 14 10 0 10 0 9 0 10 0 
10 1 10 9 9 15 10 16 10 3 9 0 10 0 10 0 
10 1 9 0 10 0 10 0 10 0 9 19 10 7 10 12 
10 0 9 17 10 1 10 1 10 0 9 2 10 0 10 13 
9 1 10 0 10 0 10 0 9 18 10 0 10 4 10 0 
9 0 10 7 10 0 2846 2173 300 MP stroke
10 12 9 9 10 0 10 0 10 0 9 21 10 0 10 0 
10 13 9 0 10 4 10 0 9 6 10 12 10 28 10 31 
9 0 10 0 10 1 10 0 9 7 10 0 10 0 10 0 
9 7 10 4 10 0 10 1 9 0 10 1 10 0 9 0 
10 0 10 6 10 0 9 5 10 0 10 0 10 8 9 0 
10 0 10 0 10 0 9 26 10 0 10 0 10 0 9 0 
10 3 10 0 10 8 9 5 10 5 10 0 9 0 10 16 
10 18 10 2 9 0 10 0 10 7 10 11 9 0 10 0 
10 0 10 0 9 16 10 0 10 0 10 0 9 0 10 0 
10 0 9 7 10 12 10 16 10 18 9 0 10 0 10 3 
10 0 9 0 10 0 10 0 10 0 9 0 10 0 10 0 
10 0 9 0 10 0 10 0 10 0 9 0 10 0 10 0 
9 0 10 0 10 0 10 0 9 8 10 0 10 12 10 0 
9 12 10 4 10 6 10 0 9 8 10 8 10 0 10 6 
9 0 10 26 10 5 9 14 10 0 10 0 10 0 9 0 
10 0 10 0 10 0 9 0 10 0 10 23 10 9 9 12 
10 2 10 5 10 0 9 8 10 12 10 2 10 0 9 4 
10 0 10 0 9 0 10 0 10 0 10 0 9 0 10 0 
10 0 10 6 9 0 10 0 10 0 10 0 9 4 10 4 
10 9 10 0 9 0 10 1 10 1 9 1 10 26 10 7 
10 2 9 0 10 6 10 19 10 6 9 6 10 0 10 12 
10 4 9 0 10 0 10 0 10 0 9 23 10 11 10 9 
10 16 9 0 10 0 10 0 9 0 10 0 10 0 10 0 
9 0 10 10 10 4 10 0 9 0 10 12 10 35 10 0 
9 0 10 7 10 3 10 0 9 12 10 0 10 2 9 0 
899 1380 201 MP stroke
0 92 1084 1419 2 MP stroke
93 0 1037 1419 2 MP stroke
93 0 1037 1511 2 MP stroke
0 109 1278 1523 2 MP stroke
93 0 1232 1523 2 MP stroke
93 0 1232 1632 2 MP stroke
0 110 1473 1584 2 MP stroke
94 0 1426 1584 2 MP stroke
94 0 1426 1694 2 MP stroke
0 132 1668 1649 2 MP stroke
94 0 1621 1649 2 MP stroke
94 0 1621 1781 2 MP stroke
0 124 1863 1755 2 MP stroke
93 0 1816 1755 2 MP stroke
93 0 1816 1879 2 MP stroke
0 119 2057 1765 2 MP stroke
93 0 2011 1765 2 MP stroke
93 0 2011 1884 2 MP stroke
0 131 2252 1842 2 MP stroke
94 0 2205 1842 2 MP stroke
94 0 2205 1973 2 MP stroke
0 130 2447 1932 2 MP stroke
94 0 2400 1932 2 MP stroke
94 0 2400 2062 2 MP stroke
0 116 2642 1971 2 MP stroke
93 0 2595 1971 2 MP stroke
93 0 2595 2087 2 MP stroke
0 111 2836 2106 2 MP stroke
93 0 2790 2106 2 MP stroke
93 0 2790 2217 2 MP stroke
0 135 3031 2170 2 MP stroke
94 0 2984 2170 2 MP stroke
94 0 2984 2305 2 MP stroke
0 145 3226 2248 2 MP stroke
94 0 3179 2248 2 MP stroke
94 0 3179 2393 2 MP stroke
0 151 3421 2269 2 MP stroke
93 0 3374 2269 2 MP stroke
93 0 3374 2420 2 MP stroke
0 168 3615 2330 2 MP stroke
93 0 3569 2330 2 MP stroke
93 0 3569 2498 2 MP stroke
0 170 3810 2336 2 MP stroke
94 0 3763 2336 2 MP stroke
94 0 3763 2506 2 MP stroke
0 170 4005 2336 2 MP stroke
94 0 3958 2336 2 MP stroke
94 0 3958 2506 2 MP stroke
0 170 4200 2336 2 MP stroke
93 0 4153 2336 2 MP stroke
93 0 4153 2506 2 MP stroke
0 171 4395 2339 2 MP stroke
93 0 4348 2339 2 MP stroke
93 0 4348 2510 2 MP stroke
0 171 4589 2339 2 MP stroke
93 0 4543 2339 2 MP stroke
93 0 4543 2510 2 MP stroke
0 171 4784 2339 2 MP stroke
94 0 4737 2339 2 MP stroke
94 0 4737 2510 2 MP stroke
0 171 4979 2339 2 MP stroke
94 0 4932 2339 2 MP stroke
94 0 4932 2510 2 MP stroke
0 171 5174 2339 2 MP stroke
93 0 5127 2339 2 MP stroke
93 0 5127 2510 2 MP stroke
0 171 5368 2339 2 MP stroke
93 0 5322 2339 2 MP stroke
93 0 5322 2510 2 MP stroke
0 171 5563 2339 2 MP stroke
94 0 5516 2339 2 MP stroke
94 0 5516 2510 2 MP stroke
0 171 5758 2339 2 MP stroke
94 0 5711 2339 2 MP stroke
94 0 5711 2510 2 MP stroke
gr

c12
36 47 -36 47 -36 -47 36 -47 1084 1512 5 MP
DP
36 47 -36 47 -36 -47 36 -47 1278 1624 5 MP
DP
36 47 -36 47 -36 -47 36 -47 1473 1685 5 MP
DP
36 47 -36 47 -36 -47 36 -47 1668 1762 5 MP
DP
36 47 -36 47 -36 -47 36 -47 1863 1863 5 MP
DP
36 47 -36 47 -36 -47 36 -47 2057 1871 5 MP
DP
36 47 -36 47 -36 -47 36 -47 2252 1954 5 MP
DP
36 47 -36 47 -36 -47 36 -47 2447 2044 5 MP
DP
36 47 -36 47 -36 -47 36 -47 2642 2076 5 MP
DP
36 47 -36 47 -36 -47 36 -47 2836 2208 5 MP
DP
36 47 -36 47 -36 -47 36 -47 3031 2284 5 MP
DP
36 47 -36 47 -36 -47 36 -47 3226 2367 5 MP
DP
36 47 -36 47 -36 -47 36 -47 3421 2391 5 MP
DP
36 47 -36 47 -36 -47 36 -47 3615 2461 5 MP
DP
36 47 -36 47 -36 -47 36 -47 3810 2467 5 MP
DP
36 47 -36 47 -36 -47 36 -47 4005 2467 5 MP
DP
36 47 -36 47 -36 -47 36 -47 4200 2467 5 MP
DP
36 47 -36 47 -36 -47 36 -47 4395 2471 5 MP
DP
36 47 -36 47 -36 -47 36 -47 4589 2471 5 MP
DP
36 47 -36 47 -36 -47 36 -47 4784 2471 5 MP
DP
36 47 -36 47 -36 -47 36 -47 4979 2471 5 MP
DP
36 47 -36 47 -36 -47 36 -47 5174 2471 5 MP
DP
36 47 -36 47 -36 -47 36 -47 5368 2471 5 MP
DP
36 47 -36 47 -36 -47 36 -47 5563 2471 5 MP
DP
36 47 -36 47 -36 -47 36 -47 5758 2471 5 MP
DP
gs 899 389 5357 4227 rc
0 sg
10 4 10 4 9 7 10 0 10 0 10 0 9 0 10 0 
10 0 10 0 9 0 10 0 10 0 9 0 10 0 10 0 
10 7 9 2 10 0 10 20 10 9 9 0 10 0 10 0 
10 0 9 9 10 0 10 0 10 0 9 25 10 0 10 0 
10 0 9 4 10 0 10 0 9 3 10 0 10 0 10 0 
9 5 10 0 10 0 10 0 9 0 10 0 10 0 10 0 
9 0 10 3 10 1 10 0 9 0 10 17 10 0 9 0 
10 0 10 1 10 0 9 0 10 0 10 0 10 4 9 5 
10 1 10 17 10 0 9 0 10 0 10 0 10 0 9 0 
10 0 10 3 10 0 9 1 10 17 10 16 9 2 10 1 
10 0 10 0 9 0 10 3 10 71 10 0 9 0 10 0 
10 0 10 1 9 0 10 0 10 0 10 0 9 0 10 9 
10 0 9 0 10 0 10 3 10 1 9 0 10 10 10 5 
10 3 9 6 10 0 10 0 10 3 9 1 10 1 10 0 
10 6 9 3 10 0 10 6 10 0 9 0 10 16 10 0 
9 1 10 0 10 1 10 0 9 0 10 0 10 22 10 7 
9 4 10 9 10 27 10 4 9 10 10 1 10 0 10 0 
9 0 10 19 10 0 9 16 10 0 10 0 10 0 9 0 
10 0 10 0 10 0 9 0 10 0 10 6 10 3 9 8 
10 0 10 6 10 0 9 1 10 1 10 12 10 2 9 0 
10 3 10 2 9 3 10 0 10 0 10 8 9 2 10 27 
10 1 10 7 9 27 10 0 10 0 10 0 9 4 10 2 
10 0 10 5 9 4 10 14 10 2 9 10 10 0 10 26 
10 8 9 0 10 0 10 0 10 2 9 32 10 35 10 0 
10 0 9 11 10 0 10 0 10 0 9 0 10 0 10 5 
10 1 9 6 10 0 10 24 9 0 10 0 10 3 10 10 
9 0 10 19 10 1 10 0 9 6 10 0 10 0 10 0 
9 0 10 8 10 0 10 22 9 20 10 6 10 5 9 24 
10 0 10 0 10 0 9 0 10 0 10 0 10 0 9 11 
10 0 10 0 10 32 9 20 10 0 10 5 10 7 9 0 
10 0 10 0 10 0 9 8 10 0 10 5 9 0 10 0 
10 0 10 14 9 4 10 1 10 0 10 2 9 5 10 0 
10 0 10 0 9 3 10 0 10 0 10 0 9 0 10 0 
10 0 10 0 9 0 10 1 10 4 9 2 10 0 10 1 
10 3 9 5 10 3 10 0 10 0 9 15 10 3 10 0 
10 0 9 0 10 0 10 1 10 14 9 8 10 16 10 0 
9 10 10 33 10 0 10 0 9 0 10 0 10 0 10 0 
9 0 10 0 10 0 2846 3389 300 MP stroke
10 0 9 0 10 0 10 15 10 3 9 3 10 1 10 0 
10 2 9 0 10 3 10 8 9 11 10 3 10 1 10 26 
9 0 10 0 10 0 10 9 9 29 10 6 10 1 10 5 
9 3 10 10 10 0 10 0 9 28 10 1 10 0 9 3 
10 3 10 32 10 0 9 0 10 10 10 7 10 0 9 16 
10 0 10 4 10 4 9 16 10 29 10 14 10 6 9 0 
10 0 10 0 10 0 9 0 10 19 10 21 9 13 10 5 
10 0 10 0 9 0 10 2 10 18 10 0 9 23 10 0 
10 0 10 6 9 0 10 0 10 4 10 1 9 6 10 2 
10 17 9 7 10 16 10 6 10 11 9 9 10 33 10 1 
10 4 9 6 10 0 10 6 10 14 9 6 10 15 10 23 
10 4 9 0 10 12 10 19 10 0 9 30 10 7 10 0 
9 0 10 5 10 0 10 0 9 6 10 2 10 1 10 22 
9 7 10 0 10 0 10 1 9 0 10 7 10 11 10 0 
9 46 10 0 10 0 9 0 10 0 10 0 10 12 9 11 
10 0 10 0 10 1 9 0 10 0 10 13 10 10 9 21 
10 9 10 22 10 8 9 0 10 0 10 13 10 8 9 0 
10 20 10 2 9 35 10 28 10 24 10 28 9 29 10 85 
10 21 10 53 9 0 10 0 10 2 10 0 9 1 10 20 
10 0 10 4 9 11 10 16 10 0 9 4 10 2 10 0 
10 1 9 1 10 9 10 0 10 3 9 1 10 3 10 41 
10 2 9 20 10 0 10 23 10 0 9 4 10 6 10 5 
10 6 9 15 10 10 10 0 9 4 10 0 10 22 10 0 
9 2 10 30 10 11 10 48 9 10 10 3 10 15 10 16 
9 0 10 28 10 0 10 3 9 0 10 0 10 0 9 0 
899 1748 201 MP stroke
0 147 1084 1863 2 MP stroke
93 0 1037 1863 2 MP stroke
93 0 1037 2010 2 MP stroke
0 120 1278 2029 2 MP stroke
93 0 1232 2029 2 MP stroke
93 0 1232 2149 2 MP stroke
0 167 1473 2283 2 MP stroke
94 0 1426 2283 2 MP stroke
94 0 1426 2450 2 MP stroke
0 140 1668 2511 2 MP stroke
94 0 1621 2511 2 MP stroke
94 0 1621 2651 2 MP stroke
0 137 1863 2632 2 MP stroke
93 0 1816 2632 2 MP stroke
93 0 1816 2769 2 MP stroke
0 148 2057 2780 2 MP stroke
93 0 2011 2780 2 MP stroke
93 0 2011 2928 2 MP stroke
0 159 2252 2920 2 MP stroke
94 0 2205 2920 2 MP stroke
94 0 2205 3079 2 MP stroke
0 191 2447 3055 2 MP stroke
94 0 2400 3055 2 MP stroke
94 0 2400 3246 2 MP stroke
0 182 2642 3185 2 MP stroke
93 0 2595 3185 2 MP stroke
93 0 2595 3367 2 MP stroke
0 214 2836 3283 2 MP stroke
93 0 2790 3283 2 MP stroke
93 0 2790 3497 2 MP stroke
0 229 3031 3358 2 MP stroke
94 0 2984 3358 2 MP stroke
94 0 2984 3587 2 MP stroke
0 225 3226 3397 2 MP stroke
94 0 3179 3397 2 MP stroke
94 0 3179 3622 2 MP stroke
0 220 3421 3441 2 MP stroke
93 0 3374 3441 2 MP stroke
93 0 3374 3661 2 MP stroke
0 208 3615 3577 2 MP stroke
93 0 3569 3577 2 MP stroke
93 0 3569 3785 2 MP stroke
0 199 3810 3682 2 MP stroke
94 0 3763 3682 2 MP stroke
94 0 3763 3881 2 MP stroke
0 213 4005 3806 2 MP stroke
94 0 3958 3806 2 MP stroke
94 0 3958 4019 2 MP stroke
0 210 4200 3916 2 MP stroke
93 0 4153 3916 2 MP stroke
93 0 4153 4126 2 MP stroke
0 202 4395 3959 2 MP stroke
93 0 4348 3959 2 MP stroke
93 0 4348 4161 2 MP stroke
0 187 4589 4087 2 MP stroke
93 0 4543 4087 2 MP stroke
93 0 4543 4274 2 MP stroke
0 177 4784 4153 2 MP stroke
94 0 4737 4153 2 MP stroke
94 0 4737 4330 2 MP stroke
0 188 4979 4235 2 MP stroke
94 0 4932 4235 2 MP stroke
94 0 4932 4423 2 MP stroke
0 188 5174 4302 2 MP stroke
93 0 5127 4302 2 MP stroke
93 0 5127 4490 2 MP stroke
0 198 5368 4324 2 MP stroke
93 0 5322 4324 2 MP stroke
93 0 5322 4522 2 MP stroke
0 191 5563 4378 2 MP stroke
94 0 5516 4378 2 MP stroke
94 0 5516 4569 2 MP stroke
0 196 5758 4419 2 MP stroke
94 0 5711 4419 2 MP stroke
94 0 5711 4615 2 MP stroke
gr

0 sg
1048 1936 mt 1120 1936 L
1084 1900 mt 1084 1972 L
1242 2089 mt 1314 2089 L
1278 2053 mt 1278 2125 L
1437 2366 mt 1509 2366 L
1473 2330 mt 1473 2402 L
1632 2580 mt 1704 2580 L
1668 2544 mt 1668 2616 L
1827 2700 mt 1899 2700 L
1863 2664 mt 1863 2736 L
2021 2853 mt 2093 2853 L
2057 2817 mt 2057 2889 L
2216 2999 mt 2288 2999 L
2252 2963 mt 2252 3035 L
2411 3150 mt 2483 3150 L
2447 3114 mt 2447 3186 L
2606 3275 mt 2678 3275 L
2642 3239 mt 2642 3311 L
2800 3389 mt 2872 3389 L
2836 3353 mt 2836 3425 L
2995 3471 mt 3067 3471 L
3031 3435 mt 3031 3507 L
3190 3508 mt 3262 3508 L
3226 3472 mt 3226 3544 L
3385 3550 mt 3457 3550 L
3421 3514 mt 3421 3586 L
3579 3680 mt 3651 3680 L
3615 3644 mt 3615 3716 L
3774 3780 mt 3846 3780 L
3810 3744 mt 3810 3816 L
3969 3911 mt 4041 3911 L
4005 3875 mt 4005 3947 L
4164 4020 mt 4236 4020 L
4200 3984 mt 4200 4056 L
4359 4059 mt 4431 4059 L
4395 4023 mt 4395 4095 L
4553 4180 mt 4625 4180 L
4589 4144 mt 4589 4216 L
4748 4241 mt 4820 4241 L
4784 4205 mt 4784 4277 L
4943 4328 mt 5015 4328 L
4979 4292 mt 4979 4364 L
5138 4395 mt 5210 4395 L
5174 4359 mt 5174 4431 L
5332 4422 mt 5404 4422 L
5368 4386 mt 5368 4458 L
5527 4472 mt 5599 4472 L
5563 4436 mt 5563 4508 L
5722 4516 mt 5794 4516 L
5758 4480 mt 5758 4552 L
gs 899 389 5357 4227 rc
gr

1 sg
0 918 1538 0 0 -918 4658 1367 4 MP
PP
-1538 0 0 918 1538 0 0 -918 4658 1367 5 MP stroke
4 w
DO
SO
6 w
0 sg
4658 1367 mt 6196 1367 L
4658  449 mt 6196  449 L
4658 1367 mt 4658  449 L
6196 1367 mt 6196  449 L
4658 1367 mt 6196 1367 L
4658 1367 mt 4658  449 L
4658 1367 mt 6196 1367 L
4658  449 mt 6196  449 L
4658 1367 mt 4658  449 L
6196 1367 mt 6196  449 L
5125  581 mt 
(original BO) s
gs 4658 449 1539 919 rc
gs 4836 465 147 147 rc
41 71 -82 0 41 -71 4909 585 4 MP
c8
DP
gr

c8
gr

c8
0 sg
5125  729 mt 
(random basis) s
gs 4658 449 1539 919 rc
gs 4836 613 147 147 rc
0 -58 -58 0 0 58 58 0 4880 657 5 MP
c9
DP
gr

c9
gr

c9
0 sg
5125  877 mt 
(random embedding) s
gs 4658 449 1539 919 rc
gs 4836 761 147 147 rc
c10
  36   36 4909  834 FO
gr

c10
gr

c10
0 sg
5125 1024 mt 
(subpsace learning) s
gs 4658 449 1539 919 rc
gs 4836 908 147 147 rc
c11
4873  981 mt 4945  981 L
4909  945 mt 4909 1017 L
4884  956 mt 4934 1006 L
4934  956 mt 4884 1006 L
gr

c11
gr

c11
0 sg
5125 1172 mt 
(additive model) s
gs 4658 449 1539 919 rc
gs 4836 1056 147 147 rc
36 47 -36 47 -36 -47 36 -47 4909 1176 5 MP
c12
DP
gr

c12
gr

c12
0 sg
5125 1320 mt 
(anova ve) s
gs 4658 449 1539 919 rc
gs 4836 1204 147 147 rc
4873 1277 mt 4945 1277 L
4909 1241 mt 4909 1313 L
gr

gr


end %%Color Dict

eplot
%%EndObject

epage
end

showpage

%%Trailer
%%EOF
