%!PS-Adobe-3.0 EPSF-3.0
%%Creator: MATLAB, The MathWorks, Inc. Version 7.12.0.635 (R2011a). Operating System: Linux 3.16.0-4-amd64 #1 SMP Debian 3.16.7-ckt20-1+deb8u3 (2016-01-17) x86_64.
%%Title: /home/jaemin/Research/codes_MATSIM/HIGHDIM_BO_MATSIM/results/logsumSE2/logsumSE2_avr_cumulative_regret_20.eps
%%CreationDate: 05/21/2016  15:42:20
%%DocumentNeededFonts: Helvetica
%%DocumentProcessColors: Cyan Magenta Yellow Black
%%LanguageLevel: 2
%%Pages: 1
%%BoundingBox:    47   199   546   591
%%EndComments

%%BeginProlog
% MathWorks dictionary
/MathWorks 160 dict begin
% definition operators
/bdef {bind def} bind def
/ldef {load def} bind def
/xdef {exch def} bdef
/xstore {exch store} bdef
% operator abbreviations
/c  /clip ldef
/cc /concat ldef
/cp /closepath ldef
/gr /grestore ldef
/gs /gsave ldef
/mt /moveto ldef
/np /newpath ldef
/cm /currentmatrix ldef
/sm /setmatrix ldef
/rm /rmoveto ldef
/rl /rlineto ldef
/s {show newpath} bdef
/sc {setcmykcolor} bdef
/sr /setrgbcolor ldef
/sg /setgray ldef
/w /setlinewidth ldef
/j /setlinejoin ldef
/cap /setlinecap ldef
/rc {rectclip} bdef
/rf {rectfill} bdef
% page state control
/pgsv () def
/bpage {/pgsv save def} bdef
/epage {pgsv restore} bdef
/bplot /gsave ldef
/eplot {stroke grestore} bdef
% orientation switch
/portraitMode 0 def /landscapeMode 1 def /rotateMode 2 def
% coordinate system mappings
/dpi2point 0 def
% font control
/FontSize 0 def
/FMS {/FontSize xstore findfont [FontSize 0 0 FontSize neg 0 0]
  makefont setfont} bdef
/reencode {exch dup where {pop load} {pop StandardEncoding} ifelse
  exch dup 3 1 roll findfont dup length dict begin
  { 1 index /FID ne {def}{pop pop} ifelse } forall
  /Encoding exch def currentdict end definefont pop} bdef
/isroman {findfont /CharStrings get /Agrave known} bdef
/FMSR {3 1 roll 1 index dup isroman {reencode} {pop pop} ifelse
  exch FMS} bdef
/csm {1 dpi2point div -1 dpi2point div scale neg translate
 dup landscapeMode eq {pop -90 rotate}
  {rotateMode eq {90 rotate} if} ifelse} bdef
% line types: solid, dotted, dashed, dotdash
/SO { [] 0 setdash } bdef
/DO { [.5 dpi2point mul 4 dpi2point mul] 0 setdash } bdef
/DA { [6 dpi2point mul] 0 setdash } bdef
/DD { [.5 dpi2point mul 4 dpi2point mul 6 dpi2point mul 4
  dpi2point mul] 0 setdash } bdef
% macros for lines and objects
/L {lineto stroke} bdef
/MP {3 1 roll moveto 1 sub {rlineto} repeat} bdef
/AP {{rlineto} repeat} bdef
/PDlw -1 def
/W {/PDlw currentlinewidth def setlinewidth} def
/PP {closepath eofill} bdef
/DP {closepath stroke} bdef
/MR {4 -2 roll moveto dup  0 exch rlineto exch 0 rlineto
  neg 0 exch rlineto closepath} bdef
/FR {MR stroke} bdef
/PR {MR fill} bdef
/L1i {{currentfile picstr readhexstring pop} image} bdef
/tMatrix matrix def
/MakeOval {newpath tMatrix currentmatrix pop translate scale
0 0 1 0 360 arc tMatrix setmatrix} bdef
/FO {MakeOval stroke} bdef
/PO {MakeOval fill} bdef
/PD {currentlinewidth 2 div 0 360 arc fill
   PDlw -1 eq not {PDlw w /PDlw -1 def} if} def
/FA {newpath tMatrix currentmatrix pop translate scale
  0 0 1 5 -2 roll arc tMatrix setmatrix stroke} bdef
/PA {newpath tMatrix currentmatrix pop	translate 0 0 moveto scale
  0 0 1 5 -2 roll arc closepath tMatrix setmatrix fill} bdef
/FAn {newpath tMatrix currentmatrix pop translate scale
  0 0 1 5 -2 roll arcn tMatrix setmatrix stroke} bdef
/PAn {newpath tMatrix currentmatrix pop translate 0 0 moveto scale
  0 0 1 5 -2 roll arcn closepath tMatrix setmatrix fill} bdef
/vradius 0 def /hradius 0 def /lry 0 def
/lrx 0 def /uly 0 def /ulx 0 def /rad 0 def
/MRR {/vradius xdef /hradius xdef /lry xdef /lrx xdef /uly xdef
  /ulx xdef newpath tMatrix currentmatrix pop ulx hradius add uly
  vradius add translate hradius vradius scale 0 0 1 180 270 arc 
  tMatrix setmatrix lrx hradius sub uly vradius add translate
  hradius vradius scale 0 0 1 270 360 arc tMatrix setmatrix
  lrx hradius sub lry vradius sub translate hradius vradius scale
  0 0 1 0 90 arc tMatrix setmatrix ulx hradius add lry vradius sub
  translate hradius vradius scale 0 0 1 90 180 arc tMatrix setmatrix
  closepath} bdef
/FRR {MRR stroke } bdef
/PRR {MRR fill } bdef
/MlrRR {/lry xdef /lrx xdef /uly xdef /ulx xdef /rad lry uly sub 2 div def
  newpath tMatrix currentmatrix pop ulx rad add uly rad add translate
  rad rad scale 0 0 1 90 270 arc tMatrix setmatrix lrx rad sub lry rad
  sub translate rad rad scale 0 0 1 270 90 arc tMatrix setmatrix
  closepath} bdef
/FlrRR {MlrRR stroke } bdef
/PlrRR {MlrRR fill } bdef
/MtbRR {/lry xdef /lrx xdef /uly xdef /ulx xdef /rad lrx ulx sub 2 div def
  newpath tMatrix currentmatrix pop ulx rad add uly rad add translate
  rad rad scale 0 0 1 180 360 arc tMatrix setmatrix lrx rad sub lry rad
  sub translate rad rad scale 0 0 1 0 180 arc tMatrix setmatrix
  closepath} bdef
/FtbRR {MtbRR stroke } bdef
/PtbRR {MtbRR fill } bdef
/stri 6 array def /dtri 6 array def
/smat 6 array def /dmat 6 array def
/tmat1 6 array def /tmat2 6 array def /dif 3 array def
/asub {/ind2 exch def /ind1 exch def dup dup
  ind1 get exch ind2 get sub exch } bdef
/tri_to_matrix {
  2 0 asub 3 1 asub 4 0 asub 5 1 asub
  dup 0 get exch 1 get 7 -1 roll astore } bdef
/compute_transform {
  dmat dtri tri_to_matrix tmat1 invertmatrix 
  smat stri tri_to_matrix tmat2 concatmatrix } bdef
/ds {stri astore pop} bdef
/dt {dtri astore pop} bdef
/db {2 copy /cols xdef /rows xdef mul dup 3 mul string
  currentfile 
  3 index 0 eq {/ASCIIHexDecode filter}
  {/ASCII85Decode filter 3 index 2 eq {/RunLengthDecode filter} if }
  ifelse exch readstring pop
  dup 0 3 index getinterval /rbmap xdef
  dup 2 index dup getinterval /gbmap xdef
  1 index dup 2 mul exch getinterval /bbmap xdef pop pop}bdef
/it {gs np dtri aload pop moveto lineto lineto cp c
  cols rows 8 compute_transform 
  rbmap gbmap bbmap true 3 colorimage gr}bdef
/il {newpath moveto lineto stroke}bdef
currentdict end def
%%EndProlog

%%BeginSetup
MathWorks begin

0 cap

end
%%EndSetup

%%Page: 1 1
%%BeginPageSetup
%%PageBoundingBox:    47   199   546   591
MathWorks begin
bpage
%%EndPageSetup

%%BeginObject: obj1
bplot

/dpi2point 12 def
portraitMode 0216 7344 csm

  348   247  5997  4708 rc
88 dict begin %Colortable dictionary
/c0 { 0.000000 0.000000 0.000000 sr} bdef
/c1 { 1.000000 1.000000 1.000000 sr} bdef
/c2 { 0.900000 0.000000 0.000000 sr} bdef
/c3 { 0.000000 0.820000 0.000000 sr} bdef
/c4 { 0.000000 0.000000 0.800000 sr} bdef
/c5 { 0.910000 0.820000 0.320000 sr} bdef
/c6 { 1.000000 0.260000 0.820000 sr} bdef
/c7 { 0.000000 0.820000 0.820000 sr} bdef
c0
1 j
1 sg
   0    0 6913 5186 rf
6 w
0 4226 5356 0 0 -4226 899 4615 4 MP
PP
-5356 0 0 4226 5356 0 0 -4226 899 4615 5 MP stroke
4 w
DO
SO
6 w
0 sg
 899 4615 mt 6255 4615 L
 899  389 mt 6255  389 L
 899 4615 mt  899  389 L
6255 4615 mt 6255  389 L
 899 4615 mt 6255 4615 L
 899 4615 mt  899  389 L
 899 4615 mt  899 4561 L
 899  389 mt  899  442 L
%%IncludeResource: font Helvetica
/Helvetica /ISOLatin1Encoding 120 FMSR

 866 4760 mt 
(0) s
1385 4615 mt 1385 4561 L
1385  389 mt 1385  442 L
1319 4760 mt 
(50) s
1872 4615 mt 1872 4561 L
1872  389 mt 1872  442 L
1772 4760 mt 
(100) s
2359 4615 mt 2359 4561 L
2359  389 mt 2359  442 L
2259 4760 mt 
(150) s
2846 4615 mt 2846 4561 L
2846  389 mt 2846  442 L
2746 4760 mt 
(200) s
3333 4615 mt 3333 4561 L
3333  389 mt 3333  442 L
3233 4760 mt 
(250) s
3820 4615 mt 3820 4561 L
3820  389 mt 3820  442 L
3720 4760 mt 
(300) s
4307 4615 mt 4307 4561 L
4307  389 mt 4307  442 L
4207 4760 mt 
(350) s
4794 4615 mt 4794 4561 L
4794  389 mt 4794  442 L
4694 4760 mt 
(400) s
5281 4615 mt 5281 4561 L
5281  389 mt 5281  442 L
5181 4760 mt 
(450) s
5768 4615 mt 5768 4561 L
5768  389 mt 5768  442 L
5668 4760 mt 
(500) s
 899 4615 mt  899 4615 L
 899 4615 mt  899 4615 L
 899 4615 mt  899 4615 L
 899 4615 mt  899 4615 L
 899 4615 mt  899 4615 L
 899 4615 mt  899 4615 L
 899 4615 mt  899 4615 L
 899 4615 mt  899 4615 L
 899 4615 mt  899 4615 L
 899 4615 mt  899 4615 L
 899 4615 mt  899 4615 L
 899 4615 mt  899 4615 L
 899 4615 mt  899 4615 L
 899 4615 mt  899 4615 L
 899 4615 mt  899 4615 L
 899 4615 mt  899 4615 L
 899 4615 mt  899 4615 L
 899 4615 mt  899 4615 L
 899 3692 mt  952 3692 L
6255 3692 mt 6201 3692 L
 620 3736 mt 
(10) s
%%IncludeResource: font Helvetica
/Helvetica /ISOLatin1Encoding 80 FMSR

 753 3662 mt 
(0.2) s
 899 4615 mt  899 4615 L
 899 4615 mt  899 4615 L
 899 4615 mt  899 4615 L
 899 4615 mt  899 4615 L
 899 4615 mt  899 4615 L
 899 4615 mt  899 4615 L
 899 4615 mt  899 4615 L
 899 4615 mt  899 4615 L
 899 4615 mt  899 4615 L
 899 4615 mt  899 4615 L
 899 4615 mt  899 4615 L
 899 4615 mt  899 4615 L
 899 4615 mt  899 4615 L
 899 4615 mt  899 4615 L
 899 4615 mt  899 4615 L
 899 4615 mt  899 4615 L
 899 4615 mt  899 4615 L
 899 4615 mt  899 4615 L
 899 1345 mt  952 1345 L
6255 1345 mt 6201 1345 L
%%IncludeResource: font Helvetica
/Helvetica /ISOLatin1Encoding 120 FMSR

 620 1389 mt 
(10) s
%%IncludeResource: font Helvetica
/Helvetica /ISOLatin1Encoding 80 FMSR

 753 1315 mt 
(0.3) s
 899 4615 mt  899 4615 L
 899 4615 mt  899 4615 L
 899 4615 mt  899 4615 L
 899 4615 mt  899 4615 L
 899 4615 mt  899 4615 L
 899 4615 mt  899 4615 L
 899 4615 mt  899 4615 L
 899 4615 mt  899 4615 L
 899 4615 mt  899 4615 L
 899 4615 mt  899 4615 L
 899 4615 mt  899 4615 L
 899 4615 mt  899 4615 L
 899 4615 mt  899 4615 L
 899 4615 mt  899 4615 L
 899 4615 mt  899 4615 L
 899 4615 mt  899 4615 L
 899 4615 mt  899 4615 L
 899 4615 mt  899 4615 L
 899 4615 mt 6255 4615 L
 899  389 mt 6255  389 L
 899 4615 mt  899  389 L
6255 4615 mt 6255  389 L
gs 899 389 5357 4227 rc
gr

0 j
41 71 -82 0 41 -71 1084 598 4 MP
/c8 { 0.000000 1.000000 0.000000 sr} bdef
c8
DP
41 71 -82 0 41 -71 1278 593 4 MP
DP
41 71 -82 0 41 -71 1473 595 4 MP
DP
41 71 -82 0 41 -71 1668 595 4 MP
DP
41 71 -82 0 41 -71 1863 595 4 MP
DP
41 71 -82 0 41 -71 2057 596 4 MP
DP
41 71 -82 0 41 -71 2252 597 4 MP
DP
41 71 -82 0 41 -71 2447 598 4 MP
DP
41 71 -82 0 41 -71 2642 599 4 MP
DP
41 71 -82 0 41 -71 2836 599 4 MP
DP
41 71 -82 0 41 -71 3031 599 4 MP
DP
41 71 -82 0 41 -71 3226 600 4 MP
DP
41 71 -82 0 41 -71 3421 601 4 MP
DP
41 71 -82 0 41 -71 3615 601 4 MP
DP
41 71 -82 0 41 -71 3810 602 4 MP
DP
41 71 -82 0 41 -71 4005 603 4 MP
DP
41 71 -82 0 41 -71 4200 603 4 MP
DP
41 71 -82 0 41 -71 4395 604 4 MP
DP
41 71 -82 0 41 -71 4589 604 4 MP
DP
41 71 -82 0 41 -71 4784 604 4 MP
DP
41 71 -82 0 41 -71 4979 604 4 MP
DP
41 71 -82 0 41 -71 5174 605 4 MP
DP
41 71 -82 0 41 -71 5368 605 4 MP
DP
41 71 -82 0 41 -71 5563 604 4 MP
DP
41 71 -82 0 41 -71 5758 604 4 MP
DP
gs 899 389 5357 4227 rc
gr

0 -58 -58 0 0 58 58 0 1055 875 5 MP
/c9 { 1.000000 0.000000 0.000000 sr} bdef
c9
DP
0 -58 -58 0 0 58 58 0 1249 901 5 MP
DP
0 -58 -58 0 0 58 58 0 1444 914 5 MP
DP
0 -58 -58 0 0 58 58 0 1639 930 5 MP
DP
0 -58 -58 0 0 58 58 0 1834 947 5 MP
DP
0 -58 -58 0 0 58 58 0 2028 952 5 MP
DP
0 -58 -58 0 0 58 58 0 2223 964 5 MP
DP
0 -58 -58 0 0 58 58 0 2418 968 5 MP
DP
0 -58 -58 0 0 58 58 0 2613 969 5 MP
DP
0 -58 -58 0 0 58 58 0 2807 978 5 MP
DP
0 -58 -58 0 0 58 58 0 3002 985 5 MP
DP
0 -58 -58 0 0 58 58 0 3197 992 5 MP
DP
0 -58 -58 0 0 58 58 0 3392 996 5 MP
DP
0 -58 -58 0 0 58 58 0 3586 1001 5 MP
DP
0 -58 -58 0 0 58 58 0 3781 1003 5 MP
DP
0 -58 -58 0 0 58 58 0 3976 1006 5 MP
DP
0 -58 -58 0 0 58 58 0 4171 1013 5 MP
DP
0 -58 -58 0 0 58 58 0 4366 1015 5 MP
DP
0 -58 -58 0 0 58 58 0 4560 1018 5 MP
DP
0 -58 -58 0 0 58 58 0 4755 1024 5 MP
DP
0 -58 -58 0 0 58 58 0 4950 1028 5 MP
DP
0 -58 -58 0 0 58 58 0 5145 1031 5 MP
DP
0 -58 -58 0 0 58 58 0 5339 1032 5 MP
DP
0 -58 -58 0 0 58 58 0 5534 1035 5 MP
DP
0 -58 -58 0 0 58 58 0 5729 1039 5 MP
DP
gs 899 389 5357 4227 rc
gr

/c10 { 0.000000 1.000000 1.000000 sr} bdef
c10
  36   36 1084  397 FO
  36   36 1278  402 FO
  36   36 1473  405 FO
  36   36 1668  407 FO
  36   36 1863  409 FO
  36   36 2057  411 FO
  36   36 2252  414 FO
  36   36 2447  414 FO
  36   36 2642  415 FO
  36   36 2836  416 FO
  36   36 3031  418 FO
  36   36 3226  420 FO
  36   36 3421  421 FO
  36   36 3615  423 FO
  36   36 3810  423 FO
  36   36 4005  424 FO
  36   36 4200  424 FO
  36   36 4395  426 FO
  36   36 4589  427 FO
  36   36 4784  428 FO
  36   36 4979  428 FO
  36   36 5174  429 FO
  36   36 5368  429 FO
  36   36 5563  431 FO
  36   36 5758  431 FO
gs 899 389 5357 4227 rc
gr

/c11 { 0.000000 0.000000 1.000000 sr} bdef
c11
1048 1124 mt 1120 1124 L
1084 1088 mt 1084 1160 L
1242 1110 mt 1314 1110 L
1278 1074 mt 1278 1146 L
1437 1042 mt 1509 1042 L
1473 1006 mt 1473 1078 L
1632 1011 mt 1704 1011 L
1668  975 mt 1668 1047 L
1827  998 mt 1899  998 L
1863  962 mt 1863 1034 L
2021  992 mt 2093  992 L
2057  956 mt 2057 1028 L
2216  990 mt 2288  990 L
2252  954 mt 2252 1026 L
2411  986 mt 2483  986 L
2447  950 mt 2447 1022 L
2606  988 mt 2678  988 L
2642  952 mt 2642 1024 L
2800  988 mt 2872  988 L
2836  952 mt 2836 1024 L
2995  990 mt 3067  990 L
3031  954 mt 3031 1026 L
3190  991 mt 3262  991 L
3226  955 mt 3226 1027 L
3385  994 mt 3457  994 L
3421  958 mt 3421 1030 L
3579  997 mt 3651  997 L
3615  961 mt 3615 1033 L
3774 1000 mt 3846 1000 L
3810  964 mt 3810 1036 L
3969 1002 mt 4041 1002 L
4005  966 mt 4005 1038 L
4164 1005 mt 4236 1005 L
4200  969 mt 4200 1041 L
4359 1007 mt 4431 1007 L
4395  971 mt 4395 1043 L
4553 1009 mt 4625 1009 L
4589  973 mt 4589 1045 L
4748 1013 mt 4820 1013 L
4784  977 mt 4784 1049 L
4943 1014 mt 5015 1014 L
4979  978 mt 4979 1050 L
5138 1017 mt 5210 1017 L
5174  981 mt 5174 1053 L
5332 1019 mt 5404 1019 L
5368  983 mt 5368 1055 L
5527 1019 mt 5599 1019 L
5563  983 mt 5563 1055 L
5722 1022 mt 5794 1022 L
5758  986 mt 5758 1058 L
1059 1099 mt 1109 1149 L
1109 1099 mt 1059 1149 L
1253 1085 mt 1303 1135 L
1303 1085 mt 1253 1135 L
1448 1017 mt 1498 1067 L
1498 1017 mt 1448 1067 L
1643  986 mt 1693 1036 L
1693  986 mt 1643 1036 L
1838  973 mt 1888 1023 L
1888  973 mt 1838 1023 L
2032  967 mt 2082 1017 L
2082  967 mt 2032 1017 L
2227  965 mt 2277 1015 L
2277  965 mt 2227 1015 L
2422  961 mt 2472 1011 L
2472  961 mt 2422 1011 L
2617  963 mt 2667 1013 L
2667  963 mt 2617 1013 L
2811  963 mt 2861 1013 L
2861  963 mt 2811 1013 L
3006  965 mt 3056 1015 L
3056  965 mt 3006 1015 L
3201  966 mt 3251 1016 L
3251  966 mt 3201 1016 L
3396  969 mt 3446 1019 L
3446  969 mt 3396 1019 L
3590  972 mt 3640 1022 L
3640  972 mt 3590 1022 L
3785  975 mt 3835 1025 L
3835  975 mt 3785 1025 L
3980  977 mt 4030 1027 L
4030  977 mt 3980 1027 L
4175  980 mt 4225 1030 L
4225  980 mt 4175 1030 L
4370  982 mt 4420 1032 L
4420  982 mt 4370 1032 L
4564  984 mt 4614 1034 L
4614  984 mt 4564 1034 L
4759  988 mt 4809 1038 L
4809  988 mt 4759 1038 L
4954  989 mt 5004 1039 L
5004  989 mt 4954 1039 L
5149  992 mt 5199 1042 L
5199  992 mt 5149 1042 L
5343  994 mt 5393 1044 L
5393  994 mt 5343 1044 L
5538  994 mt 5588 1044 L
5588  994 mt 5538 1044 L
5733  997 mt 5783 1047 L
5783  997 mt 5733 1047 L
gs 899 389 5357 4227 rc
gr

36 47 -36 47 -36 -47 36 -47 1084 1535 5 MP
/c12 { 1.000000 0.000000 1.000000 sr} bdef
c12
DP
36 47 -36 47 -36 -47 36 -47 1278 1833 5 MP
DP
36 47 -36 47 -36 -47 36 -47 1473 1946 5 MP
DP
36 47 -36 47 -36 -47 36 -47 1668 1933 5 MP
DP
36 47 -36 47 -36 -47 36 -47 1863 2034 5 MP
DP
36 47 -36 47 -36 -47 36 -47 2057 1997 5 MP
DP
36 47 -36 47 -36 -47 36 -47 2252 2022 5 MP
DP
36 47 -36 47 -36 -47 36 -47 2447 2050 5 MP
DP
36 47 -36 47 -36 -47 36 -47 2642 2070 5 MP
DP
36 47 -36 47 -36 -47 36 -47 2836 2159 5 MP
DP
36 47 -36 47 -36 -47 36 -47 3031 2226 5 MP
DP
36 47 -36 47 -36 -47 36 -47 3226 2351 5 MP
DP
36 47 -36 47 -36 -47 36 -47 3421 2452 5 MP
DP
36 47 -36 47 -36 -47 36 -47 3615 2542 5 MP
DP
36 47 -36 47 -36 -47 36 -47 3810 2657 5 MP
DP
36 47 -36 47 -36 -47 36 -47 4005 2757 5 MP
DP
36 47 -36 47 -36 -47 36 -47 4200 2847 5 MP
DP
36 47 -36 47 -36 -47 36 -47 4395 2930 5 MP
DP
36 47 -36 47 -36 -47 36 -47 4589 3007 5 MP
DP
36 47 -36 47 -36 -47 36 -47 4784 3078 5 MP
DP
36 47 -36 47 -36 -47 36 -47 4979 3142 5 MP
DP
36 47 -36 47 -36 -47 36 -47 5174 3201 5 MP
DP
36 47 -36 47 -36 -47 36 -47 5368 3255 5 MP
DP
36 47 -36 47 -36 -47 36 -47 5563 3304 5 MP
DP
36 47 -36 47 -36 -47 36 -47 5758 3350 5 MP
DP
gs 899 389 5357 4227 rc
gr

0 sg
1048 2562 mt 1120 2562 L
1084 2526 mt 1084 2598 L
1242 2882 mt 1314 2882 L
1278 2846 mt 1278 2918 L
1437 2979 mt 1509 2979 L
1473 2943 mt 1473 3015 L
1632 3190 mt 1704 3190 L
1668 3154 mt 1668 3226 L
1827 3346 mt 1899 3346 L
1863 3310 mt 1863 3382 L
2021 3402 mt 2093 3402 L
2057 3366 mt 2057 3438 L
2216 3543 mt 2288 3543 L
2252 3507 mt 2252 3579 L
2411 3607 mt 2483 3607 L
2447 3571 mt 2447 3643 L
2606 3727 mt 2678 3727 L
2642 3691 mt 2642 3763 L
2800 3837 mt 2872 3837 L
2836 3801 mt 2836 3873 L
2995 3864 mt 3067 3864 L
3031 3828 mt 3031 3900 L
3190 3955 mt 3262 3955 L
3226 3919 mt 3226 3991 L
3385 3979 mt 3457 3979 L
3421 3943 mt 3421 4015 L
3579 4048 mt 3651 4048 L
3615 4012 mt 3615 4084 L
3774 4118 mt 3846 4118 L
3810 4082 mt 3810 4154 L
3969 4135 mt 4041 4135 L
4005 4099 mt 4005 4171 L
4164 4216 mt 4236 4216 L
4200 4180 mt 4200 4252 L
4359 4242 mt 4431 4242 L
4395 4206 mt 4395 4278 L
4553 4300 mt 4625 4300 L
4589 4264 mt 4589 4336 L
4748 4360 mt 4820 4360 L
4784 4324 mt 4784 4396 L
4943 4381 mt 5015 4381 L
4979 4345 mt 4979 4417 L
5138 4451 mt 5210 4451 L
5174 4415 mt 5174 4487 L
5332 4465 mt 5404 4465 L
5368 4429 mt 5368 4501 L
5527 4510 mt 5599 4510 L
5563 4474 mt 5563 4546 L
5722 4568 mt 5794 4568 L
5758 4532 mt 5758 4604 L
gs 899 389 5357 4227 rc
gr

%%IncludeResource: font Helvetica
/Helvetica /ISOLatin1Encoding 120 FMSR

3330 4903 mt 
(Iterations) s
 484 2628 mt  -90 rotate
(R) s
90 rotate
%%IncludeResource: font Helvetica
/Helvetica /ISOLatin1Encoding 96 FMSR

 544 2542 mt  -90 rotate
(T) s
90 rotate
%%IncludeResource: font Helvetica
/Helvetica /ISOLatin1Encoding 120 FMSR

 484 2484 mt  -90 rotate
(/T) s
90 rotate
 882 4658 mt 
( ) s
6239  431 mt 
( ) s
gs 899 389 5357 4227 rc
c8
10 0 10 0 9 0 10 0 10 0 10 0 9 0 10 0 
10 0 10 0 9 0 10 0 10 0 9 0 10 -1 10 1 
10 0 9 0 10 0 10 0 10 0 9 0 10 0 10 0 
10 0 9 0 10 0 10 0 10 0 9 0 10 -1 10 0 
10 0 9 1 10 0 10 0 9 0 10 0 10 -1 10 0 
9 0 10 0 10 0 10 0 9 0 10 0 10 0 10 0 
9 0 10 0 10 0 10 0 9 0 10 0 10 0 9 0 
10 0 10 0 10 0 9 0 10 1 10 -1 10 1 9 0 
10 0 10 0 10 0 9 0 10 0 10 0 10 0 9 0 
10 0 10 0 10 -1 9 0 10 1 10 0 9 0 10 0 
10 0 10 0 9 -1 10 0 10 0 10 0 9 0 10 0 
10 0 10 0 9 0 10 1 10 0 10 0 9 0 10 0 
10 0 9 0 10 0 10 0 10 0 9 0 10 0 10 0 
10 0 9 0 10 0 10 0 10 0 9 0 10 0 10 0 
10 0 9 0 10 0 10 0 10 0 9 0 10 0 10 0 
9 0 10 0 10 0 10 0 9 0 10 0 10 0 10 0 
9 0 10 0 10 0 10 0 9 0 10 0 10 0 10 0 
9 0 10 0 10 0 9 0 10 0 10 0 10 0 9 0 
10 0 10 0 10 0 9 0 10 0 10 0 10 0 9 0 
10 0 10 0 10 0 9 1 10 0 10 0 10 0 9 0 
10 0 10 0 9 0 10 0 10 0 10 0 9 0 10 0 
10 0 10 0 9 0 10 0 10 0 10 0 9 0 10 0 
10 0 10 0 9 0 10 0 10 0 9 0 10 0 10 0 
10 0 9 0 10 0 10 1 10 0 9 0 10 0 10 -1 
10 0 9 1 10 0 10 0 10 0 9 0 10 0 10 0 
10 0 9 0 10 0 10 0 9 0 10 0 10 0 10 0 
9 1 10 0 10 0 10 0 9 0 10 0 10 0 10 0 
9 0 10 0 10 0 10 0 9 0 10 0 10 0 9 0 
10 0 10 0 10 0 9 0 10 0 10 0 10 0 9 0 
10 0 10 0 10 0 9 0 10 0 10 0 10 0 9 0 
10 1 10 0 10 0 9 0 10 0 10 0 9 0 10 0 
10 0 10 0 9 0 10 0 10 0 10 0 9 0 10 0 
10 0 10 0 9 0 10 0 10 0 10 0 9 0 10 0 
10 1 10 0 9 0 10 0 10 0 9 0 10 0 10 0 
10 0 9 0 10 0 10 0 10 0 9 0 10 0 10 0 
10 0 9 0 10 0 10 0 10 0 9 0 10 0 10 0 
9 0 10 0 10 0 10 0 9 0 10 0 10 0 10 0 
9 0 10 0 10 0 2846 552 300 MP stroke
10 0 9 0 10 0 10 0 10 0 9 0 10 0 10 0 
10 0 9 0 10 0 10 0 9 0 10 0 10 0 10 0 
9 0 10 0 10 0 10 0 9 0 10 0 10 0 10 0 
9 0 10 0 10 0 10 0 9 0 10 0 10 1 9 -1 
10 0 10 1 10 0 9 0 10 0 10 0 10 0 9 0 
10 0 10 0 10 0 9 0 10 1 10 0 10 0 9 0 
10 -1 10 1 10 -1 9 1 10 0 10 0 9 0 10 0 
10 0 10 0 9 0 10 0 10 0 10 0 9 1 10 -1 
10 0 10 0 9 0 10 1 10 0 10 0 9 0 10 0 
10 0 9 0 10 0 10 0 10 0 9 0 10 0 10 0 
10 0 9 0 10 0 10 0 10 0 9 0 10 1 10 0 
10 -1 9 1 10 0 10 0 10 0 9 0 10 0 10 0 
9 0 10 0 10 0 10 0 9 0 10 0 10 0 10 0 
9 0 10 0 10 0 10 0 9 0 10 0 10 0 10 0 
9 0 10 0 10 0 9 0 10 0 10 0 10 0 9 0 
10 0 10 0 10 0 9 0 10 0 10 0 10 0 9 0 
10 0 10 0 10 0 9 -1 10 0 10 1 10 -1 9 0 
10 0 10 0 9 0 10 1 10 0 10 0 9 0 10 -1 
10 0 10 1 9 -1 10 0 10 0 10 0 9 0 10 0 
10 0 10 1 9 0 10 1 10 0 9 0 10 0 10 0 
10 1 9 -1 10 1 10 0 10 0 9 0 10 0 10 0 
10 0 9 0 10 0 10 0 10 0 9 -1 10 -2 10 1 
10 0 9 -1 10 0 10 -1 9 -1 10 2 10 0 10 -1 
9 2 10 -2 10 -4 10 0 9 -4 10 -1 10 -1 10 -4 
9 -1 10 2 10 -6 10 -10 9 -4 10 -13 10 11 9 0 
899 585 201 MP stroke
0 23 1084 539 2 MP stroke
93 0 1037 539 2 MP stroke
93 0 1037 562 2 MP stroke
0 19 1278 537 2 MP stroke
93 0 1232 537 2 MP stroke
93 0 1232 556 2 MP stroke
0 18 1473 539 2 MP stroke
94 0 1426 539 2 MP stroke
94 0 1426 557 2 MP stroke
0 18 1668 539 2 MP stroke
94 0 1621 539 2 MP stroke
94 0 1621 557 2 MP stroke
0 17 1863 540 2 MP stroke
93 0 1816 540 2 MP stroke
93 0 1816 557 2 MP stroke
0 16 2057 541 2 MP stroke
93 0 2011 541 2 MP stroke
93 0 2011 557 2 MP stroke
0 16 2252 542 2 MP stroke
94 0 2205 542 2 MP stroke
94 0 2205 558 2 MP stroke
0 16 2447 543 2 MP stroke
94 0 2400 543 2 MP stroke
94 0 2400 559 2 MP stroke
0 16 2642 544 2 MP stroke
93 0 2595 544 2 MP stroke
93 0 2595 560 2 MP stroke
0 16 2836 544 2 MP stroke
93 0 2790 544 2 MP stroke
93 0 2790 560 2 MP stroke
0 16 3031 544 2 MP stroke
94 0 2984 544 2 MP stroke
94 0 2984 560 2 MP stroke
0 16 3226 545 2 MP stroke
94 0 3179 545 2 MP stroke
94 0 3179 561 2 MP stroke
0 15 3421 546 2 MP stroke
93 0 3374 546 2 MP stroke
93 0 3374 561 2 MP stroke
0 16 3615 546 2 MP stroke
93 0 3569 546 2 MP stroke
93 0 3569 562 2 MP stroke
0 16 3810 547 2 MP stroke
94 0 3763 547 2 MP stroke
94 0 3763 563 2 MP stroke
0 15 4005 548 2 MP stroke
94 0 3958 548 2 MP stroke
94 0 3958 563 2 MP stroke
0 15 4200 549 2 MP stroke
93 0 4153 549 2 MP stroke
93 0 4153 564 2 MP stroke
0 16 4395 549 2 MP stroke
93 0 4348 549 2 MP stroke
93 0 4348 565 2 MP stroke
0 15 4589 550 2 MP stroke
93 0 4543 550 2 MP stroke
93 0 4543 565 2 MP stroke
0 15 4784 550 2 MP stroke
94 0 4737 550 2 MP stroke
94 0 4737 565 2 MP stroke
0 15 4979 550 2 MP stroke
94 0 4932 550 2 MP stroke
94 0 4932 565 2 MP stroke
0 15 5174 550 2 MP stroke
93 0 5127 550 2 MP stroke
93 0 5127 565 2 MP stroke
0 15 5368 550 2 MP stroke
93 0 5322 550 2 MP stroke
93 0 5322 565 2 MP stroke
0 15 5563 550 2 MP stroke
94 0 5516 550 2 MP stroke
94 0 5516 565 2 MP stroke
0 14 5758 550 2 MP stroke
94 0 5711 550 2 MP stroke
94 0 5711 564 2 MP stroke
gr

c8
41 71 -82 0 41 -71 1084 598 4 MP
DP
41 71 -82 0 41 -71 1278 593 4 MP
DP
41 71 -82 0 41 -71 1473 595 4 MP
DP
41 71 -82 0 41 -71 1668 595 4 MP
DP
41 71 -82 0 41 -71 1863 595 4 MP
DP
41 71 -82 0 41 -71 2057 596 4 MP
DP
41 71 -82 0 41 -71 2252 597 4 MP
DP
41 71 -82 0 41 -71 2447 598 4 MP
DP
41 71 -82 0 41 -71 2642 599 4 MP
DP
41 71 -82 0 41 -71 2836 599 4 MP
DP
41 71 -82 0 41 -71 3031 599 4 MP
DP
41 71 -82 0 41 -71 3226 600 4 MP
DP
41 71 -82 0 41 -71 3421 601 4 MP
DP
41 71 -82 0 41 -71 3615 601 4 MP
DP
41 71 -82 0 41 -71 3810 602 4 MP
DP
41 71 -82 0 41 -71 4005 603 4 MP
DP
41 71 -82 0 41 -71 4200 603 4 MP
DP
41 71 -82 0 41 -71 4395 604 4 MP
DP
41 71 -82 0 41 -71 4589 604 4 MP
DP
41 71 -82 0 41 -71 4784 604 4 MP
DP
41 71 -82 0 41 -71 4979 604 4 MP
DP
41 71 -82 0 41 -71 5174 605 4 MP
DP
41 71 -82 0 41 -71 5368 605 4 MP
DP
41 71 -82 0 41 -71 5563 604 4 MP
DP
41 71 -82 0 41 -71 5758 604 4 MP
DP
gs 899 389 5357 4227 rc
c9
10 0 10 1 9 0 10 0 10 0 10 0 9 0 10 0 
10 0 10 0 9 0 10 0 10 0 9 1 10 1 10 0 
10 1 9 0 10 0 10 0 10 0 9 1 10 0 10 0 
10 0 9 1 10 0 10 0 10 0 9 1 10 -1 10 1 
10 0 9 -1 10 1 10 -1 9 0 10 1 10 -1 10 1 
9 0 10 0 10 0 10 0 9 0 10 0 10 0 10 0 
9 0 10 0 10 0 10 0 9 0 10 1 10 0 9 0 
10 0 10 0 10 0 9 0 10 0 10 0 10 0 9 0 
10 0 10 0 10 0 9 0 10 1 10 -1 10 1 9 0 
10 0 10 1 10 0 9 0 10 0 10 0 9 1 10 0 
10 1 10 0 9 0 10 0 10 0 10 1 9 0 10 0 
10 0 10 0 9 1 10 0 10 1 10 0 9 0 10 0 
10 0 9 0 10 0 10 0 10 0 9 0 10 1 10 0 
10 1 9 0 10 0 10 1 10 0 9 0 10 0 10 1 
10 0 9 1 10 0 10 0 10 0 9 0 10 0 10 1 
9 0 10 0 10 0 10 0 9 1 10 0 10 1 10 0 
9 0 10 0 10 0 10 0 9 1 10 0 10 -1 10 0 
9 1 10 0 10 0 9 0 10 0 10 0 10 0 9 1 
10 0 10 -1 10 0 9 0 10 0 10 1 10 0 9 0 
10 0 10 0 10 1 9 -1 10 0 10 0 10 0 9 1 
10 0 10 0 9 0 10 1 10 0 10 0 9 1 10 0 
10 0 10 1 9 -1 10 1 10 0 10 1 9 1 10 0 
10 0 10 1 9 0 10 1 10 0 9 0 10 1 10 0 
10 1 9 0 10 0 10 0 10 0 9 0 10 0 10 0 
10 0 9 1 10 0 10 0 10 0 9 0 10 0 10 0 
10 1 9 0 10 0 10 1 9 0 10 1 10 0 10 0 
9 0 10 -1 10 1 10 0 9 0 10 0 10 0 10 0 
9 0 10 0 10 -1 10 0 9 0 10 -1 10 1 9 0 
10 1 10 0 10 0 9 1 10 0 10 0 10 0 9 0 
10 1 10 0 10 0 9 0 10 0 10 1 10 0 9 1 
10 0 10 -1 10 0 9 1 10 0 10 0 9 0 10 0 
10 0 10 0 9 2 10 0 10 0 10 0 9 0 10 1 
10 0 10 1 9 1 10 -1 10 1 10 0 9 1 10 0 
10 -1 10 1 9 1 10 1 10 0 9 1 10 0 10 -1 
10 1 9 0 10 1 10 0 10 1 9 0 10 0 10 0 
10 0 9 1 10 1 10 1 10 0 9 -1 10 0 10 0 
9 1 10 0 10 0 10 0 9 1 10 0 10 1 10 0 
9 1 10 1 10 0 2846 1007 300 MP stroke
10 0 9 1 10 0 10 0 10 -1 9 1 10 0 10 0 
10 1 9 1 10 0 10 0 9 1 10 0 10 1 10 1 
9 1 10 0 10 0 10 0 9 2 10 -1 10 2 10 0 
9 0 10 0 10 0 10 0 9 1 10 0 10 0 9 0 
10 1 10 0 10 0 9 0 10 0 10 -1 10 0 9 0 
10 -1 10 0 10 0 9 0 10 0 10 1 10 -1 9 1 
10 0 10 0 10 0 9 0 10 1 10 2 9 0 10 -1 
10 1 10 -1 9 1 10 0 10 0 10 2 9 1 10 0 
10 0 10 0 9 2 10 0 10 0 10 0 9 1 10 0 
10 2 9 -1 10 1 10 2 10 1 9 -1 10 1 10 0 
10 1 9 0 10 1 10 0 10 1 9 0 10 0 10 1 
10 0 9 0 10 1 10 0 10 1 9 -1 10 0 10 0 
9 1 10 -1 10 0 10 1 9 0 10 1 10 -1 10 2 
9 1 10 1 10 1 10 0 9 1 10 2 10 1 10 1 
9 1 10 0 10 0 9 1 10 2 10 1 10 1 9 1 
10 0 10 1 10 2 9 1 10 1 10 0 10 1 9 0 
10 2 10 1 10 -1 9 1 10 0 10 3 10 0 9 2 
10 0 10 0 9 1 10 1 10 0 10 0 9 0 10 -1 
10 1 10 0 9 1 10 1 10 2 10 1 9 1 10 4 
10 0 10 4 9 -4 10 2 10 1 9 -2 10 2 10 1 
10 -1 9 -1 10 0 10 2 10 -1 9 4 10 1 10 2 
10 -1 9 2 10 -4 10 -1 10 4 9 -2 10 0 10 -1 
10 8 9 2 10 2 10 8 9 2 10 3 10 8 10 8 
9 17 10 0 10 12 10 9 9 0 10 7 10 11 10 3 
9 10 10 -15 10 1 10 7 9 -7 10 -12 10 66 9 0 
899 776 201 MP stroke
0 44 1084 882 2 MP stroke
93 0 1037 882 2 MP stroke
93 0 1037 926 2 MP stroke
0 24 1278 918 2 MP stroke
93 0 1232 918 2 MP stroke
93 0 1232 942 2 MP stroke
0 20 1473 933 2 MP stroke
94 0 1426 933 2 MP stroke
94 0 1426 953 2 MP stroke
0 17 1668 950 2 MP stroke
94 0 1621 950 2 MP stroke
94 0 1621 967 2 MP stroke
0 16 1863 968 2 MP stroke
93 0 1816 968 2 MP stroke
93 0 1816 984 2 MP stroke
0 12 2057 975 2 MP stroke
93 0 2011 975 2 MP stroke
93 0 2011 987 2 MP stroke
0 14 2252 986 2 MP stroke
94 0 2205 986 2 MP stroke
94 0 2205 1000 2 MP stroke
0 12 2447 991 2 MP stroke
94 0 2400 991 2 MP stroke
94 0 2400 1003 2 MP stroke
0 11 2642 993 2 MP stroke
93 0 2595 993 2 MP stroke
93 0 2595 1004 2 MP stroke
0 13 2836 1000 2 MP stroke
93 0 2790 1000 2 MP stroke
93 0 2790 1013 2 MP stroke
0 14 3031 1007 2 MP stroke
94 0 2984 1007 2 MP stroke
94 0 2984 1021 2 MP stroke
0 15 3226 1013 2 MP stroke
94 0 3179 1013 2 MP stroke
94 0 3179 1028 2 MP stroke
0 15 3421 1018 2 MP stroke
93 0 3374 1018 2 MP stroke
93 0 3374 1033 2 MP stroke
0 15 3615 1023 2 MP stroke
93 0 3569 1023 2 MP stroke
93 0 3569 1038 2 MP stroke
0 14 3810 1025 2 MP stroke
94 0 3763 1025 2 MP stroke
94 0 3763 1039 2 MP stroke
0 13 4005 1029 2 MP stroke
94 0 3958 1029 2 MP stroke
94 0 3958 1042 2 MP stroke
0 15 4200 1035 2 MP stroke
93 0 4153 1035 2 MP stroke
93 0 4153 1050 2 MP stroke
0 15 4395 1036 2 MP stroke
93 0 4348 1036 2 MP stroke
93 0 4348 1051 2 MP stroke
0 14 4589 1040 2 MP stroke
93 0 4543 1040 2 MP stroke
93 0 4543 1054 2 MP stroke
0 16 4784 1045 2 MP stroke
94 0 4737 1045 2 MP stroke
94 0 4737 1061 2 MP stroke
0 15 4979 1049 2 MP stroke
94 0 4932 1049 2 MP stroke
94 0 4932 1064 2 MP stroke
0 15 5174 1053 2 MP stroke
93 0 5127 1053 2 MP stroke
93 0 5127 1068 2 MP stroke
0 15 5368 1054 2 MP stroke
93 0 5322 1054 2 MP stroke
93 0 5322 1069 2 MP stroke
0 15 5563 1056 2 MP stroke
94 0 5516 1056 2 MP stroke
94 0 5516 1071 2 MP stroke
0 15 5758 1060 2 MP stroke
94 0 5711 1060 2 MP stroke
94 0 5711 1075 2 MP stroke
gr

c9
0 -58 -58 0 0 58 58 0 1055 875 5 MP
DP
0 -58 -58 0 0 58 58 0 1249 901 5 MP
DP
0 -58 -58 0 0 58 58 0 1444 914 5 MP
DP
0 -58 -58 0 0 58 58 0 1639 930 5 MP
DP
0 -58 -58 0 0 58 58 0 1834 947 5 MP
DP
0 -58 -58 0 0 58 58 0 2028 952 5 MP
DP
0 -58 -58 0 0 58 58 0 2223 964 5 MP
DP
0 -58 -58 0 0 58 58 0 2418 968 5 MP
DP
0 -58 -58 0 0 58 58 0 2613 969 5 MP
DP
0 -58 -58 0 0 58 58 0 2807 978 5 MP
DP
0 -58 -58 0 0 58 58 0 3002 985 5 MP
DP
0 -58 -58 0 0 58 58 0 3197 992 5 MP
DP
0 -58 -58 0 0 58 58 0 3392 996 5 MP
DP
0 -58 -58 0 0 58 58 0 3586 1001 5 MP
DP
0 -58 -58 0 0 58 58 0 3781 1003 5 MP
DP
0 -58 -58 0 0 58 58 0 3976 1006 5 MP
DP
0 -58 -58 0 0 58 58 0 4171 1013 5 MP
DP
0 -58 -58 0 0 58 58 0 4366 1015 5 MP
DP
0 -58 -58 0 0 58 58 0 4560 1018 5 MP
DP
0 -58 -58 0 0 58 58 0 4755 1024 5 MP
DP
0 -58 -58 0 0 58 58 0 4950 1028 5 MP
DP
0 -58 -58 0 0 58 58 0 5145 1031 5 MP
DP
0 -58 -58 0 0 58 58 0 5339 1032 5 MP
DP
0 -58 -58 0 0 58 58 0 5534 1035 5 MP
DP
0 -58 -58 0 0 58 58 0 5729 1039 5 MP
DP
gs 899 389 5357 4227 rc
c10
10 0 10 0 9 0 10 0 10 0 10 0 9 0 10 0 
10 0 10 0 9 0 10 0 10 0 9 0 10 0 10 0 
10 0 9 0 10 0 10 0 10 0 9 0 10 0 10 1 
10 0 9 0 10 0 10 0 10 0 9 0 10 0 10 0 
10 0 9 0 10 0 10 0 9 0 10 0 10 1 10 0 
9 0 10 0 10 0 10 0 9 0 10 0 10 0 10 0 
9 0 10 0 10 0 10 0 9 0 10 0 10 0 9 0 
10 0 10 0 10 0 9 0 10 0 10 0 10 0 9 0 
10 0 10 0 10 0 9 0 10 0 10 0 10 0 9 0 
10 1 10 0 10 0 9 0 10 0 10 0 9 0 10 0 
10 0 10 0 9 0 10 0 10 0 10 0 9 0 10 0 
10 0 10 0 9 0 10 0 10 0 10 0 9 0 10 0 
10 0 9 0 10 0 10 0 10 1 9 -1 10 1 10 0 
10 0 9 0 10 0 10 0 10 0 9 0 10 0 10 0 
10 0 9 0 10 0 10 0 10 0 9 0 10 0 10 0 
9 0 10 0 10 0 10 0 9 0 10 1 10 0 10 0 
9 0 10 0 10 0 10 0 9 0 10 0 10 0 10 0 
9 0 10 0 10 0 9 0 10 0 10 0 10 0 9 1 
10 0 10 0 10 0 9 0 10 0 10 0 10 0 9 0 
10 0 10 0 10 1 9 0 10 0 10 0 10 0 9 0 
10 0 10 0 9 0 10 0 10 0 10 0 9 0 10 0 
10 0 10 0 9 0 10 0 10 0 10 0 9 0 10 0 
10 0 10 0 9 0 10 0 10 0 9 0 10 0 10 0 
10 0 9 0 10 0 10 0 10 1 9 0 10 0 10 0 
10 0 9 0 10 0 10 0 10 0 9 0 10 0 10 0 
10 0 9 0 10 0 10 0 9 0 10 0 10 0 10 0 
9 0 10 0 10 0 10 0 9 0 10 0 10 0 10 0 
9 0 10 0 10 0 10 0 9 0 10 1 10 0 9 0 
10 0 10 0 10 0 9 0 10 0 10 0 10 0 9 0 
10 1 10 -1 10 0 9 1 10 0 10 0 10 0 9 0 
10 0 10 0 10 0 9 0 10 0 10 1 9 0 10 0 
10 0 10 0 9 0 10 0 10 0 10 0 9 0 10 0 
10 0 10 0 9 0 10 0 10 0 10 1 9 0 10 0 
10 0 10 0 9 0 10 0 10 0 9 0 10 0 10 0 
10 0 9 0 10 0 10 0 10 0 9 0 10 1 10 0 
10 0 9 0 10 0 10 0 10 0 9 0 10 0 10 1 
9 0 10 0 10 0 10 0 9 0 10 0 10 0 10 0 
9 0 10 0 10 0 2846 417 300 MP stroke
10 1 9 0 10 0 10 0 10 0 9 0 10 0 10 0 
10 0 9 0 10 0 10 0 9 0 10 0 10 0 10 0 
9 0 10 0 10 1 10 0 9 0 10 0 10 -1 10 0 
9 0 10 0 10 1 10 0 9 0 10 -1 10 1 9 0 
10 0 10 0 10 0 9 0 10 0 10 0 10 1 9 0 
10 0 10 -1 10 0 9 1 10 -1 10 0 10 0 9 1 
10 0 10 1 10 -1 9 1 10 -1 10 0 9 0 10 0 
10 0 10 0 9 0 10 0 10 0 10 0 9 1 10 0 
10 1 10 -1 9 1 10 0 10 0 10 1 9 -1 10 1 
10 -1 9 0 10 0 10 0 10 0 9 1 10 0 10 0 
10 0 9 0 10 0 10 0 10 0 9 0 10 1 10 0 
10 0 9 0 10 0 10 0 10 0 9 0 10 1 10 -1 
9 0 10 1 10 0 10 0 9 0 10 0 10 0 10 0 
9 0 10 0 10 0 10 0 9 0 10 0 10 0 10 0 
9 0 10 0 10 0 9 1 10 0 10 0 10 1 9 0 
10 0 10 0 10 -1 9 1 10 0 10 0 10 0 9 0 
10 0 10 0 10 0 9 0 10 0 10 1 10 0 9 0 
10 0 10 0 9 1 10 0 10 0 10 0 9 0 10 0 
10 0 10 0 9 0 10 0 10 1 10 0 9 0 10 0 
10 0 10 0 9 0 10 1 10 0 9 0 10 0 10 1 
10 0 9 0 10 0 10 1 10 0 9 1 10 0 10 1 
10 2 9 0 10 1 10 0 10 1 9 0 10 0 10 0 
10 -1 9 -1 10 1 10 0 9 -1 10 -2 10 0 10 0 
9 5 10 2 10 -1 10 1 9 -1 10 -1 10 -1 10 -3 
9 4 10 -1 10 6 10 -4 9 -4 10 -8 10 -5 9 0 
899 410 201 MP stroke
0 8 1084 393 2 MP stroke
93 0 1037 393 2 MP stroke
93 0 1037 401 2 MP stroke
0 7 1278 398 2 MP stroke
93 0 1232 398 2 MP stroke
93 0 1232 405 2 MP stroke
0 6 1473 402 2 MP stroke
94 0 1426 402 2 MP stroke
94 0 1426 408 2 MP stroke
0 5 1668 405 2 MP stroke
94 0 1621 405 2 MP stroke
94 0 1621 410 2 MP stroke
0 4 1863 407 2 MP stroke
93 0 1816 407 2 MP stroke
93 0 1816 411 2 MP stroke
0 5 2057 409 2 MP stroke
93 0 2011 409 2 MP stroke
93 0 2011 414 2 MP stroke
0 5 2252 411 2 MP stroke
94 0 2205 411 2 MP stroke
94 0 2205 416 2 MP stroke
0 5 2447 412 2 MP stroke
94 0 2400 412 2 MP stroke
94 0 2400 417 2 MP stroke
0 4 2642 413 2 MP stroke
93 0 2595 413 2 MP stroke
93 0 2595 417 2 MP stroke
0 5 2836 414 2 MP stroke
93 0 2790 414 2 MP stroke
93 0 2790 419 2 MP stroke
0 5 3031 416 2 MP stroke
94 0 2984 416 2 MP stroke
94 0 2984 421 2 MP stroke
0 5 3226 417 2 MP stroke
94 0 3179 417 2 MP stroke
94 0 3179 422 2 MP stroke
0 5 3421 419 2 MP stroke
93 0 3374 419 2 MP stroke
93 0 3374 424 2 MP stroke
0 5 3615 420 2 MP stroke
93 0 3569 420 2 MP stroke
93 0 3569 425 2 MP stroke
0 4 3810 421 2 MP stroke
94 0 3763 421 2 MP stroke
94 0 3763 425 2 MP stroke
0 4 4005 422 2 MP stroke
94 0 3958 422 2 MP stroke
94 0 3958 426 2 MP stroke
0 4 4200 422 2 MP stroke
93 0 4153 422 2 MP stroke
93 0 4153 426 2 MP stroke
0 5 4395 423 2 MP stroke
93 0 4348 423 2 MP stroke
93 0 4348 428 2 MP stroke
0 5 4589 424 2 MP stroke
93 0 4543 424 2 MP stroke
93 0 4543 429 2 MP stroke
0 5 4784 425 2 MP stroke
94 0 4737 425 2 MP stroke
94 0 4737 430 2 MP stroke
0 5 4979 426 2 MP stroke
94 0 4932 426 2 MP stroke
94 0 4932 431 2 MP stroke
0 5 5174 426 2 MP stroke
93 0 5127 426 2 MP stroke
93 0 5127 431 2 MP stroke
0 5 5368 427 2 MP stroke
93 0 5322 427 2 MP stroke
93 0 5322 432 2 MP stroke
0 5 5563 428 2 MP stroke
94 0 5516 428 2 MP stroke
94 0 5516 433 2 MP stroke
0 5 5758 429 2 MP stroke
94 0 5711 429 2 MP stroke
94 0 5711 434 2 MP stroke
gr

c10
  36   36 1084  397 FO
  36   36 1278  402 FO
  36   36 1473  405 FO
  36   36 1668  407 FO
  36   36 1863  409 FO
  36   36 2057  411 FO
  36   36 2252  414 FO
  36   36 2447  414 FO
  36   36 2642  415 FO
  36   36 2836  416 FO
  36   36 3031  418 FO
  36   36 3226  420 FO
  36   36 3421  421 FO
  36   36 3615  423 FO
  36   36 3810  423 FO
  36   36 4005  424 FO
  36   36 4200  424 FO
  36   36 4395  426 FO
  36   36 4589  427 FO
  36   36 4784  428 FO
  36   36 4979  428 FO
  36   36 5174  429 FO
  36   36 5368  429 FO
  36   36 5563  431 FO
  36   36 5758  431 FO
gs 899 389 5357 4227 rc
c11
10 0 10 0 9 0 10 0 10 0 10 0 9 0 10 1 
10 0 10 0 9 0 10 0 10 0 9 0 10 0 10 1 
10 0 9 0 10 0 10 1 10 0 9 0 10 0 10 0 
10 0 9 0 10 0 10 0 10 0 9 0 10 0 10 0 
10 0 9 0 10 0 10 0 9 1 10 0 10 -1 10 0 
9 0 10 0 10 0 10 1 9 -1 10 0 10 1 10 0 
9 0 10 0 10 0 10 0 9 0 10 0 10 0 9 0 
10 0 10 1 10 0 9 0 10 0 10 0 10 0 9 0 
10 0 10 1 10 0 9 0 10 0 10 1 10 0 9 0 
10 0 10 1 10 -1 9 0 10 0 10 0 9 0 10 1 
10 0 10 0 9 0 10 1 10 0 10 -1 9 1 10 -1 
10 1 10 -1 9 0 10 0 10 1 10 0 9 0 10 0 
10 0 9 0 10 0 10 0 10 0 9 0 10 0 10 0 
10 1 9 0 10 0 10 0 10 1 9 0 10 0 10 0 
10 1 9 0 10 0 10 1 10 0 9 0 10 0 10 0 
9 0 10 0 10 0 10 0 9 0 10 0 10 0 10 0 
9 0 10 0 10 0 10 0 9 0 10 1 10 0 10 1 
9 0 10 0 10 0 9 0 10 1 10 0 10 1 9 0 
10 0 10 0 10 0 9 0 10 0 10 0 10 0 9 0 
10 0 10 0 10 0 9 0 10 0 10 0 10 0 9 0 
10 1 10 0 9 -1 10 0 10 0 10 1 9 -1 10 1 
10 0 10 0 9 0 10 0 10 0 10 0 9 1 10 0 
10 0 10 0 9 0 10 1 10 0 9 0 10 0 10 0 
10 1 9 0 10 0 10 -1 10 1 9 0 10 0 10 0 
10 1 9 0 10 0 10 -1 10 0 9 1 10 0 10 0 
10 0 9 0 10 0 10 0 9 1 10 0 10 -1 10 0 
9 1 10 0 10 1 10 0 9 0 10 0 10 0 10 1 
9 -1 10 1 10 0 10 0 9 0 10 -1 10 0 9 0 
10 0 10 1 10 0 9 0 10 1 10 0 10 1 9 0 
10 0 10 0 10 1 9 0 10 0 10 0 10 0 9 0 
10 0 10 0 10 0 9 1 10 0 10 0 9 0 10 -1 
10 0 10 0 9 0 10 1 10 0 10 -1 9 1 10 1 
10 -1 10 1 9 0 10 1 10 0 10 1 9 0 10 0 
10 0 10 0 9 0 10 0 10 0 9 1 10 0 10 -1 
10 0 9 0 10 0 10 0 10 -1 9 1 10 0 10 0 
10 1 9 0 10 0 10 1 10 -1 9 0 10 1 10 0 
9 0 10 -1 10 0 10 0 9 0 10 1 10 0 10 0 
9 0 10 0 10 0 2846 988 300 MP stroke
10 0 9 0 10 0 10 0 10 0 9 0 10 0 10 0 
10 0 9 -1 10 0 10 -1 9 1 10 0 10 0 10 0 
9 0 10 1 10 0 10 0 9 0 10 0 10 1 10 0 
9 0 10 -1 10 0 10 0 9 0 10 1 10 0 9 0 
10 0 10 0 10 0 9 1 10 0 10 0 10 0 9 0 
10 0 10 0 10 0 9 0 10 -1 10 -1 10 0 9 0 
10 1 10 -1 10 1 9 -1 10 0 10 0 9 0 10 0 
10 0 10 -1 9 0 10 0 10 -1 10 0 9 1 10 0 
10 0 10 0 9 0 10 1 10 0 10 0 9 1 10 -1 
10 0 9 1 10 0 10 -1 10 -1 9 -1 10 -1 10 0 
10 -1 9 0 10 -1 10 0 10 -1 9 0 10 0 10 -1 
10 -2 9 1 10 0 10 -1 10 1 9 -1 10 1 10 0 
9 1 10 0 10 -2 10 0 9 -1 10 -1 10 -2 10 -1 
9 -1 10 2 10 0 10 0 9 1 10 0 10 -1 10 -1 
9 0 10 -2 10 0 9 -1 10 -2 10 -1 10 -1 9 -1 
10 -1 10 -1 10 -2 9 -1 10 -1 10 -1 10 1 9 -4 
10 -1 10 -2 10 -2 9 -2 10 -3 10 -2 10 -2 9 -1 
10 0 10 -1 9 -3 10 -3 10 0 10 -4 9 -3 10 -1 
10 -5 10 -5 9 -5 10 -5 10 -5 10 -6 9 -4 10 -4 
10 -4 10 -7 9 -8 10 0 10 3 9 -3 10 -3 10 -1 
10 2 9 2 10 -3 10 -4 10 1 9 0 10 0 10 -2 
10 1 9 3 10 0 10 -8 10 0 9 2 10 -3 10 6 
10 -6 9 -7 10 5 10 0 9 -1 10 -1 10 7 10 1 
9 1 10 2 10 -5 10 14 9 -10 10 8 10 0 10 7 
9 -21 10 11 10 -10 10 25 9 -39 10 10 10 -1 9 0 
899 1125 201 MP stroke
0 51 1084 1098 2 MP stroke
93 0 1037 1098 2 MP stroke
93 0 1037 1149 2 MP stroke
0 35 1278 1092 2 MP stroke
93 0 1232 1092 2 MP stroke
93 0 1232 1127 2 MP stroke
0 25 1473 1030 2 MP stroke
94 0 1426 1030 2 MP stroke
94 0 1426 1055 2 MP stroke
0 23 1668 999 2 MP stroke
94 0 1621 999 2 MP stroke
94 0 1621 1022 2 MP stroke
0 22 1863 987 2 MP stroke
93 0 1816 987 2 MP stroke
93 0 1816 1009 2 MP stroke
0 23 2057 980 2 MP stroke
93 0 2011 980 2 MP stroke
93 0 2011 1003 2 MP stroke
0 22 2252 979 2 MP stroke
94 0 2205 979 2 MP stroke
94 0 2205 1001 2 MP stroke
0 24 2447 974 2 MP stroke
94 0 2400 974 2 MP stroke
94 0 2400 998 2 MP stroke
0 24 2642 976 2 MP stroke
93 0 2595 976 2 MP stroke
93 0 2595 1000 2 MP stroke
0 24 2836 976 2 MP stroke
93 0 2790 976 2 MP stroke
93 0 2790 1000 2 MP stroke
0 23 3031 978 2 MP stroke
94 0 2984 978 2 MP stroke
94 0 2984 1001 2 MP stroke
0 23 3226 980 2 MP stroke
94 0 3179 980 2 MP stroke
94 0 3179 1003 2 MP stroke
0 24 3421 982 2 MP stroke
93 0 3374 982 2 MP stroke
93 0 3374 1006 2 MP stroke
0 23 3615 986 2 MP stroke
93 0 3569 986 2 MP stroke
93 0 3569 1009 2 MP stroke
0 23 3810 988 2 MP stroke
94 0 3763 988 2 MP stroke
94 0 3763 1011 2 MP stroke
0 23 4005 991 2 MP stroke
94 0 3958 991 2 MP stroke
94 0 3958 1014 2 MP stroke
0 23 4200 993 2 MP stroke
93 0 4153 993 2 MP stroke
93 0 4153 1016 2 MP stroke
0 25 4395 994 2 MP stroke
93 0 4348 994 2 MP stroke
93 0 4348 1019 2 MP stroke
0 24 4589 997 2 MP stroke
93 0 4543 997 2 MP stroke
93 0 4543 1021 2 MP stroke
0 24 4784 1001 2 MP stroke
94 0 4737 1001 2 MP stroke
94 0 4737 1025 2 MP stroke
0 24 4979 1002 2 MP stroke
94 0 4932 1002 2 MP stroke
94 0 4932 1026 2 MP stroke
0 24 5174 1005 2 MP stroke
93 0 5127 1005 2 MP stroke
93 0 5127 1029 2 MP stroke
0 25 5368 1006 2 MP stroke
93 0 5322 1006 2 MP stroke
93 0 5322 1031 2 MP stroke
0 25 5563 1007 2 MP stroke
94 0 5516 1007 2 MP stroke
94 0 5516 1032 2 MP stroke
0 25 5758 1009 2 MP stroke
94 0 5711 1009 2 MP stroke
94 0 5711 1034 2 MP stroke
gr

c11
1048 1124 mt 1120 1124 L
1084 1088 mt 1084 1160 L
1242 1110 mt 1314 1110 L
1278 1074 mt 1278 1146 L
1437 1042 mt 1509 1042 L
1473 1006 mt 1473 1078 L
1632 1011 mt 1704 1011 L
1668  975 mt 1668 1047 L
1827  998 mt 1899  998 L
1863  962 mt 1863 1034 L
2021  992 mt 2093  992 L
2057  956 mt 2057 1028 L
2216  990 mt 2288  990 L
2252  954 mt 2252 1026 L
2411  986 mt 2483  986 L
2447  950 mt 2447 1022 L
2606  988 mt 2678  988 L
2642  952 mt 2642 1024 L
2800  988 mt 2872  988 L
2836  952 mt 2836 1024 L
2995  990 mt 3067  990 L
3031  954 mt 3031 1026 L
3190  991 mt 3262  991 L
3226  955 mt 3226 1027 L
3385  994 mt 3457  994 L
3421  958 mt 3421 1030 L
3579  997 mt 3651  997 L
3615  961 mt 3615 1033 L
3774 1000 mt 3846 1000 L
3810  964 mt 3810 1036 L
3969 1002 mt 4041 1002 L
4005  966 mt 4005 1038 L
4164 1005 mt 4236 1005 L
4200  969 mt 4200 1041 L
4359 1007 mt 4431 1007 L
4395  971 mt 4395 1043 L
4553 1009 mt 4625 1009 L
4589  973 mt 4589 1045 L
4748 1013 mt 4820 1013 L
4784  977 mt 4784 1049 L
4943 1014 mt 5015 1014 L
4979  978 mt 4979 1050 L
5138 1017 mt 5210 1017 L
5174  981 mt 5174 1053 L
5332 1019 mt 5404 1019 L
5368  983 mt 5368 1055 L
5527 1019 mt 5599 1019 L
5563  983 mt 5563 1055 L
5722 1022 mt 5794 1022 L
5758  986 mt 5758 1058 L
1059 1099 mt 1109 1149 L
1109 1099 mt 1059 1149 L
1253 1085 mt 1303 1135 L
1303 1085 mt 1253 1135 L
1448 1017 mt 1498 1067 L
1498 1017 mt 1448 1067 L
1643  986 mt 1693 1036 L
1693  986 mt 1643 1036 L
1838  973 mt 1888 1023 L
1888  973 mt 1838 1023 L
2032  967 mt 2082 1017 L
2082  967 mt 2032 1017 L
2227  965 mt 2277 1015 L
2277  965 mt 2227 1015 L
2422  961 mt 2472 1011 L
2472  961 mt 2422 1011 L
2617  963 mt 2667 1013 L
2667  963 mt 2617 1013 L
2811  963 mt 2861 1013 L
2861  963 mt 2811 1013 L
3006  965 mt 3056 1015 L
3056  965 mt 3006 1015 L
3201  966 mt 3251 1016 L
3251  966 mt 3201 1016 L
3396  969 mt 3446 1019 L
3446  969 mt 3396 1019 L
3590  972 mt 3640 1022 L
3640  972 mt 3590 1022 L
3785  975 mt 3835 1025 L
3835  975 mt 3785 1025 L
3980  977 mt 4030 1027 L
4030  977 mt 3980 1027 L
4175  980 mt 4225 1030 L
4225  980 mt 4175 1030 L
4370  982 mt 4420 1032 L
4420  982 mt 4370 1032 L
4564  984 mt 4614 1034 L
4614  984 mt 4564 1034 L
4759  988 mt 4809 1038 L
4809  988 mt 4759 1038 L
4954  989 mt 5004 1039 L
5004  989 mt 4954 1039 L
5149  992 mt 5199 1042 L
5199  992 mt 5149 1042 L
5343  994 mt 5393 1044 L
5393  994 mt 5343 1044 L
5538  994 mt 5588 1044 L
5588  994 mt 5538 1044 L
5733  997 mt 5783 1047 L
5783  997 mt 5733 1047 L
gs 899 389 5357 4227 rc
c12
10 2 10 2 9 3 10 2 10 2 10 2 9 3 10 2 
10 2 10 2 9 3 10 2 10 2 9 3 10 2 10 2 
10 3 9 2 10 2 10 3 10 2 9 3 10 2 10 2 
10 3 9 2 10 3 10 2 10 3 9 2 10 3 10 2 
10 3 9 2 10 3 10 2 9 3 10 2 10 3 10 2 
9 3 10 3 10 2 10 3 9 3 10 2 10 3 10 3 
9 2 10 3 10 3 10 2 9 3 10 3 10 2 9 3 
10 3 10 3 10 3 9 2 10 3 10 3 10 3 9 3 
10 3 10 2 10 3 9 3 10 3 10 3 10 3 9 3 
10 3 10 3 10 3 9 3 10 3 10 3 9 3 10 3 
10 3 10 3 9 3 10 3 10 3 10 4 9 3 10 3 
10 3 10 3 9 4 10 3 10 3 10 3 9 4 10 3 
10 3 9 4 10 3 10 3 10 4 9 3 10 3 10 4 
10 3 9 4 10 3 10 4 10 3 9 4 10 3 10 4 
10 3 9 4 10 4 10 3 10 4 9 4 10 3 10 4 
9 4 10 3 10 4 10 4 9 4 10 4 10 3 10 4 
9 4 10 4 10 4 10 4 9 4 10 4 10 4 10 4 
9 3 10 4 10 4 9 4 10 4 10 4 10 3 9 4 
10 5 10 4 10 4 9 3 10 5 10 4 10 4 9 5 
10 4 10 4 10 5 9 4 10 4 10 5 10 4 9 4 
10 4 10 4 9 5 10 4 10 5 10 4 9 4 10 5 
10 4 10 5 9 4 10 5 10 4 10 5 9 4 10 5 
10 5 10 4 9 5 10 5 10 4 9 5 10 5 10 5 
10 5 9 5 10 5 10 5 10 5 9 5 10 5 10 5 
10 5 9 5 10 5 10 5 10 5 9 5 10 5 10 6 
10 6 9 5 10 6 10 6 9 6 10 6 10 5 10 6 
9 6 10 6 10 6 10 6 9 6 10 6 10 6 10 5 
9 6 10 6 10 5 10 5 9 6 10 5 10 4 9 5 
10 4 10 5 10 5 9 5 10 5 10 4 10 5 9 4 
10 4 10 5 10 4 9 4 10 5 10 3 10 4 9 4 
10 2 10 4 10 3 9 3 10 2 10 3 9 2 10 3 
10 3 10 7 9 6 10 7 10 7 10 6 9 7 10 7 
10 8 10 7 9 6 10 8 10 7 10 7 9 7 10 7 
10 7 10 8 9 7 10 7 10 6 9 6 10 6 10 6 
10 7 9 6 10 5 10 5 10 6 9 5 10 5 10 5 
10 5 9 4 10 4 10 4 10 5 9 5 10 4 10 3 
9 3 10 3 10 2 10 3 9 4 10 2 10 3 10 1 
9 2 10 2 10 2 2846 2118 300 MP stroke
10 6 9 6 10 6 10 5 10 5 9 6 10 4 10 5 
10 4 9 4 10 6 10 4 9 6 10 4 10 4 10 4 
9 4 10 4 10 3 10 4 9 1 10 2 10 2 10 1 
9 3 10 1 10 3 10 2 9 1 10 1 10 0 9 2 
10 -1 10 2 10 1 9 1 10 0 10 -1 10 1 9 0 
10 -1 10 -1 10 0 9 0 10 -2 10 -3 10 0 9 -3 
10 -1 10 0 10 5 9 4 10 5 10 4 9 4 10 3 
10 3 10 3 9 2 10 2 10 3 10 4 9 2 10 3 
10 3 10 1 9 3 10 1 10 1 10 1 9 2 10 2 
10 1 9 1 10 0 10 0 10 0 9 -1 10 1 10 0 
10 0 9 0 10 0 10 -3 10 -2 9 -5 10 -2 10 -3 
10 -2 9 0 10 -1 10 -3 10 -1 9 -4 10 -2 10 -5 
9 -2 10 -5 10 -3 10 -1 9 7 10 5 10 7 10 5 
9 7 10 9 10 8 10 7 9 6 10 6 10 4 10 6 
9 6 10 5 10 4 9 2 10 1 10 4 10 4 9 2 
10 3 10 3 10 4 9 4 10 3 10 2 10 2 9 2 
10 0 10 1 10 0 9 -2 10 0 10 -4 10 -3 9 -2 
10 -5 10 -3 9 -6 10 -4 10 -5 10 -9 9 -5 10 -6 
10 -9 10 -7 9 -7 10 -8 10 -7 10 -5 9 16 10 16 
10 16 10 15 9 15 10 16 10 16 9 16 10 18 10 16 
10 16 9 16 10 21 10 21 10 19 9 21 10 16 10 21 
10 21 9 21 10 17 10 19 10 13 9 14 10 17 10 11 
10 7 9 5 10 9 10 4 9 5 10 8 10 6 10 1 
9 3 10 -4 10 9 10 7 9 -10 10 13 10 11 10 -12 
9 -7 10 1 10 -9 10 -13 9 29 10 5 10 79 9 0 
899 1371 201 MP stroke
0 140 1084 1419 2 MP stroke
93 0 1037 1419 2 MP stroke
93 0 1037 1559 2 MP stroke
0 187 1278 1693 2 MP stroke
93 0 1232 1693 2 MP stroke
93 0 1232 1880 2 MP stroke
0 159 1473 1820 2 MP stroke
94 0 1426 1820 2 MP stroke
94 0 1426 1979 2 MP stroke
0 141 1668 1816 2 MP stroke
94 0 1621 1816 2 MP stroke
94 0 1621 1957 2 MP stroke
0 157 1863 1909 2 MP stroke
93 0 1816 1909 2 MP stroke
93 0 1816 2066 2 MP stroke
0 132 2057 1884 2 MP stroke
93 0 2011 1884 2 MP stroke
93 0 2011 2016 2 MP stroke
0 117 2252 1917 2 MP stroke
94 0 2205 1917 2 MP stroke
94 0 2205 2034 2 MP stroke
0 115 2447 1945 2 MP stroke
94 0 2400 1945 2 MP stroke
94 0 2400 2060 2 MP stroke
0 109 2642 1969 2 MP stroke
93 0 2595 1969 2 MP stroke
93 0 2595 2078 2 MP stroke
0 115 2836 2054 2 MP stroke
93 0 2790 2054 2 MP stroke
93 0 2790 2169 2 MP stroke
0 114 3031 2122 2 MP stroke
94 0 2984 2122 2 MP stroke
94 0 2984 2236 2 MP stroke
0 119 3226 2245 2 MP stroke
94 0 3179 2245 2 MP stroke
94 0 3179 2364 2 MP stroke
0 114 3421 2349 2 MP stroke
93 0 3374 2349 2 MP stroke
93 0 3374 2463 2 MP stroke
0 108 3615 2441 2 MP stroke
93 0 3569 2441 2 MP stroke
93 0 3569 2549 2 MP stroke
0 112 3810 2554 2 MP stroke
94 0 3763 2554 2 MP stroke
94 0 3763 2666 2 MP stroke
0 117 4005 2652 2 MP stroke
94 0 3958 2652 2 MP stroke
94 0 3958 2769 2 MP stroke
0 124 4200 2738 2 MP stroke
93 0 4153 2738 2 MP stroke
93 0 4153 2862 2 MP stroke
0 130 4395 2818 2 MP stroke
93 0 4348 2818 2 MP stroke
93 0 4348 2948 2 MP stroke
0 136 4589 2892 2 MP stroke
93 0 4543 2892 2 MP stroke
93 0 4543 3028 2 MP stroke
0 142 4784 2960 2 MP stroke
94 0 4737 2960 2 MP stroke
94 0 4737 3102 2 MP stroke
0 146 4979 3022 2 MP stroke
94 0 4932 3022 2 MP stroke
94 0 4932 3168 2 MP stroke
0 150 5174 3079 2 MP stroke
93 0 5127 3079 2 MP stroke
93 0 5127 3229 2 MP stroke
0 155 5368 3130 2 MP stroke
93 0 5322 3130 2 MP stroke
93 0 5322 3285 2 MP stroke
0 159 5563 3178 2 MP stroke
94 0 5516 3178 2 MP stroke
94 0 5516 3337 2 MP stroke
0 163 5758 3222 2 MP stroke
94 0 5711 3222 2 MP stroke
94 0 5711 3385 2 MP stroke
gr

c12
36 47 -36 47 -36 -47 36 -47 1084 1535 5 MP
DP
36 47 -36 47 -36 -47 36 -47 1278 1833 5 MP
DP
36 47 -36 47 -36 -47 36 -47 1473 1946 5 MP
DP
36 47 -36 47 -36 -47 36 -47 1668 1933 5 MP
DP
36 47 -36 47 -36 -47 36 -47 1863 2034 5 MP
DP
36 47 -36 47 -36 -47 36 -47 2057 1997 5 MP
DP
36 47 -36 47 -36 -47 36 -47 2252 2022 5 MP
DP
36 47 -36 47 -36 -47 36 -47 2447 2050 5 MP
DP
36 47 -36 47 -36 -47 36 -47 2642 2070 5 MP
DP
36 47 -36 47 -36 -47 36 -47 2836 2159 5 MP
DP
36 47 -36 47 -36 -47 36 -47 3031 2226 5 MP
DP
36 47 -36 47 -36 -47 36 -47 3226 2351 5 MP
DP
36 47 -36 47 -36 -47 36 -47 3421 2452 5 MP
DP
36 47 -36 47 -36 -47 36 -47 3615 2542 5 MP
DP
36 47 -36 47 -36 -47 36 -47 3810 2657 5 MP
DP
36 47 -36 47 -36 -47 36 -47 4005 2757 5 MP
DP
36 47 -36 47 -36 -47 36 -47 4200 2847 5 MP
DP
36 47 -36 47 -36 -47 36 -47 4395 2930 5 MP
DP
36 47 -36 47 -36 -47 36 -47 4589 3007 5 MP
DP
36 47 -36 47 -36 -47 36 -47 4784 3078 5 MP
DP
36 47 -36 47 -36 -47 36 -47 4979 3142 5 MP
DP
36 47 -36 47 -36 -47 36 -47 5174 3201 5 MP
DP
36 47 -36 47 -36 -47 36 -47 5368 3255 5 MP
DP
36 47 -36 47 -36 -47 36 -47 5563 3304 5 MP
DP
36 47 -36 47 -36 -47 36 -47 5758 3350 5 MP
DP
gs 899 389 5357 4227 rc
0 sg
10 2 10 4 9 2 10 3 10 1 10 3 9 3 10 3 
10 4 10 3 9 3 10 3 10 3 9 4 10 3 10 4 
10 2 9 3 10 3 10 2 10 3 9 3 10 2 10 2 
10 3 9 3 10 2 10 2 10 3 9 3 10 4 10 3 
10 2 9 3 10 2 10 2 9 1 10 1 10 0 10 1 
9 0 10 0 10 -1 10 -2 9 -3 10 -3 10 -3 10 -3 
9 -4 10 4 10 4 10 1 9 2 10 2 10 5 9 4 
10 3 10 3 10 2 9 3 10 4 10 4 10 5 9 4 
10 3 10 3 10 3 9 2 10 4 10 3 10 4 9 3 
10 4 10 5 10 3 9 4 10 4 10 4 9 2 10 2 
10 3 10 3 9 5 10 3 10 5 10 4 9 2 10 2 
10 1 10 2 9 0 10 1 10 0 10 -1 9 -2 10 -1 
10 -2 9 -3 10 -4 10 3 10 4 9 4 10 4 10 3 
10 4 9 2 10 1 10 2 10 3 9 3 10 3 10 5 
10 4 9 4 10 4 10 2 10 1 9 1 10 2 10 4 
9 3 10 4 10 4 10 3 9 5 10 4 10 3 10 3 
9 4 10 4 10 3 10 2 9 4 10 4 10 4 10 1 
9 1 10 1 10 1 9 0 10 0 10 0 10 -1 9 0 
10 -2 10 -3 10 -3 9 -5 10 -4 10 3 10 5 9 4 
10 4 10 2 10 2 9 2 10 5 10 6 10 5 9 6 
10 4 10 3 9 2 10 2 10 6 10 7 9 6 10 5 
10 4 10 3 9 4 10 4 10 4 10 5 9 4 10 5 
10 2 10 4 9 4 10 3 10 4 9 4 10 5 10 3 
10 5 9 3 10 2 10 3 10 2 9 2 10 2 10 -1 
10 -1 9 0 10 -2 10 -4 10 -4 9 -5 10 -4 10 3 
10 3 9 4 10 3 10 3 9 5 10 2 10 3 10 4 
9 6 10 4 10 2 10 2 9 4 10 4 10 3 10 2 
9 2 10 5 10 4 10 5 9 5 10 4 10 3 9 4 
10 4 10 5 10 4 9 3 10 3 10 3 10 4 9 3 
10 5 10 5 10 4 9 4 10 1 10 3 10 2 9 0 
10 1 10 0 10 -2 9 -2 10 -4 10 -3 9 -5 10 -5 
10 -5 10 6 9 4 10 3 10 4 10 4 9 6 10 4 
10 3 10 6 9 6 10 3 10 3 10 3 9 3 10 4 
10 6 10 3 9 5 10 5 10 6 9 6 10 6 10 5 
10 4 9 5 10 4 10 7 10 5 9 3 10 5 10 3 
10 6 9 4 10 4 10 5 10 6 9 5 10 4 10 5 
9 5 10 3 10 1 10 0 9 -1 10 -2 10 -3 10 -3 
9 -3 10 -6 10 -7 2846 3841 300 MP stroke
10 4 9 3 10 5 10 5 10 7 9 7 10 6 10 5 
10 7 9 6 10 5 10 6 9 7 10 6 10 7 10 5 
9 4 10 6 10 3 10 5 9 5 10 4 10 8 10 6 
9 5 10 5 10 6 10 4 9 8 10 7 10 7 9 6 
10 8 10 5 10 5 9 6 10 6 10 5 10 8 9 6 
10 5 10 5 10 2 9 3 10 1 10 0 10 -2 9 -3 
10 -4 10 -8 10 5 9 6 10 8 10 8 9 6 10 4 
10 4 10 6 9 5 10 8 10 10 10 7 9 7 10 5 
10 5 10 5 9 8 10 9 10 7 10 7 9 7 10 7 
10 6 9 6 10 9 10 9 10 7 9 5 10 9 10 10 
10 6 9 8 10 5 10 5 10 7 9 10 10 10 10 7 
10 5 9 6 10 6 10 5 10 4 9 1 10 -1 10 -3 
9 -2 10 -4 10 -8 10 -8 9 3 10 6 10 8 10 9 
9 10 10 6 10 9 10 9 9 9 10 7 10 10 10 7 
9 9 10 4 10 3 9 4 10 8 10 9 10 10 9 11 
10 8 10 7 10 10 9 10 10 12 10 14 10 12 9 15 
10 10 10 9 10 7 9 5 10 13 10 13 10 10 9 11 
10 11 10 10 9 13 10 8 10 11 10 8 9 7 10 9 
10 0 10 -2 9 -8 10 -10 10 -11 10 -16 9 12 10 8 
10 9 10 15 9 14 10 11 10 7 9 8 10 10 10 13 
10 13 9 11 10 14 10 11 10 14 9 15 10 19 10 18 
10 17 9 11 10 2 10 21 10 18 9 23 10 22 10 20 
10 16 9 20 10 18 10 13 9 17 10 20 10 31 10 30 
9 45 10 51 10 40 10 68 9 43 10 60 10 63 10 65 
9 77 10 87 10 64 10 56 9 102 10 111 10 86 9 0 
899 1463 201 MP stroke
0 211 1084 2457 2 MP stroke
93 0 1037 2457 2 MP stroke
93 0 1037 2668 2 MP stroke
0 186 1278 2789 2 MP stroke
93 0 1232 2789 2 MP stroke
93 0 1232 2975 2 MP stroke
0 164 1473 2897 2 MP stroke
94 0 1426 2897 2 MP stroke
94 0 1426 3061 2 MP stroke
0 147 1668 3117 2 MP stroke
94 0 1621 3117 2 MP stroke
94 0 1621 3264 2 MP stroke
0 130 1863 3281 2 MP stroke
93 0 1816 3281 2 MP stroke
93 0 1816 3411 2 MP stroke
0 109 2057 3347 2 MP stroke
93 0 2011 3347 2 MP stroke
93 0 2011 3456 2 MP stroke
0 108 2252 3489 2 MP stroke
94 0 2205 3489 2 MP stroke
94 0 2205 3597 2 MP stroke
0 111 2447 3551 2 MP stroke
94 0 2400 3551 2 MP stroke
94 0 2400 3662 2 MP stroke
0 115 2642 3670 2 MP stroke
93 0 2595 3670 2 MP stroke
93 0 2595 3785 2 MP stroke
0 122 2836 3776 2 MP stroke
93 0 2790 3776 2 MP stroke
93 0 2790 3898 2 MP stroke
0 128 3031 3800 2 MP stroke
94 0 2984 3800 2 MP stroke
94 0 2984 3928 2 MP stroke
0 131 3226 3889 2 MP stroke
94 0 3179 3889 2 MP stroke
94 0 3179 4020 2 MP stroke
0 126 3421 3916 2 MP stroke
93 0 3374 3916 2 MP stroke
93 0 3374 4042 2 MP stroke
0 129 3615 3983 2 MP stroke
93 0 3569 3983 2 MP stroke
93 0 3569 4112 2 MP stroke
0 122 3810 4057 2 MP stroke
94 0 3763 4057 2 MP stroke
94 0 3763 4179 2 MP stroke
0 112 4005 4079 2 MP stroke
94 0 3958 4079 2 MP stroke
94 0 3958 4191 2 MP stroke
0 110 4200 4161 2 MP stroke
93 0 4153 4161 2 MP stroke
93 0 4153 4271 2 MP stroke
0 102 4395 4191 2 MP stroke
93 0 4348 4191 2 MP stroke
93 0 4348 4293 2 MP stroke
0 95 4589 4253 2 MP stroke
93 0 4543 4253 2 MP stroke
93 0 4543 4348 2 MP stroke
0 92 4784 4314 2 MP stroke
94 0 4737 4314 2 MP stroke
94 0 4737 4406 2 MP stroke
0 88 4979 4337 2 MP stroke
94 0 4932 4337 2 MP stroke
94 0 4932 4425 2 MP stroke
0 90 5174 4406 2 MP stroke
93 0 5127 4406 2 MP stroke
93 0 5127 4496 2 MP stroke
0 92 5368 4419 2 MP stroke
93 0 5322 4419 2 MP stroke
93 0 5322 4511 2 MP stroke
0 92 5563 4464 2 MP stroke
94 0 5516 4464 2 MP stroke
94 0 5516 4556 2 MP stroke
0 93 5758 4522 2 MP stroke
94 0 5711 4522 2 MP stroke
94 0 5711 4615 2 MP stroke
gr

0 sg
1048 2562 mt 1120 2562 L
1084 2526 mt 1084 2598 L
1242 2882 mt 1314 2882 L
1278 2846 mt 1278 2918 L
1437 2979 mt 1509 2979 L
1473 2943 mt 1473 3015 L
1632 3190 mt 1704 3190 L
1668 3154 mt 1668 3226 L
1827 3346 mt 1899 3346 L
1863 3310 mt 1863 3382 L
2021 3402 mt 2093 3402 L
2057 3366 mt 2057 3438 L
2216 3543 mt 2288 3543 L
2252 3507 mt 2252 3579 L
2411 3607 mt 2483 3607 L
2447 3571 mt 2447 3643 L
2606 3727 mt 2678 3727 L
2642 3691 mt 2642 3763 L
2800 3837 mt 2872 3837 L
2836 3801 mt 2836 3873 L
2995 3864 mt 3067 3864 L
3031 3828 mt 3031 3900 L
3190 3955 mt 3262 3955 L
3226 3919 mt 3226 3991 L
3385 3979 mt 3457 3979 L
3421 3943 mt 3421 4015 L
3579 4048 mt 3651 4048 L
3615 4012 mt 3615 4084 L
3774 4118 mt 3846 4118 L
3810 4082 mt 3810 4154 L
3969 4135 mt 4041 4135 L
4005 4099 mt 4005 4171 L
4164 4216 mt 4236 4216 L
4200 4180 mt 4200 4252 L
4359 4242 mt 4431 4242 L
4395 4206 mt 4395 4278 L
4553 4300 mt 4625 4300 L
4589 4264 mt 4589 4336 L
4748 4360 mt 4820 4360 L
4784 4324 mt 4784 4396 L
4943 4381 mt 5015 4381 L
4979 4345 mt 4979 4417 L
5138 4451 mt 5210 4451 L
5174 4415 mt 5174 4487 L
5332 4465 mt 5404 4465 L
5368 4429 mt 5368 4501 L
5527 4510 mt 5599 4510 L
5563 4474 mt 5563 4546 L
5722 4568 mt 5794 4568 L
5758 4532 mt 5758 4604 L
gs 899 389 5357 4227 rc
gr

1 sg
0 918 1538 0 0 -918 4658 1367 4 MP
PP
-1538 0 0 918 1538 0 0 -918 4658 1367 5 MP stroke
4 w
DO
SO
6 w
0 sg
4658 1367 mt 6196 1367 L
4658  449 mt 6196  449 L
4658 1367 mt 4658  449 L
6196 1367 mt 6196  449 L
4658 1367 mt 6196 1367 L
4658 1367 mt 4658  449 L
4658 1367 mt 6196 1367 L
4658  449 mt 6196  449 L
4658 1367 mt 4658  449 L
6196 1367 mt 6196  449 L
5125  581 mt 
(original BO) s
gs 4658 449 1539 919 rc
gs 4836 465 147 147 rc
41 71 -82 0 41 -71 4909 585 4 MP
c8
DP
gr

c8
gr

c8
0 sg
5125  729 mt 
(random basis) s
gs 4658 449 1539 919 rc
gs 4836 613 147 147 rc
0 -58 -58 0 0 58 58 0 4880 657 5 MP
c9
DP
gr

c9
gr

c9
0 sg
5125  877 mt 
(random embedding) s
gs 4658 449 1539 919 rc
gs 4836 761 147 147 rc
c10
  36   36 4909  834 FO
gr

c10
gr

c10
0 sg
5125 1024 mt 
(subpsace learning) s
gs 4658 449 1539 919 rc
gs 4836 908 147 147 rc
c11
4873  981 mt 4945  981 L
4909  945 mt 4909 1017 L
4884  956 mt 4934 1006 L
4934  956 mt 4884 1006 L
gr

c11
gr

c11
0 sg
5125 1172 mt 
(additive model) s
gs 4658 449 1539 919 rc
gs 4836 1056 147 147 rc
36 47 -36 47 -36 -47 36 -47 4909 1176 5 MP
c12
DP
gr

c12
gr

c12
0 sg
5125 1320 mt 
(anova ve) s
gs 4658 449 1539 919 rc
gs 4836 1204 147 147 rc
4873 1277 mt 4945 1277 L
4909 1241 mt 4909 1313 L
gr

gr


end %%Color Dict

eplot
%%EndObject

epage
end

showpage

%%Trailer
%%EOF
