%!PS-Adobe-3.0 EPSF-3.0
%%Creator: MATLAB, The MathWorks, Inc. Version 7.12.0.635 (R2011a). Operating System: Linux 3.16.0-4-amd64 #1 SMP Debian 3.16.36-1+deb8u1 (2016-09-03) x86_64.
%%Title: /home/jaemin/Research/codes_MATSIM/HIGHDIM_BO_plot/results/logsumSE2/logsumSE2_simple_regret_100.eps
%%CreationDate: 10/15/2016  14:33:25
%%DocumentNeededFonts: Helvetica
%%DocumentProcessColors: Cyan Magenta Yellow Black
%%LanguageLevel: 2
%%Pages: 1
%%BoundingBox:    51   199   546   591
%%EndComments

%%BeginProlog
% MathWorks dictionary
/MathWorks 160 dict begin
% definition operators
/bdef {bind def} bind def
/ldef {load def} bind def
/xdef {exch def} bdef
/xstore {exch store} bdef
% operator abbreviations
/c  /clip ldef
/cc /concat ldef
/cp /closepath ldef
/gr /grestore ldef
/gs /gsave ldef
/mt /moveto ldef
/np /newpath ldef
/cm /currentmatrix ldef
/sm /setmatrix ldef
/rm /rmoveto ldef
/rl /rlineto ldef
/s {show newpath} bdef
/sc {setcmykcolor} bdef
/sr /setrgbcolor ldef
/sg /setgray ldef
/w /setlinewidth ldef
/j /setlinejoin ldef
/cap /setlinecap ldef
/rc {rectclip} bdef
/rf {rectfill} bdef
% page state control
/pgsv () def
/bpage {/pgsv save def} bdef
/epage {pgsv restore} bdef
/bplot /gsave ldef
/eplot {stroke grestore} bdef
% orientation switch
/portraitMode 0 def /landscapeMode 1 def /rotateMode 2 def
% coordinate system mappings
/dpi2point 0 def
% font control
/FontSize 0 def
/FMS {/FontSize xstore findfont [FontSize 0 0 FontSize neg 0 0]
  makefont setfont} bdef
/reencode {exch dup where {pop load} {pop StandardEncoding} ifelse
  exch dup 3 1 roll findfont dup length dict begin
  { 1 index /FID ne {def}{pop pop} ifelse } forall
  /Encoding exch def currentdict end definefont pop} bdef
/isroman {findfont /CharStrings get /Agrave known} bdef
/FMSR {3 1 roll 1 index dup isroman {reencode} {pop pop} ifelse
  exch FMS} bdef
/csm {1 dpi2point div -1 dpi2point div scale neg translate
 dup landscapeMode eq {pop -90 rotate}
  {rotateMode eq {90 rotate} if} ifelse} bdef
% line types: solid, dotted, dashed, dotdash
/SO { [] 0 setdash } bdef
/DO { [.5 dpi2point mul 4 dpi2point mul] 0 setdash } bdef
/DA { [6 dpi2point mul] 0 setdash } bdef
/DD { [.5 dpi2point mul 4 dpi2point mul 6 dpi2point mul 4
  dpi2point mul] 0 setdash } bdef
% macros for lines and objects
/L {lineto stroke} bdef
/MP {3 1 roll moveto 1 sub {rlineto} repeat} bdef
/AP {{rlineto} repeat} bdef
/PDlw -1 def
/W {/PDlw currentlinewidth def setlinewidth} def
/PP {closepath eofill} bdef
/DP {closepath stroke} bdef
/MR {4 -2 roll moveto dup  0 exch rlineto exch 0 rlineto
  neg 0 exch rlineto closepath} bdef
/FR {MR stroke} bdef
/PR {MR fill} bdef
/L1i {{currentfile picstr readhexstring pop} image} bdef
/tMatrix matrix def
/MakeOval {newpath tMatrix currentmatrix pop translate scale
0 0 1 0 360 arc tMatrix setmatrix} bdef
/FO {MakeOval stroke} bdef
/PO {MakeOval fill} bdef
/PD {currentlinewidth 2 div 0 360 arc fill
   PDlw -1 eq not {PDlw w /PDlw -1 def} if} def
/FA {newpath tMatrix currentmatrix pop translate scale
  0 0 1 5 -2 roll arc tMatrix setmatrix stroke} bdef
/PA {newpath tMatrix currentmatrix pop	translate 0 0 moveto scale
  0 0 1 5 -2 roll arc closepath tMatrix setmatrix fill} bdef
/FAn {newpath tMatrix currentmatrix pop translate scale
  0 0 1 5 -2 roll arcn tMatrix setmatrix stroke} bdef
/PAn {newpath tMatrix currentmatrix pop translate 0 0 moveto scale
  0 0 1 5 -2 roll arcn closepath tMatrix setmatrix fill} bdef
/vradius 0 def /hradius 0 def /lry 0 def
/lrx 0 def /uly 0 def /ulx 0 def /rad 0 def
/MRR {/vradius xdef /hradius xdef /lry xdef /lrx xdef /uly xdef
  /ulx xdef newpath tMatrix currentmatrix pop ulx hradius add uly
  vradius add translate hradius vradius scale 0 0 1 180 270 arc 
  tMatrix setmatrix lrx hradius sub uly vradius add translate
  hradius vradius scale 0 0 1 270 360 arc tMatrix setmatrix
  lrx hradius sub lry vradius sub translate hradius vradius scale
  0 0 1 0 90 arc tMatrix setmatrix ulx hradius add lry vradius sub
  translate hradius vradius scale 0 0 1 90 180 arc tMatrix setmatrix
  closepath} bdef
/FRR {MRR stroke } bdef
/PRR {MRR fill } bdef
/MlrRR {/lry xdef /lrx xdef /uly xdef /ulx xdef /rad lry uly sub 2 div def
  newpath tMatrix currentmatrix pop ulx rad add uly rad add translate
  rad rad scale 0 0 1 90 270 arc tMatrix setmatrix lrx rad sub lry rad
  sub translate rad rad scale 0 0 1 270 90 arc tMatrix setmatrix
  closepath} bdef
/FlrRR {MlrRR stroke } bdef
/PlrRR {MlrRR fill } bdef
/MtbRR {/lry xdef /lrx xdef /uly xdef /ulx xdef /rad lrx ulx sub 2 div def
  newpath tMatrix currentmatrix pop ulx rad add uly rad add translate
  rad rad scale 0 0 1 180 360 arc tMatrix setmatrix lrx rad sub lry rad
  sub translate rad rad scale 0 0 1 0 180 arc tMatrix setmatrix
  closepath} bdef
/FtbRR {MtbRR stroke } bdef
/PtbRR {MtbRR fill } bdef
/stri 6 array def /dtri 6 array def
/smat 6 array def /dmat 6 array def
/tmat1 6 array def /tmat2 6 array def /dif 3 array def
/asub {/ind2 exch def /ind1 exch def dup dup
  ind1 get exch ind2 get sub exch } bdef
/tri_to_matrix {
  2 0 asub 3 1 asub 4 0 asub 5 1 asub
  dup 0 get exch 1 get 7 -1 roll astore } bdef
/compute_transform {
  dmat dtri tri_to_matrix tmat1 invertmatrix 
  smat stri tri_to_matrix tmat2 concatmatrix } bdef
/ds {stri astore pop} bdef
/dt {dtri astore pop} bdef
/db {2 copy /cols xdef /rows xdef mul dup 3 mul string
  currentfile 
  3 index 0 eq {/ASCIIHexDecode filter}
  {/ASCII85Decode filter 3 index 2 eq {/RunLengthDecode filter} if }
  ifelse exch readstring pop
  dup 0 3 index getinterval /rbmap xdef
  dup 2 index dup getinterval /gbmap xdef
  1 index dup 2 mul exch getinterval /bbmap xdef pop pop}bdef
/it {gs np dtri aload pop moveto lineto lineto cp c
  cols rows 8 compute_transform 
  rbmap gbmap bbmap true 3 colorimage gr}bdef
/il {newpath moveto lineto stroke}bdef
currentdict end def
%%EndProlog

%%BeginSetup
MathWorks begin

0 cap

end
%%EndSetup

%%Page: 1 1
%%BeginPageSetup
%%PageBoundingBox:    51   199   546   591
MathWorks begin
bpage
%%EndPageSetup

%%BeginObject: obj1
bplot

/dpi2point 12 def
portraitMode 0216 7344 csm

  402   247  5943  4708 rc
88 dict begin %Colortable dictionary
/c0 { 0.000000 0.000000 0.000000 sr} bdef
/c1 { 1.000000 1.000000 1.000000 sr} bdef
/c2 { 0.900000 0.000000 0.000000 sr} bdef
/c3 { 0.000000 0.820000 0.000000 sr} bdef
/c4 { 0.000000 0.000000 0.800000 sr} bdef
/c5 { 0.910000 0.820000 0.320000 sr} bdef
/c6 { 1.000000 0.260000 0.820000 sr} bdef
/c7 { 0.000000 0.820000 0.820000 sr} bdef
c0
1 j
1 sg
   0    0 6913 5186 rf
6 w
0 4226 5356 0 0 -4226 899 4615 4 MP
PP
-5356 0 0 4226 5356 0 0 -4226 899 4615 5 MP stroke
4 w
DO
SO
6 w
0 sg
 899 4615 mt 6255 4615 L
 899  389 mt 6255  389 L
 899 4615 mt  899  389 L
6255 4615 mt 6255  389 L
 899 4615 mt 6255 4615 L
 899 4615 mt  899  389 L
 899 4615 mt  899 4561 L
 899  389 mt  899  442 L
%%IncludeResource: font Helvetica
/Helvetica /ISOLatin1Encoding 120 FMSR

 866 4760 mt 
(0) s
1385 4615 mt 1385 4561 L
1385  389 mt 1385  442 L
1319 4760 mt 
(50) s
1872 4615 mt 1872 4561 L
1872  389 mt 1872  442 L
1772 4760 mt 
(100) s
2359 4615 mt 2359 4561 L
2359  389 mt 2359  442 L
2259 4760 mt 
(150) s
2846 4615 mt 2846 4561 L
2846  389 mt 2846  442 L
2746 4760 mt 
(200) s
3333 4615 mt 3333 4561 L
3333  389 mt 3333  442 L
3233 4760 mt 
(250) s
3820 4615 mt 3820 4561 L
3820  389 mt 3820  442 L
3720 4760 mt 
(300) s
4307 4615 mt 4307 4561 L
4307  389 mt 4307  442 L
4207 4760 mt 
(350) s
4794 4615 mt 4794 4561 L
4794  389 mt 4794  442 L
4694 4760 mt 
(400) s
5281 4615 mt 5281 4561 L
5281  389 mt 5281  442 L
5181 4760 mt 
(450) s
5768 4615 mt 5768 4561 L
5768  389 mt 5768  442 L
5668 4760 mt 
(500) s
 899 4615 mt  899 4615 L
 899 4615 mt  899 4615 L
 899 4615 mt  899 4615 L
 899 4615 mt  899 4615 L
 899 4615 mt  899 4615 L
 899 4615 mt  899 4615 L
 899 4615 mt  899 4615 L
 899 4615 mt  899 4615 L
 899 4615 mt  899 4615 L
 899 4615 mt  899 4615 L
 899 4615 mt  899 4615 L
 899 4615 mt  899 4615 L
 899 4615 mt  899 4615 L
 899 4615 mt  899 4615 L
 899 4615 mt  899 4615 L
 899 4615 mt  899 4615 L
 899 4615 mt  899 4615 L
 899 4615 mt  899 4615 L
 899 4191 mt  952 4191 L
6255 4191 mt 6201 4191 L
 620 4235 mt 
(10) s
%%IncludeResource: font Helvetica
/Helvetica /ISOLatin1Encoding 80 FMSR

 753 4161 mt 
(0.2) s
 899 4615 mt  899 4615 L
 899 4615 mt  899 4615 L
 899 4615 mt  899 4615 L
 899 4615 mt  899 4615 L
 899 4615 mt  899 4615 L
 899 4615 mt  899 4615 L
 899 4615 mt  899 4615 L
 899 4615 mt  899 4615 L
 899 4615 mt  899 4615 L
 899 4615 mt  899 4615 L
 899 4615 mt  899 4615 L
 899 4615 mt  899 4615 L
 899 4615 mt  899 4615 L
 899 4615 mt  899 4615 L
 899 4615 mt  899 4615 L
 899 4615 mt  899 4615 L
 899 4615 mt  899 4615 L
 899 4615 mt  899 4615 L
 899 1092 mt  952 1092 L
6255 1092 mt 6201 1092 L
%%IncludeResource: font Helvetica
/Helvetica /ISOLatin1Encoding 120 FMSR

 620 1136 mt 
(10) s
%%IncludeResource: font Helvetica
/Helvetica /ISOLatin1Encoding 80 FMSR

 753 1062 mt 
(0.3) s
 899 4615 mt  899 4615 L
 899 4615 mt  899 4615 L
 899 4615 mt  899 4615 L
 899 4615 mt  899 4615 L
 899 4615 mt  899 4615 L
 899 4615 mt  899 4615 L
 899 4615 mt  899 4615 L
 899 4615 mt  899 4615 L
 899 4615 mt  899 4615 L
 899 4615 mt  899 4615 L
 899 4615 mt  899 4615 L
 899 4615 mt  899 4615 L
 899 4615 mt  899 4615 L
 899 4615 mt  899 4615 L
 899 4615 mt  899 4615 L
 899 4615 mt  899 4615 L
 899 4615 mt  899 4615 L
 899 4615 mt  899 4615 L
 899 4615 mt 6255 4615 L
 899  389 mt 6255  389 L
 899 4615 mt  899  389 L
6255 4615 mt 6255  389 L
gs 899 389 5357 4227 rc
gr

0 j
41 71 -82 0 41 -71 1084 1911 4 MP
/c8 { 0.000000 1.000000 0.000000 sr} bdef
c8
DP
41 71 -82 0 41 -71 1278 1911 4 MP
DP
41 71 -82 0 41 -71 1473 1914 4 MP
DP
41 71 -82 0 41 -71 1668 1932 4 MP
DP
41 71 -82 0 41 -71 1863 1937 4 MP
DP
41 71 -82 0 41 -71 2057 1938 4 MP
DP
41 71 -82 0 41 -71 2252 1939 4 MP
DP
41 71 -82 0 41 -71 2447 1939 4 MP
DP
41 71 -82 0 41 -71 2642 1956 4 MP
DP
41 71 -82 0 41 -71 2836 1962 4 MP
DP
41 71 -82 0 41 -71 3031 1962 4 MP
DP
41 71 -82 0 41 -71 3226 1965 4 MP
DP
41 71 -82 0 41 -71 3421 1965 4 MP
DP
41 71 -82 0 41 -71 3615 1983 4 MP
DP
41 71 -82 0 41 -71 3810 1983 4 MP
DP
41 71 -82 0 41 -71 4005 2000 4 MP
DP
41 71 -82 0 41 -71 4200 2007 4 MP
DP
41 71 -82 0 41 -71 4395 2007 4 MP
DP
41 71 -82 0 41 -71 4589 2017 4 MP
DP
41 71 -82 0 41 -71 4784 2029 4 MP
DP
41 71 -82 0 41 -71 4979 2038 4 MP
DP
41 71 -82 0 41 -71 5174 2040 4 MP
DP
41 71 -82 0 41 -71 5368 2042 4 MP
DP
41 71 -82 0 41 -71 5563 2079 4 MP
DP
41 71 -82 0 41 -71 5758 2091 4 MP
DP
gs 899 389 5357 4227 rc
gr

0 -58 -58 0 0 58 58 0 1055 1330 5 MP
/c9 { 1.000000 0.000000 0.000000 sr} bdef
c9
DP
0 -58 -58 0 0 58 58 0 1249 1410 5 MP
DP
0 -58 -58 0 0 58 58 0 1444 1444 5 MP
DP
0 -58 -58 0 0 58 58 0 1639 1445 5 MP
DP
0 -58 -58 0 0 58 58 0 1834 1457 5 MP
DP
0 -58 -58 0 0 58 58 0 2028 1461 5 MP
DP
0 -58 -58 0 0 58 58 0 2223 1461 5 MP
DP
0 -58 -58 0 0 58 58 0 2418 1472 5 MP
DP
0 -58 -58 0 0 58 58 0 2613 1482 5 MP
DP
0 -58 -58 0 0 58 58 0 2807 1482 5 MP
DP
0 -58 -58 0 0 58 58 0 3002 1488 5 MP
DP
0 -58 -58 0 0 58 58 0 3197 1493 5 MP
DP
0 -58 -58 0 0 58 58 0 3392 1493 5 MP
DP
0 -58 -58 0 0 58 58 0 3586 1494 5 MP
DP
0 -58 -58 0 0 58 58 0 3781 1500 5 MP
DP
0 -58 -58 0 0 58 58 0 3976 1500 5 MP
DP
0 -58 -58 0 0 58 58 0 4171 1500 5 MP
DP
0 -58 -58 0 0 58 58 0 4366 1500 5 MP
DP
0 -58 -58 0 0 58 58 0 4560 1500 5 MP
DP
0 -58 -58 0 0 58 58 0 4755 1500 5 MP
DP
0 -58 -58 0 0 58 58 0 4950 1500 5 MP
DP
0 -58 -58 0 0 58 58 0 5145 1500 5 MP
DP
0 -58 -58 0 0 58 58 0 5339 1505 5 MP
DP
0 -58 -58 0 0 58 58 0 5534 1505 5 MP
DP
0 -58 -58 0 0 58 58 0 5729 1505 5 MP
DP
gs 899 389 5357 4227 rc
gr

/c10 { 0.000000 1.000000 1.000000 sr} bdef
c10
  36   36 1084  444 FO
  36   36 1278  444 FO
  36   36 1473  444 FO
  36   36 1668  444 FO
  36   36 1863  444 FO
  36   36 2057  446 FO
  36   36 2252  448 FO
  36   36 2447  448 FO
  36   36 2642  500 FO
  36   36 2836  536 FO
  36   36 3031  536 FO
  36   36 3226  575 FO
  36   36 3421  575 FO
  36   36 3615  575 FO
  36   36 3810  582 FO
  36   36 4005  582 FO
  36   36 4200  585 FO
  36   36 4395  585 FO
  36   36 4589  585 FO
  36   36 4784  585 FO
  36   36 4979  587 FO
  36   36 5174  593 FO
  36   36 5368  593 FO
  36   36 5563  593 FO
  36   36 5758  593 FO
gs 899 389 5357 4227 rc
gr

/c11 { 0.000000 0.000000 1.000000 sr} bdef
c11
1048 1615 mt 1120 1615 L
1084 1579 mt 1084 1651 L
1242 1615 mt 1314 1615 L
1278 1579 mt 1278 1651 L
1437 1618 mt 1509 1618 L
1473 1582 mt 1473 1654 L
1632 1618 mt 1704 1618 L
1668 1582 mt 1668 1654 L
1827 1618 mt 1899 1618 L
1863 1582 mt 1863 1654 L
2021 1618 mt 2093 1618 L
2057 1582 mt 2057 1654 L
2216 1618 mt 2288 1618 L
2252 1582 mt 2252 1654 L
2411 1618 mt 2483 1618 L
2447 1582 mt 2447 1654 L
2606 1618 mt 2678 1618 L
2642 1582 mt 2642 1654 L
2800 1618 mt 2872 1618 L
2836 1582 mt 2836 1654 L
2995 1618 mt 3067 1618 L
3031 1582 mt 3031 1654 L
3190 1618 mt 3262 1618 L
3226 1582 mt 3226 1654 L
3385 1618 mt 3457 1618 L
3421 1582 mt 3421 1654 L
3579 1618 mt 3651 1618 L
3615 1582 mt 3615 1654 L
3774 1618 mt 3846 1618 L
3810 1582 mt 3810 1654 L
3969 1618 mt 4041 1618 L
4005 1582 mt 4005 1654 L
4164 1618 mt 4236 1618 L
4200 1582 mt 4200 1654 L
4359 1618 mt 4431 1618 L
4395 1582 mt 4395 1654 L
4553 1618 mt 4625 1618 L
4589 1582 mt 4589 1654 L
4748 1618 mt 4820 1618 L
4784 1582 mt 4784 1654 L
4943 1618 mt 5015 1618 L
4979 1582 mt 4979 1654 L
5138 1618 mt 5210 1618 L
5174 1582 mt 5174 1654 L
5332 1618 mt 5404 1618 L
5368 1582 mt 5368 1654 L
5527 1618 mt 5599 1618 L
5563 1582 mt 5563 1654 L
5722 1618 mt 5794 1618 L
5758 1582 mt 5758 1654 L
1059 1590 mt 1109 1640 L
1109 1590 mt 1059 1640 L
1253 1590 mt 1303 1640 L
1303 1590 mt 1253 1640 L
1448 1593 mt 1498 1643 L
1498 1593 mt 1448 1643 L
1643 1593 mt 1693 1643 L
1693 1593 mt 1643 1643 L
1838 1593 mt 1888 1643 L
1888 1593 mt 1838 1643 L
2032 1593 mt 2082 1643 L
2082 1593 mt 2032 1643 L
2227 1593 mt 2277 1643 L
2277 1593 mt 2227 1643 L
2422 1593 mt 2472 1643 L
2472 1593 mt 2422 1643 L
2617 1593 mt 2667 1643 L
2667 1593 mt 2617 1643 L
2811 1593 mt 2861 1643 L
2861 1593 mt 2811 1643 L
3006 1593 mt 3056 1643 L
3056 1593 mt 3006 1643 L
3201 1593 mt 3251 1643 L
3251 1593 mt 3201 1643 L
3396 1593 mt 3446 1643 L
3446 1593 mt 3396 1643 L
3590 1593 mt 3640 1643 L
3640 1593 mt 3590 1643 L
3785 1593 mt 3835 1643 L
3835 1593 mt 3785 1643 L
3980 1593 mt 4030 1643 L
4030 1593 mt 3980 1643 L
4175 1593 mt 4225 1643 L
4225 1593 mt 4175 1643 L
4370 1593 mt 4420 1643 L
4420 1593 mt 4370 1643 L
4564 1593 mt 4614 1643 L
4614 1593 mt 4564 1643 L
4759 1593 mt 4809 1643 L
4809 1593 mt 4759 1643 L
4954 1593 mt 5004 1643 L
5004 1593 mt 4954 1643 L
5149 1593 mt 5199 1643 L
5199 1593 mt 5149 1643 L
5343 1593 mt 5393 1643 L
5393 1593 mt 5343 1643 L
5538 1593 mt 5588 1643 L
5588 1593 mt 5538 1643 L
5733 1593 mt 5783 1643 L
5783 1593 mt 5733 1643 L
gs 899 389 5357 4227 rc
gr

36 47 -36 47 -36 -47 36 -47 1084 1892 5 MP
/c12 { 1.000000 0.000000 1.000000 sr} bdef
c12
DP
36 47 -36 47 -36 -47 36 -47 1278 1892 5 MP
DP
36 47 -36 47 -36 -47 36 -47 1473 1892 5 MP
DP
36 47 -36 47 -36 -47 36 -47 1668 1892 5 MP
DP
36 47 -36 47 -36 -47 36 -47 1863 1893 5 MP
DP
36 47 -36 47 -36 -47 36 -47 2057 1893 5 MP
DP
36 47 -36 47 -36 -47 36 -47 2252 1893 5 MP
DP
36 47 -36 47 -36 -47 36 -47 2447 1893 5 MP
DP
36 47 -36 47 -36 -47 36 -47 2642 1907 5 MP
DP
36 47 -36 47 -36 -47 36 -47 2836 1911 5 MP
DP
36 47 -36 47 -36 -47 36 -47 3031 1911 5 MP
DP
36 47 -36 47 -36 -47 36 -47 3226 1929 5 MP
DP
36 47 -36 47 -36 -47 36 -47 3421 1929 5 MP
DP
36 47 -36 47 -36 -47 36 -47 3615 1929 5 MP
DP
36 47 -36 47 -36 -47 36 -47 3810 1929 5 MP
DP
36 47 -36 47 -36 -47 36 -47 4005 1929 5 MP
DP
36 47 -36 47 -36 -47 36 -47 4200 1929 5 MP
DP
36 47 -36 47 -36 -47 36 -47 4395 1929 5 MP
DP
36 47 -36 47 -36 -47 36 -47 4589 1948 5 MP
DP
36 47 -36 47 -36 -47 36 -47 4784 1948 5 MP
DP
36 47 -36 47 -36 -47 36 -47 4979 1948 5 MP
DP
36 47 -36 47 -36 -47 36 -47 5174 1948 5 MP
DP
36 47 -36 47 -36 -47 36 -47 5368 1948 5 MP
DP
36 47 -36 47 -36 -47 36 -47 5563 1995 5 MP
DP
36 47 -36 47 -36 -47 36 -47 5758 1995 5 MP
DP
gs 899 389 5357 4227 rc
gr

0 sg
1048 2648 mt 1120 2648 L
1084 2612 mt 1084 2684 L
1242 2706 mt 1314 2706 L
1278 2670 mt 1278 2742 L
1437 2813 mt 1509 2813 L
1473 2777 mt 1473 2849 L
1632 2857 mt 1704 2857 L
1668 2821 mt 1668 2893 L
1827 3009 mt 1899 3009 L
1863 2973 mt 1863 3045 L
2021 3049 mt 2093 3049 L
2057 3013 mt 2057 3085 L
2216 3170 mt 2288 3170 L
2252 3134 mt 2252 3206 L
2411 3319 mt 2483 3319 L
2447 3283 mt 2447 3355 L
2606 3548 mt 2678 3548 L
2642 3512 mt 2642 3584 L
2800 3621 mt 2872 3621 L
2836 3585 mt 2836 3657 L
2995 3715 mt 3067 3715 L
3031 3679 mt 3031 3751 L
3190 3798 mt 3262 3798 L
3226 3762 mt 3226 3834 L
3385 3867 mt 3457 3867 L
3421 3831 mt 3421 3903 L
3579 3977 mt 3651 3977 L
3615 3941 mt 3615 4013 L
3774 4011 mt 3846 4011 L
3810 3975 mt 3810 4047 L
3969 4074 mt 4041 4074 L
4005 4038 mt 4005 4110 L
4164 4129 mt 4236 4129 L
4200 4093 mt 4200 4165 L
4359 4179 mt 4431 4179 L
4395 4143 mt 4395 4215 L
4553 4265 mt 4625 4265 L
4589 4229 mt 4589 4301 L
4748 4272 mt 4820 4272 L
4784 4236 mt 4784 4308 L
4943 4383 mt 5015 4383 L
4979 4347 mt 4979 4419 L
5138 4410 mt 5210 4410 L
5174 4374 mt 5174 4446 L
5332 4439 mt 5404 4439 L
5368 4403 mt 5368 4475 L
5527 4481 mt 5599 4481 L
5563 4445 mt 5563 4517 L
5722 4537 mt 5794 4537 L
5758 4501 mt 5758 4573 L
gs 899 389 5357 4227 rc
gr

%%IncludeResource: font Helvetica
/Helvetica /ISOLatin1Encoding 120 FMSR

3330 4903 mt 
(Iterations) s
 538 2883 mt  -90 rotate
(Simple Regret) s
90 rotate
 882 4658 mt 
( ) s
6239  431 mt 
( ) s
gs 899 389 5357 4227 rc
c8
10 9 10 0 9 0 10 0 10 3 10 0 9 0 10 0 
10 0 10 0 9 0 10 0 10 0 9 0 10 0 10 0 
10 0 9 0 10 0 10 0 10 0 9 13 10 0 10 0 
10 10 9 0 10 0 10 0 10 0 9 0 10 0 10 0 
10 0 9 0 10 0 10 0 9 0 10 0 10 14 10 0 
9 0 10 0 10 0 10 0 9 0 10 0 10 0 10 0 
9 0 10 0 10 0 10 0 9 0 10 0 10 0 9 0 
10 0 10 0 10 2 9 0 10 0 10 0 10 0 9 0 
10 0 10 0 10 0 9 0 10 0 10 0 10 0 9 2 
10 0 10 0 10 0 9 0 10 0 10 0 9 0 10 0 
10 0 10 0 9 0 10 0 10 0 10 0 9 0 10 0 
10 0 10 0 9 0 10 0 10 0 10 0 9 0 10 0 
10 0 9 9 10 0 10 0 10 0 9 0 10 0 10 0 
10 0 9 0 10 0 10 9 10 3 9 0 10 0 10 0 
10 0 9 0 10 0 10 0 10 0 9 0 10 0 10 0 
9 0 10 0 10 0 10 0 9 0 10 0 10 0 10 0 
9 0 10 0 10 0 10 0 9 0 10 0 10 0 10 0 
9 0 10 0 10 0 9 10 10 0 10 0 10 0 9 0 
10 0 10 0 10 0 9 0 10 0 10 0 10 0 9 0 
10 0 10 0 10 0 9 0 10 0 10 0 10 0 9 0 
10 0 10 0 9 0 10 0 10 0 10 7 9 0 10 0 
10 0 10 0 9 0 10 0 10 0 10 0 9 0 10 0 
10 0 10 0 9 0 10 0 10 0 9 0 10 0 10 0 
10 15 9 0 10 0 10 0 10 0 9 0 10 0 10 0 
10 0 9 2 10 0 10 0 10 0 9 0 10 0 10 0 
10 0 9 0 10 0 10 0 9 0 10 0 10 0 10 0 
9 0 10 0 10 0 10 0 9 0 10 0 10 0 10 0 
9 0 10 0 10 0 10 0 9 0 10 0 10 0 9 0 
10 0 10 0 10 0 9 0 10 0 10 9 10 0 9 0 
10 0 10 0 10 0 9 0 10 0 10 0 10 0 9 9 
10 0 10 0 10 0 9 0 10 0 10 0 9 0 10 0 
10 0 10 0 9 0 10 0 10 0 10 0 9 0 10 0 
10 0 10 0 9 0 10 0 10 0 10 0 9 0 10 0 
10 0 10 0 9 0 10 0 10 0 9 0 10 0 10 0 
10 0 9 0 10 3 10 0 10 0 9 0 10 0 10 0 
10 0 9 0 10 0 10 0 10 0 9 0 10 0 10 0 
9 0 10 0 10 0 10 0 9 0 10 0 10 0 10 0 
9 0 10 0 10 0 2846 1915 300 MP stroke
10 0 9 0 10 0 10 0 10 0 9 0 10 0 10 0 
10 0 9 0 10 0 10 0 9 0 10 0 10 0 10 6 
9 0 10 0 10 0 10 0 9 0 10 0 10 0 10 0 
9 0 10 0 10 0 10 0 9 0 10 0 10 0 9 13 
10 0 10 0 10 0 9 0 10 0 10 0 10 4 9 0 
10 0 10 0 10 0 9 0 10 0 10 0 10 0 9 0 
10 0 10 0 10 0 9 0 10 0 10 0 9 0 10 0 
10 0 10 0 9 0 10 0 10 0 10 0 9 0 10 0 
10 0 10 0 9 0 10 0 10 0 10 1 9 0 10 0 
10 0 9 0 10 0 10 0 10 0 9 0 10 0 10 0 
10 0 9 0 10 0 10 0 10 0 9 0 10 0 10 0 
10 0 9 0 10 0 10 0 10 0 9 0 10 1 10 0 
9 0 10 0 10 0 10 0 9 0 10 0 10 0 10 0 
9 0 10 0 10 0 10 0 9 0 10 0 10 0 10 0 
9 0 10 0 10 0 9 0 10 5 10 0 10 0 9 0 
10 0 10 0 10 0 9 0 10 0 10 0 10 0 9 0 
10 0 10 0 10 0 9 0 10 0 10 0 10 0 9 0 
10 0 10 0 9 0 10 0 10 18 10 0 9 0 10 0 
10 0 10 0 9 0 10 0 10 0 10 3 9 0 10 0 
10 0 10 0 9 0 10 0 10 0 9 0 10 0 10 0 
10 0 9 0 10 0 10 0 10 0 9 0 10 0 10 0 
10 0 9 0 10 0 10 0 10 0 9 0 10 0 10 0 
10 0 9 0 10 0 10 0 9 0 10 0 10 0 10 0 
9 0 10 0 10 0 10 0 9 0 10 0 10 0 10 0 
9 0 10 0 10 0 10 0 9 0 10 0 10 0 9 0 
899 1864 201 MP stroke
0 62 1084 1833 2 MP stroke
93 0 1037 1833 2 MP stroke
93 0 1037 1895 2 MP stroke
0 62 1278 1833 2 MP stroke
93 0 1232 1833 2 MP stroke
93 0 1232 1895 2 MP stroke
0 61 1473 1836 2 MP stroke
94 0 1426 1836 2 MP stroke
94 0 1426 1897 2 MP stroke
0 49 1668 1861 2 MP stroke
94 0 1621 1861 2 MP stroke
94 0 1621 1910 2 MP stroke
0 46 1863 1867 2 MP stroke
93 0 1816 1867 2 MP stroke
93 0 1816 1913 2 MP stroke
0 47 2057 1867 2 MP stroke
93 0 2011 1867 2 MP stroke
93 0 2011 1914 2 MP stroke
0 47 2252 1868 2 MP stroke
94 0 2205 1868 2 MP stroke
94 0 2205 1915 2 MP stroke
0 47 2447 1869 2 MP stroke
94 0 2400 1869 2 MP stroke
94 0 2400 1916 2 MP stroke
0 57 2642 1881 2 MP stroke
93 0 2595 1881 2 MP stroke
93 0 2595 1938 2 MP stroke
0 57 2836 1887 2 MP stroke
93 0 2790 1887 2 MP stroke
93 0 2790 1944 2 MP stroke
0 57 3031 1887 2 MP stroke
94 0 2984 1887 2 MP stroke
94 0 2984 1944 2 MP stroke
0 57 3226 1889 2 MP stroke
94 0 3179 1889 2 MP stroke
94 0 3179 1946 2 MP stroke
0 57 3421 1889 2 MP stroke
93 0 3374 1889 2 MP stroke
93 0 3374 1946 2 MP stroke
0 62 3615 1905 2 MP stroke
93 0 3569 1905 2 MP stroke
93 0 3569 1967 2 MP stroke
0 62 3810 1905 2 MP stroke
94 0 3763 1905 2 MP stroke
94 0 3763 1967 2 MP stroke
0 67 4005 1920 2 MP stroke
94 0 3958 1920 2 MP stroke
94 0 3958 1987 2 MP stroke
0 65 4200 1927 2 MP stroke
93 0 4153 1927 2 MP stroke
93 0 4153 1992 2 MP stroke
0 65 4395 1927 2 MP stroke
93 0 4348 1927 2 MP stroke
93 0 4348 1992 2 MP stroke
0 73 4589 1933 2 MP stroke
93 0 4543 1933 2 MP stroke
93 0 4543 2006 2 MP stroke
0 72 4784 1946 2 MP stroke
94 0 4737 1946 2 MP stroke
94 0 4737 2018 2 MP stroke
0 77 4979 1953 2 MP stroke
94 0 4932 1953 2 MP stroke
94 0 4932 2030 2 MP stroke
0 76 5174 1955 2 MP stroke
93 0 5127 1955 2 MP stroke
93 0 5127 2031 2 MP stroke
0 76 5368 1957 2 MP stroke
93 0 5322 1957 2 MP stroke
93 0 5322 2033 2 MP stroke
0 78 5563 1993 2 MP stroke
94 0 5516 1993 2 MP stroke
94 0 5516 2071 2 MP stroke
0 74 5758 2007 2 MP stroke
94 0 5711 2007 2 MP stroke
94 0 5711 2081 2 MP stroke
gr

c8
41 71 -82 0 41 -71 1084 1911 4 MP
DP
41 71 -82 0 41 -71 1278 1911 4 MP
DP
41 71 -82 0 41 -71 1473 1914 4 MP
DP
41 71 -82 0 41 -71 1668 1932 4 MP
DP
41 71 -82 0 41 -71 1863 1937 4 MP
DP
41 71 -82 0 41 -71 2057 1938 4 MP
DP
41 71 -82 0 41 -71 2252 1939 4 MP
DP
41 71 -82 0 41 -71 2447 1939 4 MP
DP
41 71 -82 0 41 -71 2642 1956 4 MP
DP
41 71 -82 0 41 -71 2836 1962 4 MP
DP
41 71 -82 0 41 -71 3031 1962 4 MP
DP
41 71 -82 0 41 -71 3226 1965 4 MP
DP
41 71 -82 0 41 -71 3421 1965 4 MP
DP
41 71 -82 0 41 -71 3615 1983 4 MP
DP
41 71 -82 0 41 -71 3810 1983 4 MP
DP
41 71 -82 0 41 -71 4005 2000 4 MP
DP
41 71 -82 0 41 -71 4200 2007 4 MP
DP
41 71 -82 0 41 -71 4395 2007 4 MP
DP
41 71 -82 0 41 -71 4589 2017 4 MP
DP
41 71 -82 0 41 -71 4784 2029 4 MP
DP
41 71 -82 0 41 -71 4979 2038 4 MP
DP
41 71 -82 0 41 -71 5174 2040 4 MP
DP
41 71 -82 0 41 -71 5368 2042 4 MP
DP
41 71 -82 0 41 -71 5563 2079 4 MP
DP
41 71 -82 0 41 -71 5758 2091 4 MP
DP
gs 899 389 5357 4227 rc
c9
10 0 10 0 9 0 10 0 10 0 10 0 9 0 10 0 
10 0 10 0 9 0 10 0 10 0 9 0 10 0 10 0 
10 0 9 0 10 0 10 0 10 0 9 0 10 0 10 0 
10 0 9 0 10 0 10 0 10 0 9 0 10 0 10 0 
10 0 9 0 10 0 10 0 9 0 10 0 10 0 10 0 
9 0 10 0 10 0 10 0 9 0 10 0 10 0 10 0 
9 0 10 0 10 0 10 0 9 0 10 0 10 0 9 0 
10 5 10 0 10 0 9 0 10 0 10 0 10 0 9 0 
10 0 10 0 10 0 9 0 10 0 10 0 10 0 9 0 
10 0 10 0 10 0 9 0 10 0 10 0 9 0 10 0 
10 0 10 0 9 0 10 0 10 0 10 0 9 0 10 0 
10 0 10 0 9 0 10 0 10 0 10 0 9 0 10 0 
10 0 9 0 10 0 10 0 10 0 9 0 10 0 10 0 
10 0 9 0 10 0 10 0 10 0 9 0 10 0 10 0 
10 0 9 0 10 0 10 0 10 0 9 0 10 0 10 0 
9 0 10 0 10 0 10 0 9 0 10 0 10 0 10 0 
9 0 10 0 10 0 10 0 9 0 10 0 10 0 10 0 
9 0 10 0 10 0 9 0 10 0 10 0 10 0 9 0 
10 0 10 0 10 0 9 0 10 0 10 0 10 0 9 0 
10 0 10 0 10 0 9 0 10 0 10 0 10 0 9 0 
10 0 10 0 9 0 10 0 10 0 10 0 9 0 10 0 
10 0 10 0 9 0 10 0 10 0 10 0 9 0 10 0 
10 0 10 0 9 0 10 0 10 0 9 0 10 0 10 0 
10 0 9 0 10 0 10 0 10 0 9 0 10 0 10 0 
10 0 9 0 10 0 10 0 10 0 9 0 10 0 10 0 
10 0 9 0 10 0 10 0 9 0 10 0 10 0 10 0 
9 0 10 0 10 0 10 0 9 0 10 0 10 0 10 0 
9 0 10 0 10 6 10 0 9 0 10 0 10 0 9 0 
10 0 10 0 10 0 9 0 10 1 10 0 10 0 9 0 
10 0 10 0 10 0 9 0 10 0 10 0 10 0 9 0 
10 0 10 0 10 0 9 0 10 0 10 0 9 0 10 0 
10 0 10 0 9 0 10 0 10 0 10 0 9 0 10 0 
10 0 10 0 9 0 10 0 10 0 10 0 9 0 10 0 
10 0 10 0 9 0 10 0 10 0 9 0 10 0 10 0 
10 0 9 0 10 0 10 0 10 0 9 0 10 0 10 5 
10 0 9 0 10 0 10 0 10 0 9 0 10 0 10 0 
9 0 10 0 10 0 10 3 9 0 10 0 10 0 10 0 
9 0 10 0 10 3 2846 1511 300 MP stroke
10 0 9 0 10 0 10 0 10 0 9 0 10 0 10 0 
10 0 9 0 10 0 10 0 9 0 10 0 10 0 10 0 
9 0 10 0 10 0 10 0 9 0 10 0 10 0 10 8 
9 0 10 0 10 0 10 0 9 0 10 0 10 0 9 0 
10 0 10 2 10 0 9 0 10 0 10 0 10 0 9 0 
10 0 10 0 10 0 9 0 10 0 10 0 10 0 9 0 
10 0 10 0 10 11 9 0 10 0 10 0 9 0 10 0 
10 0 10 0 9 0 10 0 10 0 10 0 9 0 10 0 
10 0 10 0 9 0 10 0 10 0 10 0 9 0 10 0 
10 0 9 0 10 0 10 0 10 0 9 0 10 0 10 0 
10 0 9 0 10 0 10 0 10 0 9 0 10 0 10 0 
10 0 9 0 10 0 10 4 10 0 9 0 10 0 10 0 
9 0 10 0 10 0 10 0 9 0 10 0 10 0 10 0 
9 8 10 0 10 0 10 0 9 0 10 4 10 0 10 0 
9 0 10 0 10 0 9 0 10 0 10 0 10 0 9 0 
10 0 10 0 10 0 9 0 10 0 10 0 10 0 9 0 
10 0 10 0 10 0 9 0 10 0 10 0 10 1 9 0 
10 0 10 0 9 0 10 0 10 0 10 0 9 0 10 7 
10 0 10 0 9 2 10 0 10 7 10 0 9 0 10 0 
10 0 10 4 9 0 10 0 10 0 9 0 10 8 10 6 
10 0 9 0 10 0 10 0 10 0 9 0 10 0 10 0 
10 0 9 0 10 10 10 17 10 11 9 10 10 0 10 0 
10 0 9 21 10 11 10 0 9 0 10 0 10 0 10 0 
9 1 10 0 10 12 10 0 9 29 10 0 10 0 10 1 
9 43 10 2 10 12 10 55 9 45 10 31 10 9 9 57 
899 1062 201 MP stroke
0 88 1084 1315 2 MP stroke
93 0 1037 1315 2 MP stroke
93 0 1037 1403 2 MP stroke
0 79 1278 1400 2 MP stroke
93 0 1232 1400 2 MP stroke
93 0 1232 1479 2 MP stroke
0 69 1473 1438 2 MP stroke
94 0 1426 1438 2 MP stroke
94 0 1426 1507 2 MP stroke
0 68 1668 1440 2 MP stroke
94 0 1621 1440 2 MP stroke
94 0 1621 1508 2 MP stroke
0 65 1863 1453 2 MP stroke
93 0 1816 1453 2 MP stroke
93 0 1816 1518 2 MP stroke
0 62 2057 1459 2 MP stroke
93 0 2011 1459 2 MP stroke
93 0 2011 1521 2 MP stroke
0 62 2252 1459 2 MP stroke
94 0 2205 1459 2 MP stroke
94 0 2205 1521 2 MP stroke
0 54 2447 1474 2 MP stroke
94 0 2400 1474 2 MP stroke
94 0 2400 1528 2 MP stroke
0 60 2642 1481 2 MP stroke
93 0 2595 1481 2 MP stroke
93 0 2595 1541 2 MP stroke
0 60 2836 1481 2 MP stroke
93 0 2790 1481 2 MP stroke
93 0 2790 1541 2 MP stroke
0 58 3031 1488 2 MP stroke
94 0 2984 1488 2 MP stroke
94 0 2984 1546 2 MP stroke
0 56 3226 1494 2 MP stroke
94 0 3179 1494 2 MP stroke
94 0 3179 1550 2 MP stroke
0 56 3421 1494 2 MP stroke
93 0 3374 1494 2 MP stroke
93 0 3374 1550 2 MP stroke
0 56 3615 1495 2 MP stroke
93 0 3569 1495 2 MP stroke
93 0 3569 1551 2 MP stroke
0 53 3810 1503 2 MP stroke
94 0 3763 1503 2 MP stroke
94 0 3763 1556 2 MP stroke
0 53 4005 1503 2 MP stroke
94 0 3958 1503 2 MP stroke
94 0 3958 1556 2 MP stroke
0 53 4200 1503 2 MP stroke
93 0 4153 1503 2 MP stroke
93 0 4153 1556 2 MP stroke
0 53 4395 1503 2 MP stroke
93 0 4348 1503 2 MP stroke
93 0 4348 1556 2 MP stroke
0 53 4589 1503 2 MP stroke
93 0 4543 1503 2 MP stroke
93 0 4543 1556 2 MP stroke
0 53 4784 1503 2 MP stroke
94 0 4737 1503 2 MP stroke
94 0 4737 1556 2 MP stroke
0 53 4979 1503 2 MP stroke
94 0 4932 1503 2 MP stroke
94 0 4932 1556 2 MP stroke
0 53 5174 1503 2 MP stroke
93 0 5127 1503 2 MP stroke
93 0 5127 1556 2 MP stroke
0 53 5368 1507 2 MP stroke
93 0 5322 1507 2 MP stroke
93 0 5322 1560 2 MP stroke
0 53 5563 1507 2 MP stroke
94 0 5516 1507 2 MP stroke
94 0 5516 1560 2 MP stroke
0 53 5758 1508 2 MP stroke
94 0 5711 1508 2 MP stroke
94 0 5711 1561 2 MP stroke
gr

c9
0 -58 -58 0 0 58 58 0 1055 1330 5 MP
DP
0 -58 -58 0 0 58 58 0 1249 1410 5 MP
DP
0 -58 -58 0 0 58 58 0 1444 1444 5 MP
DP
0 -58 -58 0 0 58 58 0 1639 1445 5 MP
DP
0 -58 -58 0 0 58 58 0 1834 1457 5 MP
DP
0 -58 -58 0 0 58 58 0 2028 1461 5 MP
DP
0 -58 -58 0 0 58 58 0 2223 1461 5 MP
DP
0 -58 -58 0 0 58 58 0 2418 1472 5 MP
DP
0 -58 -58 0 0 58 58 0 2613 1482 5 MP
DP
0 -58 -58 0 0 58 58 0 2807 1482 5 MP
DP
0 -58 -58 0 0 58 58 0 3002 1488 5 MP
DP
0 -58 -58 0 0 58 58 0 3197 1493 5 MP
DP
0 -58 -58 0 0 58 58 0 3392 1493 5 MP
DP
0 -58 -58 0 0 58 58 0 3586 1494 5 MP
DP
0 -58 -58 0 0 58 58 0 3781 1500 5 MP
DP
0 -58 -58 0 0 58 58 0 3976 1500 5 MP
DP
0 -58 -58 0 0 58 58 0 4171 1500 5 MP
DP
0 -58 -58 0 0 58 58 0 4366 1500 5 MP
DP
0 -58 -58 0 0 58 58 0 4560 1500 5 MP
DP
0 -58 -58 0 0 58 58 0 4755 1500 5 MP
DP
0 -58 -58 0 0 58 58 0 4950 1500 5 MP
DP
0 -58 -58 0 0 58 58 0 5145 1500 5 MP
DP
0 -58 -58 0 0 58 58 0 5339 1505 5 MP
DP
0 -58 -58 0 0 58 58 0 5534 1505 5 MP
DP
0 -58 -58 0 0 58 58 0 5729 1505 5 MP
DP
gs 899 389 5357 4227 rc
c10
10 0 10 0 9 0 10 0 10 0 10 0 9 0 10 0 
10 0 10 0 9 0 10 0 10 0 9 0 10 0 10 0 
10 0 9 0 10 0 10 0 10 0 9 0 10 0 10 0 
10 0 9 0 10 0 10 0 10 0 9 0 10 0 10 0 
10 0 9 0 10 0 10 0 9 0 10 0 10 0 10 0 
9 0 10 0 10 0 10 0 9 0 10 0 10 0 10 0 
9 0 10 0 10 0 10 0 9 0 10 0 10 0 9 0 
10 0 10 0 10 0 9 0 10 0 10 0 10 0 9 0 
10 0 10 0 10 6 9 0 10 0 10 0 10 0 9 0 
10 0 10 0 10 0 9 0 10 0 10 0 9 0 10 0 
10 0 10 0 9 0 10 0 10 0 10 0 9 0 10 0 
10 0 10 0 9 0 10 0 10 0 10 0 9 0 10 0 
10 0 9 2 10 0 10 0 10 0 9 0 10 0 10 0 
10 0 9 0 10 0 10 0 10 0 9 0 10 0 10 0 
10 0 9 0 10 0 10 0 10 0 9 0 10 0 10 0 
9 0 10 0 10 0 10 0 9 0 10 0 10 0 10 0 
9 0 10 0 10 0 10 0 9 0 10 0 10 0 10 0 
9 0 10 0 10 0 9 0 10 0 10 0 10 0 9 0 
10 0 10 0 10 0 9 0 10 0 10 0 10 0 9 0 
10 0 10 0 10 0 9 0 10 0 10 0 10 0 9 0 
10 0 10 0 9 0 10 0 10 0 10 0 9 0 10 3 
10 0 10 0 9 0 10 0 10 0 10 0 9 0 10 0 
10 0 10 0 9 0 10 0 10 0 9 0 10 0 10 0 
10 0 9 0 10 0 10 0 10 0 9 0 10 0 10 0 
10 0 9 0 10 0 10 0 10 0 9 0 10 0 10 0 
10 0 9 0 10 0 10 0 9 0 10 0 10 0 10 0 
9 0 10 0 10 7 10 0 9 0 10 0 10 0 10 0 
9 0 10 0 10 0 10 0 9 0 10 0 10 0 9 0 
10 0 10 0 10 0 9 0 10 0 10 0 10 0 9 0 
10 0 10 0 10 0 9 0 10 0 10 0 10 0 9 0 
10 0 10 0 10 0 9 0 10 0 10 0 9 0 10 0 
10 0 10 0 9 0 10 0 10 0 10 0 9 0 10 0 
10 0 10 0 9 0 10 0 10 0 10 0 9 0 10 0 
10 0 10 8 9 0 10 0 10 0 9 0 10 5 10 0 
10 0 9 0 10 0 10 0 10 0 9 26 10 0 10 0 
10 0 9 0 10 0 10 0 10 0 9 0 10 0 10 0 
9 0 10 0 10 0 10 0 9 0 10 0 10 0 10 0 
9 0 10 0 10 0 2846 536 300 MP stroke
10 0 9 0 10 0 10 0 10 0 9 0 10 0 10 19 
10 13 9 0 10 4 10 0 9 0 10 0 10 0 10 0 
9 0 10 0 10 0 10 0 9 0 10 0 10 0 10 0 
9 21 10 3 10 0 10 0 9 28 10 0 10 0 9 0 
10 0 10 0 10 0 9 0 10 0 10 0 10 0 9 0 
10 0 10 0 10 0 9 0 10 0 10 0 10 0 9 0 
10 0 10 0 10 0 9 0 10 0 10 0 9 0 10 0 
10 0 10 0 9 0 10 0 10 0 10 0 9 0 10 0 
10 0 10 0 9 0 10 0 10 0 10 0 9 0 10 0 
10 2 9 0 10 0 10 0 10 0 9 0 10 0 10 0 
10 0 9 0 10 2 10 0 10 0 9 0 10 0 10 0 
10 0 9 0 10 0 10 0 10 0 9 0 10 0 10 0 
9 0 10 0 10 0 10 0 9 0 10 0 10 0 10 0 
9 0 10 0 10 0 10 0 9 0 10 0 10 0 10 0 
9 0 10 0 10 0 9 0 10 0 10 0 10 0 9 0 
10 0 10 0 10 0 9 0 10 0 10 0 10 0 9 0 
10 0 10 0 10 0 9 0 10 0 10 0 10 0 9 0 
10 0 10 0 9 0 10 0 10 0 10 0 9 0 10 0 
10 0 10 0 9 0 10 0 10 0 10 0 9 0 10 0 
10 0 10 0 9 0 10 0 10 0 9 0 10 0 10 0 
10 0 9 0 10 0 10 0 10 0 9 0 10 0 10 0 
10 0 9 0 10 0 10 0 10 0 9 0 10 0 10 0 
10 0 9 0 10 0 10 0 9 0 10 0 10 0 10 0 
9 0 10 0 10 0 10 0 9 0 10 0 10 0 10 0 
9 0 10 0 10 0 10 0 9 0 10 0 10 0 9 0 
899 444 201 MP stroke
0 111 1084 389 2 MP stroke
93 0 1037 389 2 MP stroke
93 0 1037 500 2 MP stroke
0 111 1278 389 2 MP stroke
93 0 1232 389 2 MP stroke
93 0 1232 500 2 MP stroke
0 111 1473 389 2 MP stroke
94 0 1426 389 2 MP stroke
94 0 1426 500 2 MP stroke
0 111 1668 389 2 MP stroke
94 0 1621 389 2 MP stroke
94 0 1621 500 2 MP stroke
0 111 1863 389 2 MP stroke
93 0 1816 389 2 MP stroke
93 0 1816 500 2 MP stroke
0 110 2057 391 2 MP stroke
93 0 2011 391 2 MP stroke
93 0 2011 501 2 MP stroke
0 110 2252 393 2 MP stroke
94 0 2205 393 2 MP stroke
94 0 2205 503 2 MP stroke
0 110 2447 393 2 MP stroke
94 0 2400 393 2 MP stroke
94 0 2400 503 2 MP stroke
0 120 2642 440 2 MP stroke
93 0 2595 440 2 MP stroke
93 0 2595 560 2 MP stroke
0 115 2836 479 2 MP stroke
93 0 2790 479 2 MP stroke
93 0 2790 594 2 MP stroke
0 115 3031 479 2 MP stroke
94 0 2984 479 2 MP stroke
94 0 2984 594 2 MP stroke
0 107 3226 521 2 MP stroke
94 0 3179 521 2 MP stroke
94 0 3179 628 2 MP stroke
0 107 3421 521 2 MP stroke
93 0 3374 521 2 MP stroke
93 0 3374 628 2 MP stroke
0 107 3615 521 2 MP stroke
93 0 3569 521 2 MP stroke
93 0 3569 628 2 MP stroke
0 100 3810 532 2 MP stroke
94 0 3763 532 2 MP stroke
94 0 3763 632 2 MP stroke
0 100 4005 532 2 MP stroke
94 0 3958 532 2 MP stroke
94 0 3958 632 2 MP stroke
0 99 4200 536 2 MP stroke
93 0 4153 536 2 MP stroke
93 0 4153 635 2 MP stroke
0 99 4395 536 2 MP stroke
93 0 4348 536 2 MP stroke
93 0 4348 635 2 MP stroke
0 99 4589 536 2 MP stroke
93 0 4543 536 2 MP stroke
93 0 4543 635 2 MP stroke
0 99 4784 536 2 MP stroke
94 0 4737 536 2 MP stroke
94 0 4737 635 2 MP stroke
0 98 4979 538 2 MP stroke
94 0 4932 538 2 MP stroke
94 0 4932 636 2 MP stroke
0 98 5174 544 2 MP stroke
93 0 5127 544 2 MP stroke
93 0 5127 642 2 MP stroke
0 97 5368 545 2 MP stroke
93 0 5322 545 2 MP stroke
93 0 5322 642 2 MP stroke
0 97 5563 545 2 MP stroke
94 0 5516 545 2 MP stroke
94 0 5516 642 2 MP stroke
0 97 5758 545 2 MP stroke
94 0 5711 545 2 MP stroke
94 0 5711 642 2 MP stroke
gr

c10
  36   36 1084  444 FO
  36   36 1278  444 FO
  36   36 1473  444 FO
  36   36 1668  444 FO
  36   36 1863  444 FO
  36   36 2057  446 FO
  36   36 2252  448 FO
  36   36 2447  448 FO
  36   36 2642  500 FO
  36   36 2836  536 FO
  36   36 3031  536 FO
  36   36 3226  575 FO
  36   36 3421  575 FO
  36   36 3615  575 FO
  36   36 3810  582 FO
  36   36 4005  582 FO
  36   36 4200  585 FO
  36   36 4395  585 FO
  36   36 4589  585 FO
  36   36 4784  585 FO
  36   36 4979  587 FO
  36   36 5174  593 FO
  36   36 5368  593 FO
  36   36 5563  593 FO
  36   36 5758  593 FO
gs 899 389 5357 4227 rc
c11
10 0 10 0 9 0 10 0 10 0 10 0 9 0 10 0 
10 0 10 0 9 0 10 0 10 0 9 0 10 0 10 0 
10 0 9 0 10 0 10 0 10 0 9 0 10 0 10 0 
10 0 9 0 10 0 10 0 10 0 9 0 10 0 10 0 
10 0 9 0 10 0 10 0 9 0 10 0 10 0 10 0 
9 0 10 0 10 0 10 0 9 0 10 0 10 0 10 0 
9 0 10 0 10 0 10 0 9 0 10 0 10 0 9 0 
10 0 10 0 10 0 9 0 10 0 10 0 10 0 9 0 
10 0 10 0 10 0 9 0 10 0 10 0 10 0 9 0 
10 0 10 0 10 0 9 0 10 0 10 0 9 0 10 0 
10 0 10 0 9 0 10 0 10 0 10 0 9 0 10 0 
10 0 10 0 9 0 10 0 10 0 10 0 9 0 10 0 
10 0 9 0 10 0 10 0 10 0 9 0 10 0 10 0 
10 0 9 0 10 0 10 0 10 0 9 0 10 0 10 0 
10 0 9 0 10 0 10 0 10 0 9 0 10 0 10 0 
9 0 10 0 10 0 10 0 9 0 10 0 10 0 10 0 
9 0 10 0 10 0 10 0 9 0 10 0 10 0 10 0 
9 0 10 0 10 0 9 0 10 0 10 0 10 0 9 0 
10 0 10 0 10 0 9 0 10 0 10 0 10 0 9 0 
10 0 10 0 10 0 9 0 10 0 10 0 10 0 9 0 
10 0 10 0 9 0 10 0 10 0 10 0 9 0 10 0 
10 0 10 0 9 0 10 0 10 0 10 0 9 0 10 0 
10 0 10 0 9 0 10 0 10 0 9 0 10 0 10 0 
10 0 9 0 10 0 10 0 10 0 9 0 10 0 10 0 
10 0 9 0 10 0 10 0 10 0 9 0 10 0 10 0 
10 0 9 0 10 0 10 0 9 0 10 0 10 0 10 0 
9 0 10 0 10 0 10 0 9 0 10 0 10 0 10 0 
9 0 10 0 10 0 10 0 9 0 10 0 10 0 9 0 
10 0 10 0 10 0 9 0 10 0 10 0 10 0 9 0 
10 0 10 0 10 0 9 0 10 0 10 0 10 0 9 0 
10 0 10 0 10 0 9 0 10 0 10 0 9 0 10 0 
10 0 10 0 9 0 10 0 10 0 10 0 9 0 10 0 
10 0 10 0 9 0 10 0 10 0 10 0 9 0 10 0 
10 0 10 0 9 0 10 0 10 0 9 0 10 0 10 0 
10 0 9 0 10 0 10 0 10 0 9 0 10 0 10 0 
10 0 9 0 10 0 10 0 10 0 9 0 10 0 10 0 
9 0 10 0 10 0 10 0 9 0 10 0 10 0 10 0 
9 0 10 0 10 0 2846 1618 300 MP stroke
10 0 9 0 10 0 10 0 10 0 9 0 10 0 10 0 
10 0 9 0 10 0 10 0 9 0 10 0 10 0 10 0 
9 0 10 0 10 0 10 0 9 0 10 0 10 0 10 0 
9 0 10 0 10 0 10 0 9 0 10 0 10 0 9 0 
10 0 10 0 10 0 9 0 10 0 10 0 10 0 9 0 
10 0 10 0 10 0 9 0 10 0 10 0 10 0 9 0 
10 0 10 0 10 0 9 0 10 0 10 0 9 0 10 0 
10 0 10 0 9 0 10 0 10 0 10 0 9 0 10 0 
10 0 10 0 9 0 10 0 10 0 10 0 9 0 10 0 
10 0 9 0 10 0 10 0 10 0 9 0 10 0 10 0 
10 0 9 0 10 0 10 0 10 0 9 0 10 0 10 0 
10 0 9 0 10 0 10 0 10 0 9 0 10 0 10 0 
9 0 10 0 10 0 10 0 9 0 10 0 10 0 10 0 
9 0 10 0 10 0 10 0 9 0 10 0 10 0 10 0 
9 0 10 0 10 0 9 0 10 0 10 0 10 0 9 0 
10 0 10 0 10 0 9 0 10 0 10 0 10 0 9 0 
10 0 10 0 10 0 9 0 10 0 10 0 10 0 9 0 
10 0 10 0 9 0 10 0 10 0 10 0 9 0 10 0 
10 0 10 0 9 0 10 3 10 0 10 0 9 0 10 0 
10 0 10 0 9 0 10 0 10 0 9 0 10 0 10 0 
10 0 9 0 10 0 10 0 10 0 9 0 10 0 10 0 
10 0 9 0 10 0 10 0 10 0 9 0 10 0 10 0 
10 0 9 0 10 0 10 0 9 0 10 0 10 0 10 0 
9 0 10 0 10 0 10 0 9 0 10 0 10 0 10 0 
9 0 10 0 10 0 10 0 9 0 10 0 10 0 9 0 
899 1615 201 MP stroke
0 129 1084 1551 2 MP stroke
93 0 1037 1551 2 MP stroke
93 0 1037 1680 2 MP stroke
0 129 1278 1551 2 MP stroke
93 0 1232 1551 2 MP stroke
93 0 1232 1680 2 MP stroke
0 126 1473 1555 2 MP stroke
94 0 1426 1555 2 MP stroke
94 0 1426 1681 2 MP stroke
0 126 1668 1555 2 MP stroke
94 0 1621 1555 2 MP stroke
94 0 1621 1681 2 MP stroke
0 126 1863 1555 2 MP stroke
93 0 1816 1555 2 MP stroke
93 0 1816 1681 2 MP stroke
0 126 2057 1555 2 MP stroke
93 0 2011 1555 2 MP stroke
93 0 2011 1681 2 MP stroke
0 126 2252 1555 2 MP stroke
94 0 2205 1555 2 MP stroke
94 0 2205 1681 2 MP stroke
0 126 2447 1555 2 MP stroke
94 0 2400 1555 2 MP stroke
94 0 2400 1681 2 MP stroke
0 126 2642 1555 2 MP stroke
93 0 2595 1555 2 MP stroke
93 0 2595 1681 2 MP stroke
0 126 2836 1555 2 MP stroke
93 0 2790 1555 2 MP stroke
93 0 2790 1681 2 MP stroke
0 126 3031 1555 2 MP stroke
94 0 2984 1555 2 MP stroke
94 0 2984 1681 2 MP stroke
0 126 3226 1555 2 MP stroke
94 0 3179 1555 2 MP stroke
94 0 3179 1681 2 MP stroke
0 126 3421 1555 2 MP stroke
93 0 3374 1555 2 MP stroke
93 0 3374 1681 2 MP stroke
0 126 3615 1555 2 MP stroke
93 0 3569 1555 2 MP stroke
93 0 3569 1681 2 MP stroke
0 126 3810 1555 2 MP stroke
94 0 3763 1555 2 MP stroke
94 0 3763 1681 2 MP stroke
0 126 4005 1555 2 MP stroke
94 0 3958 1555 2 MP stroke
94 0 3958 1681 2 MP stroke
0 126 4200 1555 2 MP stroke
93 0 4153 1555 2 MP stroke
93 0 4153 1681 2 MP stroke
0 126 4395 1555 2 MP stroke
93 0 4348 1555 2 MP stroke
93 0 4348 1681 2 MP stroke
0 126 4589 1555 2 MP stroke
93 0 4543 1555 2 MP stroke
93 0 4543 1681 2 MP stroke
0 126 4784 1555 2 MP stroke
94 0 4737 1555 2 MP stroke
94 0 4737 1681 2 MP stroke
0 126 4979 1555 2 MP stroke
94 0 4932 1555 2 MP stroke
94 0 4932 1681 2 MP stroke
0 126 5174 1555 2 MP stroke
93 0 5127 1555 2 MP stroke
93 0 5127 1681 2 MP stroke
0 126 5368 1555 2 MP stroke
93 0 5322 1555 2 MP stroke
93 0 5322 1681 2 MP stroke
0 126 5563 1555 2 MP stroke
94 0 5516 1555 2 MP stroke
94 0 5516 1681 2 MP stroke
0 126 5758 1555 2 MP stroke
94 0 5711 1555 2 MP stroke
94 0 5711 1681 2 MP stroke
gr

c11
1048 1615 mt 1120 1615 L
1084 1579 mt 1084 1651 L
1242 1615 mt 1314 1615 L
1278 1579 mt 1278 1651 L
1437 1618 mt 1509 1618 L
1473 1582 mt 1473 1654 L
1632 1618 mt 1704 1618 L
1668 1582 mt 1668 1654 L
1827 1618 mt 1899 1618 L
1863 1582 mt 1863 1654 L
2021 1618 mt 2093 1618 L
2057 1582 mt 2057 1654 L
2216 1618 mt 2288 1618 L
2252 1582 mt 2252 1654 L
2411 1618 mt 2483 1618 L
2447 1582 mt 2447 1654 L
2606 1618 mt 2678 1618 L
2642 1582 mt 2642 1654 L
2800 1618 mt 2872 1618 L
2836 1582 mt 2836 1654 L
2995 1618 mt 3067 1618 L
3031 1582 mt 3031 1654 L
3190 1618 mt 3262 1618 L
3226 1582 mt 3226 1654 L
3385 1618 mt 3457 1618 L
3421 1582 mt 3421 1654 L
3579 1618 mt 3651 1618 L
3615 1582 mt 3615 1654 L
3774 1618 mt 3846 1618 L
3810 1582 mt 3810 1654 L
3969 1618 mt 4041 1618 L
4005 1582 mt 4005 1654 L
4164 1618 mt 4236 1618 L
4200 1582 mt 4200 1654 L
4359 1618 mt 4431 1618 L
4395 1582 mt 4395 1654 L
4553 1618 mt 4625 1618 L
4589 1582 mt 4589 1654 L
4748 1618 mt 4820 1618 L
4784 1582 mt 4784 1654 L
4943 1618 mt 5015 1618 L
4979 1582 mt 4979 1654 L
5138 1618 mt 5210 1618 L
5174 1582 mt 5174 1654 L
5332 1618 mt 5404 1618 L
5368 1582 mt 5368 1654 L
5527 1618 mt 5599 1618 L
5563 1582 mt 5563 1654 L
5722 1618 mt 5794 1618 L
5758 1582 mt 5758 1654 L
1059 1590 mt 1109 1640 L
1109 1590 mt 1059 1640 L
1253 1590 mt 1303 1640 L
1303 1590 mt 1253 1640 L
1448 1593 mt 1498 1643 L
1498 1593 mt 1448 1643 L
1643 1593 mt 1693 1643 L
1693 1593 mt 1643 1643 L
1838 1593 mt 1888 1643 L
1888 1593 mt 1838 1643 L
2032 1593 mt 2082 1643 L
2082 1593 mt 2032 1643 L
2227 1593 mt 2277 1643 L
2277 1593 mt 2227 1643 L
2422 1593 mt 2472 1643 L
2472 1593 mt 2422 1643 L
2617 1593 mt 2667 1643 L
2667 1593 mt 2617 1643 L
2811 1593 mt 2861 1643 L
2861 1593 mt 2811 1643 L
3006 1593 mt 3056 1643 L
3056 1593 mt 3006 1643 L
3201 1593 mt 3251 1643 L
3251 1593 mt 3201 1643 L
3396 1593 mt 3446 1643 L
3446 1593 mt 3396 1643 L
3590 1593 mt 3640 1643 L
3640 1593 mt 3590 1643 L
3785 1593 mt 3835 1643 L
3835 1593 mt 3785 1643 L
3980 1593 mt 4030 1643 L
4030 1593 mt 3980 1643 L
4175 1593 mt 4225 1643 L
4225 1593 mt 4175 1643 L
4370 1593 mt 4420 1643 L
4420 1593 mt 4370 1643 L
4564 1593 mt 4614 1643 L
4614 1593 mt 4564 1643 L
4759 1593 mt 4809 1643 L
4809 1593 mt 4759 1643 L
4954 1593 mt 5004 1643 L
5004 1593 mt 4954 1643 L
5149 1593 mt 5199 1643 L
5199 1593 mt 5149 1643 L
5343 1593 mt 5393 1643 L
5393 1593 mt 5343 1643 L
5538 1593 mt 5588 1643 L
5588 1593 mt 5538 1643 L
5733 1593 mt 5783 1643 L
5783 1593 mt 5733 1643 L
gs 899 389 5357 4227 rc
c12
10 0 10 0 9 0 10 0 10 0 10 0 9 0 10 0 
10 0 10 0 9 0 10 0 10 0 9 0 10 0 10 0 
10 0 9 0 10 0 10 0 10 0 9 0 10 0 10 0 
10 0 9 0 10 0 10 0 10 0 9 22 10 0 10 0 
10 0 9 0 10 0 10 0 9 19 10 4 10 2 10 0 
9 0 10 0 10 0 10 0 9 0 10 0 10 0 10 0 
9 0 10 0 10 0 10 0 9 0 10 0 10 0 9 0 
10 0 10 0 10 0 9 0 10 0 10 0 10 0 9 0 
10 0 10 0 10 0 9 0 10 0 10 0 10 0 9 0 
10 0 10 0 10 0 9 0 10 0 10 0 9 0 10 0 
10 0 10 0 9 0 10 0 10 0 10 0 9 0 10 0 
10 0 10 0 9 0 10 0 10 0 10 0 9 0 10 0 
10 0 9 0 10 0 10 0 10 0 9 0 10 0 10 0 
10 0 9 0 10 0 10 0 10 0 9 0 10 0 10 0 
10 0 9 0 10 0 10 0 10 0 9 0 10 0 10 0 
9 0 10 0 10 0 10 0 9 9 10 0 10 0 10 0 
9 0 10 5 10 2 10 1 9 0 10 0 10 2 10 0 
9 0 10 0 10 0 9 0 10 0 10 0 10 0 9 0 
10 0 10 0 10 0 9 0 10 0 10 0 10 0 9 0 
10 0 10 0 10 0 9 0 10 0 10 0 10 0 9 0 
10 0 10 0 9 0 10 0 10 0 10 0 9 0 10 0 
10 0 10 0 9 0 10 0 10 0 10 0 9 0 10 0 
10 0 10 0 9 0 10 0 10 0 9 0 10 0 10 0 
10 0 9 0 10 0 10 0 10 0 9 0 10 0 10 0 
10 0 9 0 10 0 10 0 10 0 9 0 10 0 10 0 
10 0 9 0 10 0 10 0 9 0 10 0 10 0 10 0 
9 0 10 0 10 0 10 0 9 0 10 0 10 0 10 0 
9 0 10 0 10 0 10 0 9 0 10 0 10 0 9 0 
10 0 10 0 10 0 9 0 10 0 10 0 10 0 9 0 
10 0 10 0 10 0 9 0 10 0 10 0 10 0 9 0 
10 0 10 0 10 0 9 0 10 0 10 0 9 0 10 0 
10 0 10 0 9 0 10 0 10 0 10 0 9 0 10 0 
10 0 10 0 9 0 10 0 10 0 10 0 9 0 10 0 
10 0 10 0 9 0 10 0 10 5 9 0 10 3 10 0 
10 7 9 0 10 0 10 0 10 3 9 0 10 0 10 0 
10 0 9 0 10 0 10 0 10 0 9 0 10 0 10 0 
9 0 10 0 10 0 10 0 9 0 10 0 10 0 10 0 
9 0 10 0 10 0 2846 1864 300 MP stroke
10 0 9 0 10 0 10 0 10 4 9 0 10 0 10 0 
10 0 9 0 10 0 10 0 9 0 10 0 10 0 10 0 
9 0 10 0 10 0 10 0 9 0 10 0 10 0 10 0 
9 0 10 0 10 0 10 0 9 0 10 0 10 0 9 0 
10 0 10 14 10 0 9 0 10 0 10 0 10 0 9 0 
10 0 10 0 10 0 9 0 10 0 10 0 10 0 9 0 
10 0 10 0 10 0 9 0 10 0 10 0 9 0 10 0 
10 0 10 0 9 0 10 0 10 0 10 0 9 0 10 0 
10 0 10 0 9 0 10 0 10 0 10 0 9 0 10 0 
10 0 9 0 10 0 10 0 10 0 9 0 10 0 10 0 
10 0 9 0 10 0 10 0 10 0 9 0 10 0 10 0 
10 0 9 0 10 0 10 0 10 0 9 0 10 0 10 0 
9 0 10 0 10 0 10 0 9 0 10 0 10 0 10 0 
9 0 10 0 10 0 10 0 9 0 10 0 10 0 10 0 
9 0 10 0 10 0 9 0 10 0 10 1 10 0 9 0 
10 0 10 0 10 0 9 0 10 0 10 0 10 0 9 0 
10 0 10 0 10 0 9 0 10 0 10 0 10 0 9 0 
10 0 10 0 9 0 10 0 10 0 10 0 9 0 10 0 
10 0 10 0 9 0 10 0 10 0 10 0 9 0 10 0 
10 0 10 0 9 0 10 0 10 0 9 0 10 0 10 0 
10 0 9 0 10 0 10 0 10 0 9 0 10 0 10 0 
10 0 9 0 10 0 10 0 10 0 9 0 10 0 10 0 
10 0 9 0 10 0 10 0 9 0 10 0 10 0 10 0 
9 0 10 0 10 0 10 0 9 0 10 0 10 0 10 0 
9 0 10 0 10 0 10 0 9 0 10 0 10 0 9 0 
899 1845 201 MP stroke
0 46 1084 1822 2 MP stroke
93 0 1037 1822 2 MP stroke
93 0 1037 1868 2 MP stroke
0 46 1278 1822 2 MP stroke
93 0 1232 1822 2 MP stroke
93 0 1232 1868 2 MP stroke
0 46 1473 1822 2 MP stroke
94 0 1426 1822 2 MP stroke
94 0 1426 1868 2 MP stroke
0 46 1668 1822 2 MP stroke
94 0 1621 1822 2 MP stroke
94 0 1621 1868 2 MP stroke
0 47 1863 1823 2 MP stroke
93 0 1816 1823 2 MP stroke
93 0 1816 1870 2 MP stroke
0 47 2057 1823 2 MP stroke
93 0 2011 1823 2 MP stroke
93 0 2011 1870 2 MP stroke
0 47 2252 1823 2 MP stroke
94 0 2205 1823 2 MP stroke
94 0 2205 1870 2 MP stroke
0 47 2447 1823 2 MP stroke
94 0 2400 1823 2 MP stroke
94 0 2400 1870 2 MP stroke
0 53 2642 1834 2 MP stroke
93 0 2595 1834 2 MP stroke
93 0 2595 1887 2 MP stroke
0 56 2836 1836 2 MP stroke
93 0 2790 1836 2 MP stroke
93 0 2790 1892 2 MP stroke
0 56 3031 1836 2 MP stroke
94 0 2984 1836 2 MP stroke
94 0 2984 1892 2 MP stroke
0 60 3226 1852 2 MP stroke
94 0 3179 1852 2 MP stroke
94 0 3179 1912 2 MP stroke
0 60 3421 1852 2 MP stroke
93 0 3374 1852 2 MP stroke
93 0 3374 1912 2 MP stroke
0 60 3615 1852 2 MP stroke
93 0 3569 1852 2 MP stroke
93 0 3569 1912 2 MP stroke
0 60 3810 1852 2 MP stroke
94 0 3763 1852 2 MP stroke
94 0 3763 1912 2 MP stroke
0 60 4005 1852 2 MP stroke
94 0 3958 1852 2 MP stroke
94 0 3958 1912 2 MP stroke
0 60 4200 1852 2 MP stroke
93 0 4153 1852 2 MP stroke
93 0 4153 1912 2 MP stroke
0 60 4395 1852 2 MP stroke
93 0 4348 1852 2 MP stroke
93 0 4348 1912 2 MP stroke
0 69 4589 1867 2 MP stroke
93 0 4543 1867 2 MP stroke
93 0 4543 1936 2 MP stroke
0 69 4784 1867 2 MP stroke
94 0 4737 1867 2 MP stroke
94 0 4737 1936 2 MP stroke
0 69 4979 1867 2 MP stroke
94 0 4932 1867 2 MP stroke
94 0 4932 1936 2 MP stroke
0 69 5174 1867 2 MP stroke
93 0 5127 1867 2 MP stroke
93 0 5127 1936 2 MP stroke
0 69 5368 1867 2 MP stroke
93 0 5322 1867 2 MP stroke
93 0 5322 1936 2 MP stroke
0 110 5563 1893 2 MP stroke
94 0 5516 1893 2 MP stroke
94 0 5516 2003 2 MP stroke
0 110 5758 1893 2 MP stroke
94 0 5711 1893 2 MP stroke
94 0 5711 2003 2 MP stroke
gr

c12
36 47 -36 47 -36 -47 36 -47 1084 1892 5 MP
DP
36 47 -36 47 -36 -47 36 -47 1278 1892 5 MP
DP
36 47 -36 47 -36 -47 36 -47 1473 1892 5 MP
DP
36 47 -36 47 -36 -47 36 -47 1668 1892 5 MP
DP
36 47 -36 47 -36 -47 36 -47 1863 1893 5 MP
DP
36 47 -36 47 -36 -47 36 -47 2057 1893 5 MP
DP
36 47 -36 47 -36 -47 36 -47 2252 1893 5 MP
DP
36 47 -36 47 -36 -47 36 -47 2447 1893 5 MP
DP
36 47 -36 47 -36 -47 36 -47 2642 1907 5 MP
DP
36 47 -36 47 -36 -47 36 -47 2836 1911 5 MP
DP
36 47 -36 47 -36 -47 36 -47 3031 1911 5 MP
DP
36 47 -36 47 -36 -47 36 -47 3226 1929 5 MP
DP
36 47 -36 47 -36 -47 36 -47 3421 1929 5 MP
DP
36 47 -36 47 -36 -47 36 -47 3615 1929 5 MP
DP
36 47 -36 47 -36 -47 36 -47 3810 1929 5 MP
DP
36 47 -36 47 -36 -47 36 -47 4005 1929 5 MP
DP
36 47 -36 47 -36 -47 36 -47 4200 1929 5 MP
DP
36 47 -36 47 -36 -47 36 -47 4395 1929 5 MP
DP
36 47 -36 47 -36 -47 36 -47 4589 1948 5 MP
DP
36 47 -36 47 -36 -47 36 -47 4784 1948 5 MP
DP
36 47 -36 47 -36 -47 36 -47 4979 1948 5 MP
DP
36 47 -36 47 -36 -47 36 -47 5174 1948 5 MP
DP
36 47 -36 47 -36 -47 36 -47 5368 1948 5 MP
DP
36 47 -36 47 -36 -47 36 -47 5563 1995 5 MP
DP
36 47 -36 47 -36 -47 36 -47 5758 1995 5 MP
DP
gs 899 389 5357 4227 rc
0 sg
10 0 10 6 9 15 10 0 10 2 10 0 9 0 10 4 
10 0 10 0 9 3 10 0 10 0 9 5 10 0 10 0 
10 0 9 13 10 2 10 6 10 0 9 2 10 1 10 1 
10 0 9 4 10 1 10 0 10 0 9 0 10 0 10 0 
10 0 9 7 10 8 10 0 9 0 10 4 10 5 10 9 
9 21 10 2 10 0 10 4 9 0 10 0 10 0 10 0 
9 0 10 0 10 0 10 0 9 0 10 0 10 0 9 0 
10 1 10 1 10 0 9 0 10 12 10 0 10 0 9 0 
10 0 10 2 10 0 9 2 10 0 10 0 10 0 9 3 
10 6 10 1 10 1 9 0 10 0 10 0 9 0 10 0 
10 5 10 0 9 0 10 0 10 7 10 1 9 12 10 5 
10 0 10 17 9 5 10 12 10 32 10 8 9 3 10 2 
10 0 9 0 10 0 10 2 10 1 9 0 10 0 10 0 
10 0 9 0 10 0 10 0 10 0 9 0 10 0 10 0 
10 4 9 0 10 0 10 0 10 0 9 0 10 0 10 2 
9 0 10 0 10 5 10 8 9 9 10 0 10 8 10 3 
9 0 10 0 10 6 10 1 9 1 10 2 10 0 10 11 
9 3 10 15 10 3 9 11 10 3 10 2 10 0 9 23 
10 0 10 0 10 0 9 0 10 0 10 0 10 0 9 0 
10 0 10 0 10 0 9 0 10 5 10 0 10 11 9 6 
10 14 10 5 9 10 10 0 10 0 10 4 9 10 10 0 
10 0 10 0 9 0 10 3 10 0 10 0 9 3 10 3 
10 0 10 2 9 1 10 0 10 17 9 12 10 6 10 0 
10 0 9 0 10 0 10 0 10 0 9 3 10 2 10 0 
10 3 9 0 10 3 10 17 10 0 9 0 10 0 10 0 
10 0 9 0 10 5 10 0 9 2 10 0 10 1 10 3 
9 0 10 0 10 0 10 1 9 0 10 0 10 2 10 0 
9 8 10 7 10 4 10 1 9 3 10 9 10 0 9 3 
10 0 10 0 10 7 9 0 10 15 10 13 10 0 9 0 
10 3 10 0 10 2 9 9 10 20 10 14 10 1 9 11 
10 14 10 10 10 16 9 2 10 1 10 5 9 0 10 0 
10 0 10 0 9 0 10 7 10 1 10 0 9 1 10 0 
10 9 10 0 9 3 10 0 10 0 10 2 9 10 10 0 
10 0 10 9 9 0 10 0 10 0 9 0 10 8 10 0 
10 0 9 2 10 0 10 22 10 1 9 3 10 5 10 21 
10 1 9 0 10 2 10 0 10 23 9 0 10 6 10 16 
9 17 10 7 10 11 10 0 9 0 10 0 10 0 10 0 
9 0 10 0 10 0 2846 3632 300 MP stroke
10 11 9 3 10 0 10 0 10 23 9 0 10 0 10 0 
10 0 9 0 10 1 10 0 9 6 10 0 10 11 10 0 
9 0 10 12 10 6 10 4 9 7 10 0 10 8 10 8 
9 22 10 9 10 31 10 11 9 12 10 6 10 29 9 2 
10 14 10 8 10 4 9 13 10 1 10 7 10 7 9 29 
10 8 10 3 10 5 9 5 10 0 10 12 10 28 9 0 
10 0 10 0 10 10 9 24 10 2 10 7 9 1 10 13 
10 11 10 7 9 7 10 7 10 7 10 0 9 17 10 2 
10 28 10 8 9 7 10 7 10 15 10 0 9 2 10 0 
10 4 9 8 10 9 10 5 10 0 9 0 10 2 10 7 
10 0 9 6 10 0 10 0 10 3 9 0 10 0 10 6 
10 0 9 3 10 0 10 0 10 0 9 8 10 0 10 11 
9 0 10 0 10 0 10 0 9 3 10 5 10 11 10 14 
9 6 10 8 10 22 10 1 9 0 10 17 10 10 10 8 
9 0 10 16 10 0 9 12 10 18 10 4 10 0 9 0 
10 0 10 5 10 4 9 0 10 16 10 0 10 4 9 0 
10 5 10 0 10 0 9 0 10 0 10 0 10 10 9 0 
10 0 10 0 9 0 10 0 10 0 10 0 9 0 10 15 
10 0 10 0 9 0 10 9 10 0 10 0 9 18 10 4 
10 0 10 0 9 3 10 19 10 0 9 8 10 2 10 8 
10 21 9 1 10 1 10 0 10 1 9 15 10 6 10 0 
10 5 9 0 10 0 10 0 10 0 9 0 10 0 10 7 
10 0 9 21 10 0 10 0 9 1 10 0 10 0 10 7 
9 0 10 0 10 0 10 0 9 0 10 0 10 0 10 0 
9 0 10 0 10 0 10 1 9 0 10 0 10 0 9 0 
899 2640 201 MP stroke
0 79 1084 2609 2 MP stroke
93 0 1037 2609 2 MP stroke
93 0 1037 2688 2 MP stroke
0 89 1278 2662 2 MP stroke
93 0 1232 2662 2 MP stroke
93 0 1232 2751 2 MP stroke
0 115 1473 2756 2 MP stroke
94 0 1426 2756 2 MP stroke
94 0 1426 2871 2 MP stroke
0 135 1668 2790 2 MP stroke
94 0 1621 2790 2 MP stroke
94 0 1621 2925 2 MP stroke
0 152 1863 2933 2 MP stroke
93 0 1816 2933 2 MP stroke
93 0 1816 3085 2 MP stroke
0 166 2057 2966 2 MP stroke
93 0 2011 2966 2 MP stroke
93 0 2011 3132 2 MP stroke
0 162 2252 3089 2 MP stroke
94 0 2205 3089 2 MP stroke
94 0 2205 3251 2 MP stroke
0 152 2447 3243 2 MP stroke
94 0 2400 3243 2 MP stroke
94 0 2400 3395 2 MP stroke
0 138 2642 3479 2 MP stroke
93 0 2595 3479 2 MP stroke
93 0 2595 3617 2 MP stroke
0 111 2836 3566 2 MP stroke
93 0 2790 3566 2 MP stroke
93 0 2790 3677 2 MP stroke
0 104 3031 3663 2 MP stroke
94 0 2984 3663 2 MP stroke
94 0 2984 3767 2 MP stroke
0 123 3226 3737 2 MP stroke
94 0 3179 3737 2 MP stroke
94 0 3179 3860 2 MP stroke
0 129 3421 3803 2 MP stroke
93 0 3374 3803 2 MP stroke
93 0 3374 3932 2 MP stroke
0 135 3615 3910 2 MP stroke
93 0 3569 3910 2 MP stroke
93 0 3569 4045 2 MP stroke
0 126 3810 3948 2 MP stroke
94 0 3763 3948 2 MP stroke
94 0 3763 4074 2 MP stroke
0 119 4005 4015 2 MP stroke
94 0 3958 4015 2 MP stroke
94 0 3958 4134 2 MP stroke
0 126 4200 4066 2 MP stroke
93 0 4153 4066 2 MP stroke
93 0 4153 4192 2 MP stroke
0 142 4395 4108 2 MP stroke
93 0 4348 4108 2 MP stroke
93 0 4348 4250 2 MP stroke
0 145 4589 4193 2 MP stroke
93 0 4543 4193 2 MP stroke
93 0 4543 4338 2 MP stroke
0 147 4784 4199 2 MP stroke
94 0 4737 4199 2 MP stroke
94 0 4737 4346 2 MP stroke
0 147 4979 4310 2 MP stroke
94 0 4932 4310 2 MP stroke
94 0 4932 4457 2 MP stroke
0 144 5174 4338 2 MP stroke
93 0 5127 4338 2 MP stroke
93 0 5127 4482 2 MP stroke
0 146 5368 4366 2 MP stroke
93 0 5322 4366 2 MP stroke
93 0 5322 4512 2 MP stroke
0 149 5563 4407 2 MP stroke
94 0 5516 4407 2 MP stroke
94 0 5516 4556 2 MP stroke
0 155 5758 4460 2 MP stroke
94 0 5711 4460 2 MP stroke
94 0 5711 4615 2 MP stroke
gr

0 sg
1048 2648 mt 1120 2648 L
1084 2612 mt 1084 2684 L
1242 2706 mt 1314 2706 L
1278 2670 mt 1278 2742 L
1437 2813 mt 1509 2813 L
1473 2777 mt 1473 2849 L
1632 2857 mt 1704 2857 L
1668 2821 mt 1668 2893 L
1827 3009 mt 1899 3009 L
1863 2973 mt 1863 3045 L
2021 3049 mt 2093 3049 L
2057 3013 mt 2057 3085 L
2216 3170 mt 2288 3170 L
2252 3134 mt 2252 3206 L
2411 3319 mt 2483 3319 L
2447 3283 mt 2447 3355 L
2606 3548 mt 2678 3548 L
2642 3512 mt 2642 3584 L
2800 3621 mt 2872 3621 L
2836 3585 mt 2836 3657 L
2995 3715 mt 3067 3715 L
3031 3679 mt 3031 3751 L
3190 3798 mt 3262 3798 L
3226 3762 mt 3226 3834 L
3385 3867 mt 3457 3867 L
3421 3831 mt 3421 3903 L
3579 3977 mt 3651 3977 L
3615 3941 mt 3615 4013 L
3774 4011 mt 3846 4011 L
3810 3975 mt 3810 4047 L
3969 4074 mt 4041 4074 L
4005 4038 mt 4005 4110 L
4164 4129 mt 4236 4129 L
4200 4093 mt 4200 4165 L
4359 4179 mt 4431 4179 L
4395 4143 mt 4395 4215 L
4553 4265 mt 4625 4265 L
4589 4229 mt 4589 4301 L
4748 4272 mt 4820 4272 L
4784 4236 mt 4784 4308 L
4943 4383 mt 5015 4383 L
4979 4347 mt 4979 4419 L
5138 4410 mt 5210 4410 L
5174 4374 mt 5174 4446 L
5332 4439 mt 5404 4439 L
5368 4403 mt 5368 4475 L
5527 4481 mt 5599 4481 L
5563 4445 mt 5563 4517 L
5722 4537 mt 5794 4537 L
5758 4501 mt 5758 4573 L
gs 899 389 5357 4227 rc
gr

1 sg
0 918 1538 0 0 -918 4658 1367 4 MP
PP
-1538 0 0 918 1538 0 0 -918 4658 1367 5 MP stroke
4 w
DO
SO
6 w
0 sg
4658 1367 mt 6196 1367 L
4658  449 mt 6196  449 L
4658 1367 mt 4658  449 L
6196 1367 mt 6196  449 L
4658 1367 mt 6196 1367 L
4658 1367 mt 4658  449 L
4658 1367 mt 6196 1367 L
4658  449 mt 6196  449 L
4658 1367 mt 4658  449 L
6196 1367 mt 6196  449 L
5125  581 mt 
(original BO) s
gs 4658 449 1539 919 rc
gs 4836 465 147 147 rc
41 71 -82 0 41 -71 4909 585 4 MP
c8
DP
gr

c8
gr

c8
0 sg
5125  729 mt 
(random basis) s
gs 4658 449 1539 919 rc
gs 4836 613 147 147 rc
0 -58 -58 0 0 58 58 0 4880 657 5 MP
c9
DP
gr

c9
gr

c9
0 sg
5125  877 mt 
(random embedding) s
gs 4658 449 1539 919 rc
gs 4836 761 147 147 rc
c10
  36   36 4909  834 FO
gr

c10
gr

c10
0 sg
5125 1024 mt 
(subpsace learning) s
gs 4658 449 1539 919 rc
gs 4836 908 147 147 rc
c11
4873  981 mt 4945  981 L
4909  945 mt 4909 1017 L
4884  956 mt 4934 1006 L
4934  956 mt 4884 1006 L
gr

c11
gr

c11
0 sg
5125 1172 mt 
(additive model) s
gs 4658 449 1539 919 rc
gs 4836 1056 147 147 rc
36 47 -36 47 -36 -47 36 -47 4909 1176 5 MP
c12
DP
gr

c12
gr

c12
0 sg
5125 1320 mt 
(anova ve) s
gs 4658 449 1539 919 rc
gs 4836 1204 147 147 rc
4873 1277 mt 4945 1277 L
4909 1241 mt 4909 1313 L
gr

gr


end %%Color Dict

eplot
%%EndObject

epage
end

showpage

%%Trailer
%%EOF
