%!PS-Adobe-3.0 EPSF-3.0
%%Creator: MATLAB, The MathWorks, Inc. Version 7.12.0.635 (R2011a). Operating System: Linux 3.16.0-4-amd64 #1 SMP Debian 3.16.36-1+deb8u1 (2016-09-03) x86_64.
%%Title: /home/jaemin/Research/codes_MATSIM/HIGHDIM_BO_plot/results/logsumSE2/logsumSE2_avr_cumulative_regret_100.eps
%%CreationDate: 10/15/2016  14:33:26
%%DocumentNeededFonts: Helvetica
%%DocumentProcessColors: Cyan Magenta Yellow Black
%%LanguageLevel: 2
%%Pages: 1
%%BoundingBox:    43   199   546   591
%%EndComments

%%BeginProlog
% MathWorks dictionary
/MathWorks 160 dict begin
% definition operators
/bdef {bind def} bind def
/ldef {load def} bind def
/xdef {exch def} bdef
/xstore {exch store} bdef
% operator abbreviations
/c  /clip ldef
/cc /concat ldef
/cp /closepath ldef
/gr /grestore ldef
/gs /gsave ldef
/mt /moveto ldef
/np /newpath ldef
/cm /currentmatrix ldef
/sm /setmatrix ldef
/rm /rmoveto ldef
/rl /rlineto ldef
/s {show newpath} bdef
/sc {setcmykcolor} bdef
/sr /setrgbcolor ldef
/sg /setgray ldef
/w /setlinewidth ldef
/j /setlinejoin ldef
/cap /setlinecap ldef
/rc {rectclip} bdef
/rf {rectfill} bdef
% page state control
/pgsv () def
/bpage {/pgsv save def} bdef
/epage {pgsv restore} bdef
/bplot /gsave ldef
/eplot {stroke grestore} bdef
% orientation switch
/portraitMode 0 def /landscapeMode 1 def /rotateMode 2 def
% coordinate system mappings
/dpi2point 0 def
% font control
/FontSize 0 def
/FMS {/FontSize xstore findfont [FontSize 0 0 FontSize neg 0 0]
  makefont setfont} bdef
/reencode {exch dup where {pop load} {pop StandardEncoding} ifelse
  exch dup 3 1 roll findfont dup length dict begin
  { 1 index /FID ne {def}{pop pop} ifelse } forall
  /Encoding exch def currentdict end definefont pop} bdef
/isroman {findfont /CharStrings get /Agrave known} bdef
/FMSR {3 1 roll 1 index dup isroman {reencode} {pop pop} ifelse
  exch FMS} bdef
/csm {1 dpi2point div -1 dpi2point div scale neg translate
 dup landscapeMode eq {pop -90 rotate}
  {rotateMode eq {90 rotate} if} ifelse} bdef
% line types: solid, dotted, dashed, dotdash
/SO { [] 0 setdash } bdef
/DO { [.5 dpi2point mul 4 dpi2point mul] 0 setdash } bdef
/DA { [6 dpi2point mul] 0 setdash } bdef
/DD { [.5 dpi2point mul 4 dpi2point mul 6 dpi2point mul 4
  dpi2point mul] 0 setdash } bdef
% macros for lines and objects
/L {lineto stroke} bdef
/MP {3 1 roll moveto 1 sub {rlineto} repeat} bdef
/AP {{rlineto} repeat} bdef
/PDlw -1 def
/W {/PDlw currentlinewidth def setlinewidth} def
/PP {closepath eofill} bdef
/DP {closepath stroke} bdef
/MR {4 -2 roll moveto dup  0 exch rlineto exch 0 rlineto
  neg 0 exch rlineto closepath} bdef
/FR {MR stroke} bdef
/PR {MR fill} bdef
/L1i {{currentfile picstr readhexstring pop} image} bdef
/tMatrix matrix def
/MakeOval {newpath tMatrix currentmatrix pop translate scale
0 0 1 0 360 arc tMatrix setmatrix} bdef
/FO {MakeOval stroke} bdef
/PO {MakeOval fill} bdef
/PD {currentlinewidth 2 div 0 360 arc fill
   PDlw -1 eq not {PDlw w /PDlw -1 def} if} def
/FA {newpath tMatrix currentmatrix pop translate scale
  0 0 1 5 -2 roll arc tMatrix setmatrix stroke} bdef
/PA {newpath tMatrix currentmatrix pop	translate 0 0 moveto scale
  0 0 1 5 -2 roll arc closepath tMatrix setmatrix fill} bdef
/FAn {newpath tMatrix currentmatrix pop translate scale
  0 0 1 5 -2 roll arcn tMatrix setmatrix stroke} bdef
/PAn {newpath tMatrix currentmatrix pop translate 0 0 moveto scale
  0 0 1 5 -2 roll arcn closepath tMatrix setmatrix fill} bdef
/vradius 0 def /hradius 0 def /lry 0 def
/lrx 0 def /uly 0 def /ulx 0 def /rad 0 def
/MRR {/vradius xdef /hradius xdef /lry xdef /lrx xdef /uly xdef
  /ulx xdef newpath tMatrix currentmatrix pop ulx hradius add uly
  vradius add translate hradius vradius scale 0 0 1 180 270 arc 
  tMatrix setmatrix lrx hradius sub uly vradius add translate
  hradius vradius scale 0 0 1 270 360 arc tMatrix setmatrix
  lrx hradius sub lry vradius sub translate hradius vradius scale
  0 0 1 0 90 arc tMatrix setmatrix ulx hradius add lry vradius sub
  translate hradius vradius scale 0 0 1 90 180 arc tMatrix setmatrix
  closepath} bdef
/FRR {MRR stroke } bdef
/PRR {MRR fill } bdef
/MlrRR {/lry xdef /lrx xdef /uly xdef /ulx xdef /rad lry uly sub 2 div def
  newpath tMatrix currentmatrix pop ulx rad add uly rad add translate
  rad rad scale 0 0 1 90 270 arc tMatrix setmatrix lrx rad sub lry rad
  sub translate rad rad scale 0 0 1 270 90 arc tMatrix setmatrix
  closepath} bdef
/FlrRR {MlrRR stroke } bdef
/PlrRR {MlrRR fill } bdef
/MtbRR {/lry xdef /lrx xdef /uly xdef /ulx xdef /rad lrx ulx sub 2 div def
  newpath tMatrix currentmatrix pop ulx rad add uly rad add translate
  rad rad scale 0 0 1 180 360 arc tMatrix setmatrix lrx rad sub lry rad
  sub translate rad rad scale 0 0 1 0 180 arc tMatrix setmatrix
  closepath} bdef
/FtbRR {MtbRR stroke } bdef
/PtbRR {MtbRR fill } bdef
/stri 6 array def /dtri 6 array def
/smat 6 array def /dmat 6 array def
/tmat1 6 array def /tmat2 6 array def /dif 3 array def
/asub {/ind2 exch def /ind1 exch def dup dup
  ind1 get exch ind2 get sub exch } bdef
/tri_to_matrix {
  2 0 asub 3 1 asub 4 0 asub 5 1 asub
  dup 0 get exch 1 get 7 -1 roll astore } bdef
/compute_transform {
  dmat dtri tri_to_matrix tmat1 invertmatrix 
  smat stri tri_to_matrix tmat2 concatmatrix } bdef
/ds {stri astore pop} bdef
/dt {dtri astore pop} bdef
/db {2 copy /cols xdef /rows xdef mul dup 3 mul string
  currentfile 
  3 index 0 eq {/ASCIIHexDecode filter}
  {/ASCII85Decode filter 3 index 2 eq {/RunLengthDecode filter} if }
  ifelse exch readstring pop
  dup 0 3 index getinterval /rbmap xdef
  dup 2 index dup getinterval /gbmap xdef
  1 index dup 2 mul exch getinterval /bbmap xdef pop pop}bdef
/it {gs np dtri aload pop moveto lineto lineto cp c
  cols rows 8 compute_transform 
  rbmap gbmap bbmap true 3 colorimage gr}bdef
/il {newpath moveto lineto stroke}bdef
currentdict end def
%%EndProlog

%%BeginSetup
MathWorks begin

0 cap

end
%%EndSetup

%%Page: 1 1
%%BeginPageSetup
%%PageBoundingBox:    43   199   546   591
MathWorks begin
bpage
%%EndPageSetup

%%BeginObject: obj1
bplot

/dpi2point 12 def
portraitMode 0216 7344 csm

  304   246  6041  4709 rc
88 dict begin %Colortable dictionary
/c0 { 0.000000 0.000000 0.000000 sr} bdef
/c1 { 1.000000 1.000000 1.000000 sr} bdef
/c2 { 0.900000 0.000000 0.000000 sr} bdef
/c3 { 0.000000 0.820000 0.000000 sr} bdef
/c4 { 0.000000 0.000000 0.800000 sr} bdef
/c5 { 0.910000 0.820000 0.320000 sr} bdef
/c6 { 1.000000 0.260000 0.820000 sr} bdef
/c7 { 0.000000 0.820000 0.820000 sr} bdef
c0
1 j
1 sg
   0    0 6913 5186 rf
6 w
0 4226 5356 0 0 -4226 899 4614 4 MP
PP
-5356 0 0 4226 5356 0 0 -4226 899 4614 5 MP stroke
4 w
DO
SO
6 w
0 sg
 899 4614 mt 6255 4614 L
 899  388 mt 6255  388 L
 899 4614 mt  899  388 L
6255 4614 mt 6255  388 L
 899 4614 mt 6255 4614 L
 899 4614 mt  899  388 L
 899 4614 mt  899 4561 L
 899  388 mt  899  442 L
%%IncludeResource: font Helvetica
/Helvetica /ISOLatin1Encoding 120 FMSR

 866 4760 mt 
(0) s
1385 4614 mt 1385 4561 L
1385  388 mt 1385  442 L
1319 4760 mt 
(50) s
1872 4614 mt 1872 4561 L
1872  388 mt 1872  442 L
1772 4760 mt 
(100) s
2359 4614 mt 2359 4561 L
2359  388 mt 2359  442 L
2259 4760 mt 
(150) s
2846 4614 mt 2846 4561 L
2846  388 mt 2846  442 L
2746 4760 mt 
(200) s
3333 4614 mt 3333 4561 L
3333  388 mt 3333  442 L
3233 4760 mt 
(250) s
3820 4614 mt 3820 4561 L
3820  388 mt 3820  442 L
3720 4760 mt 
(300) s
4307 4614 mt 4307 4561 L
4307  388 mt 4307  442 L
4207 4760 mt 
(350) s
4794 4614 mt 4794 4561 L
4794  388 mt 4794  442 L
4694 4760 mt 
(400) s
5281 4614 mt 5281 4561 L
5281  388 mt 5281  442 L
5181 4760 mt 
(450) s
5768 4614 mt 5768 4561 L
5768  388 mt 5768  442 L
5668 4760 mt 
(500) s
 899 4614 mt  899 4614 L
 899 4614 mt  899 4614 L
 899 4614 mt  899 4614 L
 899 4614 mt  899 4614 L
 899 4614 mt  899 4614 L
 899 4614 mt  899 4614 L
 899 4614 mt  899 4614 L
 899 4614 mt  899 4614 L
 899 4614 mt  899 4614 L
 899 4614 mt  899 4614 L
 899 4614 mt  899 4614 L
 899 4614 mt  899 4614 L
 899 4614 mt  899 4614 L
 899 4614 mt  899 4614 L
 899 4614 mt  899 4614 L
 899 4614 mt  899 4614 L
 899 4614 mt  899 4614 L
 899 4614 mt  899 4614 L
 899 4258 mt  952 4258 L
6255 4258 mt 6201 4258 L
 576 4302 mt 
(10) s
%%IncludeResource: font Helvetica
/Helvetica /ISOLatin1Encoding 80 FMSR

 709 4228 mt 
(0.24) s
 899 4614 mt  899 4614 L
 899 4614 mt  899 4614 L
 899 4614 mt  899 4614 L
 899 4614 mt  899 4614 L
 899 4614 mt  899 4614 L
 899 4614 mt  899 4614 L
 899 4614 mt  899 4614 L
 899 4614 mt  899 4614 L
 899 4614 mt  899 4614 L
 899 4614 mt  899 4614 L
 899 4614 mt  899 4614 L
 899 4614 mt  899 4614 L
 899 4614 mt  899 4614 L
 899 4614 mt  899 4614 L
 899 4614 mt  899 4614 L
 899 4614 mt  899 4614 L
 899 4614 mt  899 4614 L
 899 4614 mt  899 4614 L
 899 3489 mt  952 3489 L
6255 3489 mt 6201 3489 L
%%IncludeResource: font Helvetica
/Helvetica /ISOLatin1Encoding 120 FMSR

 576 3533 mt 
(10) s
%%IncludeResource: font Helvetica
/Helvetica /ISOLatin1Encoding 80 FMSR

 709 3459 mt 
(0.26) s
 899 4614 mt  899 4614 L
 899 4614 mt  899 4614 L
 899 4614 mt  899 4614 L
 899 4614 mt  899 4614 L
 899 4614 mt  899 4614 L
 899 4614 mt  899 4614 L
 899 4614 mt  899 4614 L
 899 4614 mt  899 4614 L
 899 4614 mt  899 4614 L
 899 4614 mt  899 4614 L
 899 4614 mt  899 4614 L
 899 4614 mt  899 4614 L
 899 4614 mt  899 4614 L
 899 4614 mt  899 4614 L
 899 4614 mt  899 4614 L
 899 4614 mt  899 4614 L
 899 4614 mt  899 4614 L
 899 4614 mt  899 4614 L
 899 2720 mt  952 2720 L
6255 2720 mt 6201 2720 L
%%IncludeResource: font Helvetica
/Helvetica /ISOLatin1Encoding 120 FMSR

 576 2764 mt 
(10) s
%%IncludeResource: font Helvetica
/Helvetica /ISOLatin1Encoding 80 FMSR

 709 2690 mt 
(0.28) s
 899 4614 mt  899 4614 L
 899 4614 mt  899 4614 L
 899 4614 mt  899 4614 L
 899 4614 mt  899 4614 L
 899 4614 mt  899 4614 L
 899 4614 mt  899 4614 L
 899 4614 mt  899 4614 L
 899 4614 mt  899 4614 L
 899 4614 mt  899 4614 L
 899 4614 mt  899 4614 L
 899 4614 mt  899 4614 L
 899 4614 mt  899 4614 L
 899 4614 mt  899 4614 L
 899 4614 mt  899 4614 L
 899 4614 mt  899 4614 L
 899 4614 mt  899 4614 L
 899 4614 mt  899 4614 L
 899 4614 mt  899 4614 L
 899 1951 mt  952 1951 L
6255 1951 mt 6201 1951 L
%%IncludeResource: font Helvetica
/Helvetica /ISOLatin1Encoding 120 FMSR

 620 1995 mt 
(10) s
%%IncludeResource: font Helvetica
/Helvetica /ISOLatin1Encoding 80 FMSR

 753 1921 mt 
(0.3) s
 899 4614 mt  899 4614 L
 899 4614 mt  899 4614 L
 899 4614 mt  899 4614 L
 899 4614 mt  899 4614 L
 899 4614 mt  899 4614 L
 899 4614 mt  899 4614 L
 899 4614 mt  899 4614 L
 899 4614 mt  899 4614 L
 899 4614 mt  899 4614 L
 899 4614 mt  899 4614 L
 899 4614 mt  899 4614 L
 899 4614 mt  899 4614 L
 899 4614 mt  899 4614 L
 899 4614 mt  899 4614 L
 899 4614 mt  899 4614 L
 899 4614 mt  899 4614 L
 899 4614 mt  899 4614 L
 899 4614 mt  899 4614 L
 899 1182 mt  952 1182 L
6255 1182 mt 6201 1182 L
%%IncludeResource: font Helvetica
/Helvetica /ISOLatin1Encoding 120 FMSR

 576 1226 mt 
(10) s
%%IncludeResource: font Helvetica
/Helvetica /ISOLatin1Encoding 80 FMSR

 709 1152 mt 
(0.32) s
 899 4614 mt  899 4614 L
 899 4614 mt  899 4614 L
 899 4614 mt  899 4614 L
 899 4614 mt  899 4614 L
 899 4614 mt  899 4614 L
 899 4614 mt  899 4614 L
 899 4614 mt  899 4614 L
 899 4614 mt  899 4614 L
 899 4614 mt  899 4614 L
 899 4614 mt  899 4614 L
 899 4614 mt  899 4614 L
 899 4614 mt  899 4614 L
 899 4614 mt  899 4614 L
 899 4614 mt  899 4614 L
 899 4614 mt  899 4614 L
 899 4614 mt  899 4614 L
 899 4614 mt  899 4614 L
 899 4614 mt  899 4614 L
 899  413 mt  952  413 L
6255  413 mt 6201  413 L
%%IncludeResource: font Helvetica
/Helvetica /ISOLatin1Encoding 120 FMSR

 576  457 mt 
(10) s
%%IncludeResource: font Helvetica
/Helvetica /ISOLatin1Encoding 80 FMSR

 709  383 mt 
(0.34) s
 899 4614 mt  899 4614 L
 899 4614 mt  899 4614 L
 899 4614 mt  899 4614 L
 899 4614 mt  899 4614 L
 899 4614 mt  899 4614 L
 899 4614 mt  899 4614 L
 899 4614 mt  899 4614 L
 899 4614 mt  899 4614 L
 899 4614 mt  899 4614 L
 899 4614 mt  899 4614 L
 899 4614 mt  899 4614 L
 899 4614 mt  899 4614 L
 899 4614 mt  899 4614 L
 899 4614 mt  899 4614 L
 899 4614 mt  899 4614 L
 899 4614 mt  899 4614 L
 899 4614 mt  899 4614 L
 899 4614 mt  899 4614 L
 899 4614 mt 6255 4614 L
 899  388 mt 6255  388 L
 899 4614 mt  899  388 L
6255 4614 mt 6255  388 L
gs 899 388 5357 4227 rc
gr

0 j
41 71 -82 0 41 -71 1084 1345 4 MP
/c8 { 0.000000 1.000000 0.000000 sr} bdef
c8
DP
41 71 -82 0 41 -71 1278 1419 4 MP
DP
41 71 -82 0 41 -71 1473 1521 4 MP
DP
41 71 -82 0 41 -71 1668 1627 4 MP
DP
41 71 -82 0 41 -71 1863 1683 4 MP
DP
41 71 -82 0 41 -71 2057 1732 4 MP
DP
41 71 -82 0 41 -71 2252 1763 4 MP
DP
41 71 -82 0 41 -71 2447 1791 4 MP
DP
41 71 -82 0 41 -71 2642 1817 4 MP
DP
41 71 -82 0 41 -71 2836 1838 4 MP
DP
41 71 -82 0 41 -71 3031 1853 4 MP
DP
41 71 -82 0 41 -71 3226 1868 4 MP
DP
41 71 -82 0 41 -71 3421 1881 4 MP
DP
41 71 -82 0 41 -71 3615 1891 4 MP
DP
41 71 -82 0 41 -71 3810 1901 4 MP
DP
41 71 -82 0 41 -71 4005 1912 4 MP
DP
41 71 -82 0 41 -71 4200 1920 4 MP
DP
41 71 -82 0 41 -71 4395 1928 4 MP
DP
41 71 -82 0 41 -71 4589 1935 4 MP
DP
41 71 -82 0 41 -71 4784 1942 4 MP
DP
41 71 -82 0 41 -71 4979 1948 4 MP
DP
41 71 -82 0 41 -71 5174 1954 4 MP
DP
41 71 -82 0 41 -71 5368 1960 4 MP
DP
41 71 -82 0 41 -71 5563 1964 4 MP
DP
41 71 -82 0 41 -71 5758 1968 4 MP
DP
gs 899 388 5357 4227 rc
gr

0 -58 -58 0 0 58 58 0 1055 1660 5 MP
/c9 { 1.000000 0.000000 0.000000 sr} bdef
c9
DP
0 -58 -58 0 0 58 58 0 1249 1641 5 MP
DP
0 -58 -58 0 0 58 58 0 1444 1621 5 MP
DP
0 -58 -58 0 0 58 58 0 1639 1604 5 MP
DP
0 -58 -58 0 0 58 58 0 1834 1591 5 MP
DP
0 -58 -58 0 0 58 58 0 2028 1582 5 MP
DP
0 -58 -58 0 0 58 58 0 2223 1574 5 MP
DP
0 -58 -58 0 0 58 58 0 2418 1567 5 MP
DP
0 -58 -58 0 0 58 58 0 2613 1561 5 MP
DP
0 -58 -58 0 0 58 58 0 2807 1556 5 MP
DP
0 -58 -58 0 0 58 58 0 3002 1552 5 MP
DP
0 -58 -58 0 0 58 58 0 3197 1547 5 MP
DP
0 -58 -58 0 0 58 58 0 3392 1546 5 MP
DP
0 -58 -58 0 0 58 58 0 3586 1543 5 MP
DP
0 -58 -58 0 0 58 58 0 3781 1539 5 MP
DP
0 -58 -58 0 0 58 58 0 3976 1537 5 MP
DP
0 -58 -58 0 0 58 58 0 4171 1535 5 MP
DP
0 -58 -58 0 0 58 58 0 4366 1533 5 MP
DP
0 -58 -58 0 0 58 58 0 4560 1531 5 MP
DP
0 -58 -58 0 0 58 58 0 4755 1531 5 MP
DP
0 -58 -58 0 0 58 58 0 4950 1530 5 MP
DP
0 -58 -58 0 0 58 58 0 5145 1530 5 MP
DP
0 -58 -58 0 0 58 58 0 5339 1531 5 MP
DP
0 -58 -58 0 0 58 58 0 5534 1530 5 MP
DP
0 -58 -58 0 0 58 58 0 5729 1531 5 MP
DP
gs 899 388 5357 4227 rc
gr

/c10 { 0.000000 1.000000 1.000000 sr} bdef
c10
  36   36 1084  402 FO
  36   36 1278  407 FO
  36   36 1473  411 FO
  36   36 1668  415 FO
  36   36 1863  418 FO
  36   36 2057  423 FO
  36   36 2252  424 FO
  36   36 2447  426 FO
  36   36 2642  428 FO
  36   36 2836  430 FO
  36   36 3031  431 FO
  36   36 3226  433 FO
  36   36 3421  434 FO
  36   36 3615  435 FO
  36   36 3810  437 FO
  36   36 4005  438 FO
  36   36 4200  440 FO
  36   36 4395  441 FO
  36   36 4589  442 FO
  36   36 4784  442 FO
  36   36 4979  444 FO
  36   36 5174  445 FO
  36   36 5368  446 FO
  36   36 5563  447 FO
  36   36 5758  448 FO
gs 899 388 5357 4227 rc
gr

/c11 { 0.000000 0.000000 1.000000 sr} bdef
c11
1048 1130 mt 1120 1130 L
1084 1094 mt 1084 1166 L
1242 1173 mt 1314 1173 L
1278 1137 mt 1278 1209 L
1437 1230 mt 1509 1230 L
1473 1194 mt 1473 1266 L
1632 1254 mt 1704 1254 L
1668 1218 mt 1668 1290 L
1827 1268 mt 1899 1268 L
1863 1232 mt 1863 1304 L
2021 1277 mt 2093 1277 L
2057 1241 mt 2057 1313 L
2216 1286 mt 2288 1286 L
2252 1250 mt 2252 1322 L
2411 1286 mt 2483 1286 L
2447 1250 mt 2447 1322 L
2606 1286 mt 2678 1286 L
2642 1250 mt 2642 1322 L
2800 1289 mt 2872 1289 L
2836 1253 mt 2836 1325 L
2995 1288 mt 3067 1288 L
3031 1252 mt 3031 1324 L
3190 1290 mt 3262 1290 L
3226 1254 mt 3226 1326 L
3385 1290 mt 3457 1290 L
3421 1254 mt 3421 1326 L
3579 1290 mt 3651 1290 L
3615 1254 mt 3615 1326 L
3774 1290 mt 3846 1290 L
3810 1254 mt 3810 1326 L
3969 1287 mt 4041 1287 L
4005 1251 mt 4005 1323 L
4164 1285 mt 4236 1285 L
4200 1249 mt 4200 1321 L
4359 1284 mt 4431 1284 L
4395 1248 mt 4395 1320 L
4553 1281 mt 4625 1281 L
4589 1245 mt 4589 1317 L
4748 1280 mt 4820 1280 L
4784 1244 mt 4784 1316 L
4943 1278 mt 5015 1278 L
4979 1242 mt 4979 1314 L
5138 1277 mt 5210 1277 L
5174 1241 mt 5174 1313 L
5332 1276 mt 5404 1276 L
5368 1240 mt 5368 1312 L
5527 1277 mt 5599 1277 L
5563 1241 mt 5563 1313 L
5722 1277 mt 5794 1277 L
5758 1241 mt 5758 1313 L
1059 1105 mt 1109 1155 L
1109 1105 mt 1059 1155 L
1253 1148 mt 1303 1198 L
1303 1148 mt 1253 1198 L
1448 1205 mt 1498 1255 L
1498 1205 mt 1448 1255 L
1643 1229 mt 1693 1279 L
1693 1229 mt 1643 1279 L
1838 1243 mt 1888 1293 L
1888 1243 mt 1838 1293 L
2032 1252 mt 2082 1302 L
2082 1252 mt 2032 1302 L
2227 1261 mt 2277 1311 L
2277 1261 mt 2227 1311 L
2422 1261 mt 2472 1311 L
2472 1261 mt 2422 1311 L
2617 1261 mt 2667 1311 L
2667 1261 mt 2617 1311 L
2811 1264 mt 2861 1314 L
2861 1264 mt 2811 1314 L
3006 1263 mt 3056 1313 L
3056 1263 mt 3006 1313 L
3201 1265 mt 3251 1315 L
3251 1265 mt 3201 1315 L
3396 1265 mt 3446 1315 L
3446 1265 mt 3396 1315 L
3590 1265 mt 3640 1315 L
3640 1265 mt 3590 1315 L
3785 1265 mt 3835 1315 L
3835 1265 mt 3785 1315 L
3980 1262 mt 4030 1312 L
4030 1262 mt 3980 1312 L
4175 1260 mt 4225 1310 L
4225 1260 mt 4175 1310 L
4370 1259 mt 4420 1309 L
4420 1259 mt 4370 1309 L
4564 1256 mt 4614 1306 L
4614 1256 mt 4564 1306 L
4759 1255 mt 4809 1305 L
4809 1255 mt 4759 1305 L
4954 1253 mt 5004 1303 L
5004 1253 mt 4954 1303 L
5149 1252 mt 5199 1302 L
5199 1252 mt 5149 1302 L
5343 1251 mt 5393 1301 L
5393 1251 mt 5343 1301 L
5538 1252 mt 5588 1302 L
5588 1252 mt 5538 1302 L
5733 1252 mt 5783 1302 L
5783 1252 mt 5733 1302 L
gs 899 388 5357 4227 rc
gr

36 47 -36 47 -36 -47 36 -47 1084 1678 5 MP
/c12 { 1.000000 0.000000 1.000000 sr} bdef
c12
DP
36 47 -36 47 -36 -47 36 -47 1278 1706 5 MP
DP
36 47 -36 47 -36 -47 36 -47 1473 1758 5 MP
DP
36 47 -36 47 -36 -47 36 -47 1668 1781 5 MP
DP
36 47 -36 47 -36 -47 36 -47 1863 1809 5 MP
DP
36 47 -36 47 -36 -47 36 -47 2057 1828 5 MP
DP
36 47 -36 47 -36 -47 36 -47 2252 1844 5 MP
DP
36 47 -36 47 -36 -47 36 -47 2447 1865 5 MP
DP
36 47 -36 47 -36 -47 36 -47 2642 1886 5 MP
DP
36 47 -36 47 -36 -47 36 -47 2836 1920 5 MP
DP
36 47 -36 47 -36 -47 36 -47 3031 1949 5 MP
DP
36 47 -36 47 -36 -47 36 -47 3226 1977 5 MP
DP
36 47 -36 47 -36 -47 36 -47 3421 2004 5 MP
DP
36 47 -36 47 -36 -47 36 -47 3615 2026 5 MP
DP
36 47 -36 47 -36 -47 36 -47 3810 2049 5 MP
DP
36 47 -36 47 -36 -47 36 -47 4005 2069 5 MP
DP
36 47 -36 47 -36 -47 36 -47 4200 2089 5 MP
DP
36 47 -36 47 -36 -47 36 -47 4395 2108 5 MP
DP
36 47 -36 47 -36 -47 36 -47 4589 2129 5 MP
DP
36 47 -36 47 -36 -47 36 -47 4784 2151 5 MP
DP
36 47 -36 47 -36 -47 36 -47 4979 2164 5 MP
DP
36 47 -36 47 -36 -47 36 -47 5174 2175 5 MP
DP
36 47 -36 47 -36 -47 36 -47 5368 2187 5 MP
DP
36 47 -36 47 -36 -47 36 -47 5563 2201 5 MP
DP
36 47 -36 47 -36 -47 36 -47 5758 2215 5 MP
DP
gs 899 388 5357 4227 rc
gr

0 sg
1048 2541 mt 1120 2541 L
1084 2505 mt 1084 2577 L
1242 2763 mt 1314 2763 L
1278 2727 mt 1278 2799 L
1437 2891 mt 1509 2891 L
1473 2855 mt 1473 2927 L
1632 2910 mt 1704 2910 L
1668 2874 mt 1668 2946 L
1827 3047 mt 1899 3047 L
1863 3011 mt 1863 3083 L
2021 3075 mt 2093 3075 L
2057 3039 mt 2057 3111 L
2216 3182 mt 2288 3182 L
2252 3146 mt 2252 3218 L
2411 3275 mt 2483 3275 L
2447 3239 mt 2447 3311 L
2606 3395 mt 2678 3395 L
2642 3359 mt 2642 3431 L
2800 3512 mt 2872 3512 L
2836 3476 mt 2836 3548 L
2995 3582 mt 3067 3582 L
3031 3546 mt 3031 3618 L
3190 3696 mt 3262 3696 L
3226 3660 mt 3226 3732 L
3385 3769 mt 3457 3769 L
3421 3733 mt 3421 3805 L
3579 3872 mt 3651 3872 L
3615 3836 mt 3615 3908 L
3774 3966 mt 3846 3966 L
3810 3930 mt 3810 4002 L
3969 4016 mt 4041 4016 L
4005 3980 mt 4005 4052 L
4164 4097 mt 4236 4097 L
4200 4061 mt 4200 4133 L
4359 4146 mt 4431 4146 L
4395 4110 mt 4395 4182 L
4553 4220 mt 4625 4220 L
4589 4184 mt 4589 4256 L
4748 4288 mt 4820 4288 L
4784 4252 mt 4784 4324 L
4943 4332 mt 5015 4332 L
4979 4296 mt 4979 4368 L
5138 4399 mt 5210 4399 L
5174 4363 mt 5174 4435 L
5332 4440 mt 5404 4440 L
5368 4404 mt 5368 4476 L
5527 4501 mt 5599 4501 L
5563 4465 mt 5563 4537 L
5722 4558 mt 5794 4558 L
5758 4522 mt 5758 4594 L
gs 899 388 5357 4227 rc
gr

%%IncludeResource: font Helvetica
/Helvetica /ISOLatin1Encoding 120 FMSR

3330 4903 mt 
(Iterations) s
 440 2627 mt  -90 rotate
(R) s
90 rotate
%%IncludeResource: font Helvetica
/Helvetica /ISOLatin1Encoding 96 FMSR

 500 2541 mt  -90 rotate
(T) s
90 rotate
%%IncludeResource: font Helvetica
/Helvetica /ISOLatin1Encoding 120 FMSR

 440 2483 mt  -90 rotate
(/T) s
90 rotate
 882 4657 mt 
( ) s
6239  430 mt 
( ) s
gs 899 388 5357 4227 rc
c8
10 1 10 0 9 0 10 0 10 1 10 0 9 0 10 0 
10 0 10 0 9 1 10 0 10 0 9 0 10 0 10 0 
10 0 9 1 10 -1 10 1 10 0 9 0 10 0 10 0 
10 1 9 0 10 0 10 0 10 0 9 1 10 0 10 0 
10 0 9 0 10 1 10 0 9 0 10 0 10 1 10 0 
9 0 10 1 10 0 10 0 9 0 10 1 10 0 10 0 
9 0 10 1 10 0 10 0 9 1 10 0 10 1 9 0 
10 0 10 0 10 1 9 0 10 0 10 0 10 0 9 1 
10 0 10 0 10 1 9 0 10 0 10 0 10 1 9 0 
10 0 10 0 10 1 9 0 10 0 10 1 9 0 10 1 
10 0 10 0 9 1 10 0 10 0 10 1 9 0 10 1 
10 0 10 0 9 1 10 0 10 0 10 0 9 0 10 1 
10 0 9 1 10 0 10 0 10 1 9 0 10 0 10 1 
10 0 9 0 10 0 10 1 10 1 9 0 10 0 10 0 
10 0 9 1 10 0 10 0 10 0 9 1 10 0 10 1 
9 0 10 1 10 0 10 0 9 0 10 1 10 0 10 0 
9 1 10 1 10 0 10 0 9 1 10 0 10 0 10 1 
9 0 10 1 10 0 9 0 10 1 10 0 10 0 9 1 
10 1 10 0 10 1 9 0 10 0 10 1 10 0 9 1 
10 0 10 0 10 0 9 1 10 0 10 0 10 1 9 0 
10 0 10 1 9 0 10 0 10 1 10 1 9 0 10 1 
10 0 10 0 9 1 10 0 10 0 10 1 9 0 10 1 
10 0 10 0 9 1 10 0 10 1 9 1 10 0 10 1 
10 1 9 0 10 0 10 1 10 0 9 0 10 1 10 0 
10 1 9 1 10 0 10 1 10 0 9 1 10 0 10 1 
10 0 9 0 10 1 10 0 9 1 10 0 10 1 10 0 
9 0 10 1 10 1 10 0 9 1 10 0 10 1 10 1 
9 0 10 1 10 0 10 1 9 1 10 1 10 0 9 0 
10 1 10 0 10 0 9 1 10 1 10 0 10 1 9 1 
10 0 10 0 10 1 9 0 10 1 10 0 10 1 9 0 
10 1 10 0 10 1 9 1 10 1 10 0 9 1 10 0 
10 1 10 1 9 0 10 1 10 1 10 0 9 1 10 0 
10 1 10 1 9 0 10 1 10 0 10 1 9 1 10 0 
10 1 10 0 9 1 10 1 10 0 9 1 10 1 10 1 
10 0 9 1 10 1 10 1 10 1 9 1 10 1 10 1 
10 0 9 1 10 1 10 0 10 1 9 1 10 1 10 0 
9 1 10 1 10 1 10 1 9 0 10 1 10 1 10 1 
9 1 10 1 10 1 2846 1791 300 MP stroke
10 0 9 1 10 1 10 1 10 1 9 1 10 2 10 0 
10 1 9 0 10 2 10 1 9 1 10 1 10 1 10 1 
9 1 10 1 10 1 10 2 9 1 10 1 10 0 10 2 
9 2 10 1 10 2 10 1 9 0 10 2 10 1 9 1 
10 1 10 2 10 1 9 2 10 2 10 1 10 1 9 2 
10 1 10 1 10 1 9 1 10 1 10 2 10 1 9 2 
10 2 10 0 10 3 9 0 10 2 10 1 9 1 10 2 
10 2 10 1 9 2 10 2 10 1 10 1 9 2 10 2 
10 1 10 2 9 1 10 3 10 0 10 3 9 1 10 1 
10 1 9 1 10 1 10 1 10 2 9 2 10 2 10 2 
10 2 9 2 10 2 10 2 10 3 9 2 10 2 10 2 
10 3 9 3 10 2 10 3 10 3 9 3 10 3 10 2 
9 3 10 2 10 3 10 2 9 2 10 3 10 2 10 2 
9 1 10 3 10 3 10 2 9 3 10 3 10 3 10 3 
9 3 10 4 10 1 9 3 10 4 10 3 10 3 9 4 
10 3 10 5 10 5 9 4 10 4 10 6 10 4 9 3 
10 6 10 5 10 6 9 3 10 5 10 4 10 4 9 7 
10 8 10 5 9 5 10 7 10 10 10 4 9 7 10 8 
10 9 10 8 9 9 10 8 10 10 10 9 9 5 10 2 
10 2 10 3 9 3 10 3 10 2 9 1 10 3 10 3 
10 3 9 2 10 1 10 8 10 2 9 3 10 1 10 5 
10 4 9 4 10 2 10 3 10 5 9 4 10 4 10 4 
10 6 9 3 10 0 10 4 9 9 10 3 10 8 10 2 
9 4 10 4 10 7 10 15 9 0 10 14 10 8 10 -6 
9 -3 10 -13 10 -1 10 -23 9 -16 10 -62 10 -126 9 0 
899 1483 201 MP stroke
0 146 1084 1225 2 MP stroke
93 0 1037 1225 2 MP stroke
93 0 1037 1371 2 MP stroke
0 145 1278 1300 2 MP stroke
93 0 1232 1300 2 MP stroke
93 0 1232 1445 2 MP stroke
0 114 1473 1417 2 MP stroke
94 0 1426 1417 2 MP stroke
94 0 1426 1531 2 MP stroke
0 83 1668 1538 2 MP stroke
94 0 1621 1538 2 MP stroke
94 0 1621 1621 2 MP stroke
0 65 1863 1603 2 MP stroke
93 0 1816 1603 2 MP stroke
93 0 1816 1668 2 MP stroke
0 54 2057 1658 2 MP stroke
93 0 2011 1658 2 MP stroke
93 0 2011 1712 2 MP stroke
0 47 2252 1692 2 MP stroke
94 0 2205 1692 2 MP stroke
94 0 2205 1739 2 MP stroke
0 42 2447 1723 2 MP stroke
94 0 2400 1723 2 MP stroke
94 0 2400 1765 2 MP stroke
0 39 2642 1751 2 MP stroke
93 0 2595 1751 2 MP stroke
93 0 2595 1790 2 MP stroke
0 35 2836 1773 2 MP stroke
93 0 2790 1773 2 MP stroke
93 0 2790 1808 2 MP stroke
0 33 3031 1790 2 MP stroke
94 0 2984 1790 2 MP stroke
94 0 2984 1823 2 MP stroke
0 32 3226 1805 2 MP stroke
94 0 3179 1805 2 MP stroke
94 0 3179 1837 2 MP stroke
0 30 3421 1819 2 MP stroke
93 0 3374 1819 2 MP stroke
93 0 3374 1849 2 MP stroke
0 28 3615 1830 2 MP stroke
93 0 3569 1830 2 MP stroke
93 0 3569 1858 2 MP stroke
0 27 3810 1841 2 MP stroke
94 0 3763 1841 2 MP stroke
94 0 3763 1868 2 MP stroke
0 27 4005 1851 2 MP stroke
94 0 3958 1851 2 MP stroke
94 0 3958 1878 2 MP stroke
0 26 4200 1860 2 MP stroke
93 0 4153 1860 2 MP stroke
93 0 4153 1886 2 MP stroke
0 25 4395 1868 2 MP stroke
93 0 4348 1868 2 MP stroke
93 0 4348 1893 2 MP stroke
0 24 4589 1876 2 MP stroke
93 0 4543 1876 2 MP stroke
93 0 4543 1900 2 MP stroke
0 23 4784 1883 2 MP stroke
94 0 4737 1883 2 MP stroke
94 0 4737 1906 2 MP stroke
0 23 4979 1890 2 MP stroke
94 0 4932 1890 2 MP stroke
94 0 4932 1913 2 MP stroke
0 22 5174 1896 2 MP stroke
93 0 5127 1896 2 MP stroke
93 0 5127 1918 2 MP stroke
0 22 5368 1902 2 MP stroke
93 0 5322 1902 2 MP stroke
93 0 5322 1924 2 MP stroke
0 22 5563 1906 2 MP stroke
94 0 5516 1906 2 MP stroke
94 0 5516 1928 2 MP stroke
0 22 5758 1910 2 MP stroke
94 0 5711 1910 2 MP stroke
94 0 5711 1932 2 MP stroke
gr

c8
41 71 -82 0 41 -71 1084 1345 4 MP
DP
41 71 -82 0 41 -71 1278 1419 4 MP
DP
41 71 -82 0 41 -71 1473 1521 4 MP
DP
41 71 -82 0 41 -71 1668 1627 4 MP
DP
41 71 -82 0 41 -71 1863 1683 4 MP
DP
41 71 -82 0 41 -71 2057 1732 4 MP
DP
41 71 -82 0 41 -71 2252 1763 4 MP
DP
41 71 -82 0 41 -71 2447 1791 4 MP
DP
41 71 -82 0 41 -71 2642 1817 4 MP
DP
41 71 -82 0 41 -71 2836 1838 4 MP
DP
41 71 -82 0 41 -71 3031 1853 4 MP
DP
41 71 -82 0 41 -71 3226 1868 4 MP
DP
41 71 -82 0 41 -71 3421 1881 4 MP
DP
41 71 -82 0 41 -71 3615 1891 4 MP
DP
41 71 -82 0 41 -71 3810 1901 4 MP
DP
41 71 -82 0 41 -71 4005 1912 4 MP
DP
41 71 -82 0 41 -71 4200 1920 4 MP
DP
41 71 -82 0 41 -71 4395 1928 4 MP
DP
41 71 -82 0 41 -71 4589 1935 4 MP
DP
41 71 -82 0 41 -71 4784 1942 4 MP
DP
41 71 -82 0 41 -71 4979 1948 4 MP
DP
41 71 -82 0 41 -71 5174 1954 4 MP
DP
41 71 -82 0 41 -71 5368 1960 4 MP
DP
41 71 -82 0 41 -71 5563 1964 4 MP
DP
41 71 -82 0 41 -71 5758 1968 4 MP
DP
gs 899 388 5357 4227 rc
c9
10 0 10 0 9 0 10 1 10 -1 10 0 9 0 10 1 
10 0 10 0 9 0 10 0 10 0 9 0 10 0 10 0 
10 0 9 0 10 0 10 0 10 0 9 0 10 0 10 0 
10 0 9 0 10 0 10 0 10 0 9 0 10 -1 10 0 
10 0 9 1 10 0 10 -1 9 0 10 0 10 0 10 0 
9 1 10 -1 10 0 10 0 9 0 10 1 10 0 10 0 
9 0 10 0 10 0 10 0 9 0 10 0 10 0 9 0 
10 0 10 0 10 0 9 0 10 0 10 0 10 0 9 0 
10 0 10 0 10 0 9 0 10 0 10 0 10 0 9 0 
10 0 10 0 10 0 9 0 10 0 10 0 9 0 10 0 
10 0 10 -1 9 1 10 0 10 0 10 -1 9 0 10 0 
10 0 10 0 9 0 10 0 10 0 10 0 9 0 10 0 
10 0 9 0 10 1 10 -1 10 0 9 0 10 0 10 0 
10 0 9 0 10 0 10 0 10 0 9 0 10 0 10 0 
10 0 9 0 10 0 10 0 10 0 9 0 10 0 10 0 
9 0 10 0 10 0 10 0 9 -1 10 0 10 0 10 0 
9 0 10 0 10 0 10 0 9 0 10 0 10 -1 10 0 
9 0 10 0 10 0 9 0 10 -1 10 0 10 0 9 0 
10 -1 10 0 10 0 9 0 10 0 10 0 10 0 9 0 
10 0 10 0 10 0 9 0 10 0 10 0 10 0 9 0 
10 0 10 -1 9 0 10 1 10 -1 10 0 9 0 10 0 
10 0 10 -1 9 0 10 0 10 0 10 0 9 0 10 0 
10 0 10 0 9 0 10 0 10 0 9 0 10 0 10 -1 
10 0 9 0 10 0 10 0 10 0 9 0 10 0 10 0 
10 0 9 0 10 0 10 0 10 -1 9 0 10 0 10 0 
10 0 9 -1 10 1 10 0 9 -1 10 0 10 0 10 0 
9 0 10 0 10 -1 10 0 9 0 10 0 10 0 10 -1 
9 0 10 0 10 0 10 -1 9 0 10 0 10 -1 9 0 
10 0 10 0 10 0 9 0 10 0 10 -1 10 0 9 0 
10 0 10 0 10 -1 9 0 10 1 10 -1 10 0 9 0 
10 0 10 0 10 0 9 1 10 0 10 -1 9 0 10 0 
10 -1 10 0 9 0 10 0 10 1 10 0 9 -1 10 0 
10 1 10 -1 9 0 10 0 10 0 10 -1 9 0 10 -1 
10 0 10 -1 9 1 10 -1 10 0 9 0 10 0 10 -1 
10 0 9 0 10 0 10 1 10 -1 9 0 10 0 10 -1 
10 0 9 0 10 0 10 0 10 0 9 0 10 -1 10 0 
9 0 10 -1 10 0 10 0 9 -1 10 0 10 0 10 0 
9 -1 10 1 10 0 2846 1584 300 MP stroke
10 -1 9 0 10 0 10 0 10 0 9 -1 10 1 10 -1 
10 0 9 -1 10 -1 10 0 9 0 10 -1 10 0 10 0 
9 0 10 0 10 -1 10 0 9 0 10 0 10 -1 10 1 
9 -1 10 -1 10 0 10 -1 9 0 10 0 10 0 9 -1 
10 0 10 0 10 1 9 -1 10 0 10 -1 10 0 9 0 
10 -1 10 -1 10 0 9 0 10 0 10 0 10 -1 9 0 
10 0 10 -1 10 0 9 0 10 0 10 -1 9 -2 10 0 
10 1 10 -1 9 -1 10 1 10 -1 10 0 9 -1 10 0 
10 0 10 -1 9 1 10 -2 10 0 10 -1 9 0 10 1 
10 0 9 -1 10 -1 10 0 10 0 9 0 10 -1 10 -1 
10 -1 9 0 10 -1 10 -1 10 0 9 0 10 -2 10 0 
10 -1 9 0 10 0 10 0 10 0 9 -2 10 0 10 0 
9 0 10 0 10 0 10 0 9 -2 10 0 10 -1 10 -1 
9 1 10 -2 10 0 10 0 9 -1 10 0 10 -2 10 -2 
9 -1 10 0 10 1 9 -1 10 1 10 -1 10 0 9 -2 
10 -2 10 1 10 -2 9 -1 10 -1 10 -1 10 -2 9 -1 
10 0 10 -2 10 -1 9 -1 10 0 10 1 10 -2 9 -2 
10 0 10 -1 9 0 10 0 10 -2 10 -1 9 1 10 0 
10 -1 10 -1 9 -1 10 -1 10 -2 10 0 9 -1 10 0 
10 0 10 -1 9 -3 10 0 10 -2 9 -2 10 -1 10 -2 
10 -2 9 -5 10 0 10 -2 10 -2 9 -2 10 -2 10 -5 
10 -2 9 -3 10 2 10 2 10 -1 9 -3 10 -3 10 -1 
10 3 9 3 10 1 10 0 9 1 10 -5 10 -8 10 -2 
9 -1 10 -2 10 -8 10 -3 9 12 10 1 10 -10 10 -3 
9 7 10 -10 10 -6 10 15 9 33 10 20 10 21 9 0 
899 1638 201 MP stroke
0 32 1084 1673 2 MP stroke
93 0 1037 1673 2 MP stroke
93 0 1037 1705 2 MP stroke
0 25 1278 1658 2 MP stroke
93 0 1232 1658 2 MP stroke
93 0 1232 1683 2 MP stroke
0 25 1473 1637 2 MP stroke
94 0 1426 1637 2 MP stroke
94 0 1426 1662 2 MP stroke
0 19 1668 1623 2 MP stroke
94 0 1621 1623 2 MP stroke
94 0 1621 1642 2 MP stroke
0 18 1863 1611 2 MP stroke
93 0 1816 1611 2 MP stroke
93 0 1816 1629 2 MP stroke
0 17 2057 1602 2 MP stroke
93 0 2011 1602 2 MP stroke
93 0 2011 1619 2 MP stroke
0 17 2252 1594 2 MP stroke
94 0 2205 1594 2 MP stroke
94 0 2205 1611 2 MP stroke
0 16 2447 1588 2 MP stroke
94 0 2400 1588 2 MP stroke
94 0 2400 1604 2 MP stroke
0 16 2642 1582 2 MP stroke
93 0 2595 1582 2 MP stroke
93 0 2595 1598 2 MP stroke
0 17 2836 1576 2 MP stroke
93 0 2790 1576 2 MP stroke
93 0 2790 1593 2 MP stroke
0 16 3031 1573 2 MP stroke
94 0 2984 1573 2 MP stroke
94 0 2984 1589 2 MP stroke
0 16 3226 1568 2 MP stroke
94 0 3179 1568 2 MP stroke
94 0 3179 1584 2 MP stroke
0 16 3421 1567 2 MP stroke
93 0 3374 1567 2 MP stroke
93 0 3374 1583 2 MP stroke
0 15 3615 1564 2 MP stroke
93 0 3569 1564 2 MP stroke
93 0 3569 1579 2 MP stroke
0 16 3810 1560 2 MP stroke
94 0 3763 1560 2 MP stroke
94 0 3763 1576 2 MP stroke
0 16 4005 1558 2 MP stroke
94 0 3958 1558 2 MP stroke
94 0 3958 1574 2 MP stroke
0 16 4200 1556 2 MP stroke
93 0 4153 1556 2 MP stroke
93 0 4153 1572 2 MP stroke
0 17 4395 1554 2 MP stroke
93 0 4348 1554 2 MP stroke
93 0 4348 1571 2 MP stroke
0 16 4589 1552 2 MP stroke
93 0 4543 1552 2 MP stroke
93 0 4543 1568 2 MP stroke
0 16 4784 1552 2 MP stroke
94 0 4737 1552 2 MP stroke
94 0 4737 1568 2 MP stroke
0 16 4979 1551 2 MP stroke
94 0 4932 1551 2 MP stroke
94 0 4932 1567 2 MP stroke
0 16 5174 1551 2 MP stroke
93 0 5127 1551 2 MP stroke
93 0 5127 1567 2 MP stroke
0 15 5368 1552 2 MP stroke
93 0 5322 1552 2 MP stroke
93 0 5322 1567 2 MP stroke
0 15 5563 1551 2 MP stroke
94 0 5516 1551 2 MP stroke
94 0 5516 1566 2 MP stroke
0 15 5758 1552 2 MP stroke
94 0 5711 1552 2 MP stroke
94 0 5711 1567 2 MP stroke
gr

c9
0 -58 -58 0 0 58 58 0 1055 1660 5 MP
DP
0 -58 -58 0 0 58 58 0 1249 1641 5 MP
DP
0 -58 -58 0 0 58 58 0 1444 1621 5 MP
DP
0 -58 -58 0 0 58 58 0 1639 1604 5 MP
DP
0 -58 -58 0 0 58 58 0 1834 1591 5 MP
DP
0 -58 -58 0 0 58 58 0 2028 1582 5 MP
DP
0 -58 -58 0 0 58 58 0 2223 1574 5 MP
DP
0 -58 -58 0 0 58 58 0 2418 1567 5 MP
DP
0 -58 -58 0 0 58 58 0 2613 1561 5 MP
DP
0 -58 -58 0 0 58 58 0 2807 1556 5 MP
DP
0 -58 -58 0 0 58 58 0 3002 1552 5 MP
DP
0 -58 -58 0 0 58 58 0 3197 1547 5 MP
DP
0 -58 -58 0 0 58 58 0 3392 1546 5 MP
DP
0 -58 -58 0 0 58 58 0 3586 1543 5 MP
DP
0 -58 -58 0 0 58 58 0 3781 1539 5 MP
DP
0 -58 -58 0 0 58 58 0 3976 1537 5 MP
DP
0 -58 -58 0 0 58 58 0 4171 1535 5 MP
DP
0 -58 -58 0 0 58 58 0 4366 1533 5 MP
DP
0 -58 -58 0 0 58 58 0 4560 1531 5 MP
DP
0 -58 -58 0 0 58 58 0 4755 1531 5 MP
DP
0 -58 -58 0 0 58 58 0 4950 1530 5 MP
DP
0 -58 -58 0 0 58 58 0 5145 1530 5 MP
DP
0 -58 -58 0 0 58 58 0 5339 1531 5 MP
DP
0 -58 -58 0 0 58 58 0 5534 1530 5 MP
DP
0 -58 -58 0 0 58 58 0 5729 1531 5 MP
DP
gs 899 388 5357 4227 rc
c10
10 0 10 1 9 0 10 0 10 0 10 0 9 0 10 0 
10 0 10 0 9 0 10 0 10 0 9 0 10 0 10 0 
10 0 9 0 10 0 10 0 10 0 9 0 10 0 10 0 
10 0 9 0 10 0 10 0 10 0 9 0 10 1 10 0 
10 0 9 0 10 0 10 0 9 0 10 0 10 0 10 0 
9 0 10 0 10 0 10 0 9 0 10 0 10 0 10 0 
9 0 10 0 10 1 10 0 9 0 10 0 10 0 9 0 
10 0 10 0 10 0 9 0 10 0 10 0 10 0 9 0 
10 0 10 0 10 0 9 0 10 0 10 0 10 0 9 0 
10 1 10 0 10 0 9 0 10 0 10 0 9 0 10 0 
10 0 10 0 9 0 10 0 10 0 10 1 9 0 10 0 
10 0 10 0 9 0 10 0 10 0 10 0 9 0 10 0 
10 0 9 0 10 0 10 1 10 0 9 0 10 0 10 0 
10 0 9 0 10 0 10 0 10 0 9 0 10 0 10 0 
10 0 9 0 10 0 10 0 10 0 9 0 10 0 10 0 
9 0 10 0 10 0 10 0 9 0 10 0 10 0 10 0 
9 0 10 0 10 0 10 1 9 0 10 0 10 0 10 0 
9 0 10 0 10 0 9 0 10 0 10 0 10 0 9 0 
10 0 10 0 10 0 9 0 10 0 10 1 10 0 9 0 
10 0 10 0 10 0 9 0 10 0 10 0 10 0 9 0 
10 0 10 0 9 0 10 0 10 0 10 0 9 1 10 0 
10 0 10 0 9 0 10 0 10 0 10 0 9 1 10 0 
10 0 10 0 9 0 10 0 10 0 9 0 10 0 10 1 
10 0 9 0 10 0 10 0 10 0 9 0 10 0 10 0 
10 0 9 0 10 0 10 0 10 0 9 0 10 0 10 0 
10 0 9 0 10 0 10 0 9 1 10 0 10 0 10 0 
9 0 10 0 10 1 10 0 9 0 10 0 10 0 10 0 
9 0 10 0 10 0 10 0 9 0 10 1 10 0 9 0 
10 0 10 0 10 0 9 0 10 0 10 0 10 0 9 0 
10 0 10 0 10 0 9 0 10 0 10 0 10 0 9 0 
10 0 10 0 10 1 9 0 10 0 10 0 9 0 10 0 
10 0 10 0 9 0 10 0 10 0 10 0 9 0 10 0 
10 0 10 0 9 1 10 -1 10 1 10 0 9 0 10 0 
10 0 10 0 9 0 10 0 10 0 9 0 10 0 10 0 
10 0 9 0 10 0 10 0 10 1 9 0 10 0 10 0 
10 0 9 0 10 0 10 0 10 0 9 0 10 0 10 0 
9 1 10 0 10 0 10 0 9 0 10 0 10 0 10 0 
9 0 10 0 10 0 2846 430 300 MP stroke
10 0 9 0 10 0 10 0 10 0 9 0 10 1 10 0 
10 0 9 0 10 1 10 0 9 0 10 0 10 0 10 0 
9 0 10 0 10 0 10 0 9 0 10 0 10 0 10 0 
9 1 10 0 10 0 10 0 9 0 10 0 10 0 9 0 
10 0 10 0 10 0 9 1 10 0 10 0 10 0 9 0 
10 0 10 0 10 0 9 0 10 0 10 1 10 0 9 0 
10 0 10 0 10 0 9 0 10 0 10 1 9 -1 10 0 
10 0 10 1 9 0 10 0 10 0 10 0 9 0 10 0 
10 0 10 0 9 0 10 1 10 0 10 0 9 0 10 0 
10 0 9 0 10 0 10 0 10 0 9 0 10 0 10 0 
10 0 9 1 10 0 10 1 10 0 9 0 10 0 10 0 
10 0 9 0 10 1 10 0 10 0 9 0 10 0 10 1 
9 0 10 0 10 0 10 1 9 0 10 0 10 0 10 1 
9 0 10 0 10 0 10 0 9 0 10 0 10 0 10 0 
9 1 10 0 10 0 9 0 10 0 10 0 10 0 9 0 
10 1 10 0 10 1 9 0 10 0 10 0 10 0 9 1 
10 0 10 0 10 1 9 0 10 0 10 1 10 0 9 0 
10 0 10 0 9 -1 10 0 10 1 10 0 9 0 10 1 
10 -1 10 0 9 0 10 1 10 0 10 0 9 0 10 1 
10 0 10 0 9 0 10 0 10 1 9 0 10 1 10 0 
10 0 9 0 10 0 10 0 10 1 9 0 10 0 10 1 
10 -1 9 1 10 0 10 0 10 0 9 1 10 1 10 0 
10 -1 9 2 10 0 10 0 9 0 10 2 10 0 10 0 
9 -1 10 0 10 0 10 0 9 4 10 0 10 0 10 2 
9 -3 10 0 10 1 10 5 9 0 10 1 10 3 9 0 
899 388 201 MP stroke
0 8 1084 398 2 MP stroke
93 0 1037 398 2 MP stroke
93 0 1037 406 2 MP stroke
0 6 1278 404 2 MP stroke
93 0 1232 404 2 MP stroke
93 0 1232 410 2 MP stroke
0 5 1473 409 2 MP stroke
94 0 1426 409 2 MP stroke
94 0 1426 414 2 MP stroke
0 5 1668 413 2 MP stroke
94 0 1621 413 2 MP stroke
94 0 1621 418 2 MP stroke
0 4 1863 416 2 MP stroke
93 0 1816 416 2 MP stroke
93 0 1816 420 2 MP stroke
0 4 2057 421 2 MP stroke
93 0 2011 421 2 MP stroke
93 0 2011 425 2 MP stroke
0 4 2252 422 2 MP stroke
94 0 2205 422 2 MP stroke
94 0 2205 426 2 MP stroke
0 4 2447 424 2 MP stroke
94 0 2400 424 2 MP stroke
94 0 2400 428 2 MP stroke
0 5 2642 425 2 MP stroke
93 0 2595 425 2 MP stroke
93 0 2595 430 2 MP stroke
0 5 2836 427 2 MP stroke
93 0 2790 427 2 MP stroke
93 0 2790 432 2 MP stroke
0 4 3031 429 2 MP stroke
94 0 2984 429 2 MP stroke
94 0 2984 433 2 MP stroke
0 5 3226 430 2 MP stroke
94 0 3179 430 2 MP stroke
94 0 3179 435 2 MP stroke
0 4 3421 432 2 MP stroke
93 0 3374 432 2 MP stroke
93 0 3374 436 2 MP stroke
0 5 3615 432 2 MP stroke
93 0 3569 432 2 MP stroke
93 0 3569 437 2 MP stroke
0 4 3810 435 2 MP stroke
94 0 3763 435 2 MP stroke
94 0 3763 439 2 MP stroke
0 4 4005 436 2 MP stroke
94 0 3958 436 2 MP stroke
94 0 3958 440 2 MP stroke
0 4 4200 438 2 MP stroke
93 0 4153 438 2 MP stroke
93 0 4153 442 2 MP stroke
0 4 4395 439 2 MP stroke
93 0 4348 439 2 MP stroke
93 0 4348 443 2 MP stroke
0 4 4589 440 2 MP stroke
93 0 4543 440 2 MP stroke
93 0 4543 444 2 MP stroke
0 5 4784 440 2 MP stroke
94 0 4737 440 2 MP stroke
94 0 4737 445 2 MP stroke
0 4 4979 442 2 MP stroke
94 0 4932 442 2 MP stroke
94 0 4932 446 2 MP stroke
0 4 5174 443 2 MP stroke
93 0 5127 443 2 MP stroke
93 0 5127 447 2 MP stroke
0 4 5368 444 2 MP stroke
93 0 5322 444 2 MP stroke
93 0 5322 448 2 MP stroke
0 4 5563 445 2 MP stroke
94 0 5516 445 2 MP stroke
94 0 5516 449 2 MP stroke
0 5 5758 445 2 MP stroke
94 0 5711 445 2 MP stroke
94 0 5711 450 2 MP stroke
gr

c10
  36   36 1084  402 FO
  36   36 1278  407 FO
  36   36 1473  411 FO
  36   36 1668  415 FO
  36   36 1863  418 FO
  36   36 2057  423 FO
  36   36 2252  424 FO
  36   36 2447  426 FO
  36   36 2642  428 FO
  36   36 2836  430 FO
  36   36 3031  431 FO
  36   36 3226  433 FO
  36   36 3421  434 FO
  36   36 3615  435 FO
  36   36 3810  437 FO
  36   36 4005  438 FO
  36   36 4200  440 FO
  36   36 4395  441 FO
  36   36 4589  442 FO
  36   36 4784  442 FO
  36   36 4979  444 FO
  36   36 5174  445 FO
  36   36 5368  446 FO
  36   36 5563  447 FO
  36   36 5758  448 FO
gs 899 388 5357 4227 rc
c11
10 0 10 0 9 0 10 0 10 0 10 0 9 0 10 0 
10 0 10 0 9 0 10 0 10 0 9 0 10 1 10 -1 
10 0 9 0 10 0 10 0 10 0 9 0 10 0 10 0 
10 0 9 1 10 -1 10 0 10 0 9 0 10 0 10 0 
10 0 9 0 10 1 10 0 9 0 10 0 10 0 10 0 
9 0 10 0 10 0 10 -1 9 1 10 0 10 0 10 0 
9 0 10 -1 10 0 10 0 9 0 10 0 10 0 9 0 
10 0 10 0 10 0 9 0 10 -1 10 0 10 0 9 0 
10 0 10 0 10 0 9 0 10 0 10 0 10 0 9 0 
10 0 10 0 10 0 9 0 10 0 10 0 9 0 10 0 
10 0 10 0 9 0 10 -1 10 0 10 0 9 0 10 0 
10 0 10 0 9 0 10 0 10 0 10 0 9 0 10 0 
10 0 9 0 10 -1 10 0 10 0 9 0 10 0 10 -1 
10 0 9 0 10 0 10 0 10 0 9 0 10 0 10 0 
10 0 9 0 10 0 10 0 10 0 9 0 10 0 10 0 
9 0 10 0 10 0 10 -1 9 1 10 0 10 -1 10 0 
9 0 10 0 10 0 10 0 9 0 10 -1 10 0 10 -1 
9 0 10 0 10 0 9 0 10 0 10 0 10 0 9 -1 
10 0 10 0 10 0 9 0 10 0 10 0 10 -1 9 0 
10 0 10 0 10 0 9 0 10 0 10 0 10 0 9 1 
10 0 10 0 9 -1 10 0 10 0 10 0 9 0 10 0 
10 0 10 0 9 0 10 0 10 0 10 -1 9 0 10 0 
10 0 10 0 9 0 10 0 10 0 9 -1 10 0 10 1 
10 -1 9 0 10 0 10 0 10 0 9 0 10 0 10 0 
10 -1 9 0 10 0 10 0 10 0 9 0 10 -1 10 0 
10 0 9 0 10 0 10 0 9 0 10 0 10 0 10 0 
9 0 10 0 10 0 10 0 9 0 10 0 10 0 10 0 
9 1 10 0 10 0 10 -1 9 1 10 0 10 0 9 0 
10 0 10 0 10 1 9 0 10 -1 10 0 10 0 9 0 
10 0 10 0 10 0 9 -1 10 0 10 0 10 0 9 0 
10 0 10 0 10 0 9 0 10 0 10 0 9 0 10 0 
10 0 10 0 9 0 10 0 10 0 10 0 9 0 10 0 
10 0 10 0 9 0 10 0 10 0 10 0 9 0 10 0 
10 1 10 0 9 0 10 0 10 0 9 1 10 0 10 0 
10 0 9 0 10 0 10 0 10 0 9 0 10 0 10 0 
10 0 9 0 10 0 10 -1 10 1 9 -1 10 0 10 0 
9 0 10 0 10 0 10 0 9 1 10 -1 10 0 10 0 
9 0 10 0 10 0 2846 1289 300 MP stroke
10 0 9 1 10 0 10 0 10 0 9 1 10 0 10 0 
10 0 9 0 10 0 10 0 9 0 10 0 10 0 10 0 
9 0 10 0 10 1 10 0 9 0 10 0 10 0 10 0 
9 1 10 0 10 0 10 0 9 0 10 0 10 0 9 0 
10 -1 10 0 10 0 9 0 10 -1 10 1 10 0 9 0 
10 0 10 0 10 0 9 -1 10 0 10 0 10 0 9 0 
10 0 10 0 10 1 9 0 10 0 10 1 9 0 10 0 
10 0 10 1 9 -1 10 -1 10 0 10 1 9 0 10 1 
10 0 10 0 9 0 10 1 10 0 10 0 9 0 10 1 
10 1 9 1 10 0 10 1 10 -1 9 1 10 0 10 1 
10 1 9 1 10 0 10 1 10 0 9 0 10 1 10 0 
10 0 9 0 10 1 10 1 10 0 9 1 10 1 10 1 
9 0 10 1 10 0 10 0 9 0 10 2 10 0 10 0 
9 0 10 1 10 1 10 0 9 2 10 0 10 1 10 0 
9 1 10 0 10 1 9 1 10 1 10 -1 10 2 9 1 
10 1 10 1 10 1 9 0 10 1 10 1 10 1 9 0 
10 1 10 1 10 1 9 0 10 0 10 1 10 1 9 2 
10 2 10 2 9 2 10 3 10 3 10 4 9 3 10 2 
10 3 10 3 9 2 10 5 10 6 10 2 9 6 10 4 
10 4 10 4 9 3 10 3 10 -1 9 2 10 0 10 1 
10 1 9 1 10 0 10 2 10 3 9 1 10 0 10 4 
10 0 9 2 10 3 10 3 10 3 9 2 10 3 10 5 
10 1 9 2 10 3 10 1 9 4 10 4 10 8 10 2 
9 5 10 4 10 6 10 2 9 9 10 7 10 14 10 16 
9 -1 10 8 10 9 10 9 9 43 10 21 10 30 9 0 
899 934 201 MP stroke
0 28 1084 1116 2 MP stroke
93 0 1037 1116 2 MP stroke
93 0 1037 1144 2 MP stroke
0 24 1278 1161 2 MP stroke
93 0 1232 1161 2 MP stroke
93 0 1232 1185 2 MP stroke
0 19 1473 1221 2 MP stroke
94 0 1426 1221 2 MP stroke
94 0 1426 1240 2 MP stroke
0 16 1668 1246 2 MP stroke
94 0 1621 1246 2 MP stroke
94 0 1621 1262 2 MP stroke
0 18 1863 1259 2 MP stroke
93 0 1816 1259 2 MP stroke
93 0 1816 1277 2 MP stroke
0 19 2057 1268 2 MP stroke
93 0 2011 1268 2 MP stroke
93 0 2011 1287 2 MP stroke
0 17 2252 1277 2 MP stroke
94 0 2205 1277 2 MP stroke
94 0 2205 1294 2 MP stroke
0 17 2447 1278 2 MP stroke
94 0 2400 1278 2 MP stroke
94 0 2400 1295 2 MP stroke
0 17 2642 1278 2 MP stroke
93 0 2595 1278 2 MP stroke
93 0 2595 1295 2 MP stroke
0 18 2836 1280 2 MP stroke
93 0 2790 1280 2 MP stroke
93 0 2790 1298 2 MP stroke
0 17 3031 1280 2 MP stroke
94 0 2984 1280 2 MP stroke
94 0 2984 1297 2 MP stroke
0 17 3226 1282 2 MP stroke
94 0 3179 1282 2 MP stroke
94 0 3179 1299 2 MP stroke
0 18 3421 1281 2 MP stroke
93 0 3374 1281 2 MP stroke
93 0 3374 1299 2 MP stroke
0 17 3615 1281 2 MP stroke
93 0 3569 1281 2 MP stroke
93 0 3569 1298 2 MP stroke
0 17 3810 1281 2 MP stroke
94 0 3763 1281 2 MP stroke
94 0 3763 1298 2 MP stroke
0 17 4005 1279 2 MP stroke
94 0 3958 1279 2 MP stroke
94 0 3958 1296 2 MP stroke
0 17 4200 1277 2 MP stroke
93 0 4153 1277 2 MP stroke
93 0 4153 1294 2 MP stroke
0 16 4395 1276 2 MP stroke
93 0 4348 1276 2 MP stroke
93 0 4348 1292 2 MP stroke
0 16 4589 1273 2 MP stroke
93 0 4543 1273 2 MP stroke
93 0 4543 1289 2 MP stroke
0 17 4784 1271 2 MP stroke
94 0 4737 1271 2 MP stroke
94 0 4737 1288 2 MP stroke
0 17 4979 1270 2 MP stroke
94 0 4932 1270 2 MP stroke
94 0 4932 1287 2 MP stroke
0 17 5174 1269 2 MP stroke
93 0 5127 1269 2 MP stroke
93 0 5127 1286 2 MP stroke
0 17 5368 1268 2 MP stroke
93 0 5322 1268 2 MP stroke
93 0 5322 1285 2 MP stroke
0 17 5563 1268 2 MP stroke
94 0 5516 1268 2 MP stroke
94 0 5516 1285 2 MP stroke
0 16 5758 1269 2 MP stroke
94 0 5711 1269 2 MP stroke
94 0 5711 1285 2 MP stroke
gr

c11
1048 1130 mt 1120 1130 L
1084 1094 mt 1084 1166 L
1242 1173 mt 1314 1173 L
1278 1137 mt 1278 1209 L
1437 1230 mt 1509 1230 L
1473 1194 mt 1473 1266 L
1632 1254 mt 1704 1254 L
1668 1218 mt 1668 1290 L
1827 1268 mt 1899 1268 L
1863 1232 mt 1863 1304 L
2021 1277 mt 2093 1277 L
2057 1241 mt 2057 1313 L
2216 1286 mt 2288 1286 L
2252 1250 mt 2252 1322 L
2411 1286 mt 2483 1286 L
2447 1250 mt 2447 1322 L
2606 1286 mt 2678 1286 L
2642 1250 mt 2642 1322 L
2800 1289 mt 2872 1289 L
2836 1253 mt 2836 1325 L
2995 1288 mt 3067 1288 L
3031 1252 mt 3031 1324 L
3190 1290 mt 3262 1290 L
3226 1254 mt 3226 1326 L
3385 1290 mt 3457 1290 L
3421 1254 mt 3421 1326 L
3579 1290 mt 3651 1290 L
3615 1254 mt 3615 1326 L
3774 1290 mt 3846 1290 L
3810 1254 mt 3810 1326 L
3969 1287 mt 4041 1287 L
4005 1251 mt 4005 1323 L
4164 1285 mt 4236 1285 L
4200 1249 mt 4200 1321 L
4359 1284 mt 4431 1284 L
4395 1248 mt 4395 1320 L
4553 1281 mt 4625 1281 L
4589 1245 mt 4589 1317 L
4748 1280 mt 4820 1280 L
4784 1244 mt 4784 1316 L
4943 1278 mt 5015 1278 L
4979 1242 mt 4979 1314 L
5138 1277 mt 5210 1277 L
5174 1241 mt 5174 1313 L
5332 1276 mt 5404 1276 L
5368 1240 mt 5368 1312 L
5527 1277 mt 5599 1277 L
5563 1241 mt 5563 1313 L
5722 1277 mt 5794 1277 L
5758 1241 mt 5758 1313 L
1059 1105 mt 1109 1155 L
1109 1105 mt 1059 1155 L
1253 1148 mt 1303 1198 L
1303 1148 mt 1253 1198 L
1448 1205 mt 1498 1255 L
1498 1205 mt 1448 1255 L
1643 1229 mt 1693 1279 L
1693 1229 mt 1643 1279 L
1838 1243 mt 1888 1293 L
1888 1243 mt 1838 1293 L
2032 1252 mt 2082 1302 L
2082 1252 mt 2032 1302 L
2227 1261 mt 2277 1311 L
2277 1261 mt 2227 1311 L
2422 1261 mt 2472 1311 L
2472 1261 mt 2422 1311 L
2617 1261 mt 2667 1311 L
2667 1261 mt 2617 1311 L
2811 1264 mt 2861 1314 L
2861 1264 mt 2811 1314 L
3006 1263 mt 3056 1313 L
3056 1263 mt 3006 1313 L
3201 1265 mt 3251 1315 L
3251 1265 mt 3201 1315 L
3396 1265 mt 3446 1315 L
3446 1265 mt 3396 1315 L
3590 1265 mt 3640 1315 L
3640 1265 mt 3590 1315 L
3785 1265 mt 3835 1315 L
3835 1265 mt 3785 1315 L
3980 1262 mt 4030 1312 L
4030 1262 mt 3980 1312 L
4175 1260 mt 4225 1310 L
4225 1260 mt 4175 1310 L
4370 1259 mt 4420 1309 L
4420 1259 mt 4370 1309 L
4564 1256 mt 4614 1306 L
4614 1256 mt 4564 1306 L
4759 1255 mt 4809 1305 L
4809 1255 mt 4759 1305 L
4954 1253 mt 5004 1303 L
5004 1253 mt 4954 1303 L
5149 1252 mt 5199 1302 L
5199 1252 mt 5149 1302 L
5343 1251 mt 5393 1301 L
5393 1251 mt 5343 1301 L
5538 1252 mt 5588 1302 L
5588 1252 mt 5538 1302 L
5733 1252 mt 5783 1302 L
5783 1252 mt 5733 1302 L
gs 899 388 5357 4227 rc
c12
10 1 10 1 9 0 10 1 10 1 10 0 9 1 10 1 
10 0 10 1 9 1 10 0 10 1 9 1 10 1 10 0 
10 1 9 1 10 1 10 0 10 1 9 1 10 0 10 1 
10 1 9 0 10 1 10 1 10 0 9 1 10 1 10 1 
10 0 9 1 10 1 10 0 9 1 10 1 10 1 10 0 
9 1 10 0 10 1 10 0 9 1 10 0 10 1 10 0 
9 1 10 0 10 1 10 1 9 0 10 1 10 1 9 0 
10 1 10 1 10 0 9 1 10 0 10 1 10 1 9 0 
10 1 10 0 10 1 9 0 10 1 10 0 10 1 9 1 
10 0 10 1 10 0 9 1 10 0 10 1 9 0 10 1 
10 0 10 1 9 1 10 0 10 1 10 1 9 0 10 1 
10 1 10 0 9 1 10 1 10 0 10 1 9 1 10 0 
10 1 9 0 10 1 10 1 10 1 9 1 10 1 10 1 
10 1 9 1 10 1 10 1 10 2 9 1 10 1 10 1 
10 1 9 1 10 1 10 1 10 1 9 2 10 1 10 1 
9 1 10 1 10 1 10 1 9 2 10 1 10 1 10 1 
9 1 10 1 10 1 10 1 9 1 10 1 10 1 10 1 
9 1 10 1 10 1 9 1 10 1 10 1 10 1 9 1 
10 0 10 1 10 1 9 1 10 1 10 1 10 1 9 1 
10 1 10 1 10 1 9 1 10 1 10 1 10 1 9 1 
10 1 10 1 9 1 10 1 10 1 10 1 9 1 10 1 
10 1 10 1 9 1 10 1 10 1 10 1 9 1 10 1 
10 1 10 1 9 1 10 1 10 1 9 1 10 1 10 1 
10 1 9 1 10 1 10 1 10 1 9 1 10 1 10 1 
10 1 9 1 10 1 10 1 10 1 9 1 10 1 10 1 
10 1 9 1 10 2 10 1 9 1 10 2 10 1 10 1 
9 1 10 2 10 1 10 1 9 1 10 1 10 1 10 1 
9 1 10 1 10 1 10 1 9 1 10 1 10 1 9 1 
10 1 10 1 10 1 9 1 10 1 10 2 10 1 9 1 
10 1 10 1 10 1 9 2 10 1 10 1 10 1 9 1 
10 2 10 1 10 1 9 1 10 1 10 1 9 1 10 1 
10 1 10 2 9 1 10 2 10 1 10 2 9 2 10 1 
10 1 10 2 9 1 10 2 10 2 10 1 9 1 10 1 
10 2 10 1 9 2 10 1 10 1 9 2 10 1 10 1 
10 2 9 1 10 2 10 1 10 1 9 2 10 1 10 2 
10 1 9 1 10 2 10 2 10 1 9 2 10 1 10 1 
9 2 10 2 10 1 10 2 9 1 10 2 10 1 10 2 
9 1 10 1 10 1 2846 1875 300 MP stroke
10 2 9 1 10 2 10 1 10 2 9 2 10 2 10 1 
10 2 9 2 10 1 10 2 9 2 10 1 10 2 10 2 
9 2 10 1 10 2 10 2 9 2 10 1 10 2 10 1 
9 1 10 2 10 1 10 0 9 1 10 2 10 1 9 1 
10 1 10 2 10 0 9 1 10 1 10 0 10 1 9 1 
10 1 10 1 10 0 9 0 10 2 10 1 10 1 9 0 
10 2 10 0 10 2 9 1 10 1 10 1 9 1 10 2 
10 2 10 1 9 1 10 1 10 1 10 1 9 0 10 2 
10 1 10 1 9 1 10 1 10 0 10 1 9 0 10 1 
10 1 9 0 10 2 10 1 10 1 9 1 10 0 10 1 
10 0 9 2 10 0 10 1 10 1 9 2 10 1 10 1 
10 1 9 0 10 0 10 2 10 1 9 1 10 1 10 1 
9 1 10 1 10 1 10 1 9 0 10 2 10 1 10 1 
9 2 10 2 10 1 10 1 9 2 10 1 10 2 10 4 
9 1 10 1 10 0 9 1 10 3 10 0 10 1 9 1 
10 1 10 0 10 2 9 2 10 0 10 0 10 1 9 0 
10 2 10 -1 10 2 9 1 10 1 10 2 10 1 9 2 
10 1 10 0 9 2 10 2 10 3 10 2 9 1 10 1 
10 4 10 3 9 2 10 0 10 1 10 2 9 4 10 5 
10 3 10 3 9 5 10 6 10 4 9 2 10 1 10 1 
10 2 9 4 10 2 10 1 10 1 9 2 10 2 10 4 
10 1 9 -3 10 0 10 1 10 1 9 2 10 2 10 0 
10 4 9 4 10 1 10 2 9 -3 10 1 10 -4 10 0 
9 0 10 -8 10 -1 10 6 9 11 10 -7 10 5 10 15 
9 7 10 -3 10 3 10 -8 9 -3 10 32 10 90 9 0 
899 1495 201 MP stroke
0 33 1084 1614 2 MP stroke
93 0 1037 1614 2 MP stroke
93 0 1037 1647 2 MP stroke
0 56 1278 1631 2 MP stroke
93 0 1232 1631 2 MP stroke
93 0 1232 1687 2 MP stroke
0 77 1473 1673 2 MP stroke
94 0 1426 1673 2 MP stroke
94 0 1426 1750 2 MP stroke
0 90 1668 1689 2 MP stroke
94 0 1621 1689 2 MP stroke
94 0 1621 1779 2 MP stroke
0 98 1863 1713 2 MP stroke
93 0 1816 1713 2 MP stroke
93 0 1816 1811 2 MP stroke
0 100 2057 1731 2 MP stroke
93 0 2011 1731 2 MP stroke
93 0 2011 1831 2 MP stroke
0 104 2252 1745 2 MP stroke
94 0 2205 1745 2 MP stroke
94 0 2205 1849 2 MP stroke
0 107 2447 1765 2 MP stroke
94 0 2400 1765 2 MP stroke
94 0 2400 1872 2 MP stroke
0 108 2642 1785 2 MP stroke
93 0 2595 1785 2 MP stroke
93 0 2595 1893 2 MP stroke
0 107 2836 1820 2 MP stroke
93 0 2790 1820 2 MP stroke
93 0 2790 1927 2 MP stroke
0 107 3031 1849 2 MP stroke
94 0 2984 1849 2 MP stroke
94 0 2984 1956 2 MP stroke
0 108 3226 1876 2 MP stroke
94 0 3179 1876 2 MP stroke
94 0 3179 1984 2 MP stroke
0 107 3421 1903 2 MP stroke
93 0 3374 1903 2 MP stroke
93 0 3374 2010 2 MP stroke
0 107 3615 1926 2 MP stroke
93 0 3569 1926 2 MP stroke
93 0 3569 2033 2 MP stroke
0 108 3810 1948 2 MP stroke
94 0 3763 1948 2 MP stroke
94 0 3763 2056 2 MP stroke
0 108 4005 1968 2 MP stroke
94 0 3958 1968 2 MP stroke
94 0 3958 2076 2 MP stroke
0 110 4200 1987 2 MP stroke
93 0 4153 1987 2 MP stroke
93 0 4153 2097 2 MP stroke
0 109 4395 2006 2 MP stroke
93 0 4348 2006 2 MP stroke
93 0 4348 2115 2 MP stroke
0 108 4589 2028 2 MP stroke
93 0 4543 2028 2 MP stroke
93 0 4543 2136 2 MP stroke
0 106 4784 2051 2 MP stroke
94 0 4737 2051 2 MP stroke
94 0 4737 2157 2 MP stroke
0 106 4979 2064 2 MP stroke
94 0 4932 2064 2 MP stroke
94 0 4932 2170 2 MP stroke
0 108 5174 2074 2 MP stroke
93 0 5127 2074 2 MP stroke
93 0 5127 2182 2 MP stroke
0 108 5368 2086 2 MP stroke
93 0 5322 2086 2 MP stroke
93 0 5322 2194 2 MP stroke
0 105 5563 2101 2 MP stroke
94 0 5516 2101 2 MP stroke
94 0 5516 2206 2 MP stroke
0 104 5758 2116 2 MP stroke
94 0 5711 2116 2 MP stroke
94 0 5711 2220 2 MP stroke
gr

c12
36 47 -36 47 -36 -47 36 -47 1084 1678 5 MP
DP
36 47 -36 47 -36 -47 36 -47 1278 1706 5 MP
DP
36 47 -36 47 -36 -47 36 -47 1473 1758 5 MP
DP
36 47 -36 47 -36 -47 36 -47 1668 1781 5 MP
DP
36 47 -36 47 -36 -47 36 -47 1863 1809 5 MP
DP
36 47 -36 47 -36 -47 36 -47 2057 1828 5 MP
DP
36 47 -36 47 -36 -47 36 -47 2252 1844 5 MP
DP
36 47 -36 47 -36 -47 36 -47 2447 1865 5 MP
DP
36 47 -36 47 -36 -47 36 -47 2642 1886 5 MP
DP
36 47 -36 47 -36 -47 36 -47 2836 1920 5 MP
DP
36 47 -36 47 -36 -47 36 -47 3031 1949 5 MP
DP
36 47 -36 47 -36 -47 36 -47 3226 1977 5 MP
DP
36 47 -36 47 -36 -47 36 -47 3421 2004 5 MP
DP
36 47 -36 47 -36 -47 36 -47 3615 2026 5 MP
DP
36 47 -36 47 -36 -47 36 -47 3810 2049 5 MP
DP
36 47 -36 47 -36 -47 36 -47 4005 2069 5 MP
DP
36 47 -36 47 -36 -47 36 -47 4200 2089 5 MP
DP
36 47 -36 47 -36 -47 36 -47 4395 2108 5 MP
DP
36 47 -36 47 -36 -47 36 -47 4589 2129 5 MP
DP
36 47 -36 47 -36 -47 36 -47 4784 2151 5 MP
DP
36 47 -36 47 -36 -47 36 -47 4979 2164 5 MP
DP
36 47 -36 47 -36 -47 36 -47 5174 2175 5 MP
DP
36 47 -36 47 -36 -47 36 -47 5368 2187 5 MP
DP
36 47 -36 47 -36 -47 36 -47 5563 2201 5 MP
DP
36 47 -36 47 -36 -47 36 -47 5758 2215 5 MP
DP
gs 899 388 5357 4227 rc
0 sg
10 3 10 2 9 3 10 3 10 3 10 2 9 3 10 3 
10 3 10 3 9 3 10 2 10 3 9 3 10 3 10 3 
10 3 9 3 10 3 10 3 10 3 9 3 10 3 10 3 
10 3 9 3 10 3 10 3 10 3 9 3 10 3 10 3 
10 3 9 3 10 3 10 4 9 3 10 3 10 3 10 3 
9 3 10 2 10 2 10 2 9 1 10 0 10 -1 10 -1 
9 -2 10 3 10 3 10 4 9 3 10 3 10 3 9 3 
10 3 10 4 10 3 9 3 10 3 10 3 10 4 9 3 
10 3 10 3 10 4 9 3 10 3 10 4 10 3 9 4 
10 3 10 3 10 4 9 3 10 4 10 3 9 3 10 4 
10 3 10 4 9 3 10 4 10 4 10 3 9 3 10 3 
10 4 10 3 9 2 10 3 10 2 10 2 9 1 10 1 
10 0 9 -2 10 -2 10 3 10 3 9 3 10 3 10 4 
10 3 9 3 10 4 10 3 10 4 9 3 10 4 10 3 
10 4 9 3 10 4 10 3 10 4 9 4 10 3 10 3 
9 4 10 3 10 4 10 3 9 4 10 3 10 4 10 4 
9 3 10 4 10 4 10 4 9 4 10 3 10 4 10 4 
9 4 10 4 10 3 9 4 10 3 10 2 10 2 9 2 
10 2 10 0 10 -1 9 -1 10 -2 10 3 10 4 9 4 
10 4 10 4 10 4 9 4 10 4 10 4 10 3 9 4 
10 4 10 4 9 4 10 4 10 4 10 4 9 4 10 4 
10 3 10 4 9 4 10 4 10 5 10 4 9 4 10 4 
10 4 10 4 9 5 10 4 10 4 9 4 10 5 10 4 
10 3 9 4 10 3 10 3 10 3 9 3 10 3 10 2 
10 3 9 2 10 2 10 0 10 0 9 0 10 -2 10 4 
10 4 9 4 10 5 10 4 9 4 10 5 10 4 10 5 
9 5 10 5 10 4 10 5 9 5 10 5 10 5 10 5 
9 5 10 5 10 5 10 5 9 5 10 5 10 5 9 5 
10 5 10 5 10 5 9 5 10 5 10 6 10 5 9 5 
10 5 10 5 10 6 9 6 10 5 10 5 10 5 9 5 
10 4 10 4 10 4 9 2 10 2 10 2 9 0 10 -1 
10 -2 10 5 9 5 10 5 10 5 10 5 9 6 10 5 
10 6 10 5 9 6 10 5 10 5 10 6 9 6 10 5 
10 5 10 6 9 6 10 6 10 5 9 5 10 6 10 6 
10 5 9 6 10 6 10 6 10 6 9 6 10 6 10 6 
10 5 9 6 10 5 10 5 10 6 9 5 10 6 10 4 
9 5 10 5 10 5 10 4 9 3 10 2 10 2 10 0 
9 0 10 -2 10 -2 2846 3518 300 MP stroke
10 6 9 5 10 6 10 5 10 6 9 5 10 5 10 5 
10 6 9 6 10 5 10 6 9 6 10 6 10 6 10 6 
9 6 10 6 10 7 10 7 9 7 10 5 10 7 10 6 
9 7 10 7 10 7 10 7 9 7 10 7 10 6 9 6 
10 6 10 6 10 5 9 6 10 5 10 5 10 5 9 5 
10 5 10 4 10 4 9 2 10 2 10 2 10 3 9 0 
10 -1 10 -2 10 7 9 8 10 7 10 8 9 7 10 7 
10 6 10 7 9 7 10 7 10 8 10 6 9 7 10 8 
10 7 10 6 9 7 10 5 10 5 10 5 9 6 10 5 
10 5 9 6 10 5 10 6 10 4 9 4 10 3 10 4 
10 3 9 3 10 3 10 3 10 2 9 2 10 2 10 2 
10 1 9 2 10 2 10 2 10 3 9 2 10 1 10 -1 
9 0 10 -1 10 -2 10 -6 9 8 10 9 10 8 10 9 
9 8 10 8 10 7 10 8 9 7 10 8 10 5 10 7 
9 6 10 7 10 5 9 5 10 6 10 7 10 7 9 7 
10 3 10 5 10 4 9 3 10 3 10 2 10 4 9 1 
10 1 10 0 10 0 9 1 10 0 10 0 10 2 9 -1 
10 -2 10 1 9 -4 10 0 10 -1 10 -4 9 -1 10 0 
10 0 10 -3 9 -4 10 -3 10 -4 10 -9 9 16 10 14 
10 15 10 14 9 15 10 16 10 15 9 12 10 14 10 15 
10 10 9 12 10 13 10 12 10 12 9 15 10 12 10 10 
10 8 9 13 10 7 10 13 10 9 9 13 10 11 10 14 
10 9 9 10 10 9 10 10 9 10 10 15 10 15 10 15 
9 11 10 12 10 10 10 6 9 22 10 15 10 18 10 22 
9 28 10 34 10 19 10 78 9 108 10 149 10 71 9 0 
899 1893 201 MP stroke
0 90 1084 2496 2 MP stroke
93 0 1037 2496 2 MP stroke
93 0 1037 2586 2 MP stroke
0 134 1278 2696 2 MP stroke
93 0 1232 2696 2 MP stroke
93 0 1232 2830 2 MP stroke
0 125 1473 2829 2 MP stroke
94 0 1426 2829 2 MP stroke
94 0 1426 2954 2 MP stroke
0 124 1668 2848 2 MP stroke
94 0 1621 2848 2 MP stroke
94 0 1621 2972 2 MP stroke
0 142 1863 2976 2 MP stroke
93 0 1816 2976 2 MP stroke
93 0 1816 3118 2 MP stroke
0 145 2057 3003 2 MP stroke
93 0 2011 3003 2 MP stroke
93 0 2011 3148 2 MP stroke
0 160 2252 3103 2 MP stroke
94 0 2205 3103 2 MP stroke
94 0 2205 3263 2 MP stroke
0 156 2447 3197 2 MP stroke
94 0 2400 3197 2 MP stroke
94 0 2400 3353 2 MP stroke
0 157 2642 3317 2 MP stroke
93 0 2595 3317 2 MP stroke
93 0 2595 3474 2 MP stroke
0 157 2836 3434 2 MP stroke
93 0 2790 3434 2 MP stroke
93 0 2790 3591 2 MP stroke
0 145 3031 3510 2 MP stroke
94 0 2984 3510 2 MP stroke
94 0 2984 3655 2 MP stroke
0 137 3226 3628 2 MP stroke
94 0 3179 3628 2 MP stroke
94 0 3179 3765 2 MP stroke
0 131 3421 3704 2 MP stroke
93 0 3374 3704 2 MP stroke
93 0 3374 3835 2 MP stroke
0 127 3615 3809 2 MP stroke
93 0 3569 3809 2 MP stroke
93 0 3569 3936 2 MP stroke
0 124 3810 3904 2 MP stroke
94 0 3763 3904 2 MP stroke
94 0 3763 4028 2 MP stroke
0 119 4005 3957 2 MP stroke
94 0 3958 3957 2 MP stroke
94 0 3958 4076 2 MP stroke
0 118 4200 4038 2 MP stroke
93 0 4153 4038 2 MP stroke
93 0 4153 4156 2 MP stroke
0 116 4395 4088 2 MP stroke
93 0 4348 4088 2 MP stroke
93 0 4348 4204 2 MP stroke
0 116 4589 4162 2 MP stroke
93 0 4543 4162 2 MP stroke
93 0 4543 4278 2 MP stroke
0 116 4784 4230 2 MP stroke
94 0 4737 4230 2 MP stroke
94 0 4737 4346 2 MP stroke
0 114 4979 4275 2 MP stroke
94 0 4932 4275 2 MP stroke
94 0 4932 4389 2 MP stroke
0 114 5174 4342 2 MP stroke
93 0 5127 4342 2 MP stroke
93 0 5127 4456 2 MP stroke
0 113 5368 4384 2 MP stroke
93 0 5322 4384 2 MP stroke
93 0 5322 4497 2 MP stroke
0 112 5563 4445 2 MP stroke
94 0 5516 4445 2 MP stroke
94 0 5516 4557 2 MP stroke
0 112 5758 4502 2 MP stroke
94 0 5711 4502 2 MP stroke
94 0 5711 4614 2 MP stroke
gr

0 sg
1048 2541 mt 1120 2541 L
1084 2505 mt 1084 2577 L
1242 2763 mt 1314 2763 L
1278 2727 mt 1278 2799 L
1437 2891 mt 1509 2891 L
1473 2855 mt 1473 2927 L
1632 2910 mt 1704 2910 L
1668 2874 mt 1668 2946 L
1827 3047 mt 1899 3047 L
1863 3011 mt 1863 3083 L
2021 3075 mt 2093 3075 L
2057 3039 mt 2057 3111 L
2216 3182 mt 2288 3182 L
2252 3146 mt 2252 3218 L
2411 3275 mt 2483 3275 L
2447 3239 mt 2447 3311 L
2606 3395 mt 2678 3395 L
2642 3359 mt 2642 3431 L
2800 3512 mt 2872 3512 L
2836 3476 mt 2836 3548 L
2995 3582 mt 3067 3582 L
3031 3546 mt 3031 3618 L
3190 3696 mt 3262 3696 L
3226 3660 mt 3226 3732 L
3385 3769 mt 3457 3769 L
3421 3733 mt 3421 3805 L
3579 3872 mt 3651 3872 L
3615 3836 mt 3615 3908 L
3774 3966 mt 3846 3966 L
3810 3930 mt 3810 4002 L
3969 4016 mt 4041 4016 L
4005 3980 mt 4005 4052 L
4164 4097 mt 4236 4097 L
4200 4061 mt 4200 4133 L
4359 4146 mt 4431 4146 L
4395 4110 mt 4395 4182 L
4553 4220 mt 4625 4220 L
4589 4184 mt 4589 4256 L
4748 4288 mt 4820 4288 L
4784 4252 mt 4784 4324 L
4943 4332 mt 5015 4332 L
4979 4296 mt 4979 4368 L
5138 4399 mt 5210 4399 L
5174 4363 mt 5174 4435 L
5332 4440 mt 5404 4440 L
5368 4404 mt 5368 4476 L
5527 4501 mt 5599 4501 L
5563 4465 mt 5563 4537 L
5722 4558 mt 5794 4558 L
5758 4522 mt 5758 4594 L
gs 899 388 5357 4227 rc
gr

1 sg
0 918 1538 0 0 -918 4658 1366 4 MP
PP
-1538 0 0 918 1538 0 0 -918 4658 1366 5 MP stroke
4 w
DO
SO
6 w
0 sg
4658 1366 mt 6196 1366 L
4658  448 mt 6196  448 L
4658 1366 mt 4658  448 L
6196 1366 mt 6196  448 L
4658 1366 mt 6196 1366 L
4658 1366 mt 4658  448 L
4658 1366 mt 6196 1366 L
4658  448 mt 6196  448 L
4658 1366 mt 4658  448 L
6196 1366 mt 6196  448 L
5125  580 mt 
(original BO) s
gs 4658 448 1539 919 rc
gs 4836 464 147 147 rc
41 71 -82 0 41 -71 4909 584 4 MP
c8
DP
gr

c8
gr

c8
0 sg
5125  728 mt 
(random basis) s
gs 4658 448 1539 919 rc
gs 4836 612 147 147 rc
0 -58 -58 0 0 58 58 0 4880 656 5 MP
c9
DP
gr

c9
gr

c9
0 sg
5125  876 mt 
(random embedding) s
gs 4658 448 1539 919 rc
gs 4836 760 147 147 rc
c10
  36   36 4909  833 FO
gr

c10
gr

c10
0 sg
5125 1023 mt 
(subpsace learning) s
gs 4658 448 1539 919 rc
gs 4836 907 147 147 rc
c11
4873  980 mt 4945  980 L
4909  944 mt 4909 1016 L
4884  955 mt 4934 1005 L
4934  955 mt 4884 1005 L
gr

c11
gr

c11
0 sg
5125 1171 mt 
(additive model) s
gs 4658 448 1539 919 rc
gs 4836 1055 147 147 rc
36 47 -36 47 -36 -47 36 -47 4909 1175 5 MP
c12
DP
gr

c12
gr

c12
0 sg
5125 1319 mt 
(anova ve) s
gs 4658 448 1539 919 rc
gs 4836 1203 147 147 rc
4873 1276 mt 4945 1276 L
4909 1240 mt 4909 1312 L
gr

gr


end %%Color Dict

eplot
%%EndObject

epage
end

showpage

%%Trailer
%%EOF
