%!PS-Adobe-3.0 EPSF-3.0
%%Creator: MATLAB, The MathWorks, Inc. Version 7.12.0.635 (R2011a). Operating System: Linux 3.16.0-4-amd64 #1 SMP Debian 3.16.7-ckt20-1+deb8u3 (2016-01-17) x86_64.
%%Title: /home/jaemin/Research/codes_MATSIM/HIGHDIM_BO_MATSIM/results/logsumSE2/logsumSE2_simple_regret_50.eps
%%CreationDate: 05/22/2016  22:34:41
%%DocumentNeededFonts: Helvetica
%%DocumentProcessColors: Cyan Magenta Yellow Black
%%LanguageLevel: 2
%%Pages: 1
%%BoundingBox:    51   199   546   591
%%EndComments

%%BeginProlog
% MathWorks dictionary
/MathWorks 160 dict begin
% definition operators
/bdef {bind def} bind def
/ldef {load def} bind def
/xdef {exch def} bdef
/xstore {exch store} bdef
% operator abbreviations
/c  /clip ldef
/cc /concat ldef
/cp /closepath ldef
/gr /grestore ldef
/gs /gsave ldef
/mt /moveto ldef
/np /newpath ldef
/cm /currentmatrix ldef
/sm /setmatrix ldef
/rm /rmoveto ldef
/rl /rlineto ldef
/s {show newpath} bdef
/sc {setcmykcolor} bdef
/sr /setrgbcolor ldef
/sg /setgray ldef
/w /setlinewidth ldef
/j /setlinejoin ldef
/cap /setlinecap ldef
/rc {rectclip} bdef
/rf {rectfill} bdef
% page state control
/pgsv () def
/bpage {/pgsv save def} bdef
/epage {pgsv restore} bdef
/bplot /gsave ldef
/eplot {stroke grestore} bdef
% orientation switch
/portraitMode 0 def /landscapeMode 1 def /rotateMode 2 def
% coordinate system mappings
/dpi2point 0 def
% font control
/FontSize 0 def
/FMS {/FontSize xstore findfont [FontSize 0 0 FontSize neg 0 0]
  makefont setfont} bdef
/reencode {exch dup where {pop load} {pop StandardEncoding} ifelse
  exch dup 3 1 roll findfont dup length dict begin
  { 1 index /FID ne {def}{pop pop} ifelse } forall
  /Encoding exch def currentdict end definefont pop} bdef
/isroman {findfont /CharStrings get /Agrave known} bdef
/FMSR {3 1 roll 1 index dup isroman {reencode} {pop pop} ifelse
  exch FMS} bdef
/csm {1 dpi2point div -1 dpi2point div scale neg translate
 dup landscapeMode eq {pop -90 rotate}
  {rotateMode eq {90 rotate} if} ifelse} bdef
% line types: solid, dotted, dashed, dotdash
/SO { [] 0 setdash } bdef
/DO { [.5 dpi2point mul 4 dpi2point mul] 0 setdash } bdef
/DA { [6 dpi2point mul] 0 setdash } bdef
/DD { [.5 dpi2point mul 4 dpi2point mul 6 dpi2point mul 4
  dpi2point mul] 0 setdash } bdef
% macros for lines and objects
/L {lineto stroke} bdef
/MP {3 1 roll moveto 1 sub {rlineto} repeat} bdef
/AP {{rlineto} repeat} bdef
/PDlw -1 def
/W {/PDlw currentlinewidth def setlinewidth} def
/PP {closepath eofill} bdef
/DP {closepath stroke} bdef
/MR {4 -2 roll moveto dup  0 exch rlineto exch 0 rlineto
  neg 0 exch rlineto closepath} bdef
/FR {MR stroke} bdef
/PR {MR fill} bdef
/L1i {{currentfile picstr readhexstring pop} image} bdef
/tMatrix matrix def
/MakeOval {newpath tMatrix currentmatrix pop translate scale
0 0 1 0 360 arc tMatrix setmatrix} bdef
/FO {MakeOval stroke} bdef
/PO {MakeOval fill} bdef
/PD {currentlinewidth 2 div 0 360 arc fill
   PDlw -1 eq not {PDlw w /PDlw -1 def} if} def
/FA {newpath tMatrix currentmatrix pop translate scale
  0 0 1 5 -2 roll arc tMatrix setmatrix stroke} bdef
/PA {newpath tMatrix currentmatrix pop	translate 0 0 moveto scale
  0 0 1 5 -2 roll arc closepath tMatrix setmatrix fill} bdef
/FAn {newpath tMatrix currentmatrix pop translate scale
  0 0 1 5 -2 roll arcn tMatrix setmatrix stroke} bdef
/PAn {newpath tMatrix currentmatrix pop translate 0 0 moveto scale
  0 0 1 5 -2 roll arcn closepath tMatrix setmatrix fill} bdef
/vradius 0 def /hradius 0 def /lry 0 def
/lrx 0 def /uly 0 def /ulx 0 def /rad 0 def
/MRR {/vradius xdef /hradius xdef /lry xdef /lrx xdef /uly xdef
  /ulx xdef newpath tMatrix currentmatrix pop ulx hradius add uly
  vradius add translate hradius vradius scale 0 0 1 180 270 arc 
  tMatrix setmatrix lrx hradius sub uly vradius add translate
  hradius vradius scale 0 0 1 270 360 arc tMatrix setmatrix
  lrx hradius sub lry vradius sub translate hradius vradius scale
  0 0 1 0 90 arc tMatrix setmatrix ulx hradius add lry vradius sub
  translate hradius vradius scale 0 0 1 90 180 arc tMatrix setmatrix
  closepath} bdef
/FRR {MRR stroke } bdef
/PRR {MRR fill } bdef
/MlrRR {/lry xdef /lrx xdef /uly xdef /ulx xdef /rad lry uly sub 2 div def
  newpath tMatrix currentmatrix pop ulx rad add uly rad add translate
  rad rad scale 0 0 1 90 270 arc tMatrix setmatrix lrx rad sub lry rad
  sub translate rad rad scale 0 0 1 270 90 arc tMatrix setmatrix
  closepath} bdef
/FlrRR {MlrRR stroke } bdef
/PlrRR {MlrRR fill } bdef
/MtbRR {/lry xdef /lrx xdef /uly xdef /ulx xdef /rad lrx ulx sub 2 div def
  newpath tMatrix currentmatrix pop ulx rad add uly rad add translate
  rad rad scale 0 0 1 180 360 arc tMatrix setmatrix lrx rad sub lry rad
  sub translate rad rad scale 0 0 1 0 180 arc tMatrix setmatrix
  closepath} bdef
/FtbRR {MtbRR stroke } bdef
/PtbRR {MtbRR fill } bdef
/stri 6 array def /dtri 6 array def
/smat 6 array def /dmat 6 array def
/tmat1 6 array def /tmat2 6 array def /dif 3 array def
/asub {/ind2 exch def /ind1 exch def dup dup
  ind1 get exch ind2 get sub exch } bdef
/tri_to_matrix {
  2 0 asub 3 1 asub 4 0 asub 5 1 asub
  dup 0 get exch 1 get 7 -1 roll astore } bdef
/compute_transform {
  dmat dtri tri_to_matrix tmat1 invertmatrix 
  smat stri tri_to_matrix tmat2 concatmatrix } bdef
/ds {stri astore pop} bdef
/dt {dtri astore pop} bdef
/db {2 copy /cols xdef /rows xdef mul dup 3 mul string
  currentfile 
  3 index 0 eq {/ASCIIHexDecode filter}
  {/ASCII85Decode filter 3 index 2 eq {/RunLengthDecode filter} if }
  ifelse exch readstring pop
  dup 0 3 index getinterval /rbmap xdef
  dup 2 index dup getinterval /gbmap xdef
  1 index dup 2 mul exch getinterval /bbmap xdef pop pop}bdef
/it {gs np dtri aload pop moveto lineto lineto cp c
  cols rows 8 compute_transform 
  rbmap gbmap bbmap true 3 colorimage gr}bdef
/il {newpath moveto lineto stroke}bdef
currentdict end def
%%EndProlog

%%BeginSetup
MathWorks begin

0 cap

end
%%EndSetup

%%Page: 1 1
%%BeginPageSetup
%%PageBoundingBox:    51   199   546   591
MathWorks begin
bpage
%%EndPageSetup

%%BeginObject: obj1
bplot

/dpi2point 12 def
portraitMode 0216 7344 csm

  402   247  5943  4708 rc
88 dict begin %Colortable dictionary
/c0 { 0.000000 0.000000 0.000000 sr} bdef
/c1 { 1.000000 1.000000 1.000000 sr} bdef
/c2 { 0.900000 0.000000 0.000000 sr} bdef
/c3 { 0.000000 0.820000 0.000000 sr} bdef
/c4 { 0.000000 0.000000 0.800000 sr} bdef
/c5 { 0.910000 0.820000 0.320000 sr} bdef
/c6 { 1.000000 0.260000 0.820000 sr} bdef
/c7 { 0.000000 0.820000 0.820000 sr} bdef
c0
1 j
1 sg
   0    0 6913 5186 rf
6 w
0 4226 5356 0 0 -4226 899 4615 4 MP
PP
-5356 0 0 4226 5356 0 0 -4226 899 4615 5 MP stroke
4 w
DO
SO
6 w
0 sg
 899 4615 mt 6255 4615 L
 899  389 mt 6255  389 L
 899 4615 mt  899  389 L
6255 4615 mt 6255  389 L
 899 4615 mt 6255 4615 L
 899 4615 mt  899  389 L
 899 4615 mt  899 4561 L
 899  389 mt  899  442 L
%%IncludeResource: font Helvetica
/Helvetica /ISOLatin1Encoding 120 FMSR

 866 4760 mt 
(0) s
1385 4615 mt 1385 4561 L
1385  389 mt 1385  442 L
1319 4760 mt 
(50) s
1872 4615 mt 1872 4561 L
1872  389 mt 1872  442 L
1772 4760 mt 
(100) s
2359 4615 mt 2359 4561 L
2359  389 mt 2359  442 L
2259 4760 mt 
(150) s
2846 4615 mt 2846 4561 L
2846  389 mt 2846  442 L
2746 4760 mt 
(200) s
3333 4615 mt 3333 4561 L
3333  389 mt 3333  442 L
3233 4760 mt 
(250) s
3820 4615 mt 3820 4561 L
3820  389 mt 3820  442 L
3720 4760 mt 
(300) s
4307 4615 mt 4307 4561 L
4307  389 mt 4307  442 L
4207 4760 mt 
(350) s
4794 4615 mt 4794 4561 L
4794  389 mt 4794  442 L
4694 4760 mt 
(400) s
5281 4615 mt 5281 4561 L
5281  389 mt 5281  442 L
5181 4760 mt 
(450) s
5768 4615 mt 5768 4561 L
5768  389 mt 5768  442 L
5668 4760 mt 
(500) s
 899 4615 mt  899 4615 L
 899 4615 mt  899 4615 L
 899 4615 mt  899 4615 L
 899 4615 mt  899 4615 L
 899 4615 mt  899 4615 L
 899 4615 mt  899 4615 L
 899 4615 mt  899 4615 L
 899 4615 mt  899 4615 L
 899 4615 mt  899 4615 L
 899 4615 mt  899 4615 L
 899 4615 mt  899 4615 L
 899 4615 mt  899 4615 L
 899 4615 mt  899 4615 L
 899 4615 mt  899 4615 L
 899 4615 mt  899 4615 L
 899 4615 mt  899 4615 L
 899 4615 mt  899 4615 L
 899 4615 mt  899 4615 L
 899 3541 mt  952 3541 L
6255 3541 mt 6201 3541 L
 620 3585 mt 
(10) s
%%IncludeResource: font Helvetica
/Helvetica /ISOLatin1Encoding 80 FMSR

 753 3511 mt 
(0.2) s
 899 4615 mt  899 4615 L
 899 4615 mt  899 4615 L
 899 4615 mt  899 4615 L
 899 4615 mt  899 4615 L
 899 4615 mt  899 4615 L
 899 4615 mt  899 4615 L
 899 4615 mt  899 4615 L
 899 4615 mt  899 4615 L
 899 4615 mt  899 4615 L
 899 4615 mt  899 4615 L
 899 4615 mt  899 4615 L
 899 4615 mt  899 4615 L
 899 4615 mt  899 4615 L
 899 4615 mt  899 4615 L
 899 4615 mt  899 4615 L
 899 4615 mt  899 4615 L
 899 4615 mt  899 4615 L
 899 4615 mt  899 4615 L
 899  929 mt  952  929 L
6255  929 mt 6201  929 L
%%IncludeResource: font Helvetica
/Helvetica /ISOLatin1Encoding 120 FMSR

 620  973 mt 
(10) s
%%IncludeResource: font Helvetica
/Helvetica /ISOLatin1Encoding 80 FMSR

 753  899 mt 
(0.3) s
 899 4615 mt  899 4615 L
 899 4615 mt  899 4615 L
 899 4615 mt  899 4615 L
 899 4615 mt  899 4615 L
 899 4615 mt  899 4615 L
 899 4615 mt  899 4615 L
 899 4615 mt  899 4615 L
 899 4615 mt  899 4615 L
 899 4615 mt  899 4615 L
 899 4615 mt  899 4615 L
 899 4615 mt  899 4615 L
 899 4615 mt  899 4615 L
 899 4615 mt  899 4615 L
 899 4615 mt  899 4615 L
 899 4615 mt  899 4615 L
 899 4615 mt  899 4615 L
 899 4615 mt  899 4615 L
 899 4615 mt  899 4615 L
 899 4615 mt 6255 4615 L
 899  389 mt 6255  389 L
 899 4615 mt  899  389 L
6255 4615 mt 6255  389 L
gs 899 389 5357 4227 rc
gr

0 j
41 71 -82 0 41 -71 1084 1910 4 MP
/c8 { 0.000000 1.000000 0.000000 sr} bdef
c8
DP
41 71 -82 0 41 -71 1278 1927 4 MP
DP
41 71 -82 0 41 -71 1473 1930 4 MP
DP
41 71 -82 0 41 -71 1668 1960 4 MP
DP
41 71 -82 0 41 -71 1863 1982 4 MP
DP
41 71 -82 0 41 -71 2057 1993 4 MP
DP
41 71 -82 0 41 -71 2252 1994 4 MP
DP
41 71 -82 0 41 -71 2447 1995 4 MP
DP
41 71 -82 0 41 -71 2642 1995 4 MP
DP
41 71 -82 0 41 -71 2836 1999 4 MP
DP
41 71 -82 0 41 -71 3031 2041 4 MP
DP
41 71 -82 0 41 -71 3226 2060 4 MP
DP
41 71 -82 0 41 -71 3421 2070 4 MP
DP
41 71 -82 0 41 -71 3615 2087 4 MP
DP
41 71 -82 0 41 -71 3810 2087 4 MP
DP
41 71 -82 0 41 -71 4005 2087 4 MP
DP
41 71 -82 0 41 -71 4200 2101 4 MP
DP
41 71 -82 0 41 -71 4395 2101 4 MP
DP
41 71 -82 0 41 -71 4589 2101 4 MP
DP
41 71 -82 0 41 -71 4784 2101 4 MP
DP
41 71 -82 0 41 -71 4979 2127 4 MP
DP
41 71 -82 0 41 -71 5174 2130 4 MP
DP
41 71 -82 0 41 -71 5368 2137 4 MP
DP
41 71 -82 0 41 -71 5563 2143 4 MP
DP
41 71 -82 0 41 -71 5758 2144 4 MP
DP
gs 899 389 5357 4227 rc
gr

0 -58 -58 0 0 58 58 0 1055 1433 5 MP
/c9 { 1.000000 0.000000 0.000000 sr} bdef
c9
DP
0 -58 -58 0 0 58 58 0 1249 1500 5 MP
DP
0 -58 -58 0 0 58 58 0 1444 1570 5 MP
DP
0 -58 -58 0 0 58 58 0 1639 1581 5 MP
DP
0 -58 -58 0 0 58 58 0 1834 1606 5 MP
DP
0 -58 -58 0 0 58 58 0 2028 1648 5 MP
DP
0 -58 -58 0 0 58 58 0 2223 1667 5 MP
DP
0 -58 -58 0 0 58 58 0 2418 1677 5 MP
DP
0 -58 -58 0 0 58 58 0 2613 1677 5 MP
DP
0 -58 -58 0 0 58 58 0 2807 1677 5 MP
DP
0 -58 -58 0 0 58 58 0 3002 1678 5 MP
DP
0 -58 -58 0 0 58 58 0 3197 1687 5 MP
DP
0 -58 -58 0 0 58 58 0 3392 1712 5 MP
DP
0 -58 -58 0 0 58 58 0 3586 1718 5 MP
DP
0 -58 -58 0 0 58 58 0 3781 1720 5 MP
DP
0 -58 -58 0 0 58 58 0 3976 1729 5 MP
DP
0 -58 -58 0 0 58 58 0 4171 1754 5 MP
DP
0 -58 -58 0 0 58 58 0 4366 1754 5 MP
DP
0 -58 -58 0 0 58 58 0 4560 1755 5 MP
DP
0 -58 -58 0 0 58 58 0 4755 1755 5 MP
DP
0 -58 -58 0 0 58 58 0 4950 1769 5 MP
DP
0 -58 -58 0 0 58 58 0 5145 1779 5 MP
DP
0 -58 -58 0 0 58 58 0 5339 1780 5 MP
DP
0 -58 -58 0 0 58 58 0 5534 1817 5 MP
DP
0 -58 -58 0 0 58 58 0 5729 1828 5 MP
DP
gs 899 389 5357 4227 rc
gr

/c10 { 0.000000 1.000000 1.000000 sr} bdef
c10
  36   36 1084  438 FO
  36   36 1278  442 FO
  36   36 1473  442 FO
  36   36 1668  444 FO
  36   36 1863  446 FO
  36   36 2057  453 FO
  36   36 2252  453 FO
  36   36 2447  453 FO
  36   36 2642  453 FO
  36   36 2836  455 FO
  36   36 3031  471 FO
  36   36 3226  471 FO
  36   36 3421  503 FO
  36   36 3615  519 FO
  36   36 3810  519 FO
  36   36 4005  519 FO
  36   36 4200  527 FO
  36   36 4395  527 FO
  36   36 4589  527 FO
  36   36 4784  527 FO
  36   36 4979  527 FO
  36   36 5174  532 FO
  36   36 5368  535 FO
  36   36 5563  541 FO
  36   36 5758  547 FO
gs 899 389 5357 4227 rc
gr

/c11 { 0.000000 0.000000 1.000000 sr} bdef
c11
1048 1481 mt 1120 1481 L
1084 1445 mt 1084 1517 L
1242 1501 mt 1314 1501 L
1278 1465 mt 1278 1537 L
1437 1501 mt 1509 1501 L
1473 1465 mt 1473 1537 L
1632 1512 mt 1704 1512 L
1668 1476 mt 1668 1548 L
1827 1512 mt 1899 1512 L
1863 1476 mt 1863 1548 L
2021 1518 mt 2093 1518 L
2057 1482 mt 2057 1554 L
2216 1523 mt 2288 1523 L
2252 1487 mt 2252 1559 L
2411 1529 mt 2483 1529 L
2447 1493 mt 2447 1565 L
2606 1541 mt 2678 1541 L
2642 1505 mt 2642 1577 L
2800 1548 mt 2872 1548 L
2836 1512 mt 2836 1584 L
2995 1548 mt 3067 1548 L
3031 1512 mt 3031 1584 L
3190 1548 mt 3262 1548 L
3226 1512 mt 3226 1584 L
3385 1556 mt 3457 1556 L
3421 1520 mt 3421 1592 L
3579 1566 mt 3651 1566 L
3615 1530 mt 3615 1602 L
3774 1566 mt 3846 1566 L
3810 1530 mt 3810 1602 L
3969 1566 mt 4041 1566 L
4005 1530 mt 4005 1602 L
4164 1566 mt 4236 1566 L
4200 1530 mt 4200 1602 L
4359 1566 mt 4431 1566 L
4395 1530 mt 4395 1602 L
4553 1573 mt 4625 1573 L
4589 1537 mt 4589 1609 L
4748 1573 mt 4820 1573 L
4784 1537 mt 4784 1609 L
4943 1580 mt 5015 1580 L
4979 1544 mt 4979 1616 L
5138 1582 mt 5210 1582 L
5174 1546 mt 5174 1618 L
5332 1582 mt 5404 1582 L
5368 1546 mt 5368 1618 L
5527 1588 mt 5599 1588 L
5563 1552 mt 5563 1624 L
5722 1590 mt 5794 1590 L
5758 1554 mt 5758 1626 L
1059 1456 mt 1109 1506 L
1109 1456 mt 1059 1506 L
1253 1476 mt 1303 1526 L
1303 1476 mt 1253 1526 L
1448 1476 mt 1498 1526 L
1498 1476 mt 1448 1526 L
1643 1487 mt 1693 1537 L
1693 1487 mt 1643 1537 L
1838 1487 mt 1888 1537 L
1888 1487 mt 1838 1537 L
2032 1493 mt 2082 1543 L
2082 1493 mt 2032 1543 L
2227 1498 mt 2277 1548 L
2277 1498 mt 2227 1548 L
2422 1504 mt 2472 1554 L
2472 1504 mt 2422 1554 L
2617 1516 mt 2667 1566 L
2667 1516 mt 2617 1566 L
2811 1523 mt 2861 1573 L
2861 1523 mt 2811 1573 L
3006 1523 mt 3056 1573 L
3056 1523 mt 3006 1573 L
3201 1523 mt 3251 1573 L
3251 1523 mt 3201 1573 L
3396 1531 mt 3446 1581 L
3446 1531 mt 3396 1581 L
3590 1541 mt 3640 1591 L
3640 1541 mt 3590 1591 L
3785 1541 mt 3835 1591 L
3835 1541 mt 3785 1591 L
3980 1541 mt 4030 1591 L
4030 1541 mt 3980 1591 L
4175 1541 mt 4225 1591 L
4225 1541 mt 4175 1591 L
4370 1541 mt 4420 1591 L
4420 1541 mt 4370 1591 L
4564 1548 mt 4614 1598 L
4614 1548 mt 4564 1598 L
4759 1548 mt 4809 1598 L
4809 1548 mt 4759 1598 L
4954 1555 mt 5004 1605 L
5004 1555 mt 4954 1605 L
5149 1557 mt 5199 1607 L
5199 1557 mt 5149 1607 L
5343 1557 mt 5393 1607 L
5393 1557 mt 5343 1607 L
5538 1563 mt 5588 1613 L
5588 1563 mt 5538 1613 L
5733 1565 mt 5783 1615 L
5783 1565 mt 5733 1615 L
gs 899 389 5357 4227 rc
gr

36 47 -36 47 -36 -47 36 -47 1084 1940 5 MP
/c12 { 1.000000 0.000000 1.000000 sr} bdef
c12
DP
36 47 -36 47 -36 -47 36 -47 1278 1946 5 MP
DP
36 47 -36 47 -36 -47 36 -47 1473 1980 5 MP
DP
36 47 -36 47 -36 -47 36 -47 1668 2047 5 MP
DP
36 47 -36 47 -36 -47 36 -47 1863 2066 5 MP
DP
36 47 -36 47 -36 -47 36 -47 2057 2078 5 MP
DP
36 47 -36 47 -36 -47 36 -47 2252 2102 5 MP
DP
36 47 -36 47 -36 -47 36 -47 2447 2118 5 MP
DP
36 47 -36 47 -36 -47 36 -47 2642 2162 5 MP
DP
36 47 -36 47 -36 -47 36 -47 2836 2244 5 MP
DP
36 47 -36 47 -36 -47 36 -47 3031 2257 5 MP
DP
36 47 -36 47 -36 -47 36 -47 3226 2352 5 MP
DP
36 47 -36 47 -36 -47 36 -47 3421 2399 5 MP
DP
36 47 -36 47 -36 -47 36 -47 3615 2411 5 MP
DP
36 47 -36 47 -36 -47 36 -47 3810 2476 5 MP
DP
36 47 -36 47 -36 -47 36 -47 4005 2493 5 MP
DP
36 47 -36 47 -36 -47 36 -47 4200 2528 5 MP
DP
36 47 -36 47 -36 -47 36 -47 4395 2648 5 MP
DP
36 47 -36 47 -36 -47 36 -47 4589 2704 5 MP
DP
36 47 -36 47 -36 -47 36 -47 4784 2771 5 MP
DP
36 47 -36 47 -36 -47 36 -47 4979 2784 5 MP
DP
36 47 -36 47 -36 -47 36 -47 5174 2899 5 MP
DP
36 47 -36 47 -36 -47 36 -47 5368 2963 5 MP
DP
36 47 -36 47 -36 -47 36 -47 5563 2988 5 MP
DP
36 47 -36 47 -36 -47 36 -47 5758 3076 5 MP
DP
gs 899 389 5357 4227 rc
gr

0 sg
1048 2620 mt 1120 2620 L
1084 2584 mt 1084 2656 L
1242 2717 mt 1314 2717 L
1278 2681 mt 1278 2753 L
1437 2824 mt 1509 2824 L
1473 2788 mt 1473 2860 L
1632 3010 mt 1704 3010 L
1668 2974 mt 1668 3046 L
1827 3091 mt 1899 3091 L
1863 3055 mt 1863 3127 L
2021 3279 mt 2093 3279 L
2057 3243 mt 2057 3315 L
2216 3301 mt 2288 3301 L
2252 3265 mt 2252 3337 L
2411 3392 mt 2483 3392 L
2447 3356 mt 2447 3428 L
2606 3485 mt 2678 3485 L
2642 3449 mt 2642 3521 L
2800 3587 mt 2872 3587 L
2836 3551 mt 2836 3623 L
2995 3813 mt 3067 3813 L
3031 3777 mt 3031 3849 L
3190 3857 mt 3262 3857 L
3226 3821 mt 3226 3893 L
3385 3927 mt 3457 3927 L
3421 3891 mt 3421 3963 L
3579 3973 mt 3651 3973 L
3615 3937 mt 3615 4009 L
3774 4031 mt 3846 4031 L
3810 3995 mt 3810 4067 L
3969 4086 mt 4041 4086 L
4005 4050 mt 4005 4122 L
4164 4169 mt 4236 4169 L
4200 4133 mt 4200 4205 L
4359 4202 mt 4431 4202 L
4395 4166 mt 4395 4238 L
4553 4316 mt 4625 4316 L
4589 4280 mt 4589 4352 L
4748 4332 mt 4820 4332 L
4784 4296 mt 4784 4368 L
4943 4381 mt 5015 4381 L
4979 4345 mt 4979 4417 L
5138 4413 mt 5210 4413 L
5174 4377 mt 5174 4449 L
5332 4453 mt 5404 4453 L
5368 4417 mt 5368 4489 L
5527 4532 mt 5599 4532 L
5563 4496 mt 5563 4568 L
5722 4542 mt 5794 4542 L
5758 4506 mt 5758 4578 L
gs 899 389 5357 4227 rc
gr

%%IncludeResource: font Helvetica
/Helvetica /ISOLatin1Encoding 120 FMSR

3330 4903 mt 
(Iterations) s
 538 2883 mt  -90 rotate
(Simple Regret) s
90 rotate
 882 4658 mt 
( ) s
6239  431 mt 
( ) s
gs 899 389 5357 4227 rc
c8
10 0 10 0 9 0 10 0 10 0 10 0 9 0 10 0 
10 0 10 1 9 0 10 0 10 0 9 0 10 0 10 0 
10 0 9 0 10 0 10 0 10 0 9 0 10 0 10 0 
10 0 9 0 10 0 10 0 10 0 9 0 10 0 10 0 
10 0 9 6 10 0 10 0 9 0 10 0 10 0 10 0 
9 0 10 0 10 0 10 0 9 0 10 0 10 0 10 0 
9 0 10 0 10 0 10 4 9 0 10 0 10 3 9 0 
10 0 10 0 10 0 9 0 10 0 10 0 10 0 9 0 
10 0 10 0 10 0 9 0 10 3 10 0 10 0 9 0 
10 0 10 0 10 0 9 0 10 0 10 0 9 0 10 0 
10 0 10 0 9 0 10 0 10 0 10 0 9 0 10 0 
10 0 10 0 9 0 10 0 10 0 10 22 9 0 10 0 
10 0 9 4 10 0 10 0 10 0 9 0 10 0 10 0 
10 0 9 0 10 0 10 0 10 0 9 0 10 0 10 0 
10 0 9 0 10 0 10 0 10 0 9 0 10 0 10 0 
9 0 10 0 10 0 10 0 9 0 10 0 10 0 10 0 
9 0 10 0 10 0 10 0 9 0 10 0 10 0 10 0 
9 0 10 0 10 0 9 0 10 0 10 0 10 0 9 0 
10 0 10 0 10 0 9 0 10 0 10 0 10 0 9 0 
10 0 10 0 10 0 9 0 10 0 10 0 10 0 9 0 
10 0 10 0 9 0 10 0 10 0 10 0 9 0 10 0 
10 0 10 0 9 0 10 0 10 0 10 0 9 0 10 0 
10 14 10 0 9 0 10 0 10 0 9 0 10 0 10 0 
10 0 9 0 10 0 10 0 10 0 9 0 10 0 10 0 
10 0 9 0 10 0 10 0 10 0 9 0 10 0 10 0 
10 0 9 0 10 0 10 0 9 0 10 0 10 0 10 0 
9 0 10 0 10 0 10 0 9 0 10 0 10 0 10 0 
9 0 10 0 10 0 10 0 9 0 10 0 10 0 9 5 
10 0 10 0 10 0 9 0 10 3 10 0 10 0 9 0 
10 0 10 0 10 0 9 0 10 9 10 0 10 0 9 0 
10 0 10 0 10 0 9 0 10 0 10 0 9 0 10 0 
10 1 10 0 9 0 10 0 10 0 10 4 9 0 10 0 
10 0 10 0 9 5 10 0 10 0 10 0 9 0 10 0 
10 0 10 0 9 0 10 19 10 0 9 0 10 0 10 0 
10 0 9 0 10 0 10 0 10 0 9 0 10 0 10 0 
10 0 9 14 10 28 10 0 10 0 9 0 10 0 10 0 
9 0 10 0 10 0 10 0 9 0 10 0 10 0 10 0 
9 0 10 0 10 0 2846 1952 300 MP stroke
10 0 9 0 10 0 10 0 10 0 9 0 10 0 10 0 
10 3 9 0 10 0 10 0 9 0 10 0 10 0 10 0 
9 1 10 0 10 0 10 0 9 0 10 0 10 0 10 0 
9 0 10 0 10 0 10 0 9 0 10 0 10 0 9 0 
10 0 10 0 10 0 9 0 10 0 10 0 10 0 9 0 
10 0 10 0 10 0 9 0 10 0 10 0 10 0 9 0 
10 0 10 0 10 0 9 0 10 0 10 0 9 0 10 0 
10 0 10 0 9 1 10 0 10 0 10 0 9 0 10 0 
10 0 10 1 9 0 10 0 10 0 10 0 9 0 10 0 
10 0 9 0 10 0 10 0 10 0 9 0 10 0 10 0 
10 0 9 0 10 0 10 0 10 0 9 0 10 0 10 0 
10 1 9 0 10 0 10 0 10 0 9 0 10 0 10 5 
9 5 10 0 10 0 10 0 9 0 10 0 10 0 10 0 
9 0 10 0 10 0 10 0 9 0 10 0 10 0 10 0 
9 0 10 3 10 0 9 0 10 3 10 0 10 15 9 1 
10 0 10 0 10 0 9 13 10 0 10 0 10 0 9 0 
10 0 10 0 10 0 9 0 10 0 10 0 10 0 9 0 
10 0 10 17 9 0 10 0 10 0 10 0 9 0 10 0 
10 0 10 0 9 3 10 0 10 0 10 0 9 0 10 0 
10 0 10 0 9 0 10 0 10 0 9 0 10 0 10 0 
10 0 9 0 10 0 10 0 10 0 9 0 10 0 10 0 
10 0 9 7 10 0 10 0 10 0 9 3 10 0 10 0 
10 7 9 0 10 0 10 0 9 0 10 0 10 0 10 0 
9 0 10 0 10 15 10 21 9 0 10 0 10 0 10 0 
9 0 10 0 10 0 10 0 9 0 10 0 10 0 9 0 
899 1827 201 MP stroke
0 95 1084 1816 2 MP stroke
93 0 1037 1816 2 MP stroke
93 0 1037 1911 2 MP stroke
0 89 1278 1835 2 MP stroke
93 0 1232 1835 2 MP stroke
93 0 1232 1924 2 MP stroke
0 88 1473 1839 2 MP stroke
94 0 1426 1839 2 MP stroke
94 0 1426 1927 2 MP stroke
0 94 1668 1866 2 MP stroke
94 0 1621 1866 2 MP stroke
94 0 1621 1960 2 MP stroke
0 93 1863 1888 2 MP stroke
93 0 1816 1888 2 MP stroke
93 0 1816 1981 2 MP stroke
0 89 2057 1901 2 MP stroke
93 0 2011 1901 2 MP stroke
93 0 2011 1990 2 MP stroke
0 88 2252 1903 2 MP stroke
94 0 2205 1903 2 MP stroke
94 0 2205 1991 2 MP stroke
0 88 2447 1904 2 MP stroke
94 0 2400 1904 2 MP stroke
94 0 2400 1992 2 MP stroke
0 88 2642 1904 2 MP stroke
93 0 2595 1904 2 MP stroke
93 0 2595 1992 2 MP stroke
0 88 2836 1908 2 MP stroke
93 0 2790 1908 2 MP stroke
93 0 2790 1996 2 MP stroke
0 99 3031 1945 2 MP stroke
94 0 2984 1945 2 MP stroke
94 0 2984 2044 2 MP stroke
0 99 3226 1964 2 MP stroke
94 0 3179 1964 2 MP stroke
94 0 3179 2063 2 MP stroke
0 96 3421 1975 2 MP stroke
93 0 3374 1975 2 MP stroke
93 0 3374 2071 2 MP stroke
0 93 3615 1994 2 MP stroke
93 0 3569 1994 2 MP stroke
93 0 3569 2087 2 MP stroke
0 93 3810 1994 2 MP stroke
94 0 3763 1994 2 MP stroke
94 0 3763 2087 2 MP stroke
0 93 4005 1994 2 MP stroke
94 0 3958 1994 2 MP stroke
94 0 3958 2087 2 MP stroke
0 93 4200 2007 2 MP stroke
93 0 4153 2007 2 MP stroke
93 0 4153 2100 2 MP stroke
0 93 4395 2007 2 MP stroke
93 0 4348 2007 2 MP stroke
93 0 4348 2100 2 MP stroke
0 93 4589 2007 2 MP stroke
93 0 4543 2007 2 MP stroke
93 0 4543 2100 2 MP stroke
0 93 4784 2007 2 MP stroke
94 0 4737 2007 2 MP stroke
94 0 4737 2100 2 MP stroke
0 99 4979 2030 2 MP stroke
94 0 4932 2030 2 MP stroke
94 0 4932 2129 2 MP stroke
0 96 5174 2035 2 MP stroke
93 0 5127 2035 2 MP stroke
93 0 5127 2131 2 MP stroke
0 93 5368 2044 2 MP stroke
93 0 5322 2044 2 MP stroke
93 0 5322 2137 2 MP stroke
0 90 5563 2051 2 MP stroke
94 0 5516 2051 2 MP stroke
94 0 5516 2141 2 MP stroke
0 90 5758 2052 2 MP stroke
94 0 5711 2052 2 MP stroke
94 0 5711 2142 2 MP stroke
gr

c8
41 71 -82 0 41 -71 1084 1910 4 MP
DP
41 71 -82 0 41 -71 1278 1927 4 MP
DP
41 71 -82 0 41 -71 1473 1930 4 MP
DP
41 71 -82 0 41 -71 1668 1960 4 MP
DP
41 71 -82 0 41 -71 1863 1982 4 MP
DP
41 71 -82 0 41 -71 2057 1993 4 MP
DP
41 71 -82 0 41 -71 2252 1994 4 MP
DP
41 71 -82 0 41 -71 2447 1995 4 MP
DP
41 71 -82 0 41 -71 2642 1995 4 MP
DP
41 71 -82 0 41 -71 2836 1999 4 MP
DP
41 71 -82 0 41 -71 3031 2041 4 MP
DP
41 71 -82 0 41 -71 3226 2060 4 MP
DP
41 71 -82 0 41 -71 3421 2070 4 MP
DP
41 71 -82 0 41 -71 3615 2087 4 MP
DP
41 71 -82 0 41 -71 3810 2087 4 MP
DP
41 71 -82 0 41 -71 4005 2087 4 MP
DP
41 71 -82 0 41 -71 4200 2101 4 MP
DP
41 71 -82 0 41 -71 4395 2101 4 MP
DP
41 71 -82 0 41 -71 4589 2101 4 MP
DP
41 71 -82 0 41 -71 4784 2101 4 MP
DP
41 71 -82 0 41 -71 4979 2127 4 MP
DP
41 71 -82 0 41 -71 5174 2130 4 MP
DP
41 71 -82 0 41 -71 5368 2137 4 MP
DP
41 71 -82 0 41 -71 5563 2143 4 MP
DP
41 71 -82 0 41 -71 5758 2144 4 MP
DP
gs 899 389 5357 4227 rc
c9
10 0 10 0 9 7 10 0 10 0 10 0 9 0 10 1 
10 0 10 0 9 0 10 0 10 0 9 3 10 0 10 0 
10 0 9 0 10 0 10 0 10 3 9 0 10 0 10 0 
10 0 9 0 10 0 10 0 10 0 9 20 10 9 10 0 
10 0 9 0 10 0 10 0 9 0 10 0 10 0 10 5 
9 0 10 0 10 0 10 0 9 1 10 0 10 0 10 0 
9 0 10 0 10 0 10 0 9 0 10 0 10 0 9 0 
10 0 10 0 10 0 9 0 10 0 10 0 10 0 9 3 
10 2 10 0 10 0 9 0 10 0 10 0 10 0 9 1 
10 0 10 4 10 0 9 0 10 0 10 0 9 0 10 0 
10 2 10 0 9 0 10 0 10 0 10 0 9 0 10 0 
10 0 10 0 9 0 10 0 10 0 10 0 9 3 10 0 
10 0 9 0 10 0 10 9 10 0 9 0 10 0 10 0 
10 0 9 0 10 0 10 0 10 0 9 0 10 0 10 0 
10 0 9 0 10 0 10 0 10 0 9 0 10 0 10 0 
9 0 10 0 10 0 10 0 9 0 10 0 10 0 10 1 
9 0 10 0 10 0 10 0 9 0 10 0 10 0 10 0 
9 0 10 0 10 0 9 0 10 0 10 0 10 0 9 0 
10 0 10 0 10 0 9 0 10 0 10 0 10 0 9 0 
10 0 10 0 10 0 9 0 10 0 10 0 10 0 9 0 
10 0 10 0 9 0 10 16 10 0 10 0 9 9 10 0 
10 0 10 0 9 0 10 0 10 0 10 0 9 0 10 0 
10 0 10 0 9 0 10 0 10 0 9 4 10 0 10 0 
10 0 9 0 10 0 10 0 10 0 9 0 10 4 10 1 
10 0 9 0 10 0 10 0 10 0 9 0 10 0 10 0 
10 0 9 0 10 0 10 0 9 0 10 0 10 0 10 0 
9 0 10 0 10 0 10 2 9 0 10 0 10 0 10 0 
9 0 10 0 10 0 10 0 9 0 10 0 10 0 9 0 
10 0 10 0 10 0 9 0 10 0 10 0 10 0 9 0 
10 0 10 0 10 0 9 0 10 0 10 6 10 0 9 0 
10 0 10 0 10 0 9 0 10 0 10 0 9 0 10 0 
10 0 10 0 9 0 10 0 10 22 10 3 9 0 10 0 
10 0 10 0 9 0 10 0 10 0 10 0 9 0 10 0 
10 0 10 0 9 9 10 0 10 0 9 0 10 0 10 0 
10 0 9 0 10 0 10 0 10 0 9 0 10 0 10 0 
10 0 9 0 10 0 10 0 10 0 9 0 10 0 10 0 
9 0 10 0 10 0 10 0 9 0 10 0 10 0 10 0 
9 1 10 0 10 0 2846 1706 300 MP stroke
10 0 9 0 10 0 10 0 10 0 9 0 10 0 10 0 
10 0 9 0 10 0 10 0 9 0 10 0 10 0 10 0 
9 0 10 0 10 0 10 0 9 0 10 0 10 0 10 0 
9 0 10 0 10 0 10 0 9 0 10 0 10 0 9 0 
10 0 10 0 10 0 9 0 10 0 10 0 10 0 9 0 
10 0 10 0 10 0 9 0 10 1 10 7 10 0 9 0 
10 0 10 0 10 0 9 0 10 0 10 0 9 2 10 0 
10 0 10 0 9 0 10 0 10 0 10 0 9 0 10 0 
10 4 10 0 9 0 10 6 10 0 10 0 9 0 10 9 
10 0 9 0 10 0 10 0 10 0 9 0 10 0 10 0 
10 0 9 0 10 0 10 0 10 0 9 0 10 8 10 11 
10 1 9 16 10 0 10 0 10 0 9 0 10 0 10 0 
9 6 10 0 10 0 10 0 9 0 10 0 10 0 10 6 
9 0 10 0 10 0 10 0 9 4 10 13 10 0 10 0 
9 0 10 0 10 0 9 2 10 0 10 0 10 0 9 0 
10 0 10 0 10 0 9 0 10 0 10 0 10 0 9 0 
10 0 10 0 10 1 9 10 10 0 10 0 10 0 9 0 
10 0 10 0 9 0 10 0 10 0 10 0 9 19 10 0 
10 0 10 0 9 22 10 0 10 0 10 18 9 7 10 0 
10 1 10 0 9 0 10 0 10 0 9 0 10 0 10 0 
10 3 9 4 10 0 10 7 10 4 9 0 10 1 10 0 
10 0 9 0 10 0 10 14 10 0 9 0 10 23 10 9 
10 0 9 1 10 1 10 3 9 0 10 0 10 1 10 12 
9 0 10 0 10 40 10 2 9 0 10 0 10 15 10 7 
9 23 10 10 10 8 10 7 9 0 10 11 10 0 9 4 
899 1322 201 MP stroke
0 107 1084 1408 2 MP stroke
93 0 1037 1408 2 MP stroke
93 0 1037 1515 2 MP stroke
0 98 1278 1480 2 MP stroke
93 0 1232 1480 2 MP stroke
93 0 1232 1578 2 MP stroke
0 96 1473 1551 2 MP stroke
94 0 1426 1551 2 MP stroke
94 0 1426 1647 2 MP stroke
0 90 1668 1565 2 MP stroke
94 0 1621 1565 2 MP stroke
94 0 1621 1655 2 MP stroke
0 83 1863 1594 2 MP stroke
93 0 1816 1594 2 MP stroke
93 0 1816 1677 2 MP stroke
0 79 2057 1638 2 MP stroke
93 0 2011 1638 2 MP stroke
93 0 2011 1717 2 MP stroke
0 73 2252 1660 2 MP stroke
94 0 2205 1660 2 MP stroke
94 0 2205 1733 2 MP stroke
0 68 2447 1672 2 MP stroke
94 0 2400 1672 2 MP stroke
94 0 2400 1740 2 MP stroke
0 68 2642 1672 2 MP stroke
93 0 2595 1672 2 MP stroke
93 0 2595 1740 2 MP stroke
0 68 2836 1672 2 MP stroke
93 0 2790 1672 2 MP stroke
93 0 2790 1740 2 MP stroke
0 68 3031 1673 2 MP stroke
94 0 2984 1673 2 MP stroke
94 0 2984 1741 2 MP stroke
0 68 3226 1682 2 MP stroke
94 0 3179 1682 2 MP stroke
94 0 3179 1750 2 MP stroke
0 70 3421 1706 2 MP stroke
93 0 3374 1706 2 MP stroke
93 0 3374 1776 2 MP stroke
0 66 3615 1714 2 MP stroke
93 0 3569 1714 2 MP stroke
93 0 3569 1780 2 MP stroke
0 66 3810 1716 2 MP stroke
94 0 3763 1716 2 MP stroke
94 0 3763 1782 2 MP stroke
0 65 4005 1725 2 MP stroke
94 0 3958 1725 2 MP stroke
94 0 3958 1790 2 MP stroke
0 70 4200 1748 2 MP stroke
93 0 4153 1748 2 MP stroke
93 0 4153 1818 2 MP stroke
0 70 4395 1748 2 MP stroke
93 0 4348 1748 2 MP stroke
93 0 4348 1818 2 MP stroke
0 70 4589 1749 2 MP stroke
93 0 4543 1749 2 MP stroke
93 0 4543 1819 2 MP stroke
0 70 4784 1749 2 MP stroke
94 0 4737 1749 2 MP stroke
94 0 4737 1819 2 MP stroke
0 75 4979 1761 2 MP stroke
94 0 4932 1761 2 MP stroke
94 0 4932 1836 2 MP stroke
0 73 5174 1772 2 MP stroke
93 0 5127 1772 2 MP stroke
93 0 5127 1845 2 MP stroke
0 73 5368 1773 2 MP stroke
93 0 5322 1773 2 MP stroke
93 0 5322 1846 2 MP stroke
0 78 5563 1807 2 MP stroke
94 0 5516 1807 2 MP stroke
94 0 5516 1885 2 MP stroke
0 72 5758 1821 2 MP stroke
94 0 5711 1821 2 MP stroke
94 0 5711 1893 2 MP stroke
gr

c9
0 -58 -58 0 0 58 58 0 1055 1433 5 MP
DP
0 -58 -58 0 0 58 58 0 1249 1500 5 MP
DP
0 -58 -58 0 0 58 58 0 1444 1570 5 MP
DP
0 -58 -58 0 0 58 58 0 1639 1581 5 MP
DP
0 -58 -58 0 0 58 58 0 1834 1606 5 MP
DP
0 -58 -58 0 0 58 58 0 2028 1648 5 MP
DP
0 -58 -58 0 0 58 58 0 2223 1667 5 MP
DP
0 -58 -58 0 0 58 58 0 2418 1677 5 MP
DP
0 -58 -58 0 0 58 58 0 2613 1677 5 MP
DP
0 -58 -58 0 0 58 58 0 2807 1677 5 MP
DP
0 -58 -58 0 0 58 58 0 3002 1678 5 MP
DP
0 -58 -58 0 0 58 58 0 3197 1687 5 MP
DP
0 -58 -58 0 0 58 58 0 3392 1712 5 MP
DP
0 -58 -58 0 0 58 58 0 3586 1718 5 MP
DP
0 -58 -58 0 0 58 58 0 3781 1720 5 MP
DP
0 -58 -58 0 0 58 58 0 3976 1729 5 MP
DP
0 -58 -58 0 0 58 58 0 4171 1754 5 MP
DP
0 -58 -58 0 0 58 58 0 4366 1754 5 MP
DP
0 -58 -58 0 0 58 58 0 4560 1755 5 MP
DP
0 -58 -58 0 0 58 58 0 4755 1755 5 MP
DP
0 -58 -58 0 0 58 58 0 4950 1769 5 MP
DP
0 -58 -58 0 0 58 58 0 5145 1779 5 MP
DP
0 -58 -58 0 0 58 58 0 5339 1780 5 MP
DP
0 -58 -58 0 0 58 58 0 5534 1817 5 MP
DP
0 -58 -58 0 0 58 58 0 5729 1828 5 MP
DP
gs 899 389 5357 4227 rc
c10
10 0 10 0 9 0 10 0 10 0 10 0 9 0 10 0 
10 0 10 0 9 0 10 0 10 0 9 0 10 0 10 0 
10 0 9 6 10 0 10 0 10 0 9 0 10 0 10 0 
10 6 9 0 10 0 10 0 10 0 9 0 10 0 10 0 
10 0 9 0 10 0 10 0 9 0 10 0 10 0 10 0 
9 0 10 0 10 0 10 0 9 0 10 0 10 0 10 0 
9 0 10 0 10 0 10 0 9 0 10 0 10 0 9 0 
10 0 10 0 10 3 9 0 10 0 10 0 10 0 9 0 
10 0 10 0 10 0 9 0 10 0 10 0 10 0 9 5 
10 0 10 0 10 0 9 0 10 0 10 0 9 0 10 0 
10 0 10 0 9 0 10 0 10 0 10 0 9 0 10 0 
10 0 10 0 9 0 10 0 10 0 10 0 9 0 10 0 
10 0 9 0 10 0 10 0 10 0 9 0 10 0 10 0 
10 0 9 0 10 0 10 0 10 0 9 0 10 0 10 0 
10 0 9 0 10 0 10 0 10 0 9 0 10 0 10 0 
9 0 10 0 10 0 10 0 9 0 10 0 10 0 10 0 
9 0 10 0 10 0 10 0 9 0 10 0 10 0 10 0 
9 0 10 0 10 0 9 0 10 0 10 0 10 0 9 0 
10 0 10 0 10 0 9 0 10 0 10 0 10 0 9 0 
10 0 10 0 10 0 9 0 10 0 10 0 10 0 9 0 
10 0 10 5 9 0 10 0 10 0 10 0 9 0 10 0 
10 0 10 0 9 0 10 3 10 0 10 0 9 0 10 0 
10 0 10 0 9 0 10 0 10 0 9 0 10 0 10 0 
10 0 9 0 10 0 10 0 10 0 9 0 10 0 10 0 
10 0 9 0 10 0 10 0 10 0 9 0 10 0 10 0 
10 0 9 0 10 0 10 0 9 0 10 0 10 0 10 0 
9 0 10 0 10 0 10 0 9 0 10 0 10 0 10 0 
9 0 10 0 10 0 10 0 9 0 10 0 10 0 9 11 
10 0 10 0 10 0 9 0 10 0 10 0 10 0 9 0 
10 0 10 0 10 0 9 5 10 0 10 0 10 0 9 0 
10 0 10 0 10 6 9 0 10 0 10 0 9 0 10 0 
10 0 10 0 9 0 10 0 10 0 10 0 9 0 10 26 
10 0 10 0 9 0 10 0 10 0 10 0 9 0 10 0 
10 0 10 0 9 0 10 0 10 0 9 0 10 0 10 0 
10 0 9 0 10 0 10 0 10 0 9 0 10 0 10 0 
10 0 9 0 10 0 10 0 10 0 9 0 10 0 10 0 
9 0 10 0 10 0 10 0 9 0 10 14 10 0 10 0 
9 0 10 0 10 2 2846 455 300 MP stroke
10 0 9 0 10 0 10 0 10 0 9 0 10 0 10 0 
10 0 9 2 10 0 10 0 9 0 10 0 10 0 10 0 
9 0 10 0 10 0 10 0 9 0 10 0 10 0 10 0 
9 0 10 0 10 0 10 0 9 0 10 0 10 0 9 0 
10 0 10 0 10 0 9 0 10 0 10 0 10 0 9 0 
10 0 10 0 10 0 9 0 10 0 10 0 10 0 9 0 
10 0 10 0 10 0 9 0 10 0 10 0 9 0 10 0 
10 0 10 0 9 0 10 0 10 0 10 0 9 0 10 0 
10 0 10 0 9 0 10 0 10 0 10 0 9 0 10 0 
10 0 9 0 10 0 10 0 10 0 9 0 10 0 10 0 
10 0 9 6 10 0 10 0 10 0 9 0 10 0 10 0 
10 0 9 0 10 0 10 0 10 0 9 0 10 0 10 0 
9 0 10 1 10 0 10 0 9 0 10 0 10 0 10 0 
9 0 10 0 10 0 10 0 9 0 10 2 10 0 10 0 
9 0 10 0 10 0 9 0 10 0 10 0 10 0 9 0 
10 0 10 0 10 2 9 0 10 0 10 0 10 0 9 0 
10 0 10 0 10 0 9 0 10 0 10 0 10 0 9 0 
10 0 10 0 9 0 10 0 10 0 10 0 9 0 10 0 
10 0 10 0 9 0 10 0 10 0 10 0 9 0 10 0 
10 0 10 0 9 0 10 0 10 0 9 0 10 0 10 0 
10 0 9 0 10 0 10 0 10 0 9 0 10 0 10 0 
10 0 9 0 10 0 10 0 10 0 9 0 10 0 10 0 
10 0 9 0 10 0 10 4 9 0 10 0 10 0 10 2 
9 0 10 0 10 0 10 0 9 0 10 0 10 0 10 0 
9 0 10 0 10 0 10 0 9 0 10 0 10 0 9 0 
899 436 201 MP stroke
0 99 1084 389 2 MP stroke
93 0 1037 389 2 MP stroke
93 0 1037 488 2 MP stroke
0 98 1278 393 2 MP stroke
93 0 1232 393 2 MP stroke
93 0 1232 491 2 MP stroke
0 98 1473 393 2 MP stroke
94 0 1426 393 2 MP stroke
94 0 1426 491 2 MP stroke
0 97 1668 395 2 MP stroke
94 0 1621 395 2 MP stroke
94 0 1621 492 2 MP stroke
0 96 1863 398 2 MP stroke
93 0 1816 398 2 MP stroke
93 0 1816 494 2 MP stroke
0 95 2057 405 2 MP stroke
93 0 2011 405 2 MP stroke
93 0 2011 500 2 MP stroke
0 95 2252 405 2 MP stroke
94 0 2205 405 2 MP stroke
94 0 2205 500 2 MP stroke
0 95 2447 405 2 MP stroke
94 0 2400 405 2 MP stroke
94 0 2400 500 2 MP stroke
0 95 2642 405 2 MP stroke
93 0 2595 405 2 MP stroke
93 0 2595 500 2 MP stroke
0 93 2836 409 2 MP stroke
93 0 2790 409 2 MP stroke
93 0 2790 502 2 MP stroke
0 93 3031 425 2 MP stroke
94 0 2984 425 2 MP stroke
94 0 2984 518 2 MP stroke
0 93 3226 425 2 MP stroke
94 0 3179 425 2 MP stroke
94 0 3179 518 2 MP stroke
0 96 3421 455 2 MP stroke
93 0 3374 455 2 MP stroke
93 0 3374 551 2 MP stroke
0 93 3615 472 2 MP stroke
93 0 3569 472 2 MP stroke
93 0 3569 565 2 MP stroke
0 93 3810 472 2 MP stroke
94 0 3763 472 2 MP stroke
94 0 3763 565 2 MP stroke
0 93 4005 472 2 MP stroke
94 0 3958 472 2 MP stroke
94 0 3958 565 2 MP stroke
0 90 4200 482 2 MP stroke
93 0 4153 482 2 MP stroke
93 0 4153 572 2 MP stroke
0 90 4395 482 2 MP stroke
93 0 4348 482 2 MP stroke
93 0 4348 572 2 MP stroke
0 90 4589 482 2 MP stroke
93 0 4543 482 2 MP stroke
93 0 4543 572 2 MP stroke
0 90 4784 482 2 MP stroke
94 0 4737 482 2 MP stroke
94 0 4737 572 2 MP stroke
0 90 4979 482 2 MP stroke
94 0 4932 482 2 MP stroke
94 0 4932 572 2 MP stroke
0 87 5174 488 2 MP stroke
93 0 5127 488 2 MP stroke
93 0 5127 575 2 MP stroke
0 88 5368 491 2 MP stroke
93 0 5322 491 2 MP stroke
93 0 5322 579 2 MP stroke
0 87 5563 497 2 MP stroke
94 0 5516 497 2 MP stroke
94 0 5516 584 2 MP stroke
0 90 5758 502 2 MP stroke
94 0 5711 502 2 MP stroke
94 0 5711 592 2 MP stroke
gr

c10
  36   36 1084  438 FO
  36   36 1278  442 FO
  36   36 1473  442 FO
  36   36 1668  444 FO
  36   36 1863  446 FO
  36   36 2057  453 FO
  36   36 2252  453 FO
  36   36 2447  453 FO
  36   36 2642  453 FO
  36   36 2836  455 FO
  36   36 3031  471 FO
  36   36 3226  471 FO
  36   36 3421  503 FO
  36   36 3615  519 FO
  36   36 3810  519 FO
  36   36 4005  519 FO
  36   36 4200  527 FO
  36   36 4395  527 FO
  36   36 4589  527 FO
  36   36 4784  527 FO
  36   36 4979  527 FO
  36   36 5174  532 FO
  36   36 5368  535 FO
  36   36 5563  541 FO
  36   36 5758  547 FO
gs 899 389 5357 4227 rc
c11
10 0 10 0 9 0 10 0 10 0 10 0 9 0 10 0 
10 0 10 0 9 0 10 2 10 0 9 0 10 0 10 0 
10 0 9 0 10 0 10 0 10 0 9 0 10 0 10 5 
10 0 9 0 10 0 10 0 10 0 9 0 10 0 10 0 
10 0 9 0 10 0 10 1 9 0 10 0 10 0 10 0 
9 0 10 0 10 0 10 0 9 0 10 0 10 0 10 0 
9 0 10 0 10 0 10 0 9 0 10 0 10 0 9 0 
10 0 10 0 10 0 9 0 10 0 10 0 10 0 9 0 
10 0 10 0 10 0 9 0 10 0 10 0 10 0 9 0 
10 0 10 0 10 0 9 0 10 0 10 0 9 2 10 0 
10 0 10 0 9 0 10 0 10 0 10 0 9 0 10 0 
10 0 10 0 9 4 10 0 10 0 10 0 9 0 10 0 
10 0 9 3 10 0 10 0 10 0 9 0 10 0 10 0 
10 0 9 0 10 0 10 0 10 0 9 0 10 0 10 0 
10 0 9 0 10 0 10 0 10 0 9 0 10 0 10 0 
9 0 10 0 10 0 10 0 9 0 10 0 10 0 10 0 
9 0 10 0 10 0 10 0 9 0 10 0 10 0 10 0 
9 7 10 0 10 0 9 0 10 0 10 0 10 0 9 0 
10 0 10 0 10 0 9 0 10 0 10 0 10 0 9 0 
10 0 10 0 10 0 9 0 10 0 10 0 10 0 9 0 
10 0 10 0 9 0 10 0 10 0 10 0 9 0 10 0 
10 0 10 0 9 0 10 0 10 0 10 0 9 0 10 0 
10 0 10 0 9 0 10 0 10 0 9 0 10 0 10 0 
10 0 9 0 10 0 10 0 10 0 9 0 10 0 10 0 
10 0 9 0 10 0 10 0 10 0 9 0 10 0 10 0 
10 0 9 0 10 0 10 0 9 0 10 0 10 0 10 0 
9 0 10 0 10 0 10 0 9 0 10 0 10 0 10 0 
9 0 10 0 10 0 10 0 9 0 10 0 10 0 9 0 
10 0 10 0 10 0 9 0 10 0 10 0 10 0 9 0 
10 0 10 10 10 0 9 0 10 0 10 0 10 0 9 0 
10 0 10 0 10 0 9 0 10 0 10 0 9 8 10 0 
10 0 10 0 9 0 10 0 10 0 10 0 9 0 10 0 
10 0 10 0 9 0 10 0 10 0 10 0 9 0 10 0 
10 0 10 0 9 0 10 0 10 0 9 0 10 0 10 0 
10 0 9 0 10 0 10 0 10 0 9 0 10 0 10 0 
10 0 9 0 10 0 10 0 10 0 9 0 10 0 10 0 
9 0 10 0 10 0 10 0 9 0 10 0 10 0 10 0 
9 0 10 0 10 0 2846 1548 300 MP stroke
10 0 9 7 10 0 10 0 10 0 9 0 10 0 10 0 
10 0 9 0 10 0 10 0 9 0 10 0 10 0 10 0 
9 0 10 0 10 0 10 0 9 0 10 0 10 0 10 0 
9 0 10 0 10 0 10 0 9 0 10 0 10 0 9 0 
10 0 10 0 10 0 9 0 10 12 10 0 10 0 9 0 
10 0 10 0 10 0 9 0 10 6 10 0 10 0 9 0 
10 0 10 0 10 0 9 0 10 0 10 0 9 0 10 0 
10 0 10 0 9 0 10 0 10 0 10 0 9 0 10 0 
10 0 10 0 9 0 10 0 10 0 10 0 9 0 10 0 
10 0 9 0 10 0 10 0 10 0 9 0 10 0 10 5 
10 0 9 0 10 0 10 6 10 0 9 0 10 0 10 0 
10 0 9 0 10 0 10 0 10 0 9 0 10 0 10 0 
9 0 10 0 10 0 10 0 9 0 10 0 10 0 10 0 
9 0 10 0 10 0 10 0 9 0 10 0 10 0 10 0 
9 0 10 0 10 0 9 0 10 0 10 0 10 0 9 0 
10 0 10 0 10 0 9 0 10 0 10 0 10 1 9 0 
10 0 10 0 10 0 9 0 10 0 10 0 10 0 9 0 
10 0 10 0 9 0 10 0 10 10 10 0 9 0 10 0 
10 0 10 0 9 0 10 0 10 0 10 0 9 0 10 0 
10 0 10 0 9 0 10 0 10 0 9 0 10 0 10 0 
10 0 9 0 10 10 10 0 10 9 9 0 10 0 10 0 
10 0 9 0 10 0 10 0 10 0 9 0 10 0 10 1 
10 0 9 0 10 0 10 0 9 0 10 0 10 0 10 0 
9 0 10 0 10 0 10 0 9 0 10 1 10 0 10 0 
9 0 10 0 10 0 10 0 9 0 10 0 10 0 9 0 
899 1480 201 MP stroke
0 144 1084 1409 2 MP stroke
93 0 1037 1409 2 MP stroke
93 0 1037 1553 2 MP stroke
0 140 1278 1431 2 MP stroke
93 0 1232 1431 2 MP stroke
93 0 1232 1571 2 MP stroke
0 140 1473 1431 2 MP stroke
94 0 1426 1431 2 MP stroke
94 0 1426 1571 2 MP stroke
0 133 1668 1446 2 MP stroke
94 0 1621 1446 2 MP stroke
94 0 1621 1579 2 MP stroke
0 133 1863 1446 2 MP stroke
93 0 1816 1446 2 MP stroke
93 0 1816 1579 2 MP stroke
0 130 2057 1453 2 MP stroke
93 0 2011 1453 2 MP stroke
93 0 2011 1583 2 MP stroke
0 128 2252 1459 2 MP stroke
94 0 2205 1459 2 MP stroke
94 0 2205 1587 2 MP stroke
0 125 2447 1467 2 MP stroke
94 0 2400 1467 2 MP stroke
94 0 2400 1592 2 MP stroke
0 124 2642 1479 2 MP stroke
93 0 2595 1479 2 MP stroke
93 0 2595 1603 2 MP stroke
0 120 2836 1488 2 MP stroke
93 0 2790 1488 2 MP stroke
93 0 2790 1608 2 MP stroke
0 120 3031 1488 2 MP stroke
94 0 2984 1488 2 MP stroke
94 0 2984 1608 2 MP stroke
0 120 3226 1488 2 MP stroke
94 0 3179 1488 2 MP stroke
94 0 3179 1608 2 MP stroke
0 117 3421 1498 2 MP stroke
93 0 3374 1498 2 MP stroke
93 0 3374 1615 2 MP stroke
0 112 3615 1510 2 MP stroke
93 0 3569 1510 2 MP stroke
93 0 3569 1622 2 MP stroke
0 112 3810 1510 2 MP stroke
94 0 3763 1510 2 MP stroke
94 0 3763 1622 2 MP stroke
0 112 4005 1510 2 MP stroke
94 0 3958 1510 2 MP stroke
94 0 3958 1622 2 MP stroke
0 112 4200 1510 2 MP stroke
93 0 4153 1510 2 MP stroke
93 0 4153 1622 2 MP stroke
0 112 4395 1510 2 MP stroke
93 0 4348 1510 2 MP stroke
93 0 4348 1622 2 MP stroke
0 114 4589 1516 2 MP stroke
93 0 4543 1516 2 MP stroke
93 0 4543 1630 2 MP stroke
0 114 4784 1516 2 MP stroke
94 0 4737 1516 2 MP stroke
94 0 4737 1630 2 MP stroke
0 112 4979 1525 2 MP stroke
94 0 4932 1525 2 MP stroke
94 0 4932 1637 2 MP stroke
0 111 5174 1526 2 MP stroke
93 0 5127 1526 2 MP stroke
93 0 5127 1637 2 MP stroke
0 111 5368 1526 2 MP stroke
93 0 5322 1526 2 MP stroke
93 0 5322 1637 2 MP stroke
0 108 5563 1534 2 MP stroke
94 0 5516 1534 2 MP stroke
94 0 5516 1642 2 MP stroke
0 108 5758 1536 2 MP stroke
94 0 5711 1536 2 MP stroke
94 0 5711 1644 2 MP stroke
gr

c11
1048 1481 mt 1120 1481 L
1084 1445 mt 1084 1517 L
1242 1501 mt 1314 1501 L
1278 1465 mt 1278 1537 L
1437 1501 mt 1509 1501 L
1473 1465 mt 1473 1537 L
1632 1512 mt 1704 1512 L
1668 1476 mt 1668 1548 L
1827 1512 mt 1899 1512 L
1863 1476 mt 1863 1548 L
2021 1518 mt 2093 1518 L
2057 1482 mt 2057 1554 L
2216 1523 mt 2288 1523 L
2252 1487 mt 2252 1559 L
2411 1529 mt 2483 1529 L
2447 1493 mt 2447 1565 L
2606 1541 mt 2678 1541 L
2642 1505 mt 2642 1577 L
2800 1548 mt 2872 1548 L
2836 1512 mt 2836 1584 L
2995 1548 mt 3067 1548 L
3031 1512 mt 3031 1584 L
3190 1548 mt 3262 1548 L
3226 1512 mt 3226 1584 L
3385 1556 mt 3457 1556 L
3421 1520 mt 3421 1592 L
3579 1566 mt 3651 1566 L
3615 1530 mt 3615 1602 L
3774 1566 mt 3846 1566 L
3810 1530 mt 3810 1602 L
3969 1566 mt 4041 1566 L
4005 1530 mt 4005 1602 L
4164 1566 mt 4236 1566 L
4200 1530 mt 4200 1602 L
4359 1566 mt 4431 1566 L
4395 1530 mt 4395 1602 L
4553 1573 mt 4625 1573 L
4589 1537 mt 4589 1609 L
4748 1573 mt 4820 1573 L
4784 1537 mt 4784 1609 L
4943 1580 mt 5015 1580 L
4979 1544 mt 4979 1616 L
5138 1582 mt 5210 1582 L
5174 1546 mt 5174 1618 L
5332 1582 mt 5404 1582 L
5368 1546 mt 5368 1618 L
5527 1588 mt 5599 1588 L
5563 1552 mt 5563 1624 L
5722 1590 mt 5794 1590 L
5758 1554 mt 5758 1626 L
1059 1456 mt 1109 1506 L
1109 1456 mt 1059 1506 L
1253 1476 mt 1303 1526 L
1303 1476 mt 1253 1526 L
1448 1476 mt 1498 1526 L
1498 1476 mt 1448 1526 L
1643 1487 mt 1693 1537 L
1693 1487 mt 1643 1537 L
1838 1487 mt 1888 1537 L
1888 1487 mt 1838 1537 L
2032 1493 mt 2082 1543 L
2082 1493 mt 2032 1543 L
2227 1498 mt 2277 1548 L
2277 1498 mt 2227 1548 L
2422 1504 mt 2472 1554 L
2472 1504 mt 2422 1554 L
2617 1516 mt 2667 1566 L
2667 1516 mt 2617 1566 L
2811 1523 mt 2861 1573 L
2861 1523 mt 2811 1573 L
3006 1523 mt 3056 1573 L
3056 1523 mt 3006 1573 L
3201 1523 mt 3251 1573 L
3251 1523 mt 3201 1573 L
3396 1531 mt 3446 1581 L
3446 1531 mt 3396 1581 L
3590 1541 mt 3640 1591 L
3640 1541 mt 3590 1591 L
3785 1541 mt 3835 1591 L
3835 1541 mt 3785 1591 L
3980 1541 mt 4030 1591 L
4030 1541 mt 3980 1591 L
4175 1541 mt 4225 1591 L
4225 1541 mt 4175 1591 L
4370 1541 mt 4420 1591 L
4420 1541 mt 4370 1591 L
4564 1548 mt 4614 1598 L
4614 1548 mt 4564 1598 L
4759 1548 mt 4809 1598 L
4809 1548 mt 4759 1598 L
4954 1555 mt 5004 1605 L
5004 1555 mt 4954 1605 L
5149 1557 mt 5199 1607 L
5199 1557 mt 5149 1607 L
5343 1557 mt 5393 1607 L
5393 1557 mt 5343 1607 L
5538 1563 mt 5588 1613 L
5588 1563 mt 5538 1613 L
5733 1565 mt 5783 1615 L
5783 1565 mt 5733 1615 L
gs 899 389 5357 4227 rc
c12
10 5 10 1 9 0 10 12 10 0 10 2 9 2 10 9 
10 0 10 0 9 19 10 0 10 6 9 7 10 13 10 12 
10 0 9 0 10 0 10 0 10 0 9 0 10 0 10 0 
10 5 9 0 10 1 10 3 10 6 9 0 10 0 10 0 
10 0 9 0 10 0 10 8 9 0 10 2 10 0 10 0 
9 0 10 0 10 0 10 0 9 0 10 0 10 0 10 0 
9 0 10 0 10 0 10 8 9 0 10 0 10 9 9 11 
10 13 10 3 10 18 9 2 10 14 10 0 10 0 9 0 
10 8 10 0 10 11 9 7 10 5 10 0 10 28 9 0 
10 25 10 0 10 17 9 0 10 0 10 0 9 0 10 0 
10 0 10 0 9 0 10 6 10 0 10 0 9 0 10 0 
10 0 10 0 9 0 10 0 10 0 10 0 9 0 10 0 
10 0 9 7 10 0 10 0 10 3 9 1 10 8 10 4 
10 11 9 0 10 7 10 0 10 11 9 0 10 0 10 10 
10 5 9 0 10 6 10 0 10 1 9 0 10 0 10 0 
9 0 10 0 10 0 10 12 9 14 10 10 10 0 10 0 
9 2 10 0 10 0 10 0 9 0 10 0 10 0 10 0 
9 0 10 0 10 18 9 0 10 0 10 0 10 0 9 0 
10 0 10 0 10 0 9 0 10 0 10 0 10 0 9 9 
10 28 10 0 10 0 9 61 10 8 10 2 10 0 9 12 
10 0 10 0 9 0 10 0 10 4 10 1 9 5 10 0 
10 0 10 0 9 0 10 0 10 0 10 0 9 25 10 0 
10 0 10 0 9 0 10 0 10 0 9 0 10 0 10 0 
10 0 9 0 10 0 10 0 10 0 9 0 10 0 10 0 
10 0 9 15 10 0 10 0 10 0 9 0 10 0 10 2 
10 7 9 0 10 0 10 3 9 0 10 0 10 16 10 1 
9 0 10 4 10 0 10 16 9 16 10 0 10 0 10 2 
9 0 10 0 10 0 10 0 9 0 10 0 10 0 9 0 
10 0 10 12 10 0 9 0 10 0 10 0 10 0 9 0 
10 0 10 0 10 0 9 0 10 0 10 0 10 0 9 0 
10 0 10 0 10 0 9 2 10 0 10 9 9 0 10 0 
10 0 10 0 9 0 10 0 10 0 10 0 9 12 10 1 
10 0 10 0 9 23 10 0 10 0 10 14 9 0 10 0 
10 19 10 0 9 0 10 0 10 0 9 0 10 0 10 0 
10 0 9 1 10 3 10 5 10 37 9 16 10 0 10 0 
10 0 9 0 10 0 10 0 10 0 9 0 10 0 10 0 
9 0 10 13 10 0 10 0 9 0 10 0 10 0 10 0 
9 0 10 0 10 0 2846 2197 300 MP stroke
10 0 9 0 10 0 10 0 10 0 9 0 10 27 10 1 
10 0 9 0 10 0 10 16 9 0 10 0 10 0 10 0 
9 0 10 11 10 18 10 5 9 4 10 1 10 0 10 4 
9 0 10 1 10 2 10 1 9 2 10 0 10 0 9 7 
10 0 10 0 10 0 9 11 10 0 10 9 10 0 9 6 
10 0 10 0 10 0 9 0 10 0 10 0 10 0 9 0 
10 0 10 0 10 0 9 0 10 0 10 0 9 0 10 0 
10 9 10 0 9 0 10 7 10 0 10 0 9 24 10 0 
10 0 10 0 9 0 10 0 10 0 10 0 9 0 10 0 
10 0 9 0 10 0 10 0 10 0 9 0 10 0 10 0 
10 0 9 0 10 0 10 0 10 0 9 0 10 0 10 0 
10 0 9 0 10 0 10 3 10 0 9 0 10 0 10 0 
9 0 10 0 10 0 10 0 9 9 10 5 10 0 10 0 
9 0 10 0 10 0 10 5 9 0 10 0 10 5 10 4 
9 0 10 0 10 0 9 0 10 0 10 0 10 0 9 0 
10 0 10 0 10 0 9 0 10 11 10 7 10 0 9 0 
10 0 10 0 10 0 9 0 10 18 10 0 10 8 9 5 
10 0 10 0 9 17 10 0 10 1 10 0 9 0 10 0 
10 0 10 11 9 0 10 0 10 0 10 0 9 0 10 0 
10 0 10 0 9 0 10 0 10 0 9 23 10 0 10 0 
10 0 9 1 10 0 10 0 10 0 9 0 10 0 10 0 
10 0 9 4 10 0 10 0 10 0 9 0 10 0 10 0 
10 0 9 1 10 0 10 0 9 0 10 0 10 0 10 0 
9 0 10 0 10 0 10 0 9 0 10 0 10 0 10 0 
9 0 10 0 10 0 10 0 9 0 10 0 10 0 9 0 
899 1893 201 MP stroke
0 107 1084 1840 2 MP stroke
93 0 1037 1840 2 MP stroke
93 0 1037 1947 2 MP stroke
0 103 1278 1848 2 MP stroke
93 0 1232 1848 2 MP stroke
93 0 1232 1951 2 MP stroke
0 92 1473 1887 2 MP stroke
94 0 1426 1887 2 MP stroke
94 0 1426 1979 2 MP stroke
0 104 1668 1948 2 MP stroke
94 0 1621 1948 2 MP stroke
94 0 1621 2052 2 MP stroke
0 96 1863 1971 2 MP stroke
93 0 1816 1971 2 MP stroke
93 0 1816 2067 2 MP stroke
0 93 2057 1984 2 MP stroke
93 0 2011 1984 2 MP stroke
93 0 2011 2077 2 MP stroke
0 93 2252 2009 2 MP stroke
94 0 2205 2009 2 MP stroke
94 0 2205 2102 2 MP stroke
0 97 2447 2023 2 MP stroke
94 0 2400 2023 2 MP stroke
94 0 2400 2120 2 MP stroke
0 106 2642 2062 2 MP stroke
93 0 2595 2062 2 MP stroke
93 0 2595 2168 2 MP stroke
0 115 2836 2140 2 MP stroke
93 0 2790 2140 2 MP stroke
93 0 2790 2255 2 MP stroke
0 111 3031 2154 2 MP stroke
94 0 2984 2154 2 MP stroke
94 0 2984 2265 2 MP stroke
0 123 3226 2244 2 MP stroke
94 0 3179 2244 2 MP stroke
94 0 3179 2367 2 MP stroke
0 103 3421 2300 2 MP stroke
93 0 3374 2300 2 MP stroke
93 0 3374 2403 2 MP stroke
0 108 3615 2310 2 MP stroke
93 0 3569 2310 2 MP stroke
93 0 3569 2418 2 MP stroke
0 144 3810 2357 2 MP stroke
94 0 3763 2357 2 MP stroke
94 0 3763 2501 2 MP stroke
0 137 4005 2377 2 MP stroke
94 0 3958 2377 2 MP stroke
94 0 3958 2514 2 MP stroke
0 138 4200 2412 2 MP stroke
93 0 4153 2412 2 MP stroke
93 0 4153 2550 2 MP stroke
0 166 4395 2518 2 MP stroke
93 0 4348 2518 2 MP stroke
93 0 4348 2684 2 MP stroke
0 169 4589 2573 2 MP stroke
93 0 4543 2573 2 MP stroke
93 0 4543 2742 2 MP stroke
0 176 4784 2636 2 MP stroke
94 0 4737 2636 2 MP stroke
94 0 4737 2812 2 MP stroke
0 178 4979 2648 2 MP stroke
94 0 4932 2648 2 MP stroke
94 0 4932 2826 2 MP stroke
0 239 5174 2733 2 MP stroke
93 0 5127 2733 2 MP stroke
93 0 5127 2972 2 MP stroke
0 238 5368 2798 2 MP stroke
93 0 5322 2798 2 MP stroke
93 0 5322 3036 2 MP stroke
0 230 5563 2827 2 MP stroke
94 0 5516 2827 2 MP stroke
94 0 5516 3057 2 MP stroke
0 244 5758 2907 2 MP stroke
94 0 5711 2907 2 MP stroke
94 0 5711 3151 2 MP stroke
gr

c12
36 47 -36 47 -36 -47 36 -47 1084 1940 5 MP
DP
36 47 -36 47 -36 -47 36 -47 1278 1946 5 MP
DP
36 47 -36 47 -36 -47 36 -47 1473 1980 5 MP
DP
36 47 -36 47 -36 -47 36 -47 1668 2047 5 MP
DP
36 47 -36 47 -36 -47 36 -47 1863 2066 5 MP
DP
36 47 -36 47 -36 -47 36 -47 2057 2078 5 MP
DP
36 47 -36 47 -36 -47 36 -47 2252 2102 5 MP
DP
36 47 -36 47 -36 -47 36 -47 2447 2118 5 MP
DP
36 47 -36 47 -36 -47 36 -47 2642 2162 5 MP
DP
36 47 -36 47 -36 -47 36 -47 2836 2244 5 MP
DP
36 47 -36 47 -36 -47 36 -47 3031 2257 5 MP
DP
36 47 -36 47 -36 -47 36 -47 3226 2352 5 MP
DP
36 47 -36 47 -36 -47 36 -47 3421 2399 5 MP
DP
36 47 -36 47 -36 -47 36 -47 3615 2411 5 MP
DP
36 47 -36 47 -36 -47 36 -47 3810 2476 5 MP
DP
36 47 -36 47 -36 -47 36 -47 4005 2493 5 MP
DP
36 47 -36 47 -36 -47 36 -47 4200 2528 5 MP
DP
36 47 -36 47 -36 -47 36 -47 4395 2648 5 MP
DP
36 47 -36 47 -36 -47 36 -47 4589 2704 5 MP
DP
36 47 -36 47 -36 -47 36 -47 4784 2771 5 MP
DP
36 47 -36 47 -36 -47 36 -47 4979 2784 5 MP
DP
36 47 -36 47 -36 -47 36 -47 5174 2899 5 MP
DP
36 47 -36 47 -36 -47 36 -47 5368 2963 5 MP
DP
36 47 -36 47 -36 -47 36 -47 5563 2988 5 MP
DP
36 47 -36 47 -36 -47 36 -47 5758 3076 5 MP
DP
gs 899 389 5357 4227 rc
0 sg
10 3 10 0 9 4 10 0 10 0 10 1 9 0 10 0 
10 0 10 0 9 0 10 0 10 1 9 1 10 0 10 0 
10 0 9 0 10 0 10 0 10 0 9 0 10 0 10 0 
10 6 9 0 10 21 10 0 10 0 9 0 10 0 10 1 
10 1 9 15 10 0 10 0 9 0 10 27 10 3 10 5 
9 5 10 1 10 0 10 10 9 1 10 9 10 0 10 0 
9 0 10 0 10 0 10 0 9 0 10 7 10 0 9 0 
10 7 10 0 10 0 9 0 10 0 10 3 10 1 9 0 
10 0 10 0 10 0 9 0 10 3 10 3 10 0 9 0 
10 5 10 0 10 0 9 8 10 6 10 1 9 0 10 2 
10 0 10 0 9 0 10 0 10 0 10 8 9 0 10 0 
10 3 10 0 9 0 10 26 10 0 10 0 9 9 10 3 
10 0 9 0 10 0 10 0 10 0 9 0 10 0 10 0 
10 0 9 0 10 0 10 0 10 0 9 0 10 0 10 0 
10 0 9 0 10 0 10 16 10 0 9 0 10 0 10 0 
9 0 10 10 10 0 10 0 9 15 10 0 10 0 10 1 
9 0 10 27 10 6 10 0 9 0 10 0 10 18 10 0 
9 21 10 6 10 9 9 1 10 0 10 4 10 7 9 0 
10 17 10 0 10 0 9 0 10 0 10 0 10 0 9 0 
10 0 10 0 10 0 9 0 10 0 10 0 10 5 9 0 
10 0 10 0 9 20 10 3 10 0 10 18 9 1 10 8 
10 4 10 4 9 4 10 0 10 13 10 0 9 0 10 0 
10 1 10 5 9 2 10 0 10 7 9 0 10 1 10 5 
10 0 9 0 10 3 10 0 10 6 9 7 10 0 10 0 
10 0 9 0 10 0 10 26 10 0 9 0 10 0 10 0 
10 0 9 0 10 10 10 10 9 4 10 4 10 0 10 0 
9 0 10 0 10 9 10 0 9 0 10 12 10 5 10 4 
9 0 10 0 10 0 10 0 9 0 10 1 10 0 9 4 
10 0 10 1 10 14 9 0 10 0 10 0 10 9 9 0 
10 1 10 0 10 9 9 0 10 0 10 0 10 6 9 1 
10 0 10 15 10 3 9 9 10 4 10 25 9 5 10 0 
10 0 10 0 9 2 10 2 10 0 10 0 9 0 10 2 
10 0 10 0 9 0 10 3 10 0 10 0 9 0 10 0 
10 0 10 0 9 0 10 11 10 18 9 3 10 0 10 0 
10 10 9 0 10 0 10 0 10 0 9 2 10 0 10 0 
10 0 9 3 10 1 10 24 10 0 9 12 10 27 10 0 
9 0 10 20 10 3 10 0 9 3 10 60 10 3 10 12 
9 16 10 0 10 0 2846 3629 300 MP stroke
10 42 9 2 10 0 10 0 10 0 9 33 10 0 10 0 
10 0 9 0 10 10 10 10 9 0 10 4 10 6 10 22 
9 0 10 0 10 0 10 14 9 1 10 11 10 0 10 21 
9 6 10 1 10 3 10 0 9 0 10 2 10 18 9 3 
10 10 10 13 10 0 9 0 10 2 10 1 10 0 9 1 
10 1 10 0 10 6 9 13 10 32 10 0 10 0 9 0 
10 0 10 0 10 6 9 13 10 15 10 2 9 4 10 0 
10 0 10 0 9 0 10 0 10 0 10 0 9 3 10 4 
10 0 10 0 9 0 10 3 10 0 10 5 9 0 10 1 
10 1 9 0 10 0 10 0 10 0 9 0 10 0 10 5 
10 0 9 2 10 11 10 9 10 0 9 0 10 0 10 5 
10 0 9 37 10 21 10 33 10 29 9 3 10 21 10 4 
9 13 10 0 10 0 10 0 9 0 10 0 10 0 10 22 
9 0 10 0 10 0 10 0 9 12 10 0 10 0 10 0 
9 1 10 3 10 5 9 0 10 3 10 0 10 18 9 13 
10 4 10 0 10 0 9 10 10 6 10 54 10 0 9 36 
10 7 10 4 10 0 9 3 10 0 10 6 10 0 9 33 
10 1 10 7 9 7 10 2 10 10 10 16 9 9 10 0 
10 19 10 0 9 23 10 0 10 0 10 0 9 0 10 0 
10 0 10 0 9 11 10 1 10 0 9 17 10 0 10 0 
10 11 9 20 10 9 10 19 10 5 9 0 10 0 10 20 
10 0 9 0 10 0 10 2 10 0 9 0 10 0 10 0 
10 6 9 6 10 0 10 10 9 0 10 1 10 0 10 0 
9 0 10 0 10 0 10 5 9 0 10 0 10 0 10 0 
9 20 10 0 10 0 10 6 9 13 10 0 10 0 9 0 
899 2575 201 MP stroke
0 123 1084 2559 2 MP stroke
93 0 1037 2559 2 MP stroke
93 0 1037 2682 2 MP stroke
0 124 1278 2655 2 MP stroke
93 0 1232 2655 2 MP stroke
93 0 1232 2779 2 MP stroke
0 112 1473 2768 2 MP stroke
94 0 1426 2768 2 MP stroke
94 0 1426 2880 2 MP stroke
0 125 1668 2947 2 MP stroke
94 0 1621 2947 2 MP stroke
94 0 1621 3072 2 MP stroke
0 130 1863 3026 2 MP stroke
93 0 1816 3026 2 MP stroke
93 0 1816 3156 2 MP stroke
0 149 2057 3205 2 MP stroke
93 0 2011 3205 2 MP stroke
93 0 2011 3354 2 MP stroke
0 158 2252 3222 2 MP stroke
94 0 2205 3222 2 MP stroke
94 0 2205 3380 2 MP stroke
0 156 2447 3314 2 MP stroke
94 0 2400 3314 2 MP stroke
94 0 2400 3470 2 MP stroke
0 153 2642 3409 2 MP stroke
93 0 2595 3409 2 MP stroke
93 0 2595 3562 2 MP stroke
0 149 2836 3513 2 MP stroke
93 0 2790 3513 2 MP stroke
93 0 2790 3662 2 MP stroke
0 179 3031 3724 2 MP stroke
94 0 2984 3724 2 MP stroke
94 0 2984 3903 2 MP stroke
0 171 3226 3772 2 MP stroke
94 0 3179 3772 2 MP stroke
94 0 3179 3943 2 MP stroke
0 173 3421 3841 2 MP stroke
93 0 3374 3841 2 MP stroke
93 0 3374 4014 2 MP stroke
0 171 3615 3888 2 MP stroke
93 0 3569 3888 2 MP stroke
93 0 3569 4059 2 MP stroke
0 161 3810 3951 2 MP stroke
94 0 3763 3951 2 MP stroke
94 0 3763 4112 2 MP stroke
0 158 4005 4007 2 MP stroke
94 0 3958 4007 2 MP stroke
94 0 3958 4165 2 MP stroke
0 154 4200 4092 2 MP stroke
93 0 4153 4092 2 MP stroke
93 0 4153 4246 2 MP stroke
0 160 4395 4122 2 MP stroke
93 0 4348 4122 2 MP stroke
93 0 4348 4282 2 MP stroke
0 165 4589 4234 2 MP stroke
93 0 4543 4234 2 MP stroke
93 0 4543 4399 2 MP stroke
0 156 4784 4254 2 MP stroke
94 0 4737 4254 2 MP stroke
94 0 4737 4410 2 MP stroke
0 162 4979 4300 2 MP stroke
94 0 4932 4300 2 MP stroke
94 0 4932 4462 2 MP stroke
0 147 5174 4340 2 MP stroke
93 0 5127 4340 2 MP stroke
93 0 5127 4487 2 MP stroke
0 136 5368 4385 2 MP stroke
93 0 5322 4385 2 MP stroke
93 0 5322 4521 2 MP stroke
0 143 5563 4461 2 MP stroke
94 0 5516 4461 2 MP stroke
94 0 5516 4604 2 MP stroke
0 146 5758 4469 2 MP stroke
94 0 5711 4469 2 MP stroke
94 0 5711 4615 2 MP stroke
gr

0 sg
1048 2620 mt 1120 2620 L
1084 2584 mt 1084 2656 L
1242 2717 mt 1314 2717 L
1278 2681 mt 1278 2753 L
1437 2824 mt 1509 2824 L
1473 2788 mt 1473 2860 L
1632 3010 mt 1704 3010 L
1668 2974 mt 1668 3046 L
1827 3091 mt 1899 3091 L
1863 3055 mt 1863 3127 L
2021 3279 mt 2093 3279 L
2057 3243 mt 2057 3315 L
2216 3301 mt 2288 3301 L
2252 3265 mt 2252 3337 L
2411 3392 mt 2483 3392 L
2447 3356 mt 2447 3428 L
2606 3485 mt 2678 3485 L
2642 3449 mt 2642 3521 L
2800 3587 mt 2872 3587 L
2836 3551 mt 2836 3623 L
2995 3813 mt 3067 3813 L
3031 3777 mt 3031 3849 L
3190 3857 mt 3262 3857 L
3226 3821 mt 3226 3893 L
3385 3927 mt 3457 3927 L
3421 3891 mt 3421 3963 L
3579 3973 mt 3651 3973 L
3615 3937 mt 3615 4009 L
3774 4031 mt 3846 4031 L
3810 3995 mt 3810 4067 L
3969 4086 mt 4041 4086 L
4005 4050 mt 4005 4122 L
4164 4169 mt 4236 4169 L
4200 4133 mt 4200 4205 L
4359 4202 mt 4431 4202 L
4395 4166 mt 4395 4238 L
4553 4316 mt 4625 4316 L
4589 4280 mt 4589 4352 L
4748 4332 mt 4820 4332 L
4784 4296 mt 4784 4368 L
4943 4381 mt 5015 4381 L
4979 4345 mt 4979 4417 L
5138 4413 mt 5210 4413 L
5174 4377 mt 5174 4449 L
5332 4453 mt 5404 4453 L
5368 4417 mt 5368 4489 L
5527 4532 mt 5599 4532 L
5563 4496 mt 5563 4568 L
5722 4542 mt 5794 4542 L
5758 4506 mt 5758 4578 L
gs 899 389 5357 4227 rc
gr

1 sg
0 918 1538 0 0 -918 4658 1367 4 MP
PP
-1538 0 0 918 1538 0 0 -918 4658 1367 5 MP stroke
4 w
DO
SO
6 w
0 sg
4658 1367 mt 6196 1367 L
4658  449 mt 6196  449 L
4658 1367 mt 4658  449 L
6196 1367 mt 6196  449 L
4658 1367 mt 6196 1367 L
4658 1367 mt 4658  449 L
4658 1367 mt 6196 1367 L
4658  449 mt 6196  449 L
4658 1367 mt 4658  449 L
6196 1367 mt 6196  449 L
5125  581 mt 
(original BO) s
gs 4658 449 1539 919 rc
gs 4836 465 147 147 rc
41 71 -82 0 41 -71 4909 585 4 MP
c8
DP
gr

c8
gr

c8
0 sg
5125  729 mt 
(random basis) s
gs 4658 449 1539 919 rc
gs 4836 613 147 147 rc
0 -58 -58 0 0 58 58 0 4880 657 5 MP
c9
DP
gr

c9
gr

c9
0 sg
5125  877 mt 
(random embedding) s
gs 4658 449 1539 919 rc
gs 4836 761 147 147 rc
c10
  36   36 4909  834 FO
gr

c10
gr

c10
0 sg
5125 1024 mt 
(subpsace learning) s
gs 4658 449 1539 919 rc
gs 4836 908 147 147 rc
c11
4873  981 mt 4945  981 L
4909  945 mt 4909 1017 L
4884  956 mt 4934 1006 L
4934  956 mt 4884 1006 L
gr

c11
gr

c11
0 sg
5125 1172 mt 
(additive model) s
gs 4658 449 1539 919 rc
gs 4836 1056 147 147 rc
36 47 -36 47 -36 -47 36 -47 4909 1176 5 MP
c12
DP
gr

c12
gr

c12
0 sg
5125 1320 mt 
(anova ve) s
gs 4658 449 1539 919 rc
gs 4836 1204 147 147 rc
4873 1277 mt 4945 1277 L
4909 1241 mt 4909 1313 L
gr

gr


end %%Color Dict

eplot
%%EndObject

epage
end

showpage

%%Trailer
%%EOF
