%!PS-Adobe-3.0 EPSF-3.0
%%Creator: MATLAB, The MathWorks, Inc. Version 7.12.0.635 (R2011a). Operating System: Linux 3.16.0-4-amd64 #1 SMP Debian 3.16.7-ckt20-1+deb8u3 (2016-01-17) x86_64.
%%Title: /home/jaemin/Research/codes_MATSIM/HIGHDIM_BO_MATSIM/results/logsumSE2/logsumSE2_avr_cumulative_regret_10.eps
%%CreationDate: 05/20/2016  23:02:18
%%DocumentNeededFonts: Helvetica
%%DocumentProcessColors: Cyan Magenta Yellow Black
%%LanguageLevel: 2
%%Pages: 1
%%BoundingBox:    47   199   546   591
%%EndComments

%%BeginProlog
% MathWorks dictionary
/MathWorks 160 dict begin
% definition operators
/bdef {bind def} bind def
/ldef {load def} bind def
/xdef {exch def} bdef
/xstore {exch store} bdef
% operator abbreviations
/c  /clip ldef
/cc /concat ldef
/cp /closepath ldef
/gr /grestore ldef
/gs /gsave ldef
/mt /moveto ldef
/np /newpath ldef
/cm /currentmatrix ldef
/sm /setmatrix ldef
/rm /rmoveto ldef
/rl /rlineto ldef
/s {show newpath} bdef
/sc {setcmykcolor} bdef
/sr /setrgbcolor ldef
/sg /setgray ldef
/w /setlinewidth ldef
/j /setlinejoin ldef
/cap /setlinecap ldef
/rc {rectclip} bdef
/rf {rectfill} bdef
% page state control
/pgsv () def
/bpage {/pgsv save def} bdef
/epage {pgsv restore} bdef
/bplot /gsave ldef
/eplot {stroke grestore} bdef
% orientation switch
/portraitMode 0 def /landscapeMode 1 def /rotateMode 2 def
% coordinate system mappings
/dpi2point 0 def
% font control
/FontSize 0 def
/FMS {/FontSize xstore findfont [FontSize 0 0 FontSize neg 0 0]
  makefont setfont} bdef
/reencode {exch dup where {pop load} {pop StandardEncoding} ifelse
  exch dup 3 1 roll findfont dup length dict begin
  { 1 index /FID ne {def}{pop pop} ifelse } forall
  /Encoding exch def currentdict end definefont pop} bdef
/isroman {findfont /CharStrings get /Agrave known} bdef
/FMSR {3 1 roll 1 index dup isroman {reencode} {pop pop} ifelse
  exch FMS} bdef
/csm {1 dpi2point div -1 dpi2point div scale neg translate
 dup landscapeMode eq {pop -90 rotate}
  {rotateMode eq {90 rotate} if} ifelse} bdef
% line types: solid, dotted, dashed, dotdash
/SO { [] 0 setdash } bdef
/DO { [.5 dpi2point mul 4 dpi2point mul] 0 setdash } bdef
/DA { [6 dpi2point mul] 0 setdash } bdef
/DD { [.5 dpi2point mul 4 dpi2point mul 6 dpi2point mul 4
  dpi2point mul] 0 setdash } bdef
% macros for lines and objects
/L {lineto stroke} bdef
/MP {3 1 roll moveto 1 sub {rlineto} repeat} bdef
/AP {{rlineto} repeat} bdef
/PDlw -1 def
/W {/PDlw currentlinewidth def setlinewidth} def
/PP {closepath eofill} bdef
/DP {closepath stroke} bdef
/MR {4 -2 roll moveto dup  0 exch rlineto exch 0 rlineto
  neg 0 exch rlineto closepath} bdef
/FR {MR stroke} bdef
/PR {MR fill} bdef
/L1i {{currentfile picstr readhexstring pop} image} bdef
/tMatrix matrix def
/MakeOval {newpath tMatrix currentmatrix pop translate scale
0 0 1 0 360 arc tMatrix setmatrix} bdef
/FO {MakeOval stroke} bdef
/PO {MakeOval fill} bdef
/PD {currentlinewidth 2 div 0 360 arc fill
   PDlw -1 eq not {PDlw w /PDlw -1 def} if} def
/FA {newpath tMatrix currentmatrix pop translate scale
  0 0 1 5 -2 roll arc tMatrix setmatrix stroke} bdef
/PA {newpath tMatrix currentmatrix pop	translate 0 0 moveto scale
  0 0 1 5 -2 roll arc closepath tMatrix setmatrix fill} bdef
/FAn {newpath tMatrix currentmatrix pop translate scale
  0 0 1 5 -2 roll arcn tMatrix setmatrix stroke} bdef
/PAn {newpath tMatrix currentmatrix pop translate 0 0 moveto scale
  0 0 1 5 -2 roll arcn closepath tMatrix setmatrix fill} bdef
/vradius 0 def /hradius 0 def /lry 0 def
/lrx 0 def /uly 0 def /ulx 0 def /rad 0 def
/MRR {/vradius xdef /hradius xdef /lry xdef /lrx xdef /uly xdef
  /ulx xdef newpath tMatrix currentmatrix pop ulx hradius add uly
  vradius add translate hradius vradius scale 0 0 1 180 270 arc 
  tMatrix setmatrix lrx hradius sub uly vradius add translate
  hradius vradius scale 0 0 1 270 360 arc tMatrix setmatrix
  lrx hradius sub lry vradius sub translate hradius vradius scale
  0 0 1 0 90 arc tMatrix setmatrix ulx hradius add lry vradius sub
  translate hradius vradius scale 0 0 1 90 180 arc tMatrix setmatrix
  closepath} bdef
/FRR {MRR stroke } bdef
/PRR {MRR fill } bdef
/MlrRR {/lry xdef /lrx xdef /uly xdef /ulx xdef /rad lry uly sub 2 div def
  newpath tMatrix currentmatrix pop ulx rad add uly rad add translate
  rad rad scale 0 0 1 90 270 arc tMatrix setmatrix lrx rad sub lry rad
  sub translate rad rad scale 0 0 1 270 90 arc tMatrix setmatrix
  closepath} bdef
/FlrRR {MlrRR stroke } bdef
/PlrRR {MlrRR fill } bdef
/MtbRR {/lry xdef /lrx xdef /uly xdef /ulx xdef /rad lrx ulx sub 2 div def
  newpath tMatrix currentmatrix pop ulx rad add uly rad add translate
  rad rad scale 0 0 1 180 360 arc tMatrix setmatrix lrx rad sub lry rad
  sub translate rad rad scale 0 0 1 0 180 arc tMatrix setmatrix
  closepath} bdef
/FtbRR {MtbRR stroke } bdef
/PtbRR {MtbRR fill } bdef
/stri 6 array def /dtri 6 array def
/smat 6 array def /dmat 6 array def
/tmat1 6 array def /tmat2 6 array def /dif 3 array def
/asub {/ind2 exch def /ind1 exch def dup dup
  ind1 get exch ind2 get sub exch } bdef
/tri_to_matrix {
  2 0 asub 3 1 asub 4 0 asub 5 1 asub
  dup 0 get exch 1 get 7 -1 roll astore } bdef
/compute_transform {
  dmat dtri tri_to_matrix tmat1 invertmatrix 
  smat stri tri_to_matrix tmat2 concatmatrix } bdef
/ds {stri astore pop} bdef
/dt {dtri astore pop} bdef
/db {2 copy /cols xdef /rows xdef mul dup 3 mul string
  currentfile 
  3 index 0 eq {/ASCIIHexDecode filter}
  {/ASCII85Decode filter 3 index 2 eq {/RunLengthDecode filter} if }
  ifelse exch readstring pop
  dup 0 3 index getinterval /rbmap xdef
  dup 2 index dup getinterval /gbmap xdef
  1 index dup 2 mul exch getinterval /bbmap xdef pop pop}bdef
/it {gs np dtri aload pop moveto lineto lineto cp c
  cols rows 8 compute_transform 
  rbmap gbmap bbmap true 3 colorimage gr}bdef
/il {newpath moveto lineto stroke}bdef
currentdict end def
%%EndProlog

%%BeginSetup
MathWorks begin

0 cap

end
%%EndSetup

%%Page: 1 1
%%BeginPageSetup
%%PageBoundingBox:    47   199   546   591
MathWorks begin
bpage
%%EndPageSetup

%%BeginObject: obj1
bplot

/dpi2point 12 def
portraitMode 0216 7344 csm

  348   246  5997  4709 rc
88 dict begin %Colortable dictionary
/c0 { 0.000000 0.000000 0.000000 sr} bdef
/c1 { 1.000000 1.000000 1.000000 sr} bdef
/c2 { 0.900000 0.000000 0.000000 sr} bdef
/c3 { 0.000000 0.820000 0.000000 sr} bdef
/c4 { 0.000000 0.000000 0.800000 sr} bdef
/c5 { 0.910000 0.820000 0.320000 sr} bdef
/c6 { 1.000000 0.260000 0.820000 sr} bdef
/c7 { 0.000000 0.820000 0.820000 sr} bdef
c0
1 j
1 sg
   0    0 6913 5186 rf
6 w
0 4226 5356 0 0 -4226 899 4614 4 MP
PP
-5356 0 0 4226 5356 0 0 -4226 899 4614 5 MP stroke
4 w
DO
SO
6 w
0 sg
 899 4614 mt 6255 4614 L
 899  388 mt 6255  388 L
 899 4614 mt  899  388 L
6255 4614 mt 6255  388 L
 899 4614 mt 6255 4614 L
 899 4614 mt  899  388 L
 899 4614 mt  899 4561 L
 899  388 mt  899  442 L
%%IncludeResource: font Helvetica
/Helvetica /ISOLatin1Encoding 120 FMSR

 866 4760 mt 
(0) s
1385 4614 mt 1385 4561 L
1385  388 mt 1385  442 L
1319 4760 mt 
(50) s
1872 4614 mt 1872 4561 L
1872  388 mt 1872  442 L
1772 4760 mt 
(100) s
2359 4614 mt 2359 4561 L
2359  388 mt 2359  442 L
2259 4760 mt 
(150) s
2846 4614 mt 2846 4561 L
2846  388 mt 2846  442 L
2746 4760 mt 
(200) s
3333 4614 mt 3333 4561 L
3333  388 mt 3333  442 L
3233 4760 mt 
(250) s
3820 4614 mt 3820 4561 L
3820  388 mt 3820  442 L
3720 4760 mt 
(300) s
4307 4614 mt 4307 4561 L
4307  388 mt 4307  442 L
4207 4760 mt 
(350) s
4794 4614 mt 4794 4561 L
4794  388 mt 4794  442 L
4694 4760 mt 
(400) s
5281 4614 mt 5281 4561 L
5281  388 mt 5281  442 L
5181 4760 mt 
(450) s
5768 4614 mt 5768 4561 L
5768  388 mt 5768  442 L
5668 4760 mt 
(500) s
 899 4614 mt  899 4614 L
 899 4614 mt  899 4614 L
 899 4614 mt  899 4614 L
 899 4614 mt  899 4614 L
 899 4614 mt  899 4614 L
 899 4614 mt  899 4614 L
 899 4614 mt  899 4614 L
 899 4614 mt  899 4614 L
 899 4614 mt  899 4614 L
 899 4614 mt  899 4614 L
 899 4614 mt  899 4614 L
 899 4614 mt  899 4614 L
 899 4614 mt  899 4614 L
 899 4614 mt  899 4614 L
 899 4614 mt  899 4614 L
 899 4614 mt  899 4614 L
 899 4614 mt  899 4614 L
 899 4614 mt  899 4614 L
 899 3425 mt  952 3425 L
6255 3425 mt 6201 3425 L
 620 3469 mt 
(10) s
%%IncludeResource: font Helvetica
/Helvetica /ISOLatin1Encoding 80 FMSR

 753 3395 mt 
(0.2) s
 899 4614 mt  899 4614 L
 899 4614 mt  899 4614 L
 899 4614 mt  899 4614 L
 899 4614 mt  899 4614 L
 899 4614 mt  899 4614 L
 899 4614 mt  899 4614 L
 899 4614 mt  899 4614 L
 899 4614 mt  899 4614 L
 899 4614 mt  899 4614 L
 899 4614 mt  899 4614 L
 899 4614 mt  899 4614 L
 899 4614 mt  899 4614 L
 899 4614 mt  899 4614 L
 899 4614 mt  899 4614 L
 899 4614 mt  899 4614 L
 899 4614 mt  899 4614 L
 899 4614 mt  899 4614 L
 899 4614 mt  899 4614 L
 899 1263 mt  952 1263 L
6255 1263 mt 6201 1263 L
%%IncludeResource: font Helvetica
/Helvetica /ISOLatin1Encoding 120 FMSR

 620 1307 mt 
(10) s
%%IncludeResource: font Helvetica
/Helvetica /ISOLatin1Encoding 80 FMSR

 753 1233 mt 
(0.3) s
 899 4614 mt  899 4614 L
 899 4614 mt  899 4614 L
 899 4614 mt  899 4614 L
 899 4614 mt  899 4614 L
 899 4614 mt  899 4614 L
 899 4614 mt  899 4614 L
 899 4614 mt  899 4614 L
 899 4614 mt  899 4614 L
 899 4614 mt  899 4614 L
 899 4614 mt  899 4614 L
 899 4614 mt  899 4614 L
 899 4614 mt  899 4614 L
 899 4614 mt  899 4614 L
 899 4614 mt  899 4614 L
 899 4614 mt  899 4614 L
 899 4614 mt  899 4614 L
 899 4614 mt  899 4614 L
 899 4614 mt  899 4614 L
 899 4614 mt 6255 4614 L
 899  388 mt 6255  388 L
 899 4614 mt  899  388 L
6255 4614 mt 6255  388 L
gs 899 388 5357 4227 rc
gr

0 j
41 71 -82 0 41 -71 1084 675 4 MP
/c8 { 0.000000 1.000000 0.000000 sr} bdef
c8
DP
41 71 -82 0 41 -71 1278 691 4 MP
DP
41 71 -82 0 41 -71 1473 695 4 MP
DP
41 71 -82 0 41 -71 1668 702 4 MP
DP
41 71 -82 0 41 -71 1863 710 4 MP
DP
41 71 -82 0 41 -71 2057 720 4 MP
DP
41 71 -82 0 41 -71 2252 730 4 MP
DP
41 71 -82 0 41 -71 2447 734 4 MP
DP
41 71 -82 0 41 -71 2642 740 4 MP
DP
41 71 -82 0 41 -71 2836 746 4 MP
DP
41 71 -82 0 41 -71 3031 751 4 MP
DP
41 71 -82 0 41 -71 3226 757 4 MP
DP
41 71 -82 0 41 -71 3421 762 4 MP
DP
41 71 -82 0 41 -71 3615 762 4 MP
DP
41 71 -82 0 41 -71 3810 764 4 MP
DP
41 71 -82 0 41 -71 4005 763 4 MP
DP
41 71 -82 0 41 -71 4200 764 4 MP
DP
41 71 -82 0 41 -71 4395 763 4 MP
DP
41 71 -82 0 41 -71 4589 764 4 MP
DP
41 71 -82 0 41 -71 4784 766 4 MP
DP
41 71 -82 0 41 -71 4979 764 4 MP
DP
41 71 -82 0 41 -71 5174 764 4 MP
DP
41 71 -82 0 41 -71 5368 766 4 MP
DP
41 71 -82 0 41 -71 5563 766 4 MP
DP
41 71 -82 0 41 -71 5758 768 4 MP
DP
gs 899 388 5357 4227 rc
gr

0 -58 -58 0 0 58 58 0 1055 618 5 MP
/c9 { 1.000000 0.000000 0.000000 sr} bdef
c9
DP
0 -58 -58 0 0 58 58 0 1249 637 5 MP
DP
0 -58 -58 0 0 58 58 0 1444 645 5 MP
DP
0 -58 -58 0 0 58 58 0 1639 658 5 MP
DP
0 -58 -58 0 0 58 58 0 1834 672 5 MP
DP
0 -58 -58 0 0 58 58 0 2028 677 5 MP
DP
0 -58 -58 0 0 58 58 0 2223 681 5 MP
DP
0 -58 -58 0 0 58 58 0 2418 687 5 MP
DP
0 -58 -58 0 0 58 58 0 2613 690 5 MP
DP
0 -58 -58 0 0 58 58 0 2807 696 5 MP
DP
0 -58 -58 0 0 58 58 0 3002 703 5 MP
DP
0 -58 -58 0 0 58 58 0 3197 707 5 MP
DP
0 -58 -58 0 0 58 58 0 3392 711 5 MP
DP
0 -58 -58 0 0 58 58 0 3586 715 5 MP
DP
0 -58 -58 0 0 58 58 0 3781 717 5 MP
DP
0 -58 -58 0 0 58 58 0 3976 721 5 MP
DP
0 -58 -58 0 0 58 58 0 4171 720 5 MP
DP
0 -58 -58 0 0 58 58 0 4366 720 5 MP
DP
0 -58 -58 0 0 58 58 0 4560 724 5 MP
DP
0 -58 -58 0 0 58 58 0 4755 728 5 MP
DP
0 -58 -58 0 0 58 58 0 4950 730 5 MP
DP
0 -58 -58 0 0 58 58 0 5145 731 5 MP
DP
0 -58 -58 0 0 58 58 0 5339 733 5 MP
DP
0 -58 -58 0 0 58 58 0 5534 735 5 MP
DP
0 -58 -58 0 0 58 58 0 5729 737 5 MP
DP
gs 899 388 5357 4227 rc
gr

/c10 { 0.000000 1.000000 1.000000 sr} bdef
c10
  36   36 1084  411 FO
  36   36 1278  409 FO
  36   36 1473  406 FO
  36   36 1668  409 FO
  36   36 1863  409 FO
  36   36 2057  412 FO
  36   36 2252  413 FO
  36   36 2447  412 FO
  36   36 2642  412 FO
  36   36 2836  413 FO
  36   36 3031  414 FO
  36   36 3226  415 FO
  36   36 3421  416 FO
  36   36 3615  418 FO
  36   36 3810  420 FO
  36   36 4005  421 FO
  36   36 4200  421 FO
  36   36 4395  422 FO
  36   36 4589  424 FO
  36   36 4784  424 FO
  36   36 4979  424 FO
  36   36 5174  425 FO
  36   36 5368  426 FO
  36   36 5563  426 FO
  36   36 5758  427 FO
gs 899 388 5357 4227 rc
gr

/c11 { 0.000000 0.000000 1.000000 sr} bdef
c11
1048  892 mt 1120  892 L
1084  856 mt 1084  928 L
1242  849 mt 1314  849 L
1278  813 mt 1278  885 L
1437  799 mt 1509  799 L
1473  763 mt 1473  835 L
1632  757 mt 1704  757 L
1668  721 mt 1668  793 L
1827  740 mt 1899  740 L
1863  704 mt 1863  776 L
2021  734 mt 2093  734 L
2057  698 mt 2057  770 L
2216  733 mt 2288  733 L
2252  697 mt 2252  769 L
2411  733 mt 2483  733 L
2447  697 mt 2447  769 L
2606  734 mt 2678  734 L
2642  698 mt 2642  770 L
2800  733 mt 2872  733 L
2836  697 mt 2836  769 L
2995  735 mt 3067  735 L
3031  699 mt 3031  771 L
3190  737 mt 3262  737 L
3226  701 mt 3226  773 L
3385  738 mt 3457  738 L
3421  702 mt 3421  774 L
3579  736 mt 3651  736 L
3615  700 mt 3615  772 L
3774  738 mt 3846  738 L
3810  702 mt 3810  774 L
3969  738 mt 4041  738 L
4005  702 mt 4005  774 L
4164  741 mt 4236  741 L
4200  705 mt 4200  777 L
4359  744 mt 4431  744 L
4395  708 mt 4395  780 L
4553  746 mt 4625  746 L
4589  710 mt 4589  782 L
4748  748 mt 4820  748 L
4784  712 mt 4784  784 L
4943  751 mt 5015  751 L
4979  715 mt 4979  787 L
5138  751 mt 5210  751 L
5174  715 mt 5174  787 L
5332  751 mt 5404  751 L
5368  715 mt 5368  787 L
5527  754 mt 5599  754 L
5563  718 mt 5563  790 L
5722  756 mt 5794  756 L
5758  720 mt 5758  792 L
1059  867 mt 1109  917 L
1109  867 mt 1059  917 L
1253  824 mt 1303  874 L
1303  824 mt 1253  874 L
1448  774 mt 1498  824 L
1498  774 mt 1448  824 L
1643  732 mt 1693  782 L
1693  732 mt 1643  782 L
1838  715 mt 1888  765 L
1888  715 mt 1838  765 L
2032  709 mt 2082  759 L
2082  709 mt 2032  759 L
2227  708 mt 2277  758 L
2277  708 mt 2227  758 L
2422  708 mt 2472  758 L
2472  708 mt 2422  758 L
2617  709 mt 2667  759 L
2667  709 mt 2617  759 L
2811  708 mt 2861  758 L
2861  708 mt 2811  758 L
3006  710 mt 3056  760 L
3056  710 mt 3006  760 L
3201  712 mt 3251  762 L
3251  712 mt 3201  762 L
3396  713 mt 3446  763 L
3446  713 mt 3396  763 L
3590  711 mt 3640  761 L
3640  711 mt 3590  761 L
3785  713 mt 3835  763 L
3835  713 mt 3785  763 L
3980  713 mt 4030  763 L
4030  713 mt 3980  763 L
4175  716 mt 4225  766 L
4225  716 mt 4175  766 L
4370  719 mt 4420  769 L
4420  719 mt 4370  769 L
4564  721 mt 4614  771 L
4614  721 mt 4564  771 L
4759  723 mt 4809  773 L
4809  723 mt 4759  773 L
4954  726 mt 5004  776 L
5004  726 mt 4954  776 L
5149  726 mt 5199  776 L
5199  726 mt 5149  776 L
5343  726 mt 5393  776 L
5393  726 mt 5343  776 L
5538  729 mt 5588  779 L
5588  729 mt 5538  779 L
5733  731 mt 5783  781 L
5783  731 mt 5733  781 L
gs 899 388 5357 4227 rc
gr

36 47 -36 47 -36 -47 36 -47 1084 1827 5 MP
/c12 { 1.000000 0.000000 1.000000 sr} bdef
c12
DP
36 47 -36 47 -36 -47 36 -47 1278 2243 5 MP
DP
36 47 -36 47 -36 -47 36 -47 1473 2385 5 MP
DP
36 47 -36 47 -36 -47 36 -47 1668 2513 5 MP
DP
36 47 -36 47 -36 -47 36 -47 1863 2762 5 MP
DP
36 47 -36 47 -36 -47 36 -47 2057 2906 5 MP
DP
36 47 -36 47 -36 -47 36 -47 2252 3126 5 MP
DP
36 47 -36 47 -36 -47 36 -47 2447 3312 5 MP
DP
36 47 -36 47 -36 -47 36 -47 2642 3455 5 MP
DP
36 47 -36 47 -36 -47 36 -47 2836 3594 5 MP
DP
36 47 -36 47 -36 -47 36 -47 3031 3714 5 MP
DP
36 47 -36 47 -36 -47 36 -47 3226 3818 5 MP
DP
36 47 -36 47 -36 -47 36 -47 3421 3904 5 MP
DP
36 47 -36 47 -36 -47 36 -47 3615 3977 5 MP
DP
36 47 -36 47 -36 -47 36 -47 3810 4041 5 MP
DP
36 47 -36 47 -36 -47 36 -47 4005 4102 5 MP
DP
36 47 -36 47 -36 -47 36 -47 4200 4157 5 MP
DP
36 47 -36 47 -36 -47 36 -47 4395 4206 5 MP
DP
36 47 -36 47 -36 -47 36 -47 4589 4250 5 MP
DP
36 47 -36 47 -36 -47 36 -47 4784 4290 5 MP
DP
36 47 -36 47 -36 -47 36 -47 4979 4326 5 MP
DP
36 47 -36 47 -36 -47 36 -47 5174 4360 5 MP
DP
36 47 -36 47 -36 -47 36 -47 5368 4386 5 MP
DP
36 47 -36 47 -36 -47 36 -47 5563 4412 5 MP
DP
36 47 -36 47 -36 -47 36 -47 5758 4439 5 MP
DP
gs 899 388 5357 4227 rc
gr

0 sg
1048 3759 mt 1120 3759 L
1084 3723 mt 1084 3795 L
1242 4018 mt 1314 4018 L
1278 3982 mt 1278 4054 L
1437 3927 mt 1509 3927 L
1473 3891 mt 1473 3963 L
1632 3958 mt 1704 3958 L
1668 3922 mt 1668 3994 L
1827 4073 mt 1899 4073 L
1863 4037 mt 1863 4109 L
2021 4009 mt 2093 4009 L
2057 3973 mt 2057 4045 L
2216 4114 mt 2288 4114 L
2252 4078 mt 2252 4150 L
2411 4118 mt 2483 4118 L
2447 4082 mt 2447 4154 L
2606 4156 mt 2678 4156 L
2642 4120 mt 2642 4192 L
2800 4199 mt 2872 4199 L
2836 4163 mt 2836 4235 L
2995 4156 mt 3067 4156 L
3031 4120 mt 3031 4192 L
3190 4177 mt 3262 4177 L
3226 4141 mt 3226 4213 L
3385 4178 mt 3457 4178 L
3421 4142 mt 3421 4214 L
3579 4160 mt 3651 4160 L
3615 4124 mt 3615 4196 L
3774 4196 mt 3846 4196 L
3810 4160 mt 3810 4232 L
3969 4175 mt 4041 4175 L
4005 4139 mt 4005 4211 L
4164 4201 mt 4236 4201 L
4200 4165 mt 4200 4237 L
4359 4184 mt 4431 4184 L
4395 4148 mt 4395 4220 L
4553 4183 mt 4625 4183 L
4589 4147 mt 4589 4219 L
4748 4197 mt 4820 4197 L
4784 4161 mt 4784 4233 L
4943 4175 mt 5015 4175 L
4979 4139 mt 4979 4211 L
5138 4188 mt 5210 4188 L
5174 4152 mt 5174 4224 L
5332 4185 mt 5404 4185 L
5368 4149 mt 5368 4221 L
5527 4194 mt 5599 4194 L
5563 4158 mt 5563 4230 L
5722 4205 mt 5794 4205 L
5758 4169 mt 5758 4241 L
gs 899 388 5357 4227 rc
gr

%%IncludeResource: font Helvetica
/Helvetica /ISOLatin1Encoding 120 FMSR

3330 4903 mt 
(Iterations) s
 484 2627 mt  -90 rotate
(R) s
90 rotate
%%IncludeResource: font Helvetica
/Helvetica /ISOLatin1Encoding 96 FMSR

 544 2541 mt  -90 rotate
(T) s
90 rotate
%%IncludeResource: font Helvetica
/Helvetica /ISOLatin1Encoding 120 FMSR

 484 2483 mt  -90 rotate
(/T) s
90 rotate
 882 4657 mt 
( ) s
6239  430 mt 
( ) s
gs 899 388 5357 4227 rc
c8
10 0 10 0 9 0 10 0 10 1 10 0 9 0 10 0 
10 0 10 0 9 0 10 1 10 0 9 0 10 0 10 0 
10 0 9 0 10 0 10 0 10 0 9 0 10 0 10 1 
10 -1 9 0 10 0 10 0 10 0 9 0 10 0 10 0 
10 0 9 0 10 0 10 0 9 0 10 0 10 0 10 0 
9 0 10 0 10 0 10 0 9 0 10 0 10 0 10 0 
9 0 10 0 10 1 10 0 9 0 10 0 10 0 9 0 
10 0 10 0 10 0 9 1 10 0 10 0 10 0 9 0 
10 0 10 0 10 0 9 1 10 0 10 0 10 0 9 0 
10 0 10 0 10 0 9 0 10 0 10 0 9 -1 10 0 
10 0 10 0 9 0 10 0 10 0 10 0 9 0 10 0 
10 0 10 0 9 0 10 -1 10 0 10 0 9 0 10 0 
10 0 9 0 10 0 10 -1 10 0 9 0 10 0 10 0 
10 1 9 0 10 0 10 0 10 0 9 1 10 0 10 0 
10 0 9 0 10 0 10 0 10 0 9 0 10 0 10 0 
9 0 10 0 10 0 10 0 9 0 10 0 10 0 10 0 
9 0 10 0 10 0 10 0 9 0 10 0 10 0 10 1 
9 0 10 0 10 0 9 0 10 0 10 0 10 0 9 0 
10 0 10 0 10 0 9 0 10 0 10 0 10 0 9 0 
10 0 10 0 10 0 9 0 10 0 10 -1 10 0 9 0 
10 0 10 1 9 0 10 0 10 0 10 0 9 0 10 0 
10 -1 10 0 9 0 10 0 10 0 10 1 9 0 10 0 
10 0 10 0 9 0 10 0 10 0 9 0 10 0 10 0 
10 0 9 -1 10 0 10 0 10 1 9 -1 10 0 10 0 
10 1 9 0 10 -1 10 0 10 0 9 0 10 0 10 0 
10 0 9 1 10 0 10 0 9 0 10 0 10 0 10 0 
9 0 10 0 10 0 10 0 9 0 10 1 10 0 10 -1 
9 1 10 0 10 0 10 0 9 0 10 0 10 0 9 0 
10 0 10 1 10 0 9 0 10 0 10 0 10 0 9 0 
10 0 10 0 10 0 9 0 10 0 10 0 10 -1 9 0 
10 0 10 1 10 0 9 -1 10 0 10 1 9 0 10 0 
10 0 10 1 9 0 10 0 10 1 10 0 9 0 10 1 
10 0 10 1 9 1 10 -1 10 0 10 1 9 0 10 0 
10 1 10 0 9 0 10 1 10 1 9 0 10 0 10 0 
10 0 9 0 10 1 10 -1 10 0 9 1 10 1 10 0 
10 0 9 0 10 1 10 -1 10 0 9 1 10 1 10 0 
9 0 10 0 10 1 10 0 9 0 10 0 10 1 10 0 
9 1 10 0 10 1 2846 698 300 MP stroke
10 -1 9 0 10 2 10 0 10 -1 9 0 10 1 10 0 
10 0 9 0 10 -1 10 0 9 1 10 0 10 0 10 1 
9 0 10 1 10 0 10 1 9 1 10 0 10 1 10 1 
9 0 10 1 10 0 10 0 9 0 10 0 10 1 9 1 
10 0 10 0 10 0 9 0 10 0 10 0 10 1 9 0 
10 0 10 0 10 1 9 -1 10 0 10 2 10 -1 9 1 
10 -1 10 0 10 1 9 1 10 0 10 0 9 0 10 0 
10 0 10 1 9 0 10 0 10 0 10 1 9 0 10 1 
10 0 10 1 9 1 10 0 10 0 10 3 9 0 10 1 
10 1 9 0 10 0 10 0 10 -1 9 2 10 -1 10 1 
10 0 9 0 10 0 10 0 10 -1 9 1 10 1 10 0 
10 1 9 0 10 2 10 -1 10 2 9 0 10 0 10 0 
9 1 10 1 10 1 10 1 9 1 10 0 10 -1 10 1 
9 1 10 0 10 1 10 0 9 1 10 1 10 0 10 1 
9 0 10 1 10 0 9 0 10 1 10 -1 10 1 9 -1 
10 2 10 -1 10 0 9 0 10 0 10 2 10 -1 9 -1 
10 1 10 -1 10 2 9 1 10 0 10 -1 10 4 9 1 
10 1 10 -1 9 0 10 1 10 0 10 1 9 0 10 0 
10 1 10 0 9 2 10 -2 10 0 10 0 9 -1 10 -2 
10 0 10 1 9 1 10 -1 10 -1 9 2 10 1 10 3 
10 -1 9 0 10 3 10 -1 10 -1 9 3 10 3 10 -2 
10 2 9 1 10 1 10 3 10 3 9 2 10 -2 10 1 
10 -1 9 -2 10 -1 10 0 9 4 10 -3 10 -2 10 3 
9 6 10 7 10 -5 10 -7 9 -9 10 6 10 6 10 -4 
9 -3 10 -4 10 7 10 -2 9 6 10 -7 10 -1 9 0 
899 634 201 MP stroke
0 38 1084 609 2 MP stroke
93 0 1037 609 2 MP stroke
93 0 1037 647 2 MP stroke
0 38 1278 625 2 MP stroke
93 0 1232 625 2 MP stroke
93 0 1232 663 2 MP stroke
0 41 1473 628 2 MP stroke
94 0 1426 628 2 MP stroke
94 0 1426 669 2 MP stroke
0 36 1668 637 2 MP stroke
94 0 1621 637 2 MP stroke
94 0 1621 673 2 MP stroke
0 33 1863 646 2 MP stroke
93 0 1816 646 2 MP stroke
93 0 1816 679 2 MP stroke
0 29 2057 658 2 MP stroke
93 0 2011 658 2 MP stroke
93 0 2011 687 2 MP stroke
0 30 2252 668 2 MP stroke
94 0 2205 668 2 MP stroke
94 0 2205 698 2 MP stroke
0 26 2447 674 2 MP stroke
94 0 2400 674 2 MP stroke
94 0 2400 700 2 MP stroke
0 24 2642 681 2 MP stroke
93 0 2595 681 2 MP stroke
93 0 2595 705 2 MP stroke
0 23 2836 687 2 MP stroke
93 0 2790 687 2 MP stroke
93 0 2790 710 2 MP stroke
0 22 3031 693 2 MP stroke
94 0 2984 693 2 MP stroke
94 0 2984 715 2 MP stroke
0 22 3226 699 2 MP stroke
94 0 3179 699 2 MP stroke
94 0 3179 721 2 MP stroke
0 23 3421 703 2 MP stroke
93 0 3374 703 2 MP stroke
93 0 3374 726 2 MP stroke
0 21 3615 705 2 MP stroke
93 0 3569 705 2 MP stroke
93 0 3569 726 2 MP stroke
0 20 3810 707 2 MP stroke
94 0 3763 707 2 MP stroke
94 0 3763 727 2 MP stroke
0 17 4005 708 2 MP stroke
94 0 3958 708 2 MP stroke
94 0 3958 725 2 MP stroke
0 17 4200 708 2 MP stroke
93 0 4153 708 2 MP stroke
93 0 4153 725 2 MP stroke
0 17 4395 708 2 MP stroke
93 0 4348 708 2 MP stroke
93 0 4348 725 2 MP stroke
0 16 4589 709 2 MP stroke
93 0 4543 709 2 MP stroke
93 0 4543 725 2 MP stroke
0 17 4784 710 2 MP stroke
94 0 4737 710 2 MP stroke
94 0 4737 727 2 MP stroke
0 16 4979 709 2 MP stroke
94 0 4932 709 2 MP stroke
94 0 4932 725 2 MP stroke
0 17 5174 709 2 MP stroke
93 0 5127 709 2 MP stroke
93 0 5127 726 2 MP stroke
0 17 5368 710 2 MP stroke
93 0 5322 710 2 MP stroke
93 0 5322 727 2 MP stroke
0 18 5563 710 2 MP stroke
94 0 5516 710 2 MP stroke
94 0 5516 728 2 MP stroke
0 19 5758 712 2 MP stroke
94 0 5711 712 2 MP stroke
94 0 5711 731 2 MP stroke
gr

c8
41 71 -82 0 41 -71 1084 675 4 MP
DP
41 71 -82 0 41 -71 1278 691 4 MP
DP
41 71 -82 0 41 -71 1473 695 4 MP
DP
41 71 -82 0 41 -71 1668 702 4 MP
DP
41 71 -82 0 41 -71 1863 710 4 MP
DP
41 71 -82 0 41 -71 2057 720 4 MP
DP
41 71 -82 0 41 -71 2252 730 4 MP
DP
41 71 -82 0 41 -71 2447 734 4 MP
DP
41 71 -82 0 41 -71 2642 740 4 MP
DP
41 71 -82 0 41 -71 2836 746 4 MP
DP
41 71 -82 0 41 -71 3031 751 4 MP
DP
41 71 -82 0 41 -71 3226 757 4 MP
DP
41 71 -82 0 41 -71 3421 762 4 MP
DP
41 71 -82 0 41 -71 3615 762 4 MP
DP
41 71 -82 0 41 -71 3810 764 4 MP
DP
41 71 -82 0 41 -71 4005 763 4 MP
DP
41 71 -82 0 41 -71 4200 764 4 MP
DP
41 71 -82 0 41 -71 4395 763 4 MP
DP
41 71 -82 0 41 -71 4589 764 4 MP
DP
41 71 -82 0 41 -71 4784 766 4 MP
DP
41 71 -82 0 41 -71 4979 764 4 MP
DP
41 71 -82 0 41 -71 5174 764 4 MP
DP
41 71 -82 0 41 -71 5368 766 4 MP
DP
41 71 -82 0 41 -71 5563 766 4 MP
DP
41 71 -82 0 41 -71 5758 768 4 MP
DP
gs 899 388 5357 4227 rc
c9
10 0 10 0 9 0 10 0 10 0 10 0 9 0 10 0 
10 1 10 0 9 1 10 -1 10 0 9 0 10 0 10 1 
10 -1 9 1 10 0 10 0 10 0 9 0 10 0 10 0 
10 0 9 1 10 0 10 0 10 0 9 0 10 0 10 0 
10 0 9 0 10 0 10 1 9 0 10 0 10 0 10 0 
9 0 10 0 10 0 10 0 9 1 10 0 10 0 10 0 
9 0 10 1 10 0 10 0 9 -1 10 1 10 0 9 0 
10 0 10 0 10 0 9 0 10 0 10 0 10 1 9 0 
10 -1 10 0 10 0 9 0 10 1 10 0 10 0 9 0 
10 0 10 0 10 0 9 0 10 0 10 0 9 0 10 0 
10 0 10 0 9 0 10 0 10 0 10 0 9 1 10 0 
10 0 10 0 9 0 10 0 10 0 10 0 9 1 10 0 
10 0 9 0 10 0 10 0 10 0 9 0 10 0 10 0 
10 0 9 0 10 0 10 1 10 0 9 0 10 1 10 0 
10 1 9 -1 10 1 10 0 10 0 9 1 10 0 10 0 
9 0 10 0 10 1 10 -1 9 1 10 0 10 0 10 0 
9 0 10 1 10 0 10 1 9 0 10 0 10 0 10 0 
9 0 10 0 10 0 9 1 10 0 10 -1 10 1 9 -1 
10 0 10 0 10 0 9 0 10 1 10 0 10 0 9 0 
10 0 10 0 10 -1 9 0 10 0 10 0 10 0 9 1 
10 -1 10 1 9 0 10 0 10 0 10 0 9 0 10 -1 
10 0 10 0 9 0 10 0 10 1 10 0 9 0 10 1 
10 -1 10 0 9 0 10 -1 10 0 9 0 10 0 10 1 
10 0 9 0 10 0 10 0 10 0 9 0 10 1 10 0 
10 0 9 0 10 1 10 0 10 0 9 0 10 1 10 0 
10 -1 9 1 10 0 10 0 9 -1 10 1 10 0 10 0 
9 1 10 0 10 0 10 0 9 1 10 0 10 0 10 1 
9 0 10 -1 10 0 10 0 9 0 10 0 10 0 9 0 
10 0 10 0 10 0 9 0 10 0 10 1 10 0 9 1 
10 0 10 0 10 1 9 0 10 1 10 1 10 -1 9 0 
10 0 10 0 10 1 9 0 10 0 10 1 9 1 10 0 
10 0 10 0 9 1 10 0 10 0 10 -1 9 1 10 -1 
10 0 10 0 9 1 10 0 10 0 10 0 9 1 10 0 
10 0 10 0 9 0 10 -1 10 0 9 1 10 1 10 0 
10 0 9 0 10 1 10 1 10 0 9 0 10 1 10 -1 
10 1 9 0 10 0 10 0 10 1 9 -1 10 0 10 1 
9 1 10 1 10 0 10 0 9 -1 10 1 10 1 10 0 
9 0 10 1 10 0 2846 726 300 MP stroke
10 1 9 -1 10 0 10 0 10 0 9 1 10 0 10 0 
10 1 9 0 10 0 10 1 9 1 10 0 10 1 10 1 
9 0 10 0 10 0 10 1 9 0 10 2 10 0 10 0 
9 0 10 -1 10 0 10 0 9 1 10 -1 10 0 9 0 
10 0 10 0 10 0 9 0 10 1 10 0 10 0 9 1 
10 0 10 0 10 1 9 -1 10 1 10 0 10 0 9 0 
10 -1 10 0 10 0 9 1 10 0 10 0 9 0 10 2 
10 1 10 0 9 0 10 0 10 2 10 0 9 0 10 -1 
10 1 10 0 9 0 10 0 10 1 10 1 9 0 10 0 
10 0 9 0 10 0 10 0 10 1 9 0 10 0 10 0 
10 1 9 0 10 1 10 0 10 1 9 1 10 -1 10 0 
10 0 9 1 10 0 10 1 10 -1 9 0 10 0 10 0 
9 -1 10 0 10 1 10 2 9 0 10 0 10 2 10 0 
9 0 10 1 10 0 10 0 9 1 10 1 10 0 10 2 
9 1 10 1 10 3 9 -2 10 1 10 2 10 1 9 0 
10 0 10 1 10 3 9 0 10 1 10 2 10 4 9 0 
10 0 10 3 10 1 9 2 10 1 10 -1 10 -1 9 3 
10 -1 10 0 9 -2 10 0 10 -3 10 -1 9 2 10 -2 
10 0 10 3 9 1 10 -2 10 -1 10 0 9 0 10 1 
10 2 10 -1 9 1 10 -2 10 2 9 0 10 -1 10 4 
10 2 9 -1 10 -1 10 1 10 -2 9 -1 10 -2 10 -3 
10 1 9 3 10 1 10 3 10 2 9 4 10 2 10 2 
10 7 9 -3 10 -3 10 6 9 3 10 -7 10 1 10 9 
9 2 10 -10 10 1 10 3 9 0 10 10 10 21 10 -6 
9 -3 10 3 10 -9 10 -12 9 6 10 6 10 114 9 0 
899 518 201 MP stroke
0 45 1084 624 2 MP stroke
93 0 1037 624 2 MP stroke
93 0 1037 669 2 MP stroke
0 33 1278 650 2 MP stroke
93 0 1232 650 2 MP stroke
93 0 1232 683 2 MP stroke
0 31 1473 658 2 MP stroke
94 0 1426 658 2 MP stroke
94 0 1426 689 2 MP stroke
0 24 1668 675 2 MP stroke
94 0 1621 675 2 MP stroke
94 0 1621 699 2 MP stroke
0 23 1863 690 2 MP stroke
93 0 1816 690 2 MP stroke
93 0 1816 713 2 MP stroke
0 23 2057 695 2 MP stroke
93 0 2011 695 2 MP stroke
93 0 2011 718 2 MP stroke
0 23 2252 699 2 MP stroke
94 0 2205 699 2 MP stroke
94 0 2205 722 2 MP stroke
0 22 2447 705 2 MP stroke
94 0 2400 705 2 MP stroke
94 0 2400 727 2 MP stroke
0 23 2642 707 2 MP stroke
93 0 2595 707 2 MP stroke
93 0 2595 730 2 MP stroke
0 22 2836 714 2 MP stroke
93 0 2790 714 2 MP stroke
93 0 2790 736 2 MP stroke
0 23 3031 720 2 MP stroke
94 0 2984 720 2 MP stroke
94 0 2984 743 2 MP stroke
0 20 3226 726 2 MP stroke
94 0 3179 726 2 MP stroke
94 0 3179 746 2 MP stroke
0 22 3421 729 2 MP stroke
93 0 3374 729 2 MP stroke
93 0 3374 751 2 MP stroke
0 21 3615 733 2 MP stroke
93 0 3569 733 2 MP stroke
93 0 3569 754 2 MP stroke
0 21 3810 736 2 MP stroke
94 0 3763 736 2 MP stroke
94 0 3763 757 2 MP stroke
0 21 4005 739 2 MP stroke
94 0 3958 739 2 MP stroke
94 0 3958 760 2 MP stroke
0 21 4200 739 2 MP stroke
93 0 4153 739 2 MP stroke
93 0 4153 760 2 MP stroke
0 22 4395 738 2 MP stroke
93 0 4348 738 2 MP stroke
93 0 4348 760 2 MP stroke
0 22 4589 742 2 MP stroke
93 0 4543 742 2 MP stroke
93 0 4543 764 2 MP stroke
0 22 4784 746 2 MP stroke
94 0 4737 746 2 MP stroke
94 0 4737 768 2 MP stroke
0 22 4979 748 2 MP stroke
94 0 4932 748 2 MP stroke
94 0 4932 770 2 MP stroke
0 22 5174 749 2 MP stroke
93 0 5127 749 2 MP stroke
93 0 5127 771 2 MP stroke
0 22 5368 751 2 MP stroke
93 0 5322 751 2 MP stroke
93 0 5322 773 2 MP stroke
0 21 5563 753 2 MP stroke
94 0 5516 753 2 MP stroke
94 0 5516 774 2 MP stroke
0 23 5758 755 2 MP stroke
94 0 5711 755 2 MP stroke
94 0 5711 778 2 MP stroke
gr

c9
0 -58 -58 0 0 58 58 0 1055 618 5 MP
DP
0 -58 -58 0 0 58 58 0 1249 637 5 MP
DP
0 -58 -58 0 0 58 58 0 1444 645 5 MP
DP
0 -58 -58 0 0 58 58 0 1639 658 5 MP
DP
0 -58 -58 0 0 58 58 0 1834 672 5 MP
DP
0 -58 -58 0 0 58 58 0 2028 677 5 MP
DP
0 -58 -58 0 0 58 58 0 2223 681 5 MP
DP
0 -58 -58 0 0 58 58 0 2418 687 5 MP
DP
0 -58 -58 0 0 58 58 0 2613 690 5 MP
DP
0 -58 -58 0 0 58 58 0 2807 696 5 MP
DP
0 -58 -58 0 0 58 58 0 3002 703 5 MP
DP
0 -58 -58 0 0 58 58 0 3197 707 5 MP
DP
0 -58 -58 0 0 58 58 0 3392 711 5 MP
DP
0 -58 -58 0 0 58 58 0 3586 715 5 MP
DP
0 -58 -58 0 0 58 58 0 3781 717 5 MP
DP
0 -58 -58 0 0 58 58 0 3976 721 5 MP
DP
0 -58 -58 0 0 58 58 0 4171 720 5 MP
DP
0 -58 -58 0 0 58 58 0 4366 720 5 MP
DP
0 -58 -58 0 0 58 58 0 4560 724 5 MP
DP
0 -58 -58 0 0 58 58 0 4755 728 5 MP
DP
0 -58 -58 0 0 58 58 0 4950 730 5 MP
DP
0 -58 -58 0 0 58 58 0 5145 731 5 MP
DP
0 -58 -58 0 0 58 58 0 5339 733 5 MP
DP
0 -58 -58 0 0 58 58 0 5534 735 5 MP
DP
0 -58 -58 0 0 58 58 0 5729 737 5 MP
DP
gs 899 388 5357 4227 rc
c10
10 0 10 0 9 0 10 0 10 0 10 0 9 0 10 0 
10 0 10 0 9 0 10 1 10 0 9 0 10 0 10 0 
10 0 9 0 10 0 10 0 10 0 9 0 10 0 10 0 
10 0 9 0 10 0 10 0 10 0 9 0 10 0 10 0 
10 0 9 0 10 0 10 0 9 0 10 0 10 0 10 0 
9 0 10 0 10 0 10 0 9 0 10 0 10 0 10 0 
9 0 10 0 10 0 10 0 9 0 10 1 10 -1 9 1 
10 0 10 0 10 0 9 0 10 0 10 0 10 0 9 0 
10 0 10 1 10 0 9 0 10 0 10 0 10 0 9 0 
10 0 10 0 10 0 9 0 10 0 10 0 9 0 10 0 
10 0 10 0 9 0 10 0 10 0 10 0 9 0 10 0 
10 0 10 0 9 0 10 0 10 0 10 0 9 0 10 0 
10 0 9 0 10 0 10 0 10 0 9 0 10 0 10 0 
10 0 9 0 10 0 10 0 10 0 9 0 10 0 10 0 
10 0 9 0 10 0 10 0 10 0 9 0 10 0 10 0 
9 0 10 1 10 -1 10 0 9 1 10 0 10 0 10 0 
9 0 10 0 10 0 10 0 9 0 10 1 10 0 10 0 
9 0 10 0 10 0 9 0 10 0 10 0 10 0 9 0 
10 0 10 0 10 0 9 0 10 0 10 0 10 1 9 -1 
10 1 10 0 10 0 9 0 10 0 10 0 10 0 9 0 
10 0 10 0 9 0 10 0 10 0 10 0 9 0 10 0 
10 0 10 0 9 0 10 0 10 0 10 0 9 0 10 0 
10 0 10 0 9 0 10 0 10 0 9 0 10 0 10 1 
10 0 9 0 10 0 10 0 10 0 9 0 10 0 10 0 
10 0 9 0 10 0 10 0 10 0 9 0 10 0 10 0 
10 0 9 0 10 0 10 0 9 1 10 0 10 0 10 0 
9 1 10 0 10 0 10 0 9 0 10 0 10 0 10 0 
9 0 10 0 10 0 10 0 9 0 10 0 10 0 9 0 
10 0 10 0 10 0 9 1 10 0 10 0 10 0 9 0 
10 0 10 0 10 0 9 0 10 0 10 0 10 0 9 1 
10 -1 10 0 10 0 9 1 10 0 10 0 9 0 10 0 
10 0 10 0 9 0 10 1 10 -1 10 1 9 0 10 0 
10 0 10 0 9 0 10 0 10 0 10 0 9 0 10 1 
10 0 10 0 9 0 10 0 10 0 9 0 10 0 10 0 
10 0 9 -1 10 0 10 0 10 1 9 0 10 0 10 0 
10 -1 9 1 10 0 10 0 10 0 9 0 10 0 10 0 
9 0 10 -1 10 1 10 -1 9 1 10 0 10 0 10 0 
9 0 10 0 10 0 2846 414 300 MP stroke
10 1 9 0 10 0 10 0 10 0 9 0 10 0 10 1 
10 -1 9 0 10 1 10 0 9 0 10 0 10 0 10 0 
9 0 10 0 10 1 10 0 9 -1 10 0 10 0 10 0 
9 0 10 0 10 0 10 1 9 0 10 -1 10 0 9 0 
10 0 10 0 10 0 9 0 10 0 10 0 10 0 9 0 
10 0 10 0 10 0 9 0 10 0 10 0 10 0 9 0 
10 0 10 0 10 0 9 0 10 0 10 0 9 0 10 0 
10 0 10 0 9 0 10 0 10 -1 10 1 9 0 10 0 
10 0 10 0 9 0 10 0 10 0 10 0 9 0 10 0 
10 0 9 0 10 0 10 0 10 0 9 -1 10 0 10 1 
10 0 9 0 10 0 10 0 10 0 9 0 10 0 10 0 
10 1 9 0 10 1 10 0 10 0 9 0 10 0 10 0 
9 0 10 0 10 1 10 0 9 0 10 1 10 -1 10 0 
9 0 10 0 10 0 10 1 9 0 10 -1 10 1 10 0 
9 -1 10 0 10 0 9 0 10 0 10 0 10 0 9 0 
10 0 10 1 10 -1 9 0 10 0 10 1 10 0 9 2 
10 0 10 0 10 0 9 0 10 0 10 0 10 0 9 0 
10 0 10 1 9 0 10 0 10 -1 10 0 9 1 10 0 
10 0 10 0 9 0 10 0 10 -1 10 2 9 0 10 -1 
10 -1 10 0 9 -1 10 0 10 -1 9 -1 10 -1 10 2 
10 -1 9 -1 10 3 10 -1 10 -1 9 1 10 -1 10 0 
10 1 9 2 10 0 10 -1 10 0 9 0 10 -1 10 0 
10 1 9 -1 10 0 10 -2 9 -1 10 0 10 -2 10 -3 
9 0 10 -3 10 3 10 0 9 -5 10 0 10 6 10 1 
9 18 10 1 10 1 10 4 9 -2 10 1 10 3 9 0 
899 388 201 MP stroke
0 20 1084 401 2 MP stroke
93 0 1037 401 2 MP stroke
93 0 1037 421 2 MP stroke
0 14 1278 402 2 MP stroke
93 0 1232 402 2 MP stroke
93 0 1232 416 2 MP stroke
0 13 1473 399 2 MP stroke
94 0 1426 399 2 MP stroke
94 0 1426 412 2 MP stroke
0 10 1668 404 2 MP stroke
94 0 1621 404 2 MP stroke
94 0 1621 414 2 MP stroke
0 9 1863 404 2 MP stroke
93 0 1816 404 2 MP stroke
93 0 1816 413 2 MP stroke
0 11 2057 407 2 MP stroke
93 0 2011 407 2 MP stroke
93 0 2011 418 2 MP stroke
0 11 2252 407 2 MP stroke
94 0 2205 407 2 MP stroke
94 0 2205 418 2 MP stroke
0 11 2447 407 2 MP stroke
94 0 2400 407 2 MP stroke
94 0 2400 418 2 MP stroke
0 11 2642 406 2 MP stroke
93 0 2595 406 2 MP stroke
93 0 2595 417 2 MP stroke
0 11 2836 408 2 MP stroke
93 0 2790 408 2 MP stroke
93 0 2790 419 2 MP stroke
0 11 3031 409 2 MP stroke
94 0 2984 409 2 MP stroke
94 0 2984 420 2 MP stroke
0 12 3226 409 2 MP stroke
94 0 3179 409 2 MP stroke
94 0 3179 421 2 MP stroke
0 13 3421 410 2 MP stroke
93 0 3374 410 2 MP stroke
93 0 3374 423 2 MP stroke
0 12 3615 412 2 MP stroke
93 0 3569 412 2 MP stroke
93 0 3569 424 2 MP stroke
0 12 3810 414 2 MP stroke
94 0 3763 414 2 MP stroke
94 0 3763 426 2 MP stroke
0 12 4005 415 2 MP stroke
94 0 3958 415 2 MP stroke
94 0 3958 427 2 MP stroke
0 12 4200 415 2 MP stroke
93 0 4153 415 2 MP stroke
93 0 4153 427 2 MP stroke
0 12 4395 416 2 MP stroke
93 0 4348 416 2 MP stroke
93 0 4348 428 2 MP stroke
0 13 4589 417 2 MP stroke
93 0 4543 417 2 MP stroke
93 0 4543 430 2 MP stroke
0 12 4784 418 2 MP stroke
94 0 4737 418 2 MP stroke
94 0 4737 430 2 MP stroke
0 12 4979 418 2 MP stroke
94 0 4932 418 2 MP stroke
94 0 4932 430 2 MP stroke
0 12 5174 419 2 MP stroke
93 0 5127 419 2 MP stroke
93 0 5127 431 2 MP stroke
0 11 5368 420 2 MP stroke
93 0 5322 420 2 MP stroke
93 0 5322 431 2 MP stroke
0 11 5563 421 2 MP stroke
94 0 5516 421 2 MP stroke
94 0 5516 432 2 MP stroke
0 11 5758 421 2 MP stroke
94 0 5711 421 2 MP stroke
94 0 5711 432 2 MP stroke
gr

c10
  36   36 1084  411 FO
  36   36 1278  409 FO
  36   36 1473  406 FO
  36   36 1668  409 FO
  36   36 1863  409 FO
  36   36 2057  412 FO
  36   36 2252  413 FO
  36   36 2447  412 FO
  36   36 2642  412 FO
  36   36 2836  413 FO
  36   36 3031  414 FO
  36   36 3226  415 FO
  36   36 3421  416 FO
  36   36 3615  418 FO
  36   36 3810  420 FO
  36   36 4005  421 FO
  36   36 4200  421 FO
  36   36 4395  422 FO
  36   36 4589  424 FO
  36   36 4784  424 FO
  36   36 4979  424 FO
  36   36 5174  425 FO
  36   36 5368  426 FO
  36   36 5563  426 FO
  36   36 5758  427 FO
gs 899 388 5357 4227 rc
c11
10 0 10 0 9 0 10 0 10 0 10 1 9 0 10 0 
10 0 10 0 9 0 10 1 10 -1 9 1 10 0 10 0 
10 0 9 0 10 0 10 0 10 1 9 0 10 0 10 0 
10 0 9 1 10 0 10 0 10 -1 9 1 10 0 10 0 
10 0 9 0 10 0 10 0 9 0 10 0 10 1 10 0 
9 -1 10 0 10 0 10 0 9 0 10 0 10 0 10 0 
9 0 10 0 10 0 10 0 9 0 10 0 10 0 9 1 
10 0 10 0 10 0 9 0 10 0 10 -1 10 0 9 0 
10 0 10 0 10 0 9 1 10 0 10 0 10 0 9 0 
10 0 10 0 10 0 9 0 10 0 10 0 9 0 10 0 
10 0 10 0 9 0 10 0 10 0 10 0 9 0 10 1 
10 0 10 1 9 0 10 0 10 0 10 0 9 0 10 0 
10 1 9 0 10 0 10 0 10 0 9 0 10 0 10 0 
10 0 9 0 10 0 10 0 10 1 9 0 10 0 10 0 
10 0 9 0 10 1 10 0 10 0 9 0 10 0 10 0 
9 0 10 0 10 0 10 0 9 1 10 0 10 0 10 0 
9 0 10 1 10 0 10 0 9 0 10 0 10 0 10 0 
9 1 10 0 10 0 9 -1 10 0 10 0 10 0 9 0 
10 1 10 0 10 0 9 0 10 0 10 1 10 0 9 0 
10 0 10 1 10 0 9 0 10 0 10 0 10 0 9 0 
10 0 10 0 9 0 10 1 10 0 10 0 9 0 10 0 
10 0 10 1 9 0 10 0 10 0 10 0 9 0 10 0 
10 1 10 0 9 0 10 0 10 0 9 -1 10 1 10 -1 
10 0 9 0 10 0 10 0 10 0 9 0 10 0 10 1 
10 0 9 0 10 0 10 0 10 0 9 0 10 0 10 0 
10 0 9 0 10 -1 10 0 9 0 10 0 10 0 10 0 
9 0 10 1 10 0 10 0 9 1 10 0 10 0 10 0 
9 0 10 0 10 1 10 0 9 0 10 0 10 0 9 0 
10 0 10 -1 10 0 9 0 10 0 10 0 10 0 9 0 
10 -1 10 0 10 0 9 -1 10 0 10 1 10 0 9 0 
10 0 10 0 10 0 9 0 10 0 10 0 9 1 10 0 
10 0 10 0 9 0 10 -1 10 0 10 0 9 0 10 0 
10 1 10 0 9 0 10 0 10 0 10 1 9 0 10 0 
10 0 10 0 9 0 10 0 10 1 9 0 10 -1 10 1 
10 0 9 0 10 -1 10 0 10 1 9 0 10 0 10 0 
10 0 9 0 10 0 10 0 10 0 9 1 10 0 10 0 
9 0 10 0 10 -1 10 0 9 2 10 0 10 0 10 0 
9 0 10 0 10 0 2846 733 300 MP stroke
10 0 9 0 10 -1 10 1 10 0 9 -1 10 0 10 1 
10 -1 9 1 10 0 10 0 9 -1 10 0 10 0 10 1 
9 0 10 0 10 0 10 0 9 -1 10 1 10 0 10 -1 
9 1 10 0 10 0 10 -1 9 1 10 0 10 0 9 0 
10 0 10 0 10 0 9 0 10 -1 10 0 10 0 9 0 
10 1 10 0 10 2 9 -1 10 0 10 0 10 0 9 0 
10 0 10 0 10 0 9 0 10 0 10 0 9 -1 10 0 
10 -1 10 1 9 0 10 0 10 0 10 -1 9 0 10 0 
10 0 10 -1 9 1 10 0 10 1 10 -1 9 1 10 -1 
10 1 9 0 10 -1 10 -1 10 0 9 0 10 0 10 0 
10 1 9 1 10 1 10 -1 10 0 9 0 10 0 10 -1 
10 0 9 0 10 -1 10 -1 10 -1 9 1 10 0 10 0 
9 0 10 -1 10 -1 10 0 9 -2 10 0 10 0 10 -2 
9 0 10 -2 10 2 10 -2 9 -1 10 -1 10 -1 10 -1 
9 -2 10 0 10 -2 9 0 10 -2 10 -1 10 0 9 -2 
10 0 10 -1 10 -1 9 1 10 0 10 -1 10 -3 9 -2 
10 -1 10 -2 10 -3 9 0 10 -5 10 -1 10 -2 9 -2 
10 -4 10 -3 9 -4 10 -5 10 -3 10 -3 9 -5 10 -5 
10 -4 10 0 9 -1 10 -5 10 -4 10 0 9 -4 10 -7 
10 -3 10 -3 9 -4 10 -1 10 -3 9 1 10 1 10 1 
10 -1 9 -1 10 -1 10 0 10 -1 9 -3 10 -3 10 -3 
10 -2 9 -2 10 2 10 -3 10 -7 9 -3 10 -7 10 3 
10 -4 9 -6 10 -1 10 -6 9 5 10 -8 10 -9 10 -1 
9 0 10 -18 10 -8 10 -8 9 5 10 17 10 -18 10 7 
9 -5 10 -3 10 -24 10 4 9 -13 10 35 10 118 9 0 
899 821 201 MP stroke
0 62 1084 861 2 MP stroke
93 0 1037 861 2 MP stroke
93 0 1037 923 2 MP stroke
0 57 1278 821 2 MP stroke
93 0 1232 821 2 MP stroke
93 0 1232 878 2 MP stroke
0 38 1473 780 2 MP stroke
94 0 1426 780 2 MP stroke
94 0 1426 818 2 MP stroke
0 30 1668 742 2 MP stroke
94 0 1621 742 2 MP stroke
94 0 1621 772 2 MP stroke
0 27 1863 726 2 MP stroke
93 0 1816 726 2 MP stroke
93 0 1816 753 2 MP stroke
0 24 2057 722 2 MP stroke
93 0 2011 722 2 MP stroke
93 0 2011 746 2 MP stroke
0 22 2252 722 2 MP stroke
94 0 2205 722 2 MP stroke
94 0 2205 744 2 MP stroke
0 23 2447 722 2 MP stroke
94 0 2400 722 2 MP stroke
94 0 2400 745 2 MP stroke
0 24 2642 722 2 MP stroke
93 0 2595 722 2 MP stroke
93 0 2595 746 2 MP stroke
0 24 2836 721 2 MP stroke
93 0 2790 721 2 MP stroke
93 0 2790 745 2 MP stroke
0 26 3031 722 2 MP stroke
94 0 2984 722 2 MP stroke
94 0 2984 748 2 MP stroke
0 25 3226 724 2 MP stroke
94 0 3179 724 2 MP stroke
94 0 3179 749 2 MP stroke
0 24 3421 726 2 MP stroke
93 0 3374 726 2 MP stroke
93 0 3374 750 2 MP stroke
0 26 3615 723 2 MP stroke
93 0 3569 723 2 MP stroke
93 0 3569 749 2 MP stroke
0 26 3810 725 2 MP stroke
94 0 3763 725 2 MP stroke
94 0 3763 751 2 MP stroke
0 24 4005 726 2 MP stroke
94 0 3958 726 2 MP stroke
94 0 3958 750 2 MP stroke
0 25 4200 729 2 MP stroke
93 0 4153 729 2 MP stroke
93 0 4153 754 2 MP stroke
0 25 4395 731 2 MP stroke
93 0 4348 731 2 MP stroke
93 0 4348 756 2 MP stroke
0 26 4589 733 2 MP stroke
93 0 4543 733 2 MP stroke
93 0 4543 759 2 MP stroke
0 26 4784 735 2 MP stroke
94 0 4737 735 2 MP stroke
94 0 4737 761 2 MP stroke
0 26 4979 738 2 MP stroke
94 0 4932 738 2 MP stroke
94 0 4932 764 2 MP stroke
0 26 5174 738 2 MP stroke
93 0 5127 738 2 MP stroke
93 0 5127 764 2 MP stroke
0 27 5368 738 2 MP stroke
93 0 5322 738 2 MP stroke
93 0 5322 765 2 MP stroke
0 25 5563 741 2 MP stroke
94 0 5516 741 2 MP stroke
94 0 5516 766 2 MP stroke
0 25 5758 743 2 MP stroke
94 0 5711 743 2 MP stroke
94 0 5711 768 2 MP stroke
gr

c11
1048  892 mt 1120  892 L
1084  856 mt 1084  928 L
1242  849 mt 1314  849 L
1278  813 mt 1278  885 L
1437  799 mt 1509  799 L
1473  763 mt 1473  835 L
1632  757 mt 1704  757 L
1668  721 mt 1668  793 L
1827  740 mt 1899  740 L
1863  704 mt 1863  776 L
2021  734 mt 2093  734 L
2057  698 mt 2057  770 L
2216  733 mt 2288  733 L
2252  697 mt 2252  769 L
2411  733 mt 2483  733 L
2447  697 mt 2447  769 L
2606  734 mt 2678  734 L
2642  698 mt 2642  770 L
2800  733 mt 2872  733 L
2836  697 mt 2836  769 L
2995  735 mt 3067  735 L
3031  699 mt 3031  771 L
3190  737 mt 3262  737 L
3226  701 mt 3226  773 L
3385  738 mt 3457  738 L
3421  702 mt 3421  774 L
3579  736 mt 3651  736 L
3615  700 mt 3615  772 L
3774  738 mt 3846  738 L
3810  702 mt 3810  774 L
3969  738 mt 4041  738 L
4005  702 mt 4005  774 L
4164  741 mt 4236  741 L
4200  705 mt 4200  777 L
4359  744 mt 4431  744 L
4395  708 mt 4395  780 L
4553  746 mt 4625  746 L
4589  710 mt 4589  782 L
4748  748 mt 4820  748 L
4784  712 mt 4784  784 L
4943  751 mt 5015  751 L
4979  715 mt 4979  787 L
5138  751 mt 5210  751 L
5174  715 mt 5174  787 L
5332  751 mt 5404  751 L
5368  715 mt 5368  787 L
5527  754 mt 5599  754 L
5563  718 mt 5563  790 L
5722  756 mt 5794  756 L
5758  720 mt 5758  792 L
1059  867 mt 1109  917 L
1109  867 mt 1059  917 L
1253  824 mt 1303  874 L
1303  824 mt 1253  874 L
1448  774 mt 1498  824 L
1498  774 mt 1448  824 L
1643  732 mt 1693  782 L
1693  732 mt 1643  782 L
1838  715 mt 1888  765 L
1888  715 mt 1838  765 L
2032  709 mt 2082  759 L
2082  709 mt 2032  759 L
2227  708 mt 2277  758 L
2277  708 mt 2227  758 L
2422  708 mt 2472  758 L
2472  708 mt 2422  758 L
2617  709 mt 2667  759 L
2667  709 mt 2617  759 L
2811  708 mt 2861  758 L
2861  708 mt 2811  758 L
3006  710 mt 3056  760 L
3056  710 mt 3006  760 L
3201  712 mt 3251  762 L
3251  712 mt 3201  762 L
3396  713 mt 3446  763 L
3446  713 mt 3396  763 L
3590  711 mt 3640  761 L
3640  711 mt 3590  761 L
3785  713 mt 3835  763 L
3835  713 mt 3785  763 L
3980  713 mt 4030  763 L
4030  713 mt 3980  763 L
4175  716 mt 4225  766 L
4225  716 mt 4175  766 L
4370  719 mt 4420  769 L
4420  719 mt 4370  769 L
4564  721 mt 4614  771 L
4614  721 mt 4564  771 L
4759  723 mt 4809  773 L
4809  723 mt 4759  773 L
4954  726 mt 5004  776 L
5004  726 mt 4954  776 L
5149  726 mt 5199  776 L
5199  726 mt 5149  776 L
5343  726 mt 5393  776 L
5393  726 mt 5343  776 L
5538  729 mt 5588  779 L
5588  729 mt 5538  779 L
5733  731 mt 5783  781 L
5783  731 mt 5733  781 L
gs 899 388 5357 4227 rc
c12
10 1 10 2 9 1 10 2 10 1 10 1 9 2 10 1 
10 1 10 2 9 1 10 1 10 1 9 2 10 1 10 2 
10 1 9 1 10 2 10 1 10 2 9 1 10 2 10 1 
10 1 9 2 10 1 10 1 10 2 9 1 10 2 10 1 
10 1 9 1 10 2 10 1 9 1 10 1 10 1 10 1 
9 2 10 1 10 1 10 1 9 1 10 1 10 1 10 1 
9 1 10 1 10 2 10 1 9 2 10 1 10 2 9 1 
10 2 10 1 10 2 9 1 10 2 10 2 10 1 9 2 
10 1 10 2 10 2 9 1 10 2 10 2 10 1 9 2 
10 2 10 1 10 2 9 2 10 1 10 2 9 2 10 2 
10 1 10 2 9 2 10 2 10 1 10 2 9 2 10 2 
10 1 10 2 9 2 10 2 10 2 10 2 9 1 10 2 
10 2 9 2 10 2 10 2 10 2 9 2 10 2 10 1 
10 2 9 2 10 2 10 2 10 2 9 2 10 2 10 2 
10 2 9 2 10 2 10 2 10 2 9 2 10 3 10 2 
9 2 10 2 10 2 10 2 9 2 10 2 10 3 10 2 
9 2 10 2 10 2 10 3 9 2 10 2 10 2 10 3 
9 2 10 2 10 2 9 3 10 2 10 2 10 3 9 2 
10 3 10 2 10 2 9 3 10 2 10 3 10 2 9 3 
10 2 10 3 10 2 9 3 10 2 10 3 10 2 9 3 
10 2 10 3 9 3 10 2 10 3 10 3 9 2 10 3 
10 3 10 2 9 3 10 3 10 3 10 3 9 2 10 3 
10 3 10 3 9 3 10 3 10 3 9 3 10 3 10 2 
10 3 9 3 10 4 10 3 10 3 9 3 10 3 10 3 
10 3 9 3 10 3 10 4 10 3 9 3 10 3 10 3 
10 3 9 3 10 3 10 3 9 3 10 3 10 4 10 3 
9 3 10 3 10 3 10 3 9 3 10 4 10 3 10 3 
9 4 10 3 10 4 10 3 9 4 10 3 10 4 9 3 
10 4 10 3 10 3 9 4 10 3 10 4 10 4 9 4 
10 3 10 4 10 4 9 4 10 4 10 3 10 4 9 4 
10 4 10 4 10 4 9 3 10 4 10 4 9 4 10 4 
10 4 10 4 9 5 10 4 10 5 10 4 9 5 10 5 
10 5 10 4 9 5 10 5 10 5 10 5 9 5 10 5 
10 5 10 5 9 5 10 5 10 5 9 5 10 6 10 5 
10 5 9 6 10 5 10 6 10 5 9 6 10 5 10 5 
10 6 9 5 10 5 10 6 10 5 9 6 10 5 10 6 
9 6 10 6 10 5 10 7 9 6 10 6 10 7 10 6 
9 7 10 6 10 7 2846 3554 300 MP stroke
10 7 9 7 10 6 10 7 10 7 9 7 10 7 10 8 
10 7 9 7 10 7 10 8 9 7 10 8 10 6 10 6 
9 6 10 7 10 7 10 7 9 7 10 7 10 7 10 7 
9 7 10 7 10 7 10 7 9 7 10 7 10 7 9 7 
10 8 10 8 10 7 9 7 10 7 10 8 10 7 9 7 
10 7 10 8 10 8 9 7 10 9 10 8 10 9 9 7 
10 9 10 8 10 10 9 10 10 10 10 10 9 10 10 10 
10 10 10 11 9 11 10 10 10 11 10 11 9 12 10 11 
10 12 10 11 9 12 10 11 10 11 10 12 9 12 10 10 
10 9 9 10 10 11 10 10 10 12 9 10 10 11 10 10 
10 12 9 9 10 8 10 9 10 8 9 7 10 6 10 7 
10 5 9 10 10 9 10 8 10 7 9 7 10 6 10 3 
9 6 10 5 10 4 10 6 9 14 10 14 10 13 10 13 
9 13 10 15 10 14 10 13 9 13 10 14 10 14 10 12 
9 10 10 11 10 14 9 10 10 12 10 9 10 10 9 13 
10 12 10 11 10 13 9 10 10 10 10 10 10 12 9 8 
10 9 10 7 10 5 9 7 10 8 10 3 10 3 9 5 
10 8 10 1 9 5 10 -2 10 -5 10 2 9 -5 10 -7 
10 -8 10 -7 9 -6 10 -12 10 -12 10 -7 9 19 10 19 
10 17 10 17 9 17 10 19 10 18 9 16 10 18 10 21 
10 23 9 22 10 22 10 23 10 21 9 23 10 22 10 21 
10 28 9 21 10 32 10 13 10 15 9 18 10 25 10 17 
10 29 9 21 10 17 10 15 9 11 10 20 10 31 10 14 
9 3 10 15 10 3 10 4 9 12 10 1 10 -31 10 5 
9 -10 10 -8 10 -17 10 -18 9 21 10 -56 10 27 9 0 
899 1764 201 MP stroke
0 248 1084 1657 2 MP stroke
93 0 1037 1657 2 MP stroke
93 0 1037 1905 2 MP stroke
0 336 1278 2030 2 MP stroke
93 0 1232 2030 2 MP stroke
93 0 1232 2366 2 MP stroke
0 344 1473 2168 2 MP stroke
94 0 1426 2168 2 MP stroke
94 0 1426 2512 2 MP stroke
0 331 1668 2302 2 MP stroke
94 0 1621 2302 2 MP stroke
94 0 1621 2633 2 MP stroke
0 353 1863 2540 2 MP stroke
93 0 1816 2540 2 MP stroke
93 0 1816 2893 2 MP stroke
0 348 2057 2687 2 MP stroke
93 0 2011 2687 2 MP stroke
93 0 2011 3035 2 MP stroke
0 343 2252 2909 2 MP stroke
94 0 2205 2909 2 MP stroke
94 0 2205 3252 2 MP stroke
0 340 2447 3096 2 MP stroke
94 0 2400 3096 2 MP stroke
94 0 2400 3436 2 MP stroke
0 341 2642 3239 2 MP stroke
93 0 2595 3239 2 MP stroke
93 0 2595 3580 2 MP stroke
0 346 2836 3376 2 MP stroke
93 0 2790 3376 2 MP stroke
93 0 2790 3722 2 MP stroke
0 355 3031 3491 2 MP stroke
94 0 2984 3491 2 MP stroke
94 0 2984 3846 2 MP stroke
0 364 3226 3591 2 MP stroke
94 0 3179 3591 2 MP stroke
94 0 3179 3955 2 MP stroke
0 376 3421 3671 2 MP stroke
93 0 3374 3671 2 MP stroke
93 0 3374 4047 2 MP stroke
0 389 3615 3737 2 MP stroke
93 0 3569 3737 2 MP stroke
93 0 3569 4126 2 MP stroke
0 402 3810 3795 2 MP stroke
94 0 3763 3795 2 MP stroke
94 0 3763 4197 2 MP stroke
0 407 4005 3854 2 MP stroke
94 0 3958 3854 2 MP stroke
94 0 3958 4261 2 MP stroke
0 412 4200 3906 2 MP stroke
93 0 4153 3906 2 MP stroke
93 0 4153 4318 2 MP stroke
0 417 4395 3953 2 MP stroke
93 0 4348 3953 2 MP stroke
93 0 4348 4370 2 MP stroke
0 421 4589 3995 2 MP stroke
93 0 4543 3995 2 MP stroke
93 0 4543 4416 2 MP stroke
0 425 4784 4033 2 MP stroke
94 0 4737 4033 2 MP stroke
94 0 4737 4458 2 MP stroke
0 429 4979 4067 2 MP stroke
94 0 4932 4067 2 MP stroke
94 0 4932 4496 2 MP stroke
0 432 5174 4099 2 MP stroke
93 0 5127 4099 2 MP stroke
93 0 5127 4531 2 MP stroke
0 436 5368 4123 2 MP stroke
93 0 5322 4123 2 MP stroke
93 0 5322 4559 2 MP stroke
0 438 5563 4148 2 MP stroke
94 0 5516 4148 2 MP stroke
94 0 5516 4586 2 MP stroke
0 439 5758 4175 2 MP stroke
94 0 5711 4175 2 MP stroke
94 0 5711 4614 2 MP stroke
gr

c12
36 47 -36 47 -36 -47 36 -47 1084 1827 5 MP
DP
36 47 -36 47 -36 -47 36 -47 1278 2243 5 MP
DP
36 47 -36 47 -36 -47 36 -47 1473 2385 5 MP
DP
36 47 -36 47 -36 -47 36 -47 1668 2513 5 MP
DP
36 47 -36 47 -36 -47 36 -47 1863 2762 5 MP
DP
36 47 -36 47 -36 -47 36 -47 2057 2906 5 MP
DP
36 47 -36 47 -36 -47 36 -47 2252 3126 5 MP
DP
36 47 -36 47 -36 -47 36 -47 2447 3312 5 MP
DP
36 47 -36 47 -36 -47 36 -47 2642 3455 5 MP
DP
36 47 -36 47 -36 -47 36 -47 2836 3594 5 MP
DP
36 47 -36 47 -36 -47 36 -47 3031 3714 5 MP
DP
36 47 -36 47 -36 -47 36 -47 3226 3818 5 MP
DP
36 47 -36 47 -36 -47 36 -47 3421 3904 5 MP
DP
36 47 -36 47 -36 -47 36 -47 3615 3977 5 MP
DP
36 47 -36 47 -36 -47 36 -47 3810 4041 5 MP
DP
36 47 -36 47 -36 -47 36 -47 4005 4102 5 MP
DP
36 47 -36 47 -36 -47 36 -47 4200 4157 5 MP
DP
36 47 -36 47 -36 -47 36 -47 4395 4206 5 MP
DP
36 47 -36 47 -36 -47 36 -47 4589 4250 5 MP
DP
36 47 -36 47 -36 -47 36 -47 4784 4290 5 MP
DP
36 47 -36 47 -36 -47 36 -47 4979 4326 5 MP
DP
36 47 -36 47 -36 -47 36 -47 5174 4360 5 MP
DP
36 47 -36 47 -36 -47 36 -47 5368 4386 5 MP
DP
36 47 -36 47 -36 -47 36 -47 5563 4412 5 MP
DP
36 47 -36 47 -36 -47 36 -47 5758 4439 5 MP
DP
gs 899 388 5357 4227 rc
0 sg
10 1 10 0 9 1 10 2 10 0 10 1 9 1 10 0 
10 1 10 1 9 0 10 0 10 -1 9 -1 10 0 10 1 
10 1 9 2 10 -1 10 2 10 1 9 1 10 2 10 1 
10 2 9 1 10 0 10 1 10 1 9 -1 10 1 10 0 
10 -1 9 2 10 -1 10 -1 9 1 10 0 10 -1 10 0 
9 -2 10 -1 10 -1 10 0 9 -2 10 -2 10 -1 10 -1 
9 -2 10 0 10 0 10 -1 9 1 10 2 10 2 9 1 
10 0 10 1 10 1 9 2 10 1 10 2 10 -1 9 0 
10 4 10 1 10 -1 9 2 10 0 10 1 10 2 9 0 
10 0 10 -1 10 1 9 1 10 -1 10 2 9 -1 10 1 
10 0 10 -2 9 -1 10 0 10 2 10 -1 9 -2 10 -1 
10 -1 10 0 9 -2 10 -1 10 -1 10 0 9 -1 10 -3 
10 -2 9 -4 10 -3 10 1 10 1 9 2 10 2 10 1 
10 0 9 0 10 0 10 -2 10 1 9 0 10 2 10 2 
10 1 9 1 10 2 10 1 10 1 9 0 10 -1 10 0 
9 0 10 0 10 -1 10 0 9 0 10 1 10 0 10 0 
9 2 10 0 10 1 10 0 9 0 10 1 10 2 10 0 
9 -2 10 -3 10 -1 9 -1 10 -1 10 -2 10 -2 9 -1 
10 -3 10 -3 10 -2 9 -2 10 -3 10 2 10 1 9 0 
10 -1 10 1 10 -1 9 -1 10 0 10 0 10 1 9 0 
10 2 10 2 9 0 10 2 10 0 10 -1 9 1 10 3 
10 0 10 1 9 2 10 -1 10 0 10 0 9 3 10 -2 
10 4 10 2 9 5 10 3 10 0 9 0 10 -1 10 -1 
10 0 9 1 10 1 10 -3 10 -1 9 -1 10 -2 10 0 
10 0 9 -1 10 -2 10 -3 10 -3 9 -4 10 -5 10 4 
10 3 9 2 10 1 10 1 9 -1 10 0 10 -1 10 2 
9 1 10 3 10 6 10 6 9 6 10 3 10 1 10 1 
9 -3 10 1 10 3 10 1 9 1 10 3 10 3 9 0 
10 0 10 1 10 0 9 0 10 -1 10 -3 10 -2 9 -1 
10 -3 10 -4 10 -2 9 -1 10 -3 10 -2 10 -1 9 -3 
10 -3 10 0 10 -4 9 -4 10 -2 10 -5 9 -5 10 -3 
10 -4 10 1 9 1 10 2 10 1 10 2 9 8 10 5 
10 7 10 3 9 2 10 -1 10 -1 10 0 9 -1 10 -1 
10 2 10 4 9 -1 10 4 10 7 9 2 10 4 10 -1 
10 3 9 0 10 3 10 1 10 0 9 0 10 -2 10 -2 
10 2 9 1 10 0 10 -1 10 -5 9 -1 10 1 10 -1 
9 1 10 1 10 -5 10 -6 9 -3 10 -4 10 -6 10 -6 
9 -6 10 -2 10 -4 2846 4200 300 MP stroke
10 1 9 1 10 2 10 4 10 2 9 1 10 4 10 5 
10 -3 9 2 10 1 10 5 9 3 10 3 10 7 10 3 
9 -2 10 0 10 -1 10 3 9 3 10 0 10 0 10 4 
9 7 10 5 10 5 10 3 9 7 10 6 10 1 9 -2 
10 1 10 2 10 3 9 3 10 0 10 -2 10 -2 9 -5 
10 2 10 -3 10 -3 9 -4 10 -3 10 -7 10 -6 9 -4 
10 -4 10 -11 10 7 9 2 10 10 10 6 9 3 10 4 
10 2 10 6 9 2 10 2 10 5 10 8 9 4 10 -1 
10 7 10 6 9 9 10 7 10 9 10 8 9 10 10 10 
10 4 9 1 10 4 10 0 10 3 9 8 10 3 10 4 
10 1 9 2 10 -1 10 3 10 2 9 3 10 1 10 -4 
10 -2 9 -1 10 -4 10 -11 10 -5 9 -8 10 -8 10 -12 
9 -10 10 -8 10 -1 10 -1 9 1 10 2 10 6 10 7 
9 7 10 8 10 11 10 5 9 6 10 4 10 4 10 0 
9 -1 10 4 10 8 9 9 10 2 10 8 10 11 9 6 
10 8 10 6 10 6 9 0 10 5 10 8 10 -2 9 7 
10 9 10 1 10 8 9 -6 10 -3 10 4 10 3 9 7 
10 1 10 -3 9 -1 10 -6 10 -13 10 -23 9 -21 10 -22 
10 -22 10 -18 9 -26 10 -15 10 -18 10 -4 9 8 10 4 
10 11 10 7 9 2 10 15 10 23 9 9 10 -1 10 -2 
10 2 9 8 10 7 10 13 10 17 9 18 10 12 10 -19 
10 -15 9 16 10 25 10 31 10 27 9 13 10 11 10 2 
10 14 9 18 10 16 10 17 9 28 10 22 10 16 10 36 
9 41 10 5 10 8 10 10 9 24 10 45 10 61 10 71 
9 65 10 74 10 74 10 32 9 168 10 153 10 350 9 0 
899 2504 201 MP stroke
0 335 1084 3593 2 MP stroke
93 0 1037 3593 2 MP stroke
93 0 1037 3928 2 MP stroke
0 293 1278 3873 2 MP stroke
93 0 1232 3873 2 MP stroke
93 0 1232 4166 2 MP stroke
0 206 1473 3824 2 MP stroke
94 0 1426 3824 2 MP stroke
94 0 1426 4030 2 MP stroke
0 207 1668 3855 2 MP stroke
94 0 1621 3855 2 MP stroke
94 0 1621 4062 2 MP stroke
0 204 1863 3972 2 MP stroke
93 0 1816 3972 2 MP stroke
93 0 1816 4176 2 MP stroke
0 174 2057 3922 2 MP stroke
93 0 2011 3922 2 MP stroke
93 0 2011 4096 2 MP stroke
0 173 2252 4028 2 MP stroke
94 0 2205 4028 2 MP stroke
94 0 2205 4201 2 MP stroke
0 153 2447 4042 2 MP stroke
94 0 2400 4042 2 MP stroke
94 0 2400 4195 2 MP stroke
0 140 2642 4086 2 MP stroke
93 0 2595 4086 2 MP stroke
93 0 2595 4226 2 MP stroke
0 128 2836 4135 2 MP stroke
93 0 2790 4135 2 MP stroke
93 0 2790 4263 2 MP stroke
0 125 3031 4094 2 MP stroke
94 0 2984 4094 2 MP stroke
94 0 2984 4219 2 MP stroke
0 123 3226 4115 2 MP stroke
94 0 3179 4115 2 MP stroke
94 0 3179 4238 2 MP stroke
0 113 3421 4121 2 MP stroke
93 0 3374 4121 2 MP stroke
93 0 3374 4234 2 MP stroke
0 115 3615 4103 2 MP stroke
93 0 3569 4103 2 MP stroke
93 0 3569 4218 2 MP stroke
0 113 3810 4139 2 MP stroke
94 0 3763 4139 2 MP stroke
94 0 3763 4252 2 MP stroke
0 98 4005 4126 2 MP stroke
94 0 3958 4126 2 MP stroke
94 0 3958 4224 2 MP stroke
0 98 4200 4152 2 MP stroke
93 0 4153 4152 2 MP stroke
93 0 4153 4250 2 MP stroke
0 98 4395 4135 2 MP stroke
93 0 4348 4135 2 MP stroke
93 0 4348 4233 2 MP stroke
0 100 4589 4133 2 MP stroke
93 0 4543 4133 2 MP stroke
93 0 4543 4233 2 MP stroke
0 109 4784 4143 2 MP stroke
94 0 4737 4143 2 MP stroke
94 0 4737 4252 2 MP stroke
0 107 4979 4121 2 MP stroke
94 0 4932 4121 2 MP stroke
94 0 4932 4228 2 MP stroke
0 113 5174 4132 2 MP stroke
93 0 5127 4132 2 MP stroke
93 0 5127 4245 2 MP stroke
0 109 5368 4131 2 MP stroke
93 0 5322 4131 2 MP stroke
93 0 5322 4240 2 MP stroke
0 111 5563 4139 2 MP stroke
94 0 5516 4139 2 MP stroke
94 0 5516 4250 2 MP stroke
0 110 5758 4150 2 MP stroke
94 0 5711 4150 2 MP stroke
94 0 5711 4260 2 MP stroke
gr

0 sg
1048 3759 mt 1120 3759 L
1084 3723 mt 1084 3795 L
1242 4018 mt 1314 4018 L
1278 3982 mt 1278 4054 L
1437 3927 mt 1509 3927 L
1473 3891 mt 1473 3963 L
1632 3958 mt 1704 3958 L
1668 3922 mt 1668 3994 L
1827 4073 mt 1899 4073 L
1863 4037 mt 1863 4109 L
2021 4009 mt 2093 4009 L
2057 3973 mt 2057 4045 L
2216 4114 mt 2288 4114 L
2252 4078 mt 2252 4150 L
2411 4118 mt 2483 4118 L
2447 4082 mt 2447 4154 L
2606 4156 mt 2678 4156 L
2642 4120 mt 2642 4192 L
2800 4199 mt 2872 4199 L
2836 4163 mt 2836 4235 L
2995 4156 mt 3067 4156 L
3031 4120 mt 3031 4192 L
3190 4177 mt 3262 4177 L
3226 4141 mt 3226 4213 L
3385 4178 mt 3457 4178 L
3421 4142 mt 3421 4214 L
3579 4160 mt 3651 4160 L
3615 4124 mt 3615 4196 L
3774 4196 mt 3846 4196 L
3810 4160 mt 3810 4232 L
3969 4175 mt 4041 4175 L
4005 4139 mt 4005 4211 L
4164 4201 mt 4236 4201 L
4200 4165 mt 4200 4237 L
4359 4184 mt 4431 4184 L
4395 4148 mt 4395 4220 L
4553 4183 mt 4625 4183 L
4589 4147 mt 4589 4219 L
4748 4197 mt 4820 4197 L
4784 4161 mt 4784 4233 L
4943 4175 mt 5015 4175 L
4979 4139 mt 4979 4211 L
5138 4188 mt 5210 4188 L
5174 4152 mt 5174 4224 L
5332 4185 mt 5404 4185 L
5368 4149 mt 5368 4221 L
5527 4194 mt 5599 4194 L
5563 4158 mt 5563 4230 L
5722 4205 mt 5794 4205 L
5758 4169 mt 5758 4241 L
gs 899 388 5357 4227 rc
gr

1 sg
0 918 1538 0 0 -918 4658 1366 4 MP
PP
-1538 0 0 918 1538 0 0 -918 4658 1366 5 MP stroke
4 w
DO
SO
6 w
0 sg
4658 1366 mt 6196 1366 L
4658  448 mt 6196  448 L
4658 1366 mt 4658  448 L
6196 1366 mt 6196  448 L
4658 1366 mt 6196 1366 L
4658 1366 mt 4658  448 L
4658 1366 mt 6196 1366 L
4658  448 mt 6196  448 L
4658 1366 mt 4658  448 L
6196 1366 mt 6196  448 L
5125  580 mt 
(original BO) s
gs 4658 448 1539 919 rc
gs 4836 464 147 147 rc
41 71 -82 0 41 -71 4909 584 4 MP
c8
DP
gr

c8
gr

c8
0 sg
5125  728 mt 
(random basis) s
gs 4658 448 1539 919 rc
gs 4836 612 147 147 rc
0 -58 -58 0 0 58 58 0 4880 656 5 MP
c9
DP
gr

c9
gr

c9
0 sg
5125  876 mt 
(random embedding) s
gs 4658 448 1539 919 rc
gs 4836 760 147 147 rc
c10
  36   36 4909  833 FO
gr

c10
gr

c10
0 sg
5125 1023 mt 
(subpsace learning) s
gs 4658 448 1539 919 rc
gs 4836 907 147 147 rc
c11
4873  980 mt 4945  980 L
4909  944 mt 4909 1016 L
4884  955 mt 4934 1005 L
4934  955 mt 4884 1005 L
gr

c11
gr

c11
0 sg
5125 1171 mt 
(additive model) s
gs 4658 448 1539 919 rc
gs 4836 1055 147 147 rc
36 47 -36 47 -36 -47 36 -47 4909 1175 5 MP
c12
DP
gr

c12
gr

c12
0 sg
5125 1319 mt 
(anova ve) s
gs 4658 448 1539 919 rc
gs 4836 1203 147 147 rc
4873 1276 mt 4945 1276 L
4909 1240 mt 4909 1312 L
gr

gr


end %%Color Dict

eplot
%%EndObject

epage
end

showpage

%%Trailer
%%EOF
