%!PS-Adobe-3.0 EPSF-3.0
%%Creator: MATLAB, The MathWorks, Inc. Version 7.12.0.635 (R2011a). Operating System: Linux 3.16.0-4-amd64 #1 SMP Debian 3.16.7-ckt20-1+deb8u3 (2016-01-17) x86_64.
%%Title: /home/jaemin/Research/codes_MATSIM/HIGHDIM_BO_MATSIM/results/logsumSE2/logsumSE2_simple_regret_10.eps
%%CreationDate: 05/20/2016  23:02:18
%%DocumentNeededFonts: Helvetica
%%DocumentProcessColors: Cyan Magenta Yellow Black
%%LanguageLevel: 2
%%Pages: 1
%%BoundingBox:    51   199   546   591
%%EndComments

%%BeginProlog
% MathWorks dictionary
/MathWorks 160 dict begin
% definition operators
/bdef {bind def} bind def
/ldef {load def} bind def
/xdef {exch def} bdef
/xstore {exch store} bdef
% operator abbreviations
/c  /clip ldef
/cc /concat ldef
/cp /closepath ldef
/gr /grestore ldef
/gs /gsave ldef
/mt /moveto ldef
/np /newpath ldef
/cm /currentmatrix ldef
/sm /setmatrix ldef
/rm /rmoveto ldef
/rl /rlineto ldef
/s {show newpath} bdef
/sc {setcmykcolor} bdef
/sr /setrgbcolor ldef
/sg /setgray ldef
/w /setlinewidth ldef
/j /setlinejoin ldef
/cap /setlinecap ldef
/rc {rectclip} bdef
/rf {rectfill} bdef
% page state control
/pgsv () def
/bpage {/pgsv save def} bdef
/epage {pgsv restore} bdef
/bplot /gsave ldef
/eplot {stroke grestore} bdef
% orientation switch
/portraitMode 0 def /landscapeMode 1 def /rotateMode 2 def
% coordinate system mappings
/dpi2point 0 def
% font control
/FontSize 0 def
/FMS {/FontSize xstore findfont [FontSize 0 0 FontSize neg 0 0]
  makefont setfont} bdef
/reencode {exch dup where {pop load} {pop StandardEncoding} ifelse
  exch dup 3 1 roll findfont dup length dict begin
  { 1 index /FID ne {def}{pop pop} ifelse } forall
  /Encoding exch def currentdict end definefont pop} bdef
/isroman {findfont /CharStrings get /Agrave known} bdef
/FMSR {3 1 roll 1 index dup isroman {reencode} {pop pop} ifelse
  exch FMS} bdef
/csm {1 dpi2point div -1 dpi2point div scale neg translate
 dup landscapeMode eq {pop -90 rotate}
  {rotateMode eq {90 rotate} if} ifelse} bdef
% line types: solid, dotted, dashed, dotdash
/SO { [] 0 setdash } bdef
/DO { [.5 dpi2point mul 4 dpi2point mul] 0 setdash } bdef
/DA { [6 dpi2point mul] 0 setdash } bdef
/DD { [.5 dpi2point mul 4 dpi2point mul 6 dpi2point mul 4
  dpi2point mul] 0 setdash } bdef
% macros for lines and objects
/L {lineto stroke} bdef
/MP {3 1 roll moveto 1 sub {rlineto} repeat} bdef
/AP {{rlineto} repeat} bdef
/PDlw -1 def
/W {/PDlw currentlinewidth def setlinewidth} def
/PP {closepath eofill} bdef
/DP {closepath stroke} bdef
/MR {4 -2 roll moveto dup  0 exch rlineto exch 0 rlineto
  neg 0 exch rlineto closepath} bdef
/FR {MR stroke} bdef
/PR {MR fill} bdef
/L1i {{currentfile picstr readhexstring pop} image} bdef
/tMatrix matrix def
/MakeOval {newpath tMatrix currentmatrix pop translate scale
0 0 1 0 360 arc tMatrix setmatrix} bdef
/FO {MakeOval stroke} bdef
/PO {MakeOval fill} bdef
/PD {currentlinewidth 2 div 0 360 arc fill
   PDlw -1 eq not {PDlw w /PDlw -1 def} if} def
/FA {newpath tMatrix currentmatrix pop translate scale
  0 0 1 5 -2 roll arc tMatrix setmatrix stroke} bdef
/PA {newpath tMatrix currentmatrix pop	translate 0 0 moveto scale
  0 0 1 5 -2 roll arc closepath tMatrix setmatrix fill} bdef
/FAn {newpath tMatrix currentmatrix pop translate scale
  0 0 1 5 -2 roll arcn tMatrix setmatrix stroke} bdef
/PAn {newpath tMatrix currentmatrix pop translate 0 0 moveto scale
  0 0 1 5 -2 roll arcn closepath tMatrix setmatrix fill} bdef
/vradius 0 def /hradius 0 def /lry 0 def
/lrx 0 def /uly 0 def /ulx 0 def /rad 0 def
/MRR {/vradius xdef /hradius xdef /lry xdef /lrx xdef /uly xdef
  /ulx xdef newpath tMatrix currentmatrix pop ulx hradius add uly
  vradius add translate hradius vradius scale 0 0 1 180 270 arc 
  tMatrix setmatrix lrx hradius sub uly vradius add translate
  hradius vradius scale 0 0 1 270 360 arc tMatrix setmatrix
  lrx hradius sub lry vradius sub translate hradius vradius scale
  0 0 1 0 90 arc tMatrix setmatrix ulx hradius add lry vradius sub
  translate hradius vradius scale 0 0 1 90 180 arc tMatrix setmatrix
  closepath} bdef
/FRR {MRR stroke } bdef
/PRR {MRR fill } bdef
/MlrRR {/lry xdef /lrx xdef /uly xdef /ulx xdef /rad lry uly sub 2 div def
  newpath tMatrix currentmatrix pop ulx rad add uly rad add translate
  rad rad scale 0 0 1 90 270 arc tMatrix setmatrix lrx rad sub lry rad
  sub translate rad rad scale 0 0 1 270 90 arc tMatrix setmatrix
  closepath} bdef
/FlrRR {MlrRR stroke } bdef
/PlrRR {MlrRR fill } bdef
/MtbRR {/lry xdef /lrx xdef /uly xdef /ulx xdef /rad lrx ulx sub 2 div def
  newpath tMatrix currentmatrix pop ulx rad add uly rad add translate
  rad rad scale 0 0 1 180 360 arc tMatrix setmatrix lrx rad sub lry rad
  sub translate rad rad scale 0 0 1 0 180 arc tMatrix setmatrix
  closepath} bdef
/FtbRR {MtbRR stroke } bdef
/PtbRR {MtbRR fill } bdef
/stri 6 array def /dtri 6 array def
/smat 6 array def /dmat 6 array def
/tmat1 6 array def /tmat2 6 array def /dif 3 array def
/asub {/ind2 exch def /ind1 exch def dup dup
  ind1 get exch ind2 get sub exch } bdef
/tri_to_matrix {
  2 0 asub 3 1 asub 4 0 asub 5 1 asub
  dup 0 get exch 1 get 7 -1 roll astore } bdef
/compute_transform {
  dmat dtri tri_to_matrix tmat1 invertmatrix 
  smat stri tri_to_matrix tmat2 concatmatrix } bdef
/ds {stri astore pop} bdef
/dt {dtri astore pop} bdef
/db {2 copy /cols xdef /rows xdef mul dup 3 mul string
  currentfile 
  3 index 0 eq {/ASCIIHexDecode filter}
  {/ASCII85Decode filter 3 index 2 eq {/RunLengthDecode filter} if }
  ifelse exch readstring pop
  dup 0 3 index getinterval /rbmap xdef
  dup 2 index dup getinterval /gbmap xdef
  1 index dup 2 mul exch getinterval /bbmap xdef pop pop}bdef
/it {gs np dtri aload pop moveto lineto lineto cp c
  cols rows 8 compute_transform 
  rbmap gbmap bbmap true 3 colorimage gr}bdef
/il {newpath moveto lineto stroke}bdef
currentdict end def
%%EndProlog

%%BeginSetup
MathWorks begin

0 cap

end
%%EndSetup

%%Page: 1 1
%%BeginPageSetup
%%PageBoundingBox:    51   199   546   591
MathWorks begin
bpage
%%EndPageSetup

%%BeginObject: obj1
bplot

/dpi2point 12 def
portraitMode 0216 7344 csm

  402   247  5943  4708 rc
88 dict begin %Colortable dictionary
/c0 { 0.000000 0.000000 0.000000 sr} bdef
/c1 { 1.000000 1.000000 1.000000 sr} bdef
/c2 { 0.900000 0.000000 0.000000 sr} bdef
/c3 { 0.000000 0.820000 0.000000 sr} bdef
/c4 { 0.000000 0.000000 0.800000 sr} bdef
/c5 { 0.910000 0.820000 0.320000 sr} bdef
/c6 { 1.000000 0.260000 0.820000 sr} bdef
/c7 { 0.000000 0.820000 0.820000 sr} bdef
c0
1 j
1 sg
   0    0 6913 5186 rf
6 w
0 4226 5356 0 0 -4226 899 4615 4 MP
PP
-5356 0 0 4226 5356 0 0 -4226 899 4615 5 MP stroke
4 w
DO
SO
6 w
0 sg
 899 4615 mt 6255 4615 L
 899  389 mt 6255  389 L
 899 4615 mt  899  389 L
6255 4615 mt 6255  389 L
 899 4615 mt 6255 4615 L
 899 4615 mt  899  389 L
 899 4615 mt  899 4561 L
 899  389 mt  899  442 L
%%IncludeResource: font Helvetica
/Helvetica /ISOLatin1Encoding 120 FMSR

 866 4760 mt 
(0) s
1385 4615 mt 1385 4561 L
1385  389 mt 1385  442 L
1319 4760 mt 
(50) s
1872 4615 mt 1872 4561 L
1872  389 mt 1872  442 L
1772 4760 mt 
(100) s
2359 4615 mt 2359 4561 L
2359  389 mt 2359  442 L
2259 4760 mt 
(150) s
2846 4615 mt 2846 4561 L
2846  389 mt 2846  442 L
2746 4760 mt 
(200) s
3333 4615 mt 3333 4561 L
3333  389 mt 3333  442 L
3233 4760 mt 
(250) s
3820 4615 mt 3820 4561 L
3820  389 mt 3820  442 L
3720 4760 mt 
(300) s
4307 4615 mt 4307 4561 L
4307  389 mt 4307  442 L
4207 4760 mt 
(350) s
4794 4615 mt 4794 4561 L
4794  389 mt 4794  442 L
4694 4760 mt 
(400) s
5281 4615 mt 5281 4561 L
5281  389 mt 5281  442 L
5181 4760 mt 
(450) s
5768 4615 mt 5768 4561 L
5768  389 mt 5768  442 L
5668 4760 mt 
(500) s
 899 4615 mt  899 4615 L
 899 4615 mt  899 4615 L
 899 4615 mt  899 4615 L
 899 4615 mt  899 4615 L
 899 4615 mt  899 4615 L
 899 4615 mt  899 4615 L
 899 4615 mt  899 4615 L
 899 4615 mt  899 4615 L
 899 4615 mt  899 4615 L
 899 4615 mt  899 4615 L
 899 4615 mt  899 4615 L
 899 4615 mt  899 4615 L
 899 4615 mt  899 4615 L
 899 4615 mt  899 4615 L
 899 4615 mt  899 4615 L
 899 4615 mt  899 4615 L
 899 4615 mt  899 4615 L
 899 4615 mt  899 4615 L
 899 3575 mt  952 3575 L
6255 3575 mt 6201 3575 L
 640 3619 mt 
(10) s
%%IncludeResource: font Helvetica
/Helvetica /ISOLatin1Encoding 80 FMSR

 773 3545 mt 
(0) s
 899 4615 mt  899 4615 L
 899 4615 mt  899 4615 L
 899 4615 mt  899 4615 L
 899 4615 mt  899 4615 L
 899 4615 mt  899 4615 L
 899 4615 mt  899 4615 L
 899 4615 mt  899 4615 L
 899 4615 mt  899 4615 L
 899 4615 mt  899 4615 L
 899 4615 mt  899 4615 L
 899 4615 mt  899 4615 L
 899 4615 mt  899 4615 L
 899 4615 mt  899 4615 L
 899 4615 mt  899 4615 L
 899 4615 mt  899 4615 L
 899 4615 mt  899 4615 L
 899 4615 mt  899 4615 L
 899 4615 mt  899 4615 L
 899 2508 mt  952 2508 L
6255 2508 mt 6201 2508 L
%%IncludeResource: font Helvetica
/Helvetica /ISOLatin1Encoding 120 FMSR

 620 2552 mt 
(10) s
%%IncludeResource: font Helvetica
/Helvetica /ISOLatin1Encoding 80 FMSR

 753 2478 mt 
(0.1) s
 899 4615 mt  899 4615 L
 899 4615 mt  899 4615 L
 899 4615 mt  899 4615 L
 899 4615 mt  899 4615 L
 899 4615 mt  899 4615 L
 899 4615 mt  899 4615 L
 899 4615 mt  899 4615 L
 899 4615 mt  899 4615 L
 899 4615 mt  899 4615 L
 899 4615 mt  899 4615 L
 899 4615 mt  899 4615 L
 899 4615 mt  899 4615 L
 899 4615 mt  899 4615 L
 899 4615 mt  899 4615 L
 899 4615 mt  899 4615 L
 899 4615 mt  899 4615 L
 899 4615 mt  899 4615 L
 899 4615 mt  899 4615 L
 899 1442 mt  952 1442 L
6255 1442 mt 6201 1442 L
%%IncludeResource: font Helvetica
/Helvetica /ISOLatin1Encoding 120 FMSR

 620 1486 mt 
(10) s
%%IncludeResource: font Helvetica
/Helvetica /ISOLatin1Encoding 80 FMSR

 753 1412 mt 
(0.2) s
 899 4615 mt  899 4615 L
 899 4615 mt  899 4615 L
 899 4615 mt  899 4615 L
 899 4615 mt  899 4615 L
 899 4615 mt  899 4615 L
 899 4615 mt  899 4615 L
 899 4615 mt  899 4615 L
 899 4615 mt  899 4615 L
 899 4615 mt  899 4615 L
 899 4615 mt  899 4615 L
 899 4615 mt  899 4615 L
 899 4615 mt  899 4615 L
 899 4615 mt  899 4615 L
 899 4615 mt  899 4615 L
 899 4615 mt  899 4615 L
 899 4615 mt  899 4615 L
 899 4615 mt  899 4615 L
 899 4615 mt  899 4615 L
 899 4615 mt 6255 4615 L
 899  389 mt 6255  389 L
 899 4615 mt  899  389 L
6255 4615 mt 6255  389 L
gs 899 389 5357 4227 rc
gr

0 j
41 71 -82 0 41 -71 1084 1343 4 MP
/c8 { 0.000000 1.000000 0.000000 sr} bdef
c8
DP
41 71 -82 0 41 -71 1278 1343 4 MP
DP
41 71 -82 0 41 -71 1473 1343 4 MP
DP
41 71 -82 0 41 -71 1668 1343 4 MP
DP
41 71 -82 0 41 -71 1863 1343 4 MP
DP
41 71 -82 0 41 -71 2057 1343 4 MP
DP
41 71 -82 0 41 -71 2252 1343 4 MP
DP
41 71 -82 0 41 -71 2447 1343 4 MP
DP
41 71 -82 0 41 -71 2642 1343 4 MP
DP
41 71 -82 0 41 -71 2836 1343 4 MP
DP
41 71 -82 0 41 -71 3031 1343 4 MP
DP
41 71 -82 0 41 -71 3226 1343 4 MP
DP
41 71 -82 0 41 -71 3421 1343 4 MP
DP
41 71 -82 0 41 -71 3615 1343 4 MP
DP
41 71 -82 0 41 -71 3810 1343 4 MP
DP
41 71 -82 0 41 -71 4005 1343 4 MP
DP
41 71 -82 0 41 -71 4200 1343 4 MP
DP
41 71 -82 0 41 -71 4395 1343 4 MP
DP
41 71 -82 0 41 -71 4589 1343 4 MP
DP
41 71 -82 0 41 -71 4784 1343 4 MP
DP
41 71 -82 0 41 -71 4979 1343 4 MP
DP
41 71 -82 0 41 -71 5174 1343 4 MP
DP
41 71 -82 0 41 -71 5368 1343 4 MP
DP
41 71 -82 0 41 -71 5563 1343 4 MP
DP
41 71 -82 0 41 -71 5758 1343 4 MP
DP
gs 899 389 5357 4227 rc
gr

0 -58 -58 0 0 58 58 0 1055 962 5 MP
/c9 { 1.000000 0.000000 0.000000 sr} bdef
c9
DP
0 -58 -58 0 0 58 58 0 1249 972 5 MP
DP
0 -58 -58 0 0 58 58 0 1444 986 5 MP
DP
0 -58 -58 0 0 58 58 0 1639 986 5 MP
DP
0 -58 -58 0 0 58 58 0 1834 994 5 MP
DP
0 -58 -58 0 0 58 58 0 2028 1005 5 MP
DP
0 -58 -58 0 0 58 58 0 2223 1011 5 MP
DP
0 -58 -58 0 0 58 58 0 2418 1025 5 MP
DP
0 -58 -58 0 0 58 58 0 2613 1036 5 MP
DP
0 -58 -58 0 0 58 58 0 2807 1050 5 MP
DP
0 -58 -58 0 0 58 58 0 3002 1065 5 MP
DP
0 -58 -58 0 0 58 58 0 3197 1065 5 MP
DP
0 -58 -58 0 0 58 58 0 3392 1081 5 MP
DP
0 -58 -58 0 0 58 58 0 3586 1081 5 MP
DP
0 -58 -58 0 0 58 58 0 3781 1081 5 MP
DP
0 -58 -58 0 0 58 58 0 3976 1095 5 MP
DP
0 -58 -58 0 0 58 58 0 4171 1108 5 MP
DP
0 -58 -58 0 0 58 58 0 4366 1108 5 MP
DP
0 -58 -58 0 0 58 58 0 4560 1141 5 MP
DP
0 -58 -58 0 0 58 58 0 4755 1145 5 MP
DP
0 -58 -58 0 0 58 58 0 4950 1145 5 MP
DP
0 -58 -58 0 0 58 58 0 5145 1149 5 MP
DP
0 -58 -58 0 0 58 58 0 5339 1171 5 MP
DP
0 -58 -58 0 0 58 58 0 5534 1194 5 MP
DP
0 -58 -58 0 0 58 58 0 5729 1210 5 MP
DP
gs 899 389 5357 4227 rc
gr

/c10 { 0.000000 1.000000 1.000000 sr} bdef
c10
  36   36 1084  437 FO
  36   36 1278  462 FO
  36   36 1473  471 FO
  36   36 1668  483 FO
  36   36 1863  515 FO
  36   36 2057  522 FO
  36   36 2252  522 FO
  36   36 2447  524 FO
  36   36 2642  528 FO
  36   36 2836  530 FO
  36   36 3031  555 FO
  36   36 3226  562 FO
  36   36 3421  562 FO
  36   36 3615  570 FO
  36   36 3810  579 FO
  36   36 4005  597 FO
  36   36 4200  599 FO
  36   36 4395  601 FO
  36   36 4589  618 FO
  36   36 4784  624 FO
  36   36 4979  629 FO
  36   36 5174  629 FO
  36   36 5368  652 FO
  36   36 5563  654 FO
  36   36 5758  658 FO
gs 899 389 5357 4227 rc
gr

/c11 { 0.000000 0.000000 1.000000 sr} bdef
c11
1048  957 mt 1120  957 L
1084  921 mt 1084  993 L
1242  968 mt 1314  968 L
1278  932 mt 1278 1004 L
1437  980 mt 1509  980 L
1473  944 mt 1473 1016 L
1632  985 mt 1704  985 L
1668  949 mt 1668 1021 L
1827  985 mt 1899  985 L
1863  949 mt 1863 1021 L
2021  997 mt 2093  997 L
2057  961 mt 2057 1033 L
2216 1003 mt 2288 1003 L
2252  967 mt 2252 1039 L
2411 1027 mt 2483 1027 L
2447  991 mt 2447 1063 L
2606 1028 mt 2678 1028 L
2642  992 mt 2642 1064 L
2800 1031 mt 2872 1031 L
2836  995 mt 2836 1067 L
2995 1051 mt 3067 1051 L
3031 1015 mt 3031 1087 L
3190 1054 mt 3262 1054 L
3226 1018 mt 3226 1090 L
3385 1054 mt 3457 1054 L
3421 1018 mt 3421 1090 L
3579 1058 mt 3651 1058 L
3615 1022 mt 3615 1094 L
3774 1077 mt 3846 1077 L
3810 1041 mt 3810 1113 L
3969 1085 mt 4041 1085 L
4005 1049 mt 4005 1121 L
4164 1091 mt 4236 1091 L
4200 1055 mt 4200 1127 L
4359 1093 mt 4431 1093 L
4395 1057 mt 4395 1129 L
4553 1093 mt 4625 1093 L
4589 1057 mt 4589 1129 L
4748 1093 mt 4820 1093 L
4784 1057 mt 4784 1129 L
4943 1093 mt 5015 1093 L
4979 1057 mt 4979 1129 L
5138 1102 mt 5210 1102 L
5174 1066 mt 5174 1138 L
5332 1117 mt 5404 1117 L
5368 1081 mt 5368 1153 L
5527 1144 mt 5599 1144 L
5563 1108 mt 5563 1180 L
5722 1149 mt 5794 1149 L
5758 1113 mt 5758 1185 L
1059  932 mt 1109  982 L
1109  932 mt 1059  982 L
1253  943 mt 1303  993 L
1303  943 mt 1253  993 L
1448  955 mt 1498 1005 L
1498  955 mt 1448 1005 L
1643  960 mt 1693 1010 L
1693  960 mt 1643 1010 L
1838  960 mt 1888 1010 L
1888  960 mt 1838 1010 L
2032  972 mt 2082 1022 L
2082  972 mt 2032 1022 L
2227  978 mt 2277 1028 L
2277  978 mt 2227 1028 L
2422 1002 mt 2472 1052 L
2472 1002 mt 2422 1052 L
2617 1003 mt 2667 1053 L
2667 1003 mt 2617 1053 L
2811 1006 mt 2861 1056 L
2861 1006 mt 2811 1056 L
3006 1026 mt 3056 1076 L
3056 1026 mt 3006 1076 L
3201 1029 mt 3251 1079 L
3251 1029 mt 3201 1079 L
3396 1029 mt 3446 1079 L
3446 1029 mt 3396 1079 L
3590 1033 mt 3640 1083 L
3640 1033 mt 3590 1083 L
3785 1052 mt 3835 1102 L
3835 1052 mt 3785 1102 L
3980 1060 mt 4030 1110 L
4030 1060 mt 3980 1110 L
4175 1066 mt 4225 1116 L
4225 1066 mt 4175 1116 L
4370 1068 mt 4420 1118 L
4420 1068 mt 4370 1118 L
4564 1068 mt 4614 1118 L
4614 1068 mt 4564 1118 L
4759 1068 mt 4809 1118 L
4809 1068 mt 4759 1118 L
4954 1068 mt 5004 1118 L
5004 1068 mt 4954 1118 L
5149 1077 mt 5199 1127 L
5199 1077 mt 5149 1127 L
5343 1092 mt 5393 1142 L
5393 1092 mt 5343 1142 L
5538 1119 mt 5588 1169 L
5588 1119 mt 5538 1169 L
5733 1124 mt 5783 1174 L
5783 1124 mt 5733 1174 L
gs 899 389 5357 4227 rc
gr

36 47 -36 47 -36 -47 36 -47 1084 1532 5 MP
/c12 { 1.000000 0.000000 1.000000 sr} bdef
c12
DP
36 47 -36 47 -36 -47 36 -47 1278 1766 5 MP
DP
36 47 -36 47 -36 -47 36 -47 1473 1871 5 MP
DP
36 47 -36 47 -36 -47 36 -47 1668 2040 5 MP
DP
36 47 -36 47 -36 -47 36 -47 1863 2170 5 MP
DP
36 47 -36 47 -36 -47 36 -47 2057 2215 5 MP
DP
36 47 -36 47 -36 -47 36 -47 2252 2264 5 MP
DP
36 47 -36 47 -36 -47 36 -47 2447 2264 5 MP
DP
36 47 -36 47 -36 -47 36 -47 2642 2288 5 MP
DP
36 47 -36 47 -36 -47 36 -47 2836 2355 5 MP
DP
36 47 -36 47 -36 -47 36 -47 3031 2358 5 MP
DP
36 47 -36 47 -36 -47 36 -47 3226 2364 5 MP
DP
36 47 -36 47 -36 -47 36 -47 3421 2364 5 MP
DP
36 47 -36 47 -36 -47 36 -47 3615 2378 5 MP
DP
36 47 -36 47 -36 -47 36 -47 3810 2378 5 MP
DP
36 47 -36 47 -36 -47 36 -47 4005 2378 5 MP
DP
36 47 -36 47 -36 -47 36 -47 4200 2378 5 MP
DP
36 47 -36 47 -36 -47 36 -47 4395 2378 5 MP
DP
36 47 -36 47 -36 -47 36 -47 4589 2378 5 MP
DP
36 47 -36 47 -36 -47 36 -47 4784 2378 5 MP
DP
36 47 -36 47 -36 -47 36 -47 4979 2378 5 MP
DP
36 47 -36 47 -36 -47 36 -47 5174 2378 5 MP
DP
36 47 -36 47 -36 -47 36 -47 5368 2398 5 MP
DP
36 47 -36 47 -36 -47 36 -47 5563 2402 5 MP
DP
36 47 -36 47 -36 -47 36 -47 5758 2425 5 MP
DP
gs 899 389 5357 4227 rc
gr

0 sg
1048 2380 mt 1120 2380 L
1084 2344 mt 1084 2416 L
1242 2696 mt 1314 2696 L
1278 2660 mt 1278 2732 L
1437 2853 mt 1509 2853 L
1473 2817 mt 1473 2889 L
1632 3159 mt 1704 3159 L
1668 3123 mt 1668 3195 L
1827 3297 mt 1899 3297 L
1863 3261 mt 1863 3333 L
2021 3415 mt 2093 3415 L
2057 3379 mt 2057 3451 L
2216 3683 mt 2288 3683 L
2252 3647 mt 2252 3719 L
2411 3718 mt 2483 3718 L
2447 3682 mt 2447 3754 L
2606 3863 mt 2678 3863 L
2642 3827 mt 2642 3899 L
2800 4007 mt 2872 4007 L
2836 3971 mt 2836 4043 L
2995 4019 mt 3067 4019 L
3031 3983 mt 3031 4055 L
3190 4090 mt 3262 4090 L
3226 4054 mt 3226 4126 L
3385 4135 mt 3457 4135 L
3421 4099 mt 3421 4171 L
3579 4165 mt 3651 4165 L
3615 4129 mt 3615 4201 L
3774 4212 mt 3846 4212 L
3810 4176 mt 3810 4248 L
3969 4245 mt 4041 4245 L
4005 4209 mt 4005 4281 L
4164 4256 mt 4236 4256 L
4200 4220 mt 4200 4292 L
4359 4316 mt 4431 4316 L
4395 4280 mt 4395 4352 L
4553 4347 mt 4625 4347 L
4589 4311 mt 4589 4383 L
4748 4359 mt 4820 4359 L
4784 4323 mt 4784 4395 L
4943 4363 mt 5015 4363 L
4979 4327 mt 4979 4399 L
5138 4380 mt 5210 4380 L
5174 4344 mt 5174 4416 L
5332 4395 mt 5404 4395 L
5368 4359 mt 5368 4431 L
5527 4464 mt 5599 4464 L
5563 4428 mt 5563 4500 L
5722 4500 mt 5794 4500 L
5758 4464 mt 5758 4536 L
gs 899 389 5357 4227 rc
gr

%%IncludeResource: font Helvetica
/Helvetica /ISOLatin1Encoding 120 FMSR

3330 4903 mt 
(Iterations) s
 538 2883 mt  -90 rotate
(Simple Regret) s
90 rotate
 882 4658 mt 
( ) s
6239  431 mt 
( ) s
gs 899 389 5357 4227 rc
c8
10 0 10 0 9 0 10 0 10 0 10 0 9 0 10 0 
10 0 10 0 9 0 10 0 10 0 9 0 10 0 10 0 
10 0 9 0 10 0 10 0 10 0 9 0 10 0 10 0 
10 0 9 0 10 0 10 0 10 0 9 0 10 0 10 0 
10 0 9 0 10 0 10 0 9 0 10 0 10 0 10 0 
9 0 10 0 10 0 10 0 9 0 10 0 10 0 10 0 
9 0 10 0 10 0 10 0 9 0 10 0 10 0 9 0 
10 0 10 0 10 0 9 0 10 0 10 0 10 0 9 0 
10 0 10 0 10 0 9 0 10 0 10 0 10 0 9 0 
10 0 10 0 10 0 9 0 10 0 10 0 9 0 10 0 
10 0 10 0 9 0 10 0 10 0 10 0 9 0 10 0 
10 0 10 0 9 0 10 0 10 0 10 0 9 0 10 0 
10 0 9 0 10 0 10 0 10 0 9 0 10 0 10 0 
10 0 9 0 10 0 10 0 10 0 9 0 10 0 10 0 
10 0 9 0 10 0 10 0 10 0 9 0 10 0 10 0 
9 0 10 0 10 0 10 0 9 0 10 0 10 0 10 0 
9 0 10 0 10 0 10 0 9 0 10 0 10 0 10 0 
9 0 10 0 10 0 9 0 10 0 10 0 10 0 9 0 
10 0 10 0 10 0 9 0 10 0 10 0 10 0 9 0 
10 0 10 0 10 0 9 0 10 0 10 0 10 0 9 0 
10 0 10 0 9 0 10 0 10 0 10 0 9 0 10 0 
10 0 10 0 9 0 10 0 10 0 10 0 9 0 10 0 
10 0 10 0 9 0 10 0 10 0 9 0 10 0 10 0 
10 0 9 0 10 0 10 0 10 0 9 0 10 0 10 0 
10 0 9 0 10 0 10 0 10 0 9 0 10 0 10 0 
10 0 9 0 10 0 10 0 9 0 10 0 10 0 10 0 
9 0 10 0 10 0 10 0 9 0 10 0 10 0 10 0 
9 0 10 0 10 0 10 0 9 0 10 0 10 0 9 0 
10 0 10 0 10 0 9 0 10 0 10 0 10 0 9 0 
10 0 10 0 10 0 9 0 10 0 10 0 10 0 9 0 
10 0 10 0 10 0 9 0 10 0 10 0 9 0 10 0 
10 0 10 0 9 0 10 0 10 0 10 0 9 0 10 0 
10 0 10 0 9 0 10 0 10 0 10 0 9 0 10 0 
10 0 10 0 9 0 10 0 10 0 9 0 10 0 10 0 
10 0 9 0 10 0 10 0 10 0 9 0 10 0 10 0 
10 0 9 0 10 0 10 0 10 0 9 0 10 0 10 0 
9 0 10 0 10 0 10 0 9 0 10 0 10 0 10 0 
9 0 10 0 10 0 2846 1296 300 MP stroke
10 0 9 0 10 0 10 0 10 0 9 0 10 0 10 0 
10 0 9 0 10 0 10 0 9 0 10 0 10 0 10 0 
9 0 10 0 10 0 10 0 9 0 10 0 10 0 10 0 
9 0 10 0 10 0 10 0 9 0 10 0 10 0 9 0 
10 0 10 0 10 0 9 0 10 0 10 0 10 0 9 0 
10 0 10 0 10 0 9 0 10 0 10 0 10 0 9 0 
10 0 10 0 10 0 9 0 10 0 10 0 9 0 10 0 
10 0 10 0 9 0 10 0 10 0 10 0 9 0 10 0 
10 0 10 0 9 0 10 0 10 0 10 0 9 0 10 0 
10 0 9 0 10 0 10 0 10 0 9 0 10 0 10 0 
10 0 9 0 10 0 10 0 10 0 9 0 10 0 10 0 
10 0 9 0 10 0 10 0 10 0 9 0 10 0 10 0 
9 0 10 0 10 0 10 0 9 0 10 0 10 0 10 0 
9 0 10 0 10 0 10 0 9 0 10 0 10 0 10 0 
9 0 10 0 10 0 9 0 10 0 10 0 10 0 9 0 
10 0 10 0 10 0 9 0 10 0 10 0 10 0 9 0 
10 0 10 0 10 0 9 0 10 0 10 0 10 0 9 0 
10 0 10 0 9 0 10 0 10 0 10 0 9 0 10 0 
10 0 10 0 9 0 10 0 10 0 10 0 9 0 10 0 
10 0 10 0 9 0 10 0 10 0 9 0 10 0 10 0 
10 0 9 0 10 0 10 0 10 0 9 0 10 0 10 0 
10 0 9 0 10 0 10 0 10 0 9 0 10 0 10 0 
10 0 9 0 10 0 10 0 9 0 10 0 10 0 10 0 
9 0 10 0 10 0 10 0 9 0 10 0 10 0 10 0 
9 0 10 0 10 0 10 0 9 0 10 0 10 0 9 0 
899 1296 201 MP stroke
0 111 1084 1241 2 MP stroke
93 0 1037 1241 2 MP stroke
93 0 1037 1352 2 MP stroke
0 111 1278 1241 2 MP stroke
93 0 1232 1241 2 MP stroke
93 0 1232 1352 2 MP stroke
0 111 1473 1241 2 MP stroke
94 0 1426 1241 2 MP stroke
94 0 1426 1352 2 MP stroke
0 111 1668 1241 2 MP stroke
94 0 1621 1241 2 MP stroke
94 0 1621 1352 2 MP stroke
0 111 1863 1241 2 MP stroke
93 0 1816 1241 2 MP stroke
93 0 1816 1352 2 MP stroke
0 111 2057 1241 2 MP stroke
93 0 2011 1241 2 MP stroke
93 0 2011 1352 2 MP stroke
0 111 2252 1241 2 MP stroke
94 0 2205 1241 2 MP stroke
94 0 2205 1352 2 MP stroke
0 111 2447 1241 2 MP stroke
94 0 2400 1241 2 MP stroke
94 0 2400 1352 2 MP stroke
0 111 2642 1241 2 MP stroke
93 0 2595 1241 2 MP stroke
93 0 2595 1352 2 MP stroke
0 111 2836 1241 2 MP stroke
93 0 2790 1241 2 MP stroke
93 0 2790 1352 2 MP stroke
0 111 3031 1241 2 MP stroke
94 0 2984 1241 2 MP stroke
94 0 2984 1352 2 MP stroke
0 111 3226 1241 2 MP stroke
94 0 3179 1241 2 MP stroke
94 0 3179 1352 2 MP stroke
0 111 3421 1241 2 MP stroke
93 0 3374 1241 2 MP stroke
93 0 3374 1352 2 MP stroke
0 111 3615 1241 2 MP stroke
93 0 3569 1241 2 MP stroke
93 0 3569 1352 2 MP stroke
0 111 3810 1241 2 MP stroke
94 0 3763 1241 2 MP stroke
94 0 3763 1352 2 MP stroke
0 111 4005 1241 2 MP stroke
94 0 3958 1241 2 MP stroke
94 0 3958 1352 2 MP stroke
0 111 4200 1241 2 MP stroke
93 0 4153 1241 2 MP stroke
93 0 4153 1352 2 MP stroke
0 111 4395 1241 2 MP stroke
93 0 4348 1241 2 MP stroke
93 0 4348 1352 2 MP stroke
0 111 4589 1241 2 MP stroke
93 0 4543 1241 2 MP stroke
93 0 4543 1352 2 MP stroke
0 111 4784 1241 2 MP stroke
94 0 4737 1241 2 MP stroke
94 0 4737 1352 2 MP stroke
0 111 4979 1241 2 MP stroke
94 0 4932 1241 2 MP stroke
94 0 4932 1352 2 MP stroke
0 111 5174 1241 2 MP stroke
93 0 5127 1241 2 MP stroke
93 0 5127 1352 2 MP stroke
0 111 5368 1241 2 MP stroke
93 0 5322 1241 2 MP stroke
93 0 5322 1352 2 MP stroke
0 111 5563 1241 2 MP stroke
94 0 5516 1241 2 MP stroke
94 0 5516 1352 2 MP stroke
0 111 5758 1241 2 MP stroke
94 0 5711 1241 2 MP stroke
94 0 5711 1352 2 MP stroke
gr

c8
41 71 -82 0 41 -71 1084 1343 4 MP
DP
41 71 -82 0 41 -71 1278 1343 4 MP
DP
41 71 -82 0 41 -71 1473 1343 4 MP
DP
41 71 -82 0 41 -71 1668 1343 4 MP
DP
41 71 -82 0 41 -71 1863 1343 4 MP
DP
41 71 -82 0 41 -71 2057 1343 4 MP
DP
41 71 -82 0 41 -71 2252 1343 4 MP
DP
41 71 -82 0 41 -71 2447 1343 4 MP
DP
41 71 -82 0 41 -71 2642 1343 4 MP
DP
41 71 -82 0 41 -71 2836 1343 4 MP
DP
41 71 -82 0 41 -71 3031 1343 4 MP
DP
41 71 -82 0 41 -71 3226 1343 4 MP
DP
41 71 -82 0 41 -71 3421 1343 4 MP
DP
41 71 -82 0 41 -71 3615 1343 4 MP
DP
41 71 -82 0 41 -71 3810 1343 4 MP
DP
41 71 -82 0 41 -71 4005 1343 4 MP
DP
41 71 -82 0 41 -71 4200 1343 4 MP
DP
41 71 -82 0 41 -71 4395 1343 4 MP
DP
41 71 -82 0 41 -71 4589 1343 4 MP
DP
41 71 -82 0 41 -71 4784 1343 4 MP
DP
41 71 -82 0 41 -71 4979 1343 4 MP
DP
41 71 -82 0 41 -71 5174 1343 4 MP
DP
41 71 -82 0 41 -71 5368 1343 4 MP
DP
41 71 -82 0 41 -71 5563 1343 4 MP
DP
41 71 -82 0 41 -71 5758 1343 4 MP
DP
gs 899 389 5357 4227 rc
c9
10 0 10 0 9 8 10 0 10 0 10 0 9 0 10 0 
10 0 10 8 9 0 10 0 10 0 9 0 10 0 10 0 
10 0 9 0 10 0 10 0 10 0 9 0 10 0 10 0 
10 0 9 23 10 0 10 0 10 0 9 0 10 0 10 0 
10 0 9 0 10 0 10 0 9 0 10 0 10 0 10 0 
9 7 10 0 10 0 10 0 9 0 10 0 10 0 10 0 
9 0 10 15 10 0 10 0 9 0 10 0 10 0 9 0 
10 0 10 0 10 0 9 0 10 0 10 0 10 4 9 0 
10 0 10 0 10 0 9 0 10 0 10 0 10 0 9 0 
10 0 10 0 10 0 9 0 10 0 10 0 9 0 10 0 
10 0 10 0 9 0 10 0 10 0 10 0 9 0 10 0 
10 0 10 0 9 0 10 0 10 0 10 0 9 0 10 0 
10 0 9 0 10 0 10 0 10 0 9 0 10 0 10 0 
10 0 9 0 10 0 10 0 10 0 9 0 10 0 10 0 
10 3 9 0 10 1 10 0 10 0 9 0 10 0 10 0 
9 0 10 0 10 0 10 0 9 0 10 28 10 0 10 0 
9 0 10 0 10 0 10 0 9 0 10 0 10 0 10 5 
9 0 10 0 10 0 9 0 10 0 10 0 10 0 9 0 
10 0 10 0 10 0 9 0 10 0 10 0 10 0 9 0 
10 0 10 0 10 0 9 0 10 0 10 0 10 0 9 0 
10 0 10 11 9 0 10 0 10 0 10 0 9 0 10 0 
10 0 10 0 9 2 10 0 10 0 10 0 9 0 10 0 
10 0 10 0 9 0 10 0 10 0 9 0 10 0 10 0 
10 0 9 0 10 0 10 0 10 0 9 0 10 0 10 0 
10 0 9 0 10 0 10 0 10 0 9 0 10 1 10 13 
10 0 9 0 10 0 10 0 9 0 10 0 10 0 10 0 
9 0 10 0 10 0 10 0 9 0 10 0 10 0 10 0 
9 0 10 0 10 0 10 0 9 0 10 0 10 0 9 0 
10 0 10 0 10 0 9 0 10 0 10 0 10 0 9 0 
10 0 10 0 10 0 9 0 10 0 10 0 10 0 9 0 
10 0 10 0 10 0 9 0 10 7 10 0 9 5 10 0 
10 0 10 0 9 0 10 0 10 0 10 0 9 0 10 0 
10 0 10 0 9 0 10 4 10 0 10 0 9 0 10 0 
10 0 10 0 9 0 10 0 10 0 9 0 10 0 10 0 
10 0 9 0 10 0 10 0 10 0 9 0 10 0 10 0 
10 0 9 8 10 0 10 0 10 0 9 7 10 0 10 0 
9 0 10 0 10 0 10 0 9 0 10 0 10 0 10 0 
9 0 10 0 10 0 2846 1079 300 MP stroke
10 0 9 0 10 0 10 0 10 0 9 0 10 0 10 0 
10 7 9 0 10 0 10 0 9 0 10 0 10 0 10 0 
9 7 10 0 10 0 10 0 9 0 10 0 10 0 10 0 
9 0 10 0 10 0 10 0 9 0 10 0 10 0 9 0 
10 0 10 0 10 0 9 0 10 11 10 0 10 0 9 0 
10 0 10 0 10 0 9 0 10 0 10 0 10 0 9 0 
10 0 10 0 10 0 9 0 10 0 10 0 9 0 10 0 
10 0 10 0 9 0 10 0 10 14 10 0 9 0 10 0 
10 0 10 0 9 0 10 0 10 6 10 0 9 0 10 0 
10 0 9 0 10 0 10 0 10 0 9 0 10 0 10 0 
10 0 9 0 10 0 10 0 10 0 9 0 10 0 10 0 
10 0 9 0 10 0 10 0 10 0 9 0 10 0 10 0 
9 0 10 0 10 0 10 11 9 0 10 0 10 0 10 0 
9 0 10 0 10 0 10 0 9 0 10 0 10 0 10 0 
9 0 10 0 10 0 9 0 10 8 10 0 10 0 9 0 
10 0 10 0 10 0 9 0 10 0 10 0 10 0 9 0 
10 0 10 0 10 0 9 0 10 0 10 0 10 0 9 0 
10 0 10 0 9 0 10 0 10 0 10 0 9 0 10 0 
10 0 10 4 9 0 10 0 10 0 10 0 9 0 10 8 
10 0 10 0 9 0 10 0 10 0 9 0 10 0 10 2 
10 0 9 0 10 0 10 0 10 0 9 0 10 0 10 0 
10 0 9 0 10 10 10 0 10 0 9 0 10 0 10 0 
10 0 9 0 10 0 10 0 9 0 10 0 10 0 10 0 
9 0 10 0 10 0 10 0 9 0 10 0 10 10 10 0 
9 0 10 0 10 0 10 0 9 0 10 0 10 0 9 0 
899 981 201 MP stroke
0 99 1084 942 2 MP stroke
93 0 1037 942 2 MP stroke
93 0 1037 1041 2 MP stroke
0 97 1278 953 2 MP stroke
93 0 1232 953 2 MP stroke
93 0 1232 1050 2 MP stroke
0 91 1473 970 2 MP stroke
94 0 1426 970 2 MP stroke
94 0 1426 1061 2 MP stroke
0 91 1668 970 2 MP stroke
94 0 1621 970 2 MP stroke
94 0 1621 1061 2 MP stroke
0 87 1863 980 2 MP stroke
93 0 1816 980 2 MP stroke
93 0 1816 1067 2 MP stroke
0 83 2057 993 2 MP stroke
93 0 2011 993 2 MP stroke
93 0 2011 1076 2 MP stroke
0 88 2252 996 2 MP stroke
94 0 2205 996 2 MP stroke
94 0 2205 1084 2 MP stroke
0 86 2447 1011 2 MP stroke
94 0 2400 1011 2 MP stroke
94 0 2400 1097 2 MP stroke
0 91 2642 1020 2 MP stroke
93 0 2595 1020 2 MP stroke
93 0 2595 1111 2 MP stroke
0 93 2836 1033 2 MP stroke
93 0 2790 1033 2 MP stroke
93 0 2790 1126 2 MP stroke
0 90 3031 1049 2 MP stroke
94 0 2984 1049 2 MP stroke
94 0 2984 1139 2 MP stroke
0 90 3226 1049 2 MP stroke
94 0 3179 1049 2 MP stroke
94 0 3179 1139 2 MP stroke
0 87 3421 1067 2 MP stroke
93 0 3374 1067 2 MP stroke
93 0 3374 1154 2 MP stroke
0 87 3615 1067 2 MP stroke
93 0 3569 1067 2 MP stroke
93 0 3569 1154 2 MP stroke
0 87 3810 1067 2 MP stroke
94 0 3763 1067 2 MP stroke
94 0 3763 1154 2 MP stroke
0 86 4005 1081 2 MP stroke
94 0 3958 1081 2 MP stroke
94 0 3958 1167 2 MP stroke
0 84 4200 1095 2 MP stroke
93 0 4153 1095 2 MP stroke
93 0 4153 1179 2 MP stroke
0 84 4395 1095 2 MP stroke
93 0 4348 1095 2 MP stroke
93 0 4348 1179 2 MP stroke
0 88 4589 1126 2 MP stroke
93 0 4543 1126 2 MP stroke
93 0 4543 1214 2 MP stroke
0 85 4784 1132 2 MP stroke
94 0 4737 1132 2 MP stroke
94 0 4737 1217 2 MP stroke
0 85 4979 1132 2 MP stroke
94 0 4932 1132 2 MP stroke
94 0 4932 1217 2 MP stroke
0 82 5174 1137 2 MP stroke
93 0 5127 1137 2 MP stroke
93 0 5127 1219 2 MP stroke
0 78 5368 1161 2 MP stroke
93 0 5322 1161 2 MP stroke
93 0 5322 1239 2 MP stroke
0 104 5563 1171 2 MP stroke
94 0 5516 1171 2 MP stroke
94 0 5516 1275 2 MP stroke
0 103 5758 1188 2 MP stroke
94 0 5711 1188 2 MP stroke
94 0 5711 1291 2 MP stroke
gr

c9
0 -58 -58 0 0 58 58 0 1055 962 5 MP
DP
0 -58 -58 0 0 58 58 0 1249 972 5 MP
DP
0 -58 -58 0 0 58 58 0 1444 986 5 MP
DP
0 -58 -58 0 0 58 58 0 1639 986 5 MP
DP
0 -58 -58 0 0 58 58 0 1834 994 5 MP
DP
0 -58 -58 0 0 58 58 0 2028 1005 5 MP
DP
0 -58 -58 0 0 58 58 0 2223 1011 5 MP
DP
0 -58 -58 0 0 58 58 0 2418 1025 5 MP
DP
0 -58 -58 0 0 58 58 0 2613 1036 5 MP
DP
0 -58 -58 0 0 58 58 0 2807 1050 5 MP
DP
0 -58 -58 0 0 58 58 0 3002 1065 5 MP
DP
0 -58 -58 0 0 58 58 0 3197 1065 5 MP
DP
0 -58 -58 0 0 58 58 0 3392 1081 5 MP
DP
0 -58 -58 0 0 58 58 0 3586 1081 5 MP
DP
0 -58 -58 0 0 58 58 0 3781 1081 5 MP
DP
0 -58 -58 0 0 58 58 0 3976 1095 5 MP
DP
0 -58 -58 0 0 58 58 0 4171 1108 5 MP
DP
0 -58 -58 0 0 58 58 0 4366 1108 5 MP
DP
0 -58 -58 0 0 58 58 0 4560 1141 5 MP
DP
0 -58 -58 0 0 58 58 0 4755 1145 5 MP
DP
0 -58 -58 0 0 58 58 0 4950 1145 5 MP
DP
0 -58 -58 0 0 58 58 0 5145 1149 5 MP
DP
0 -58 -58 0 0 58 58 0 5339 1171 5 MP
DP
0 -58 -58 0 0 58 58 0 5534 1194 5 MP
DP
0 -58 -58 0 0 58 58 0 5729 1210 5 MP
DP
gs 899 389 5357 4227 rc
c10
10 0 10 0 9 4 10 0 10 0 10 0 9 0 10 0 
10 0 10 0 9 0 10 0 10 0 9 0 10 0 10 0 
10 0 9 0 10 0 10 0 10 0 9 0 10 0 10 0 
10 0 9 0 10 0 10 0 10 0 9 0 10 0 10 2 
10 0 9 0 10 0 10 0 9 0 10 0 10 0 10 0 
9 0 10 8 10 0 10 0 9 0 10 0 10 0 10 0 
9 0 10 0 10 0 10 0 9 0 10 0 10 0 9 0 
10 0 10 0 10 15 9 0 10 0 10 0 10 0 9 0 
10 0 10 0 10 0 9 0 10 0 10 0 10 0 9 0 
10 0 10 0 10 0 9 0 10 0 10 0 9 0 10 0 
10 0 10 0 9 0 10 0 10 0 10 0 9 0 10 0 
10 0 10 0 9 0 10 0 10 0 10 0 9 5 10 0 
10 0 9 0 10 0 10 0 10 0 9 0 10 0 10 0 
10 0 9 0 10 0 10 0 10 0 9 0 10 0 10 0 
10 0 9 0 10 6 10 0 10 0 9 0 10 0 10 0 
9 0 10 0 10 0 10 0 9 5 10 0 10 0 10 0 
9 0 10 0 10 0 10 0 9 0 10 0 10 0 10 12 
9 0 10 0 10 0 9 0 10 0 10 0 10 0 9 0 
10 0 10 0 10 0 9 0 10 0 10 0 10 0 9 0 
10 0 10 2 10 0 9 0 10 0 10 0 10 0 9 0 
10 0 10 0 9 0 10 0 10 0 10 0 9 0 10 0 
10 0 10 0 9 0 10 0 10 2 10 0 9 0 10 0 
10 0 10 0 9 0 10 0 10 0 9 18 10 0 10 0 
10 0 9 0 10 0 10 0 10 0 9 0 10 0 10 0 
10 0 9 0 10 0 10 0 10 0 9 0 10 0 10 0 
10 0 9 0 10 0 10 0 9 0 10 0 10 0 10 0 
9 4 10 0 10 0 10 0 9 0 10 0 10 0 10 0 
9 0 10 0 10 0 10 5 9 0 10 0 10 0 9 0 
10 0 10 0 10 0 9 0 10 0 10 0 10 0 9 0 
10 0 10 0 10 5 9 0 10 3 10 0 10 0 9 0 
10 0 10 0 10 0 9 0 10 0 10 0 9 0 10 0 
10 0 10 0 9 0 10 0 10 0 10 0 9 0 10 0 
10 0 10 0 9 0 10 0 10 0 10 0 9 0 10 7 
10 0 10 0 9 0 10 0 10 0 9 0 10 0 10 0 
10 0 9 0 10 0 10 0 10 0 9 0 10 0 10 0 
10 0 9 0 10 0 10 0 10 3 9 0 10 0 10 0 
9 0 10 0 10 0 10 0 9 11 10 0 10 0 10 0 
9 0 10 0 10 0 2846 541 300 MP stroke
10 11 9 0 10 0 10 0 10 0 9 0 10 0 10 1 
10 0 9 0 10 0 10 0 9 0 10 0 10 0 10 0 
9 1 10 0 10 0 10 0 9 0 10 0 10 0 10 0 
9 0 10 0 10 0 10 0 9 0 10 0 10 0 9 0 
10 0 10 0 10 0 9 0 10 0 10 0 10 0 9 4 
10 0 10 0 10 0 9 0 10 0 10 0 10 0 9 0 
10 0 10 0 10 0 9 0 10 0 10 0 9 2 10 0 
10 0 10 0 9 0 10 0 10 0 10 0 9 0 10 0 
10 0 10 0 9 0 10 0 10 0 10 0 9 0 10 0 
10 0 9 0 10 0 10 0 10 0 9 0 10 0 10 0 
10 0 9 1 10 0 10 0 10 0 9 0 10 0 10 0 
10 0 9 0 10 0 10 0 10 0 9 0 10 0 10 6 
9 0 10 0 10 0 10 0 9 0 10 0 10 0 10 0 
9 0 10 0 10 5 10 8 9 0 10 0 10 6 10 0 
9 0 10 0 10 0 9 5 10 0 10 0 10 0 9 0 
10 8 10 0 10 0 9 0 10 0 10 0 10 0 9 0 
10 0 10 3 10 0 9 0 10 0 10 0 10 0 9 0 
10 0 10 9 9 0 10 0 10 0 10 0 9 0 10 0 
10 0 10 0 9 0 10 4 10 0 10 0 9 0 10 0 
10 0 10 0 9 0 10 5 10 0 9 0 10 0 10 0 
10 0 9 0 10 4 10 0 10 0 9 0 10 0 10 8 
10 7 9 0 10 0 10 0 10 0 9 0 10 0 10 0 
10 0 9 0 10 6 10 0 9 0 10 0 10 0 10 0 
9 0 10 0 10 0 10 0 9 0 10 3 10 0 10 0 
9 0 10 0 10 0 10 0 9 0 10 0 10 0 9 0 
899 434 201 MP stroke
0 98 1084 389 2 MP stroke
93 0 1037 389 2 MP stroke
93 0 1037 487 2 MP stroke
0 87 1278 419 2 MP stroke
93 0 1232 419 2 MP stroke
93 0 1232 506 2 MP stroke
0 81 1473 431 2 MP stroke
94 0 1426 431 2 MP stroke
94 0 1426 512 2 MP stroke
0 82 1668 442 2 MP stroke
94 0 1621 442 2 MP stroke
94 0 1621 524 2 MP stroke
0 73 1863 479 2 MP stroke
93 0 1816 479 2 MP stroke
93 0 1816 552 2 MP stroke
0 69 2057 487 2 MP stroke
93 0 2011 487 2 MP stroke
93 0 2011 556 2 MP stroke
0 68 2252 488 2 MP stroke
94 0 2205 488 2 MP stroke
94 0 2205 556 2 MP stroke
0 68 2447 490 2 MP stroke
94 0 2400 490 2 MP stroke
94 0 2400 558 2 MP stroke
0 65 2642 496 2 MP stroke
93 0 2595 496 2 MP stroke
93 0 2595 561 2 MP stroke
0 64 2836 498 2 MP stroke
93 0 2790 498 2 MP stroke
93 0 2790 562 2 MP stroke
0 75 3031 517 2 MP stroke
94 0 2984 517 2 MP stroke
94 0 2984 592 2 MP stroke
0 73 3226 525 2 MP stroke
94 0 3179 525 2 MP stroke
94 0 3179 598 2 MP stroke
0 73 3421 525 2 MP stroke
93 0 3374 525 2 MP stroke
93 0 3374 598 2 MP stroke
0 70 3615 535 2 MP stroke
93 0 3569 535 2 MP stroke
93 0 3569 605 2 MP stroke
0 70 3810 544 2 MP stroke
94 0 3763 544 2 MP stroke
94 0 3763 614 2 MP stroke
0 73 4005 560 2 MP stroke
94 0 3958 560 2 MP stroke
94 0 3958 633 2 MP stroke
0 71 4200 564 2 MP stroke
93 0 4153 564 2 MP stroke
93 0 4153 635 2 MP stroke
0 71 4395 565 2 MP stroke
93 0 4348 565 2 MP stroke
93 0 4348 636 2 MP stroke
0 73 4589 582 2 MP stroke
93 0 4543 582 2 MP stroke
93 0 4543 655 2 MP stroke
0 73 4784 588 2 MP stroke
94 0 4737 588 2 MP stroke
94 0 4737 661 2 MP stroke
0 73 4979 592 2 MP stroke
94 0 4932 592 2 MP stroke
94 0 4932 665 2 MP stroke
0 73 5174 592 2 MP stroke
93 0 5127 592 2 MP stroke
93 0 5127 665 2 MP stroke
0 69 5368 618 2 MP stroke
93 0 5322 618 2 MP stroke
93 0 5322 687 2 MP stroke
0 68 5563 620 2 MP stroke
94 0 5516 620 2 MP stroke
94 0 5516 688 2 MP stroke
0 65 5758 626 2 MP stroke
94 0 5711 626 2 MP stroke
94 0 5711 691 2 MP stroke
gr

c10
  36   36 1084  437 FO
  36   36 1278  462 FO
  36   36 1473  471 FO
  36   36 1668  483 FO
  36   36 1863  515 FO
  36   36 2057  522 FO
  36   36 2252  522 FO
  36   36 2447  524 FO
  36   36 2642  528 FO
  36   36 2836  530 FO
  36   36 3031  555 FO
  36   36 3226  562 FO
  36   36 3421  562 FO
  36   36 3615  570 FO
  36   36 3810  579 FO
  36   36 4005  597 FO
  36   36 4200  599 FO
  36   36 4395  601 FO
  36   36 4589  618 FO
  36   36 4784  624 FO
  36   36 4979  629 FO
  36   36 5174  629 FO
  36   36 5368  652 FO
  36   36 5563  654 FO
  36   36 5758  658 FO
gs 899 389 5357 4227 rc
c11
10 0 10 5 9 0 10 0 10 0 10 0 9 0 10 0 
10 0 10 0 9 0 10 0 10 0 9 0 10 0 10 0 
10 0 9 0 10 0 10 0 10 0 9 0 10 3 10 0 
10 0 9 0 10 0 10 0 10 0 9 0 10 0 10 0 
10 0 9 24 10 0 10 0 9 0 10 0 10 0 10 0 
9 0 10 0 10 0 10 0 9 0 10 0 10 0 10 0 
9 0 10 0 10 0 10 0 9 0 10 15 10 0 9 0 
10 0 10 0 10 0 9 0 10 0 10 0 10 0 9 0 
10 0 10 0 10 0 9 0 10 0 10 0 10 0 9 0 
10 0 10 2 10 0 9 7 10 0 10 0 9 0 10 0 
10 0 10 0 9 0 10 0 10 0 10 0 9 0 10 0 
10 0 10 0 9 0 10 0 10 0 10 0 9 0 10 0 
10 0 9 0 10 0 10 0 10 0 9 0 10 0 10 0 
10 0 9 0 10 0 10 0 10 0 9 0 10 0 10 0 
10 0 9 0 10 0 10 0 10 0 9 0 10 0 10 0 
9 0 10 0 10 0 10 0 9 0 10 0 10 0 10 0 
9 0 10 0 10 0 10 0 9 0 10 0 10 0 10 0 
9 0 10 0 10 0 9 0 10 0 10 0 10 0 9 0 
10 0 10 0 10 0 9 0 10 0 10 0 10 0 9 0 
10 0 10 0 10 0 9 2 10 0 10 0 10 0 9 0 
10 0 10 0 9 0 10 0 10 6 10 0 9 0 10 0 
10 0 10 0 9 0 10 0 10 0 10 0 9 0 10 0 
10 0 10 0 9 0 10 0 10 0 9 0 10 8 10 0 
10 0 9 0 10 0 10 0 10 0 9 0 10 0 10 0 
10 0 9 0 10 0 10 0 10 0 9 0 10 0 10 0 
10 0 9 0 10 0 10 0 9 0 10 0 10 0 10 0 
9 11 10 0 10 0 10 0 9 0 10 0 10 0 10 0 
9 0 10 0 10 8 10 0 9 0 10 0 10 0 9 0 
10 0 10 0 10 0 9 0 10 0 10 0 10 0 9 0 
10 0 10 0 10 0 9 4 10 0 10 0 10 0 9 0 
10 0 10 0 10 0 9 0 10 0 10 0 9 0 10 0 
10 0 10 0 9 0 10 0 10 0 10 0 9 0 10 0 
10 0 10 0 9 0 10 0 10 0 10 0 9 0 10 0 
10 0 10 0 9 0 10 3 10 0 9 0 10 0 10 0 
10 0 9 0 10 0 10 0 10 0 9 0 10 0 10 0 
10 0 9 0 10 4 10 0 10 0 9 14 10 0 10 0 
9 0 10 0 10 0 10 0 9 0 10 0 10 0 10 0 
9 2 10 0 10 0 2846 1031 300 MP stroke
10 0 9 0 10 0 10 0 10 0 9 0 10 0 10 3 
10 0 9 0 10 0 10 0 9 0 10 0 10 0 10 0 
9 0 10 0 10 0 10 0 9 0 10 0 10 0 10 0 
9 0 10 0 10 0 10 0 9 1 10 0 10 0 9 0 
10 0 10 0 10 0 9 0 10 0 10 0 10 0 9 0 
10 0 10 0 10 24 9 0 10 0 10 0 10 0 9 0 
10 0 10 0 10 0 9 0 10 0 10 0 9 0 10 0 
10 0 10 0 9 0 10 0 10 0 10 0 9 0 10 0 
10 0 10 0 9 0 10 0 10 0 10 0 9 0 10 0 
10 6 9 0 10 0 10 0 10 0 9 0 10 0 10 0 
10 0 9 0 10 0 10 0 10 0 9 0 10 0 10 0 
10 0 9 0 10 0 10 0 10 0 9 0 10 0 10 12 
9 0 10 0 10 0 10 0 9 0 10 0 10 0 10 0 
9 0 10 0 10 0 10 0 9 0 10 0 10 0 10 0 
9 0 10 0 10 0 9 0 10 0 10 0 10 0 9 0 
10 0 10 0 10 0 9 0 10 0 10 5 10 0 9 0 
10 0 10 0 10 0 9 0 10 0 10 0 10 0 9 0 
10 0 10 0 9 0 10 0 10 0 10 0 9 0 10 0 
10 0 10 0 9 0 10 0 10 0 10 0 9 0 10 0 
10 0 10 0 9 0 10 0 10 0 9 0 10 9 10 3 
10 0 9 0 10 1 10 0 10 0 9 0 10 0 10 0 
10 2 9 0 10 0 10 0 10 0 9 0 10 0 10 8 
10 0 9 0 10 0 10 0 9 0 10 0 10 0 10 0 
9 0 10 0 10 0 10 22 9 6 10 6 10 0 10 0 
9 0 10 8 10 1 10 27 9 0 10 8 10 38 9 0 
899 841 201 MP stroke
0 114 1084 900 2 MP stroke
93 0 1037 900 2 MP stroke
93 0 1037 1014 2 MP stroke
0 112 1278 913 2 MP stroke
93 0 1232 913 2 MP stroke
93 0 1232 1025 2 MP stroke
0 116 1473 923 2 MP stroke
94 0 1426 923 2 MP stroke
94 0 1426 1039 2 MP stroke
0 112 1668 929 2 MP stroke
94 0 1621 929 2 MP stroke
94 0 1621 1041 2 MP stroke
0 112 1863 929 2 MP stroke
93 0 1816 929 2 MP stroke
93 0 1816 1041 2 MP stroke
0 104 2057 945 2 MP stroke
93 0 2011 945 2 MP stroke
93 0 2011 1049 2 MP stroke
0 102 2252 952 2 MP stroke
94 0 2205 952 2 MP stroke
94 0 2205 1054 2 MP stroke
0 93 2447 980 2 MP stroke
94 0 2400 980 2 MP stroke
94 0 2400 1073 2 MP stroke
0 92 2642 982 2 MP stroke
93 0 2595 982 2 MP stroke
93 0 2595 1074 2 MP stroke
0 92 2836 985 2 MP stroke
93 0 2790 985 2 MP stroke
93 0 2790 1077 2 MP stroke
0 99 3031 1002 2 MP stroke
94 0 2984 1002 2 MP stroke
94 0 2984 1101 2 MP stroke
0 98 3226 1005 2 MP stroke
94 0 3179 1005 2 MP stroke
94 0 3179 1103 2 MP stroke
0 98 3421 1005 2 MP stroke
93 0 3374 1005 2 MP stroke
93 0 3374 1103 2 MP stroke
0 98 3615 1009 2 MP stroke
93 0 3569 1009 2 MP stroke
93 0 3569 1107 2 MP stroke
0 94 3810 1030 2 MP stroke
94 0 3763 1030 2 MP stroke
94 0 3763 1124 2 MP stroke
0 90 4005 1040 2 MP stroke
94 0 3958 1040 2 MP stroke
94 0 3958 1130 2 MP stroke
0 87 4200 1048 2 MP stroke
93 0 4153 1048 2 MP stroke
93 0 4153 1135 2 MP stroke
0 86 4395 1050 2 MP stroke
93 0 4348 1050 2 MP stroke
93 0 4348 1136 2 MP stroke
0 86 4589 1050 2 MP stroke
93 0 4543 1050 2 MP stroke
93 0 4543 1136 2 MP stroke
0 85 4784 1051 2 MP stroke
94 0 4737 1051 2 MP stroke
94 0 4737 1136 2 MP stroke
0 85 4979 1051 2 MP stroke
94 0 4932 1051 2 MP stroke
94 0 4932 1136 2 MP stroke
0 83 5174 1061 2 MP stroke
93 0 5127 1061 2 MP stroke
93 0 5127 1144 2 MP stroke
0 78 5368 1078 2 MP stroke
93 0 5322 1078 2 MP stroke
93 0 5322 1156 2 MP stroke
0 102 5563 1093 2 MP stroke
94 0 5516 1093 2 MP stroke
94 0 5516 1195 2 MP stroke
0 100 5758 1099 2 MP stroke
94 0 5711 1099 2 MP stroke
94 0 5711 1199 2 MP stroke
gr

c11
1048  957 mt 1120  957 L
1084  921 mt 1084  993 L
1242  968 mt 1314  968 L
1278  932 mt 1278 1004 L
1437  980 mt 1509  980 L
1473  944 mt 1473 1016 L
1632  985 mt 1704  985 L
1668  949 mt 1668 1021 L
1827  985 mt 1899  985 L
1863  949 mt 1863 1021 L
2021  997 mt 2093  997 L
2057  961 mt 2057 1033 L
2216 1003 mt 2288 1003 L
2252  967 mt 2252 1039 L
2411 1027 mt 2483 1027 L
2447  991 mt 2447 1063 L
2606 1028 mt 2678 1028 L
2642  992 mt 2642 1064 L
2800 1031 mt 2872 1031 L
2836  995 mt 2836 1067 L
2995 1051 mt 3067 1051 L
3031 1015 mt 3031 1087 L
3190 1054 mt 3262 1054 L
3226 1018 mt 3226 1090 L
3385 1054 mt 3457 1054 L
3421 1018 mt 3421 1090 L
3579 1058 mt 3651 1058 L
3615 1022 mt 3615 1094 L
3774 1077 mt 3846 1077 L
3810 1041 mt 3810 1113 L
3969 1085 mt 4041 1085 L
4005 1049 mt 4005 1121 L
4164 1091 mt 4236 1091 L
4200 1055 mt 4200 1127 L
4359 1093 mt 4431 1093 L
4395 1057 mt 4395 1129 L
4553 1093 mt 4625 1093 L
4589 1057 mt 4589 1129 L
4748 1093 mt 4820 1093 L
4784 1057 mt 4784 1129 L
4943 1093 mt 5015 1093 L
4979 1057 mt 4979 1129 L
5138 1102 mt 5210 1102 L
5174 1066 mt 5174 1138 L
5332 1117 mt 5404 1117 L
5368 1081 mt 5368 1153 L
5527 1144 mt 5599 1144 L
5563 1108 mt 5563 1180 L
5722 1149 mt 5794 1149 L
5758 1113 mt 5758 1185 L
1059  932 mt 1109  982 L
1109  932 mt 1059  982 L
1253  943 mt 1303  993 L
1303  943 mt 1253  993 L
1448  955 mt 1498 1005 L
1498  955 mt 1448 1005 L
1643  960 mt 1693 1010 L
1693  960 mt 1643 1010 L
1838  960 mt 1888 1010 L
1888  960 mt 1838 1010 L
2032  972 mt 2082 1022 L
2082  972 mt 2032 1022 L
2227  978 mt 2277 1028 L
2277  978 mt 2227 1028 L
2422 1002 mt 2472 1052 L
2472 1002 mt 2422 1052 L
2617 1003 mt 2667 1053 L
2667 1003 mt 2617 1053 L
2811 1006 mt 2861 1056 L
2861 1006 mt 2811 1056 L
3006 1026 mt 3056 1076 L
3056 1026 mt 3006 1076 L
3201 1029 mt 3251 1079 L
3251 1029 mt 3201 1079 L
3396 1029 mt 3446 1079 L
3446 1029 mt 3396 1079 L
3590 1033 mt 3640 1083 L
3640 1033 mt 3590 1083 L
3785 1052 mt 3835 1102 L
3835 1052 mt 3785 1102 L
3980 1060 mt 4030 1110 L
4030 1060 mt 3980 1110 L
4175 1066 mt 4225 1116 L
4225 1066 mt 4175 1116 L
4370 1068 mt 4420 1118 L
4420 1068 mt 4370 1118 L
4564 1068 mt 4614 1118 L
4614 1068 mt 4564 1118 L
4759 1068 mt 4809 1118 L
4809 1068 mt 4759 1118 L
4954 1068 mt 5004 1118 L
5004 1068 mt 4954 1118 L
5149 1077 mt 5199 1127 L
5199 1077 mt 5149 1127 L
5343 1092 mt 5393 1142 L
5393 1092 mt 5343 1142 L
5538 1119 mt 5588 1169 L
5588 1119 mt 5538 1169 L
5733 1124 mt 5783 1174 L
5783 1124 mt 5733 1174 L
gs 899 389 5357 4227 rc
c12
10 0 10 0 9 0 10 0 10 0 10 0 9 0 10 0 
10 0 10 0 9 0 10 0 10 0 9 0 10 2 10 0 
10 21 9 0 10 0 10 0 10 0 9 0 10 0 10 0 
10 0 9 0 10 0 10 0 10 0 9 0 10 0 10 0 
10 0 9 0 10 1 10 0 9 2 10 1 10 0 10 0 
9 0 10 0 10 0 10 16 9 0 10 0 10 0 10 0 
9 0 10 0 10 0 10 0 9 0 10 0 10 4 9 0 
10 0 10 0 10 0 9 0 10 0 10 0 10 0 9 0 
10 0 10 0 10 0 9 0 10 0 10 0 10 0 9 0 
10 0 10 0 10 0 9 0 10 0 10 0 9 0 10 0 
10 0 10 0 9 0 10 0 10 0 10 0 9 0 10 0 
10 0 10 0 9 0 10 0 10 0 10 0 9 0 10 0 
10 0 9 0 10 0 10 0 10 0 9 0 10 0 10 0 
10 0 9 0 10 0 10 0 10 0 9 0 10 0 10 0 
10 0 9 0 10 0 10 0 10 0 9 0 10 0 10 0 
9 0 10 0 10 0 10 0 9 0 10 0 10 0 10 0 
9 0 10 0 10 0 10 0 9 0 10 0 10 0 10 0 
9 0 10 0 10 0 9 0 10 0 10 0 10 0 9 0 
10 0 10 0 10 0 9 0 10 0 10 0 10 0 9 0 
10 0 10 0 10 0 9 0 10 0 10 0 10 0 9 0 
10 0 10 0 9 0 10 0 10 0 10 0 9 0 10 0 
10 0 10 0 9 0 10 0 10 0 10 0 9 0 10 0 
10 0 10 0 9 0 10 0 10 0 9 0 10 0 10 0 
10 0 9 0 10 0 10 0 10 0 9 0 10 0 10 0 
10 0 9 0 10 0 10 0 10 0 9 0 10 0 10 0 
10 0 9 0 10 0 10 0 9 0 10 0 10 0 10 0 
9 0 10 0 10 0 10 0 9 0 10 0 10 0 10 0 
9 0 10 0 10 0 10 0 9 0 10 0 10 0 9 0 
10 0 10 0 10 0 9 0 10 0 10 0 10 0 9 6 
10 0 10 0 10 0 9 8 10 0 10 0 10 0 9 0 
10 0 10 0 10 0 9 0 10 0 10 0 9 0 10 0 
10 0 10 0 9 0 10 0 10 0 10 0 9 0 10 0 
10 0 10 0 9 0 10 0 10 0 10 0 9 0 10 0 
10 0 10 0 9 0 10 0 10 0 9 0 10 0 10 0 
10 0 9 0 10 0 10 0 10 6 9 0 10 0 10 0 
10 0 9 0 10 0 10 0 10 0 9 0 10 0 10 0 
9 0 10 0 10 0 10 0 9 0 10 1 10 0 10 0 
9 0 10 1 10 0 2846 2309 300 MP stroke
10 1 9 0 10 0 10 0 10 0 9 0 10 0 10 1 
10 0 9 0 10 0 10 0 9 9 10 35 10 0 10 0 
9 7 10 0 10 0 10 0 9 15 10 0 10 0 10 0 
9 0 10 1 10 0 10 0 9 0 10 23 10 0 9 0 
10 0 10 0 10 0 9 0 10 0 10 0 10 0 9 0 
10 0 10 0 10 0 9 0 10 0 10 0 10 0 9 0 
10 0 10 0 10 0 9 0 10 0 10 0 9 0 10 0 
10 0 10 0 9 0 10 0 10 0 10 1 9 0 10 0 
10 0 10 0 9 0 10 0 10 0 10 0 9 0 10 0 
10 0 9 0 10 20 10 1 10 0 9 0 10 0 10 1 
10 26 9 0 10 0 10 3 10 17 9 0 10 0 10 0 
10 0 9 1 10 23 10 1 10 0 9 0 10 0 10 0 
9 0 10 0 10 0 10 0 9 0 10 0 10 0 10 0 
9 0 10 10 10 12 10 0 9 0 10 1 10 0 10 20 
9 0 10 0 10 0 9 0 10 26 10 1 10 5 9 38 
10 17 10 2 10 10 9 4 10 8 10 3 10 23 9 7 
10 0 10 0 10 0 9 0 10 0 10 0 10 0 9 39 
10 39 10 9 9 14 10 11 10 0 10 18 9 0 10 1 
10 12 10 1 9 14 10 30 10 0 10 2 9 4 10 5 
10 8 10 0 9 0 10 0 10 10 9 0 10 0 10 0 
10 0 9 0 10 12 10 4 10 4 9 5 10 5 10 0 
10 28 9 11 10 13 10 0 10 0 9 0 10 0 10 4 
10 54 9 26 10 13 10 21 9 34 10 8 10 6 10 10 
9 24 10 0 10 17 10 12 9 0 10 0 10 32 10 0 
9 13 10 27 10 0 10 0 9 14 10 0 10 15 9 20 
899 1287 201 MP stroke
0 111 1084 1430 2 MP stroke
93 0 1037 1430 2 MP stroke
93 0 1037 1541 2 MP stroke
0 134 1278 1653 2 MP stroke
93 0 1232 1653 2 MP stroke
93 0 1232 1787 2 MP stroke
0 155 1473 1747 2 MP stroke
94 0 1426 1747 2 MP stroke
94 0 1426 1902 2 MP stroke
0 191 1668 1898 2 MP stroke
94 0 1621 1898 2 MP stroke
94 0 1621 2089 2 MP stroke
0 212 1863 2018 2 MP stroke
93 0 1816 2018 2 MP stroke
93 0 1816 2230 2 MP stroke
0 224 2057 2057 2 MP stroke
93 0 2011 2057 2 MP stroke
93 0 2011 2281 2 MP stroke
0 226 2252 2105 2 MP stroke
94 0 2205 2105 2 MP stroke
94 0 2205 2331 2 MP stroke
0 227 2447 2105 2 MP stroke
94 0 2400 2105 2 MP stroke
94 0 2400 2332 2 MP stroke
0 238 2642 2123 2 MP stroke
93 0 2595 2123 2 MP stroke
93 0 2595 2361 2 MP stroke
0 272 2836 2174 2 MP stroke
93 0 2790 2174 2 MP stroke
93 0 2790 2446 2 MP stroke
0 272 3031 2177 2 MP stroke
94 0 2984 2177 2 MP stroke
94 0 2984 2449 2 MP stroke
0 273 3226 2182 2 MP stroke
94 0 3179 2182 2 MP stroke
94 0 3179 2455 2 MP stroke
0 273 3421 2182 2 MP stroke
93 0 3374 2182 2 MP stroke
93 0 3374 2455 2 MP stroke
0 260 3615 2203 2 MP stroke
93 0 3569 2203 2 MP stroke
93 0 3569 2463 2 MP stroke
0 260 3810 2203 2 MP stroke
94 0 3763 2203 2 MP stroke
94 0 3763 2463 2 MP stroke
0 260 4005 2203 2 MP stroke
94 0 3958 2203 2 MP stroke
94 0 3958 2463 2 MP stroke
0 260 4200 2203 2 MP stroke
93 0 4153 2203 2 MP stroke
93 0 4153 2463 2 MP stroke
0 260 4395 2203 2 MP stroke
93 0 4348 2203 2 MP stroke
93 0 4348 2463 2 MP stroke
0 260 4589 2203 2 MP stroke
93 0 4543 2203 2 MP stroke
93 0 4543 2463 2 MP stroke
0 260 4784 2203 2 MP stroke
94 0 4737 2203 2 MP stroke
94 0 4737 2463 2 MP stroke
0 260 4979 2203 2 MP stroke
94 0 4932 2203 2 MP stroke
94 0 4932 2463 2 MP stroke
0 260 5174 2203 2 MP stroke
93 0 5127 2203 2 MP stroke
93 0 5127 2463 2 MP stroke
0 253 5368 2227 2 MP stroke
93 0 5322 2227 2 MP stroke
93 0 5322 2480 2 MP stroke
0 253 5563 2230 2 MP stroke
94 0 5516 2230 2 MP stroke
94 0 5516 2483 2 MP stroke
0 242 5758 2259 2 MP stroke
94 0 5711 2259 2 MP stroke
94 0 5711 2501 2 MP stroke
gr

c12
36 47 -36 47 -36 -47 36 -47 1084 1532 5 MP
DP
36 47 -36 47 -36 -47 36 -47 1278 1766 5 MP
DP
36 47 -36 47 -36 -47 36 -47 1473 1871 5 MP
DP
36 47 -36 47 -36 -47 36 -47 1668 2040 5 MP
DP
36 47 -36 47 -36 -47 36 -47 1863 2170 5 MP
DP
36 47 -36 47 -36 -47 36 -47 2057 2215 5 MP
DP
36 47 -36 47 -36 -47 36 -47 2252 2264 5 MP
DP
36 47 -36 47 -36 -47 36 -47 2447 2264 5 MP
DP
36 47 -36 47 -36 -47 36 -47 2642 2288 5 MP
DP
36 47 -36 47 -36 -47 36 -47 2836 2355 5 MP
DP
36 47 -36 47 -36 -47 36 -47 3031 2358 5 MP
DP
36 47 -36 47 -36 -47 36 -47 3226 2364 5 MP
DP
36 47 -36 47 -36 -47 36 -47 3421 2364 5 MP
DP
36 47 -36 47 -36 -47 36 -47 3615 2378 5 MP
DP
36 47 -36 47 -36 -47 36 -47 3810 2378 5 MP
DP
36 47 -36 47 -36 -47 36 -47 4005 2378 5 MP
DP
36 47 -36 47 -36 -47 36 -47 4200 2378 5 MP
DP
36 47 -36 47 -36 -47 36 -47 4395 2378 5 MP
DP
36 47 -36 47 -36 -47 36 -47 4589 2378 5 MP
DP
36 47 -36 47 -36 -47 36 -47 4784 2378 5 MP
DP
36 47 -36 47 -36 -47 36 -47 4979 2378 5 MP
DP
36 47 -36 47 -36 -47 36 -47 5174 2378 5 MP
DP
36 47 -36 47 -36 -47 36 -47 5368 2398 5 MP
DP
36 47 -36 47 -36 -47 36 -47 5563 2402 5 MP
DP
36 47 -36 47 -36 -47 36 -47 5758 2425 5 MP
DP
gs 899 389 5357 4227 rc
0 sg
10 0 10 0 9 0 10 0 10 0 10 0 9 0 10 0 
10 0 10 0 9 0 10 0 10 0 9 0 10 0 10 36 
10 0 9 0 10 0 10 0 10 10 9 0 10 0 10 8 
10 0 9 13 10 2 10 5 10 5 9 0 10 0 10 0 
10 0 9 0 10 26 10 0 9 0 10 0 10 0 10 0 
9 0 10 0 10 0 10 14 9 0 10 0 10 0 10 0 
9 1 10 0 10 0 10 0 9 0 10 0 10 0 9 0 
10 0 10 0 10 0 9 0 10 0 10 0 10 0 9 0 
10 14 10 0 10 0 9 0 10 0 10 0 10 0 9 0 
10 0 10 3 10 0 9 0 10 0 10 0 9 0 10 0 
10 0 10 0 9 0 10 1 10 0 10 0 9 0 10 0 
10 3 10 0 9 0 10 0 10 0 10 0 9 0 10 0 
10 0 9 0 10 0 10 0 10 0 9 0 10 0 10 0 
10 2 9 0 10 0 10 7 10 0 9 0 10 0 10 0 
10 0 9 0 10 3 10 0 10 0 9 0 10 0 10 0 
9 0 10 0 10 0 10 0 9 0 10 0 10 0 10 0 
9 7 10 0 10 0 10 0 9 0 10 0 10 7 10 15 
9 2 10 0 10 0 9 0 10 7 10 0 10 0 9 1 
10 0 10 0 10 0 9 0 10 0 10 19 10 0 9 0 
10 32 10 0 10 0 9 0 10 1 10 0 10 0 9 0 
10 0 10 1 9 0 10 0 10 0 10 0 9 0 10 0 
10 0 10 4 9 0 10 0 10 0 10 0 9 2 10 0 
10 3 10 1 9 0 10 0 10 2 9 0 10 0 10 0 
10 0 9 0 10 0 10 9 10 0 9 4 10 0 10 1 
10 1 9 2 10 14 10 0 10 0 9 0 10 0 10 0 
10 0 9 2 10 0 10 0 9 0 10 1 10 0 10 0 
9 0 10 6 10 14 10 0 9 7 10 0 10 0 10 0 
9 0 10 2 10 8 10 7 9 0 10 0 10 3 9 6 
10 0 10 2 10 0 9 19 10 0 10 0 10 0 9 0 
10 0 10 0 10 0 9 0 10 0 10 0 10 0 9 0 
10 0 10 0 10 0 9 0 10 0 10 0 9 0 10 0 
10 0 10 0 9 0 10 6 10 2 10 0 9 21 10 6 
10 2 10 8 9 0 10 0 10 0 10 0 9 3 10 0 
10 0 10 0 9 5 10 0 10 0 9 43 10 0 10 2 
10 2 9 0 10 9 10 0 10 7 9 0 10 0 10 0 
10 0 9 0 10 0 10 0 10 0 9 0 10 0 10 0 
9 12 10 0 10 0 10 0 9 0 10 0 10 0 10 0 
9 0 10 0 10 0 2846 4007 300 MP stroke
10 0 9 0 10 9 10 1 10 10 9 0 10 0 10 8 
10 43 9 0 10 0 10 11 9 0 10 4 10 7 10 3 
9 39 10 0 10 0 10 8 9 1 10 0 10 0 10 0 
9 30 10 15 10 0 10 1 9 0 10 10 10 17 9 0 
10 0 10 3 10 1 9 59 10 1 10 6 10 0 9 0 
10 2 10 0 10 0 9 9 10 0 10 6 10 0 9 0 
10 0 10 0 10 0 9 0 10 4 10 8 9 0 10 0 
10 0 10 0 9 3 10 2 10 3 10 3 9 0 10 0 
10 0 10 10 9 13 10 45 10 39 10 0 9 0 10 20 
10 25 9 23 10 36 10 0 10 0 9 0 10 29 10 12 
10 13 9 1 10 8 10 10 10 10 9 0 10 27 10 0 
10 0 9 29 10 0 10 0 10 1 9 0 10 18 10 0 
9 0 10 0 10 0 10 0 9 14 10 0 10 0 10 0 
9 9 10 11 10 10 10 19 9 0 10 0 10 0 10 7 
9 1 10 6 10 0 9 5 10 25 10 39 10 0 9 1 
10 5 10 5 10 0 9 0 10 7 10 34 10 0 9 12 
10 18 10 5 10 0 9 0 10 1 10 12 10 4 9 28 
10 0 10 79 9 65 10 32 10 4 10 0 9 0 10 7 
10 11 10 12 9 45 10 2 10 9 10 14 9 4 10 0 
10 18 10 1 9 3 10 0 10 0 9 19 10 5 10 0 
10 7 9 39 10 0 10 23 10 0 9 5 10 12 10 0 
10 2 9 1 10 16 10 14 10 23 9 48 10 28 10 27 
10 30 9 19 10 4 10 9 9 16 10 0 10 13 10 11 
9 26 10 28 10 18 10 0 9 0 10 7 10 24 10 19 
9 86 10 87 10 67 10 67 9 118 10 21 10 83 9 34 
899 1671 201 MP stroke
0 215 1084 2274 2 MP stroke
93 0 1037 2274 2 MP stroke
93 0 1037 2489 2 MP stroke
0 222 1278 2586 2 MP stroke
93 0 1232 2586 2 MP stroke
93 0 1232 2808 2 MP stroke
0 185 1473 2762 2 MP stroke
94 0 1426 2762 2 MP stroke
94 0 1426 2947 2 MP stroke
0 271 1668 3025 2 MP stroke
94 0 1621 3025 2 MP stroke
94 0 1621 3296 2 MP stroke
0 266 1863 3166 2 MP stroke
93 0 1816 3166 2 MP stroke
93 0 1816 3432 2 MP stroke
0 265 2057 3284 2 MP stroke
93 0 2011 3284 2 MP stroke
93 0 2011 3549 2 MP stroke
0 279 2252 3546 2 MP stroke
94 0 2205 3546 2 MP stroke
94 0 2205 3825 2 MP stroke
0 272 2447 3584 2 MP stroke
94 0 2400 3584 2 MP stroke
94 0 2400 3856 2 MP stroke
0 255 2642 3737 2 MP stroke
93 0 2595 3737 2 MP stroke
93 0 2595 3992 2 MP stroke
0 273 2836 3873 2 MP stroke
93 0 2790 3873 2 MP stroke
93 0 2790 4146 2 MP stroke
0 274 3031 3884 2 MP stroke
94 0 2984 3884 2 MP stroke
94 0 2984 4158 2 MP stroke
0 278 3226 3953 2 MP stroke
94 0 3179 3953 2 MP stroke
94 0 3179 4231 2 MP stroke
0 284 3421 3995 2 MP stroke
93 0 3374 3995 2 MP stroke
93 0 3374 4279 2 MP stroke
0 289 3615 4023 2 MP stroke
93 0 3569 4023 2 MP stroke
93 0 3569 4312 2 MP stroke
0 298 3810 4065 2 MP stroke
94 0 3763 4065 2 MP stroke
94 0 3763 4363 2 MP stroke
0 284 4005 4105 2 MP stroke
94 0 3958 4105 2 MP stroke
94 0 3958 4389 2 MP stroke
0 285 4200 4116 2 MP stroke
93 0 4153 4116 2 MP stroke
93 0 4153 4401 2 MP stroke
0 279 4395 4179 2 MP stroke
93 0 4348 4179 2 MP stroke
93 0 4348 4458 2 MP stroke
0 272 4589 4213 2 MP stroke
93 0 4543 4213 2 MP stroke
93 0 4543 4485 2 MP stroke
0 268 4784 4227 2 MP stroke
94 0 4737 4227 2 MP stroke
94 0 4737 4495 2 MP stroke
0 268 4979 4231 2 MP stroke
94 0 4932 4231 2 MP stroke
94 0 4932 4499 2 MP stroke
0 262 5174 4251 2 MP stroke
93 0 5127 4251 2 MP stroke
93 0 5127 4513 2 MP stroke
0 257 5368 4268 2 MP stroke
93 0 5322 4268 2 MP stroke
93 0 5322 4525 2 MP stroke
0 241 5563 4345 2 MP stroke
94 0 5516 4345 2 MP stroke
94 0 5516 4586 2 MP stroke
0 227 5758 4388 2 MP stroke
94 0 5711 4388 2 MP stroke
94 0 5711 4615 2 MP stroke
gr

0 sg
1048 2380 mt 1120 2380 L
1084 2344 mt 1084 2416 L
1242 2696 mt 1314 2696 L
1278 2660 mt 1278 2732 L
1437 2853 mt 1509 2853 L
1473 2817 mt 1473 2889 L
1632 3159 mt 1704 3159 L
1668 3123 mt 1668 3195 L
1827 3297 mt 1899 3297 L
1863 3261 mt 1863 3333 L
2021 3415 mt 2093 3415 L
2057 3379 mt 2057 3451 L
2216 3683 mt 2288 3683 L
2252 3647 mt 2252 3719 L
2411 3718 mt 2483 3718 L
2447 3682 mt 2447 3754 L
2606 3863 mt 2678 3863 L
2642 3827 mt 2642 3899 L
2800 4007 mt 2872 4007 L
2836 3971 mt 2836 4043 L
2995 4019 mt 3067 4019 L
3031 3983 mt 3031 4055 L
3190 4090 mt 3262 4090 L
3226 4054 mt 3226 4126 L
3385 4135 mt 3457 4135 L
3421 4099 mt 3421 4171 L
3579 4165 mt 3651 4165 L
3615 4129 mt 3615 4201 L
3774 4212 mt 3846 4212 L
3810 4176 mt 3810 4248 L
3969 4245 mt 4041 4245 L
4005 4209 mt 4005 4281 L
4164 4256 mt 4236 4256 L
4200 4220 mt 4200 4292 L
4359 4316 mt 4431 4316 L
4395 4280 mt 4395 4352 L
4553 4347 mt 4625 4347 L
4589 4311 mt 4589 4383 L
4748 4359 mt 4820 4359 L
4784 4323 mt 4784 4395 L
4943 4363 mt 5015 4363 L
4979 4327 mt 4979 4399 L
5138 4380 mt 5210 4380 L
5174 4344 mt 5174 4416 L
5332 4395 mt 5404 4395 L
5368 4359 mt 5368 4431 L
5527 4464 mt 5599 4464 L
5563 4428 mt 5563 4500 L
5722 4500 mt 5794 4500 L
5758 4464 mt 5758 4536 L
gs 899 389 5357 4227 rc
gr

1 sg
0 918 1538 0 0 -918 4658 1367 4 MP
PP
-1538 0 0 918 1538 0 0 -918 4658 1367 5 MP stroke
4 w
DO
SO
6 w
0 sg
4658 1367 mt 6196 1367 L
4658  449 mt 6196  449 L
4658 1367 mt 4658  449 L
6196 1367 mt 6196  449 L
4658 1367 mt 6196 1367 L
4658 1367 mt 4658  449 L
4658 1367 mt 6196 1367 L
4658  449 mt 6196  449 L
4658 1367 mt 4658  449 L
6196 1367 mt 6196  449 L
5125  581 mt 
(original BO) s
gs 4658 449 1539 919 rc
gs 4836 465 147 147 rc
41 71 -82 0 41 -71 4909 585 4 MP
c8
DP
gr

c8
gr

c8
0 sg
5125  729 mt 
(random basis) s
gs 4658 449 1539 919 rc
gs 4836 613 147 147 rc
0 -58 -58 0 0 58 58 0 4880 657 5 MP
c9
DP
gr

c9
gr

c9
0 sg
5125  877 mt 
(random embedding) s
gs 4658 449 1539 919 rc
gs 4836 761 147 147 rc
c10
  36   36 4909  834 FO
gr

c10
gr

c10
0 sg
5125 1024 mt 
(subpsace learning) s
gs 4658 449 1539 919 rc
gs 4836 908 147 147 rc
c11
4873  981 mt 4945  981 L
4909  945 mt 4909 1017 L
4884  956 mt 4934 1006 L
4934  956 mt 4884 1006 L
gr

c11
gr

c11
0 sg
5125 1172 mt 
(additive model) s
gs 4658 449 1539 919 rc
gs 4836 1056 147 147 rc
36 47 -36 47 -36 -47 36 -47 4909 1176 5 MP
c12
DP
gr

c12
gr

c12
0 sg
5125 1320 mt 
(anova ve) s
gs 4658 449 1539 919 rc
gs 4836 1204 147 147 rc
4873 1277 mt 4945 1277 L
4909 1241 mt 4909 1313 L
gr

gr


end %%Color Dict

eplot
%%EndObject

epage
end

showpage

%%Trailer
%%EOF
