%!PS-Adobe-3.0 EPSF-3.0
%%Creator: MATLAB, The MathWorks, Inc. Version 7.12.0.635 (R2011a). Operating System: Linux 3.16.0-4-amd64 #1 SMP Debian 3.16.7-ckt20-1+deb8u3 (2016-01-17) x86_64.
%%Title: /home/jaemin/Research/codes_MATSIM/HIGHDIM_BO_plot/results/MATSIM_travel_time/MATSIM_travel_time_avr_cumulative_regret.eps
%%CreationDate: 10/09/2016  12:08:23
%%DocumentNeededFonts: Helvetica
%%DocumentProcessColors: Cyan Magenta Yellow Black
%%LanguageLevel: 2
%%Pages: 1
%%BoundingBox:    45   199   551   591
%%EndComments

%%BeginProlog
% MathWorks dictionary
/MathWorks 160 dict begin
% definition operators
/bdef {bind def} bind def
/ldef {load def} bind def
/xdef {exch def} bdef
/xstore {exch store} bdef
% operator abbreviations
/c  /clip ldef
/cc /concat ldef
/cp /closepath ldef
/gr /grestore ldef
/gs /gsave ldef
/mt /moveto ldef
/np /newpath ldef
/cm /currentmatrix ldef
/sm /setmatrix ldef
/rm /rmoveto ldef
/rl /rlineto ldef
/s {show newpath} bdef
/sc {setcmykcolor} bdef
/sr /setrgbcolor ldef
/sg /setgray ldef
/w /setlinewidth ldef
/j /setlinejoin ldef
/cap /setlinecap ldef
/rc {rectclip} bdef
/rf {rectfill} bdef
% page state control
/pgsv () def
/bpage {/pgsv save def} bdef
/epage {pgsv restore} bdef
/bplot /gsave ldef
/eplot {stroke grestore} bdef
% orientation switch
/portraitMode 0 def /landscapeMode 1 def /rotateMode 2 def
% coordinate system mappings
/dpi2point 0 def
% font control
/FontSize 0 def
/FMS {/FontSize xstore findfont [FontSize 0 0 FontSize neg 0 0]
  makefont setfont} bdef
/reencode {exch dup where {pop load} {pop StandardEncoding} ifelse
  exch dup 3 1 roll findfont dup length dict begin
  { 1 index /FID ne {def}{pop pop} ifelse } forall
  /Encoding exch def currentdict end definefont pop} bdef
/isroman {findfont /CharStrings get /Agrave known} bdef
/FMSR {3 1 roll 1 index dup isroman {reencode} {pop pop} ifelse
  exch FMS} bdef
/csm {1 dpi2point div -1 dpi2point div scale neg translate
 dup landscapeMode eq {pop -90 rotate}
  {rotateMode eq {90 rotate} if} ifelse} bdef
% line types: solid, dotted, dashed, dotdash
/SO { [] 0 setdash } bdef
/DO { [.5 dpi2point mul 4 dpi2point mul] 0 setdash } bdef
/DA { [6 dpi2point mul] 0 setdash } bdef
/DD { [.5 dpi2point mul 4 dpi2point mul 6 dpi2point mul 4
  dpi2point mul] 0 setdash } bdef
% macros for lines and objects
/L {lineto stroke} bdef
/MP {3 1 roll moveto 1 sub {rlineto} repeat} bdef
/AP {{rlineto} repeat} bdef
/PDlw -1 def
/W {/PDlw currentlinewidth def setlinewidth} def
/PP {closepath eofill} bdef
/DP {closepath stroke} bdef
/MR {4 -2 roll moveto dup  0 exch rlineto exch 0 rlineto
  neg 0 exch rlineto closepath} bdef
/FR {MR stroke} bdef
/PR {MR fill} bdef
/L1i {{currentfile picstr readhexstring pop} image} bdef
/tMatrix matrix def
/MakeOval {newpath tMatrix currentmatrix pop translate scale
0 0 1 0 360 arc tMatrix setmatrix} bdef
/FO {MakeOval stroke} bdef
/PO {MakeOval fill} bdef
/PD {currentlinewidth 2 div 0 360 arc fill
   PDlw -1 eq not {PDlw w /PDlw -1 def} if} def
/FA {newpath tMatrix currentmatrix pop translate scale
  0 0 1 5 -2 roll arc tMatrix setmatrix stroke} bdef
/PA {newpath tMatrix currentmatrix pop	translate 0 0 moveto scale
  0 0 1 5 -2 roll arc closepath tMatrix setmatrix fill} bdef
/FAn {newpath tMatrix currentmatrix pop translate scale
  0 0 1 5 -2 roll arcn tMatrix setmatrix stroke} bdef
/PAn {newpath tMatrix currentmatrix pop translate 0 0 moveto scale
  0 0 1 5 -2 roll arcn closepath tMatrix setmatrix fill} bdef
/vradius 0 def /hradius 0 def /lry 0 def
/lrx 0 def /uly 0 def /ulx 0 def /rad 0 def
/MRR {/vradius xdef /hradius xdef /lry xdef /lrx xdef /uly xdef
  /ulx xdef newpath tMatrix currentmatrix pop ulx hradius add uly
  vradius add translate hradius vradius scale 0 0 1 180 270 arc 
  tMatrix setmatrix lrx hradius sub uly vradius add translate
  hradius vradius scale 0 0 1 270 360 arc tMatrix setmatrix
  lrx hradius sub lry vradius sub translate hradius vradius scale
  0 0 1 0 90 arc tMatrix setmatrix ulx hradius add lry vradius sub
  translate hradius vradius scale 0 0 1 90 180 arc tMatrix setmatrix
  closepath} bdef
/FRR {MRR stroke } bdef
/PRR {MRR fill } bdef
/MlrRR {/lry xdef /lrx xdef /uly xdef /ulx xdef /rad lry uly sub 2 div def
  newpath tMatrix currentmatrix pop ulx rad add uly rad add translate
  rad rad scale 0 0 1 90 270 arc tMatrix setmatrix lrx rad sub lry rad
  sub translate rad rad scale 0 0 1 270 90 arc tMatrix setmatrix
  closepath} bdef
/FlrRR {MlrRR stroke } bdef
/PlrRR {MlrRR fill } bdef
/MtbRR {/lry xdef /lrx xdef /uly xdef /ulx xdef /rad lrx ulx sub 2 div def
  newpath tMatrix currentmatrix pop ulx rad add uly rad add translate
  rad rad scale 0 0 1 180 360 arc tMatrix setmatrix lrx rad sub lry rad
  sub translate rad rad scale 0 0 1 0 180 arc tMatrix setmatrix
  closepath} bdef
/FtbRR {MtbRR stroke } bdef
/PtbRR {MtbRR fill } bdef
/stri 6 array def /dtri 6 array def
/smat 6 array def /dmat 6 array def
/tmat1 6 array def /tmat2 6 array def /dif 3 array def
/asub {/ind2 exch def /ind1 exch def dup dup
  ind1 get exch ind2 get sub exch } bdef
/tri_to_matrix {
  2 0 asub 3 1 asub 4 0 asub 5 1 asub
  dup 0 get exch 1 get 7 -1 roll astore } bdef
/compute_transform {
  dmat dtri tri_to_matrix tmat1 invertmatrix 
  smat stri tri_to_matrix tmat2 concatmatrix } bdef
/ds {stri astore pop} bdef
/dt {dtri astore pop} bdef
/db {2 copy /cols xdef /rows xdef mul dup 3 mul string
  currentfile 
  3 index 0 eq {/ASCIIHexDecode filter}
  {/ASCII85Decode filter 3 index 2 eq {/RunLengthDecode filter} if }
  ifelse exch readstring pop
  dup 0 3 index getinterval /rbmap xdef
  dup 2 index dup getinterval /gbmap xdef
  1 index dup 2 mul exch getinterval /bbmap xdef pop pop}bdef
/it {gs np dtri aload pop moveto lineto lineto cp c
  cols rows 8 compute_transform 
  rbmap gbmap bbmap true 3 colorimage gr}bdef
/il {newpath moveto lineto stroke}bdef
currentdict end def
%%EndProlog

%%BeginSetup
MathWorks begin

0 cap

end
%%EndSetup

%%Page: 1 1
%%BeginPageSetup
%%PageBoundingBox:    45   199   551   591
MathWorks begin
bpage
%%EndPageSetup

%%BeginObject: obj1
bplot

/dpi2point 12 def
portraitMode 0216 7344 csm

  326   247  6078  4708 rc
88 dict begin %Colortable dictionary
/c0 { 0.000000 0.000000 0.000000 sr} bdef
/c1 { 1.000000 1.000000 1.000000 sr} bdef
/c2 { 0.900000 0.000000 0.000000 sr} bdef
/c3 { 0.000000 0.820000 0.000000 sr} bdef
/c4 { 0.000000 0.000000 0.800000 sr} bdef
/c5 { 0.910000 0.820000 0.320000 sr} bdef
/c6 { 1.000000 0.260000 0.820000 sr} bdef
/c7 { 0.000000 0.820000 0.820000 sr} bdef
c0
1 j
1 sg
   0    0 6913 5186 rf
6 w
0 4226 5356 0 0 -4226 899 4615 4 MP
PP
-5356 0 0 4226 5356 0 0 -4226 899 4615 5 MP stroke
4 w
DO
SO
6 w
0 sg
 899 4615 mt 6255 4615 L
 899  389 mt 6255  389 L
 899 4615 mt  899  389 L
6255 4615 mt 6255  389 L
 899 4615 mt 6255 4615 L
 899 4615 mt  899  389 L
 899 4615 mt  899 4561 L
 899  389 mt  899  442 L
%%IncludeResource: font Helvetica
/Helvetica /ISOLatin1Encoding 120 FMSR

 866 4760 mt 
(0) s
1664 4615 mt 1664 4561 L
1664  389 mt 1664  442 L
1598 4760 mt 
(50) s
2429 4615 mt 2429 4561 L
2429  389 mt 2429  442 L
2329 4760 mt 
(100) s
3194 4615 mt 3194 4561 L
3194  389 mt 3194  442 L
3094 4760 mt 
(150) s
3959 4615 mt 3959 4561 L
3959  389 mt 3959  442 L
3859 4760 mt 
(200) s
4724 4615 mt 4724 4561 L
4724  389 mt 4724  442 L
4624 4760 mt 
(250) s
5489 4615 mt 5489 4561 L
5489  389 mt 5489  442 L
5389 4760 mt 
(300) s
6255 4615 mt 6255 4561 L
6255  389 mt 6255  442 L
6155 4760 mt 
(350) s
 899 4615 mt  952 4615 L
6255 4615 mt 6201 4615 L
 598 4659 mt 
(1495) s
 899 4011 mt  952 4011 L
6255 4011 mt 6201 4011 L
 598 4055 mt 
(1496) s
 899 3407 mt  952 3407 L
6255 3407 mt 6201 3407 L
 598 3451 mt 
(1497) s
 899 2803 mt  952 2803 L
6255 2803 mt 6201 2803 L
 598 2847 mt 
(1498) s
 899 2200 mt  952 2200 L
6255 2200 mt 6201 2200 L
 598 2244 mt 
(1499) s
 899 1596 mt  952 1596 L
6255 1596 mt 6201 1596 L
 598 1640 mt 
(1500) s
 899  992 mt  952  992 L
6255  992 mt 6201  992 L
 598 1036 mt 
(1501) s
 899  389 mt  952  389 L
6255  389 mt 6201  389 L
 598  433 mt 
(1502) s
 899 4615 mt 6255 4615 L
 899  389 mt 6255  389 L
 899 4615 mt  899  389 L
6255 4615 mt 6255  389 L
gs 899 389 5357 4227 rc
gs 1040 1061 4508 721 rc
0 j
41 71 -82 0 41 -71 1113 1488 4 MP
/c8 { 0.000000 1.000000 0.000000 sr} bdef
c8
DP
41 71 -82 0 41 -71 1342 1320 4 MP
DP
41 71 -82 0 41 -71 1572 1252 4 MP
DP
41 71 -82 0 41 -71 1801 1318 4 MP
DP
41 71 -82 0 41 -71 2031 1181 4 MP
DP
41 71 -82 0 41 -71 2260 1416 4 MP
DP
41 71 -82 0 41 -71 2490 1490 4 MP
DP
41 71 -82 0 41 -71 2720 1461 4 MP
DP
41 71 -82 0 41 -71 2949 1411 4 MP
DP
41 71 -82 0 41 -71 3179 1460 4 MP
DP
41 71 -82 0 41 -71 3408 1530 4 MP
DP
41 71 -82 0 41 -71 3638 1576 4 MP
DP
41 71 -82 0 41 -71 3867 1478 4 MP
DP
41 71 -82 0 41 -71 4097 1578 4 MP
DP
41 71 -82 0 41 -71 4326 1559 4 MP
DP
41 71 -82 0 41 -71 4556 1634 4 MP
DP
41 71 -82 0 41 -71 4785 1668 4 MP
DP
41 71 -82 0 41 -71 5015 1678 4 MP
DP
41 71 -82 0 41 -71 5245 1666 4 MP
DP
41 71 -82 0 41 -71 5474 1755 4 MP
DP
gr

c8
gs 1040 2731 4508 275 rc
/c9 { 0.000000 1.000000 1.000000 sr} bdef
c9
  36   36 1113 2804 FO
  36   36 1342 2909 FO
  36   36 1572 2906 FO
  36   36 1801 2890 FO
  36   36 2031 2880 FO
  36   36 2260 2874 FO
  36   36 2490 2869 FO
  36   36 2720 2866 FO
  36   36 2949 2863 FO
  36   36 3179 2861 FO
  36   36 3408 2861 FO
  36   36 3638 2874 FO
  36   36 3867 2885 FO
  36   36 4097 2895 FO
  36   36 4326 2903 FO
  36   36 4556 2910 FO
  36   36 4785 2917 FO
  36   36 5015 2922 FO
  36   36 5245 2928 FO
  36   36 5474 2932 FO
gr

c9
gs 1040 3169 4508 965 rc
/c10 { 0.000000 0.000000 1.000000 sr} bdef
c10
1077 3709 mt 1149 3709 L
1113 3673 mt 1113 3745 L
1306 3748 mt 1378 3748 L
1342 3712 mt 1342 3784 L
1536 4060 mt 1608 4060 L
1572 4024 mt 1572 4096 L
1765 3924 mt 1837 3924 L
1801 3888 mt 1801 3960 L
1995 3732 mt 2067 3732 L
2031 3696 mt 2031 3768 L
2224 3622 mt 2296 3622 L
2260 3586 mt 2260 3658 L
2454 3544 mt 2526 3544 L
2490 3508 mt 2490 3580 L
2684 3486 mt 2756 3486 L
2720 3450 mt 2720 3522 L
2913 3441 mt 2985 3441 L
2949 3405 mt 2949 3477 L
3143 3405 mt 3215 3405 L
3179 3369 mt 3179 3441 L
3372 3375 mt 3444 3375 L
3408 3339 mt 3408 3411 L
3602 3350 mt 3674 3350 L
3638 3314 mt 3638 3386 L
3831 3330 mt 3903 3330 L
3867 3294 mt 3867 3366 L
4061 3312 mt 4133 3312 L
4097 3276 mt 4097 3348 L
4290 3296 mt 4362 3296 L
4326 3260 mt 4326 3332 L
4520 3283 mt 4592 3283 L
4556 3247 mt 4556 3319 L
4749 3271 mt 4821 3271 L
4785 3235 mt 4785 3307 L
4979 3260 mt 5051 3260 L
5015 3224 mt 5015 3296 L
5209 3251 mt 5281 3251 L
5245 3215 mt 5245 3287 L
5438 3242 mt 5510 3242 L
5474 3206 mt 5474 3278 L
1088 3684 mt 1138 3734 L
1138 3684 mt 1088 3734 L
1317 3723 mt 1367 3773 L
1367 3723 mt 1317 3773 L
1547 4035 mt 1597 4085 L
1597 4035 mt 1547 4085 L
1776 3899 mt 1826 3949 L
1826 3899 mt 1776 3949 L
2006 3707 mt 2056 3757 L
2056 3707 mt 2006 3757 L
2235 3597 mt 2285 3647 L
2285 3597 mt 2235 3647 L
2465 3519 mt 2515 3569 L
2515 3519 mt 2465 3569 L
2695 3461 mt 2745 3511 L
2745 3461 mt 2695 3511 L
2924 3416 mt 2974 3466 L
2974 3416 mt 2924 3466 L
3154 3380 mt 3204 3430 L
3204 3380 mt 3154 3430 L
3383 3350 mt 3433 3400 L
3433 3350 mt 3383 3400 L
3613 3325 mt 3663 3375 L
3663 3325 mt 3613 3375 L
3842 3305 mt 3892 3355 L
3892 3305 mt 3842 3355 L
4072 3287 mt 4122 3337 L
4122 3287 mt 4072 3337 L
4301 3271 mt 4351 3321 L
4351 3271 mt 4301 3321 L
4531 3258 mt 4581 3308 L
4581 3258 mt 4531 3308 L
4760 3246 mt 4810 3296 L
4810 3246 mt 4760 3296 L
4990 3235 mt 5040 3285 L
5040 3235 mt 4990 3285 L
5220 3226 mt 5270 3276 L
5270 3226 mt 5220 3276 L
5449 3217 mt 5499 3267 L
5499 3217 mt 5449 3267 L
gr

c10
gs 1040 1692 4508 1313 rc
0 j
36 47 -36 47 -36 -47 36 -47 1113 1812 5 MP
/c11 { 1.000000 0.000000 1.000000 sr} bdef
c11
DP
36 47 -36 47 -36 -47 36 -47 1342 2614 5 MP
DP
36 47 -36 47 -36 -47 36 -47 1572 2517 5 MP
DP
36 47 -36 47 -36 -47 36 -47 1801 2726 5 MP
DP
36 47 -36 47 -36 -47 36 -47 2031 2752 5 MP
DP
36 47 -36 47 -36 -47 36 -47 2260 2833 5 MP
DP
36 47 -36 47 -36 -47 36 -47 2490 2978 5 MP
DP
36 47 -36 47 -36 -47 36 -47 2720 2869 5 MP
DP
36 47 -36 47 -36 -47 36 -47 2949 2937 5 MP
DP
36 47 -36 47 -36 -47 36 -47 3179 2879 5 MP
DP
36 47 -36 47 -36 -47 36 -47 3408 2769 5 MP
DP
36 47 -36 47 -36 -47 36 -47 3638 2742 5 MP
DP
36 47 -36 47 -36 -47 36 -47 3867 2808 5 MP
DP
36 47 -36 47 -36 -47 36 -47 4097 2850 5 MP
DP
36 47 -36 47 -36 -47 36 -47 4326 2886 5 MP
DP
36 47 -36 47 -36 -47 36 -47 4556 2936 5 MP
DP
36 47 -36 47 -36 -47 36 -47 4785 2947 5 MP
DP
36 47 -36 47 -36 -47 36 -47 5015 2947 5 MP
DP
36 47 -36 47 -36 -47 36 -47 5245 2956 5 MP
DP
36 47 -36 47 -36 -47 36 -47 5474 2966 5 MP
DP
gr

c11
gs 1040 1272 4508 1318 rc
0 j
0 -58 -58 0 0 58 58 0 1084 1316 5 MP
/c12 { 1.000000 0.000000 0.000000 sr} bdef
c12
DP
0 -58 -58 0 0 58 58 0 1313 1645 5 MP
DP
0 -58 -58 0 0 58 58 0 1543 1686 5 MP
DP
0 -58 -58 0 0 58 58 0 1772 1739 5 MP
DP
0 -58 -58 0 0 58 58 0 2002 1980 5 MP
DP
0 -58 -58 0 0 58 58 0 2231 2078 5 MP
DP
0 -58 -58 0 0 58 58 0 2461 2059 5 MP
DP
0 -58 -58 0 0 58 58 0 2691 2163 5 MP
DP
0 -58 -58 0 0 58 58 0 2920 2183 5 MP
DP
0 -58 -58 0 0 58 58 0 3150 2216 5 MP
DP
0 -58 -58 0 0 58 58 0 3379 2190 5 MP
DP
0 -58 -58 0 0 58 58 0 3609 2205 5 MP
DP
0 -58 -58 0 0 58 58 0 3838 2220 5 MP
DP
0 -58 -58 0 0 58 58 0 4068 2301 5 MP
DP
0 -58 -58 0 0 58 58 0 4297 2246 5 MP
DP
0 -58 -58 0 0 58 58 0 4527 2333 5 MP
DP
0 -58 -58 0 0 58 58 0 4756 2405 5 MP
DP
0 -58 -58 0 0 58 58 0 4986 2408 5 MP
DP
0 -58 -58 0 0 58 58 0 5216 2460 5 MP
DP
0 -58 -58 0 0 58 58 0 5445 2487 5 MP
DP
gr

c12
gs 1040 2613 4508 729 rc
0 sg
1077 2934 mt 1149 2934 L
1113 2898 mt 1113 2970 L
1306 3229 mt 1378 3229 L
1342 3193 mt 1342 3265 L
1536 3268 mt 1608 3268 L
1572 3232 mt 1572 3304 L
1765 2968 mt 1837 2968 L
1801 2932 mt 1801 3004 L
1995 2808 mt 2067 2808 L
2031 2772 mt 2031 2844 L
2224 3060 mt 2296 3060 L
2260 3024 mt 2260 3096 L
2454 3009 mt 2526 3009 L
2490 2973 mt 2490 3045 L
2684 3026 mt 2756 3026 L
2720 2990 mt 2720 3062 L
2913 2930 mt 2985 2930 L
2949 2894 mt 2949 2966 L
3143 2894 mt 3215 2894 L
3179 2858 mt 3179 2930 L
3372 2809 mt 3444 2809 L
3408 2773 mt 3408 2845 L
3602 2788 mt 3674 2788 L
3638 2752 mt 3638 2824 L
3831 2710 mt 3903 2710 L
3867 2674 mt 3867 2746 L
4061 2706 mt 4133 2706 L
4097 2670 mt 4097 2742 L
4290 2686 mt 4362 2686 L
4326 2650 mt 4326 2722 L
4520 2801 mt 4592 2801 L
4556 2765 mt 4556 2837 L
4749 2801 mt 4821 2801 L
4785 2765 mt 4785 2837 L
4979 2792 mt 5051 2792 L
5015 2756 mt 5015 2828 L
5209 2779 mt 5281 2779 L
5245 2743 mt 5245 2815 L
5438 2771 mt 5510 2771 L
5474 2735 mt 5474 2807 L
gr

0 sg
gr

3330 4903 mt 
(Iterations) s
 462 2628 mt  -90 rotate
(R) s
90 rotate
%%IncludeResource: font Helvetica
/Helvetica /ISOLatin1Encoding 96 FMSR

 522 2542 mt  -90 rotate
(T) s
90 rotate
%%IncludeResource: font Helvetica
/Helvetica /ISOLatin1Encoding 120 FMSR

 462 2484 mt  -90 rotate
(/T) s
90 rotate
 882 4658 mt 
( ) s
6239  431 mt 
( ) s
gs 899 389 5357 4227 rc
c8
15 0 16 9 15 0 15 10 15 11 16 10 15 9 15 8 
16 14 15 -6 15 14 16 8 15 8 15 -7 15 1 16 2 
15 2 15 1 16 2 15 -9 15 6 16 -9 15 -7 15 -7 
16 3 15 3 15 -5 15 -4 16 3 15 7 15 -4 16 -4 
15 -2 15 -1 16 -2 15 -1 15 4 15 -9 16 1 15 2 
15 1 16 5 15 1 15 10 16 9 15 9 15 9 15 10 
16 -3 15 10 15 -4 16 4 15 5 15 5 16 3 15 4 
15 -4 16 -4 15 -5 15 -5 15 8 16 8 15 11 15 -9 
16 12 15 13 15 12 16 2 15 -18 15 8 15 4 16 8 
15 5 15 4 16 7 15 7 15 1 16 0 15 -6 15 -1 
15 -7 16 -8 15 -5 15 -9 16 14 15 12 15 14 16 -10 
15 -11 15 -10 16 7 15 7 15 16 15 16 16 16 15 16 
15 16 16 14 15 0 15 14 16 -9 15 -10 15 -3 15 3 
16 -3 15 -1 15 -1 16 -1 15 9 15 10 16 -11 15 -11 
15 -12 15 -11 16 -11 15 -12 15 -11 16 -12 15 -12 15 -11 
16 2 15 3 15 9 15 3 16 9 15 3 15 3 16 4 
15 3 15 3 16 -5 15 -5 15 5 16 5 15 4 15 6 
15 13 16 6 15 3 15 4 16 4 15 5 15 4 16 5 
15 2 15 1 15 2 16 3 15 -17 15 29 16 7 15 18 
15 9 16 6 15 9 15 5 15 5 16 16 15 15 15 10 
16 9 15 -20 15 -20 16 -10 15 -10 15 -13 16 -14 15 -13 
15 14 15 -7 16 -6 15 14 15 -5 16 -29 15 -5 15 -10 
16 25 15 2 15 -9 15 6 16 7 15 3 15 7 16 3 
15 8 15 8 16 0 15 -22 15 -1 15 -34 16 -36 15 9 
15 9 16 18 15 -8 15 19 16 18 15 34 15 35 16 -7 
15 6 15 -7 15 -3 16 -3 15 1 15 2 16 -26 15 -1 
15 -1 16 7 15 8 15 8 15 20 16 21 15 15 15 -1 
16 43 15 44 15 9 16 8 15 17 15 16 15 23 16 19 
15 -15 15 20 16 -19 15 -8 15 -9 16 -8 15 4 15 4 
16 -37 15 -38 15 6 15 -46 16 13 15 5 15 -12 16 -12 
15 22 15 -12 16 23 15 51 15 24 15 -81 16 -33 15 54 
15 16 16 52 15 18 15 -26 16 -28 15 -7 15 -7 15 26 
16 -5 15 -21 15 28 16 -21 15 -52 15 -54 16 11 15 -23 
15 15 16 -94 15 10 15 52 15 78 16 -18 15 62 15 17 
16 103 15 23 15 -31 16 74 15 -32 15 -79 15 -115 16 -98 
15 18 15 45 16 50 15 57 15 -262 16 -302 15 56 15 118 
15 227 16 183 15 186 15 -177 16 250 15 -347 15 -520 16 -281 
15 357 15 767 15 0 899 924 300 MP stroke
1113 1441 PD
87 0 1069 1441 2 MP stroke
87 0 1069 1441 2 MP stroke
1342 1273 PD
87 0 1299 1273 2 MP stroke
87 0 1299 1273 2 MP stroke
1572 1205 PD
87 0 1528 1205 2 MP stroke
87 0 1528 1205 2 MP stroke
1801 1271 PD
87 0 1758 1271 2 MP stroke
87 0 1758 1271 2 MP stroke
2031 1134 PD
88 0 1987 1134 2 MP stroke
88 0 1987 1134 2 MP stroke
2260 1369 PD
87 0 2217 1369 2 MP stroke
87 0 2217 1369 2 MP stroke
2490 1443 PD
88 0 2446 1443 2 MP stroke
88 0 2446 1443 2 MP stroke
2720 1414 PD
87 0 2676 1414 2 MP stroke
87 0 2676 1414 2 MP stroke
2949 1364 PD
88 0 2905 1364 2 MP stroke
88 0 2905 1364 2 MP stroke
3179 1413 PD
87 0 3135 1413 2 MP stroke
87 0 3135 1413 2 MP stroke
3408 1483 PD
87 0 3365 1483 2 MP stroke
87 0 3365 1483 2 MP stroke
3638 1529 PD
87 0 3594 1529 2 MP stroke
87 0 3594 1529 2 MP stroke
3867 1431 PD
87 0 3824 1431 2 MP stroke
87 0 3824 1431 2 MP stroke
4097 1531 PD
87 0 4053 1531 2 MP stroke
87 0 4053 1531 2 MP stroke
4326 1512 PD
87 0 4283 1512 2 MP stroke
87 0 4283 1512 2 MP stroke
4556 1587 PD
87 0 4512 1587 2 MP stroke
87 0 4512 1587 2 MP stroke
4785 1621 PD
87 0 4742 1621 2 MP stroke
87 0 4742 1621 2 MP stroke
5015 1631 PD
88 0 4971 1631 2 MP stroke
88 0 4971 1631 2 MP stroke
5245 1619 PD
87 0 5201 1619 2 MP stroke
87 0 5201 1619 2 MP stroke
5474 1708 PD
88 0 5430 1708 2 MP stroke
88 0 5430 1708 2 MP stroke
gs 1040 1061 4508 721 rc
0 j
41 71 -82 0 41 -71 1113 1488 4 MP
DP
41 71 -82 0 41 -71 1342 1320 4 MP
DP
41 71 -82 0 41 -71 1572 1252 4 MP
DP
41 71 -82 0 41 -71 1801 1318 4 MP
DP
41 71 -82 0 41 -71 2031 1181 4 MP
DP
41 71 -82 0 41 -71 2260 1416 4 MP
DP
41 71 -82 0 41 -71 2490 1490 4 MP
DP
41 71 -82 0 41 -71 2720 1461 4 MP
DP
41 71 -82 0 41 -71 2949 1411 4 MP
DP
41 71 -82 0 41 -71 3179 1460 4 MP
DP
41 71 -82 0 41 -71 3408 1530 4 MP
DP
41 71 -82 0 41 -71 3638 1576 4 MP
DP
41 71 -82 0 41 -71 3867 1478 4 MP
DP
41 71 -82 0 41 -71 4097 1578 4 MP
DP
41 71 -82 0 41 -71 4326 1559 4 MP
DP
41 71 -82 0 41 -71 4556 1634 4 MP
DP
41 71 -82 0 41 -71 4785 1668 4 MP
DP
41 71 -82 0 41 -71 5015 1678 4 MP
DP
41 71 -82 0 41 -71 5245 1666 4 MP
DP
41 71 -82 0 41 -71 5474 1755 4 MP
DP
gr

c9
15 0 16 1 15 0 15 0 15 0 16 1 15 0 15 0 
16 1 15 0 15 0 16 1 15 0 15 0 15 0 16 1 
15 0 15 0 16 1 15 0 15 0 16 1 15 0 15 0 
16 1 15 0 15 0 15 1 16 0 15 1 15 0 16 0 
15 1 15 0 16 0 15 1 15 0 15 0 16 1 15 0 
15 1 16 0 15 0 15 1 16 0 15 1 15 0 15 0 
16 1 15 0 15 1 16 0 15 0 15 1 16 0 15 1 
15 0 16 1 15 0 15 1 15 0 16 0 15 1 15 0 
16 1 15 0 15 1 16 0 15 1 15 0 15 1 16 0 
15 1 15 0 16 1 15 0 15 1 16 0 15 1 15 0 
15 1 16 0 15 1 15 1 16 0 15 1 15 0 16 1 
15 0 15 1 16 1 15 0 15 1 15 0 16 1 15 1 
15 0 16 1 15 1 15 0 16 1 15 0 15 1 15 1 
16 1 15 0 15 1 16 1 15 0 15 1 16 1 15 0 
15 1 15 1 16 1 15 0 15 1 16 1 15 1 15 1 
16 0 15 1 15 1 15 1 16 1 15 1 15 0 16 1 
15 1 15 1 16 1 15 1 15 1 16 1 15 1 15 1 
15 1 16 0 15 -1 15 0 16 0 15 0 15 0 16 0 
15 0 15 0 15 0 16 -1 15 0 15 0 16 0 15 0 
15 0 16 0 15 0 15 -1 15 0 16 0 15 0 15 0 
16 0 15 0 15 -1 16 0 15 0 15 0 16 0 15 0 
15 -1 15 0 16 0 15 0 15 0 16 0 15 -1 15 0 
16 0 15 0 15 0 15 -1 16 0 15 0 15 0 16 0 
15 -1 15 0 16 0 15 0 15 -1 15 0 16 0 15 0 
15 0 16 -1 15 0 15 0 16 -1 15 0 15 0 16 0 
15 -1 15 0 15 0 16 -1 15 0 15 0 16 -1 15 0 
15 0 16 -1 15 0 15 0 15 -1 16 0 15 0 15 -1 
16 0 15 -1 15 0 16 -1 15 0 15 0 15 -1 16 0 
15 -1 15 0 16 -1 15 -1 15 0 16 -1 15 0 15 -1 
16 -1 15 0 15 -1 15 -1 16 0 15 -1 15 -1 16 -1 
15 0 15 -1 16 -1 15 -1 15 -1 15 -1 16 -1 15 -1 
15 -1 16 -1 15 -2 15 -1 16 -1 15 -1 15 -2 15 -1 
16 -2 15 -2 15 -1 16 -2 15 -2 15 -2 16 -2 15 -2 
15 -3 16 3 15 3 15 3 15 4 16 3 15 4 15 5 
16 4 15 5 15 5 16 6 15 6 15 7 15 8 16 8 
15 9 15 11 16 0 15 13 15 14 16 3 15 4 15 20 
15 24 16 29 15 37 15 47 16 63 15 89 15 132 16 719 
15 690 15 -1895 15 0 899 2842 300 MP stroke
1113 2804 PD
87 0 1069 2804 2 MP stroke
87 0 1069 2804 2 MP stroke
1342 2909 PD
87 0 1299 2909 2 MP stroke
87 0 1299 2909 2 MP stroke
1572 2906 PD
87 0 1528 2906 2 MP stroke
87 0 1528 2906 2 MP stroke
1801 2890 PD
87 0 1758 2890 2 MP stroke
87 0 1758 2890 2 MP stroke
2031 2880 PD
88 0 1987 2880 2 MP stroke
88 0 1987 2880 2 MP stroke
2260 2874 PD
87 0 2217 2874 2 MP stroke
87 0 2217 2874 2 MP stroke
2490 2869 PD
88 0 2446 2869 2 MP stroke
88 0 2446 2869 2 MP stroke
2720 2866 PD
87 0 2676 2866 2 MP stroke
87 0 2676 2866 2 MP stroke
2949 2863 PD
88 0 2905 2863 2 MP stroke
88 0 2905 2863 2 MP stroke
3179 2861 PD
87 0 3135 2861 2 MP stroke
87 0 3135 2861 2 MP stroke
3408 2861 PD
87 0 3365 2861 2 MP stroke
87 0 3365 2861 2 MP stroke
3638 2874 PD
87 0 3594 2874 2 MP stroke
87 0 3594 2874 2 MP stroke
3867 2885 PD
87 0 3824 2885 2 MP stroke
87 0 3824 2885 2 MP stroke
4097 2895 PD
87 0 4053 2895 2 MP stroke
87 0 4053 2895 2 MP stroke
4326 2903 PD
87 0 4283 2903 2 MP stroke
87 0 4283 2903 2 MP stroke
4556 2910 PD
87 0 4512 2910 2 MP stroke
87 0 4512 2910 2 MP stroke
4785 2917 PD
87 0 4742 2917 2 MP stroke
87 0 4742 2917 2 MP stroke
5015 2922 PD
88 0 4971 2922 2 MP stroke
88 0 4971 2922 2 MP stroke
5245 2928 PD
87 0 5201 2928 2 MP stroke
87 0 5201 2928 2 MP stroke
5474 2932 PD
88 0 5430 2932 2 MP stroke
88 0 5430 2932 2 MP stroke
gs 1040 2731 4508 275 rc
  36   36 1113 2804 FO
  36   36 1342 2909 FO
  36   36 1572 2906 FO
  36   36 1801 2890 FO
  36   36 2031 2880 FO
  36   36 2260 2874 FO
  36   36 2490 2869 FO
  36   36 2720 2866 FO
  36   36 2949 2863 FO
  36   36 3179 2861 FO
  36   36 3408 2861 FO
  36   36 3638 2874 FO
  36   36 3867 2885 FO
  36   36 4097 2895 FO
  36   36 4326 2903 FO
  36   36 4556 2910 FO
  36   36 4785 2917 FO
  36   36 5015 2922 FO
  36   36 5245 2928 FO
  36   36 5474 2932 FO
gr

c10
15 -1 16 -1 15 0 15 -1 15 0 16 -1 15 0 15 -1 
16 0 15 -1 15 -1 16 0 15 -1 15 0 15 -1 16 -1 
15 0 15 -1 16 0 15 -1 15 -1 16 0 15 -1 15 -1 
16 0 15 -1 15 0 15 -1 16 -1 15 0 15 -1 16 -1 
15 0 15 -1 16 -1 15 -1 15 0 15 -1 16 -1 15 0 
15 -1 16 -1 15 -1 15 0 16 -1 15 -1 15 0 15 -1 
16 -1 15 -1 15 -1 16 0 15 -1 15 -1 16 -1 15 -1 
15 0 16 -1 15 -1 15 -1 15 -1 16 -1 15 0 15 -1 
16 -1 15 -1 15 -1 16 -1 15 -1 15 -1 15 -1 16 -1 
15 0 15 -1 16 -1 15 -1 15 -1 16 -1 15 -1 15 -1 
15 -1 16 -1 15 -1 15 -1 16 -1 15 -1 15 -2 16 -1 
15 -1 15 -1 16 -1 15 -1 15 -1 15 -1 16 -1 15 -2 
15 -1 16 -1 15 -1 15 -1 16 -2 15 -1 15 -1 15 -1 
16 -2 15 -1 15 -1 16 -2 15 -1 15 -1 16 -2 15 -1 
15 -1 15 -2 16 -1 15 -2 15 -1 16 -1 15 -2 15 -1 
16 -2 15 -1 15 -2 15 -2 16 -1 15 -2 15 -1 16 -2 
15 -2 15 -1 16 -2 15 -2 15 -1 16 -2 15 -2 15 -2 
15 -2 16 -1 15 -2 15 -2 16 -2 15 -2 15 -2 16 -2 
15 -2 15 -2 15 -2 16 -2 15 -2 15 -3 16 -2 15 -2 
15 -2 16 -2 15 -3 15 -2 15 -2 16 -3 15 -2 15 -3 
16 -2 15 -3 15 -2 16 -3 15 -3 15 -2 16 -3 15 -3 
15 -3 15 -3 16 -3 15 -3 15 -3 16 -3 15 -3 15 -3 
16 -3 15 -3 15 -4 15 -3 16 -3 15 -4 15 -3 16 -4 
15 -4 15 -4 16 -3 15 -4 15 -4 15 -4 16 -4 15 -4 
15 -5 16 -4 15 -4 15 -5 16 -4 15 -5 15 -5 16 -5 
15 -5 15 -5 15 -5 16 -5 15 -6 15 -5 16 -6 15 -6 
15 -5 16 -6 15 -7 15 -6 15 -6 16 -7 15 -7 15 -7 
16 -7 15 -7 15 -7 16 -8 15 -8 15 -8 15 -8 16 -8 
15 -9 15 -9 16 -9 15 -10 15 -9 16 -12 15 -13 15 -12 
16 -14 15 -13 15 -14 15 -15 16 -15 15 -15 15 -16 16 -16 
15 -17 15 -18 16 -18 15 17 15 -19 15 -20 16 -18 15 -18 
15 -19 16 1 15 18 15 -20 16 -25 15 1 15 19 15 20 
16 22 15 22 15 23 16 -27 15 25 15 26 16 27 15 29 
15 30 16 -29 15 33 15 35 15 37 16 39 15 -25 15 -32 
16 -34 15 -37 15 -41 16 -44 15 26 15 28 15 31 16 35 
15 38 15 42 16 -38 15 49 15 41 16 62 15 -271 15 11 
15 166 16 -83 15 -94 15 479 16 -31 15 114 15 -405 16 -274 
15 -477 15 395 15 0 899 4117 300 MP stroke
1113 3709 PD
87 0 1069 3709 2 MP stroke
87 0 1069 3709 2 MP stroke
1342 3748 PD
87 0 1299 3748 2 MP stroke
87 0 1299 3748 2 MP stroke
1572 4060 PD
87 0 1528 4060 2 MP stroke
87 0 1528 4060 2 MP stroke
1801 3924 PD
87 0 1758 3924 2 MP stroke
87 0 1758 3924 2 MP stroke
2031 3732 PD
88 0 1987 3732 2 MP stroke
88 0 1987 3732 2 MP stroke
2260 3622 PD
87 0 2217 3622 2 MP stroke
87 0 2217 3622 2 MP stroke
2490 3544 PD
88 0 2446 3544 2 MP stroke
88 0 2446 3544 2 MP stroke
2720 3486 PD
87 0 2676 3486 2 MP stroke
87 0 2676 3486 2 MP stroke
2949 3441 PD
88 0 2905 3441 2 MP stroke
88 0 2905 3441 2 MP stroke
3179 3405 PD
87 0 3135 3405 2 MP stroke
87 0 3135 3405 2 MP stroke
3408 3375 PD
87 0 3365 3375 2 MP stroke
87 0 3365 3375 2 MP stroke
3638 3350 PD
87 0 3594 3350 2 MP stroke
87 0 3594 3350 2 MP stroke
3867 3330 PD
87 0 3824 3330 2 MP stroke
87 0 3824 3330 2 MP stroke
4097 3312 PD
87 0 4053 3312 2 MP stroke
87 0 4053 3312 2 MP stroke
4326 3296 PD
87 0 4283 3296 2 MP stroke
87 0 4283 3296 2 MP stroke
4556 3283 PD
87 0 4512 3283 2 MP stroke
87 0 4512 3283 2 MP stroke
4785 3271 PD
87 0 4742 3271 2 MP stroke
87 0 4742 3271 2 MP stroke
5015 3260 PD
88 0 4971 3260 2 MP stroke
88 0 4971 3260 2 MP stroke
5245 3251 PD
87 0 5201 3251 2 MP stroke
87 0 5201 3251 2 MP stroke
5474 3242 PD
88 0 5430 3242 2 MP stroke
88 0 5430 3242 2 MP stroke
gs 1040 3169 4508 965 rc
1077 3709 mt 1149 3709 L
1113 3673 mt 1113 3745 L
1306 3748 mt 1378 3748 L
1342 3712 mt 1342 3784 L
1536 4060 mt 1608 4060 L
1572 4024 mt 1572 4096 L
1765 3924 mt 1837 3924 L
1801 3888 mt 1801 3960 L
1995 3732 mt 2067 3732 L
2031 3696 mt 2031 3768 L
2224 3622 mt 2296 3622 L
2260 3586 mt 2260 3658 L
2454 3544 mt 2526 3544 L
2490 3508 mt 2490 3580 L
2684 3486 mt 2756 3486 L
2720 3450 mt 2720 3522 L
2913 3441 mt 2985 3441 L
2949 3405 mt 2949 3477 L
3143 3405 mt 3215 3405 L
3179 3369 mt 3179 3441 L
3372 3375 mt 3444 3375 L
3408 3339 mt 3408 3411 L
3602 3350 mt 3674 3350 L
3638 3314 mt 3638 3386 L
3831 3330 mt 3903 3330 L
3867 3294 mt 3867 3366 L
4061 3312 mt 4133 3312 L
4097 3276 mt 4097 3348 L
4290 3296 mt 4362 3296 L
4326 3260 mt 4326 3332 L
4520 3283 mt 4592 3283 L
4556 3247 mt 4556 3319 L
4749 3271 mt 4821 3271 L
4785 3235 mt 4785 3307 L
4979 3260 mt 5051 3260 L
5015 3224 mt 5015 3296 L
5209 3251 mt 5281 3251 L
5245 3215 mt 5245 3287 L
5438 3242 mt 5510 3242 L
5474 3206 mt 5474 3278 L
1088 3684 mt 1138 3734 L
1138 3684 mt 1088 3734 L
1317 3723 mt 1367 3773 L
1367 3723 mt 1317 3773 L
1547 4035 mt 1597 4085 L
1597 4035 mt 1547 4085 L
1776 3899 mt 1826 3949 L
1826 3899 mt 1776 3949 L
2006 3707 mt 2056 3757 L
2056 3707 mt 2006 3757 L
2235 3597 mt 2285 3647 L
2285 3597 mt 2235 3647 L
2465 3519 mt 2515 3569 L
2515 3519 mt 2465 3569 L
2695 3461 mt 2745 3511 L
2745 3461 mt 2695 3511 L
2924 3416 mt 2974 3466 L
2974 3416 mt 2924 3466 L
3154 3380 mt 3204 3430 L
3204 3380 mt 3154 3430 L
3383 3350 mt 3433 3400 L
3433 3350 mt 3383 3400 L
3613 3325 mt 3663 3375 L
3663 3325 mt 3613 3375 L
3842 3305 mt 3892 3355 L
3892 3305 mt 3842 3355 L
4072 3287 mt 4122 3337 L
4122 3287 mt 4072 3337 L
4301 3271 mt 4351 3321 L
4351 3271 mt 4301 3321 L
4531 3258 mt 4581 3308 L
4581 3258 mt 4531 3308 L
4760 3246 mt 4810 3296 L
4810 3246 mt 4760 3296 L
4990 3235 mt 5040 3285 L
5040 3235 mt 4990 3285 L
5220 3226 mt 5270 3276 L
5270 3226 mt 5220 3276 L
5449 3217 mt 5499 3267 L
5499 3217 mt 5449 3267 L
gr

c11
15 5 16 -2 15 -12 15 1 15 2 16 0 15 -2 15 6 
16 9 15 -8 15 13 16 -4 15 1 15 4 15 -3 16 7 
15 -2 15 2 16 13 15 15 15 3 16 -4 15 -9 15 -2 
16 -1 15 2 15 1 15 -4 16 -7 15 -5 15 3 16 5 
15 0 15 -7 16 6 15 -5 15 3 15 9 16 1 15 -6 
15 -3 16 -15 15 4 15 4 16 1 15 -2 15 0 15 -6 
16 6 15 2 15 3 16 -1 15 -1 15 10 16 7 15 2 
15 12 16 2 15 -18 15 -5 15 12 16 -4 15 4 15 -1 
16 19 15 0 15 2 16 14 15 1 15 1 15 4 16 -5 
15 -4 15 3 16 4 15 -9 15 10 16 -1 15 -22 15 -1 
15 9 16 19 15 -7 15 -3 16 1 15 9 15 21 16 13 
15 14 15 -17 16 -12 15 -9 15 4 15 -12 16 3 15 1 
15 10 16 1 15 8 15 8 16 13 15 12 15 -1 15 11 
16 5 15 -2 15 -13 16 -8 15 6 15 34 16 -6 15 1 
15 16 15 -28 16 13 15 1 15 5 16 24 15 10 15 13 
16 -18 15 -2 15 4 15 -24 16 -9 15 -3 15 3 16 12 
15 -8 15 2 16 7 15 -18 15 17 16 7 15 3 15 -27 
15 -9 16 -4 15 -20 15 -7 16 0 15 8 15 -29 16 0 
15 8 15 -4 15 -10 16 -12 15 4 15 -8 16 -6 15 -11 
15 -11 16 31 15 10 15 -16 15 -28 16 5 15 3 15 13 
16 -4 15 -30 15 -16 16 -5 15 7 15 4 16 -3 15 17 
15 0 15 8 16 3 15 11 15 32 16 -6 15 -6 15 21 
16 -3 15 1 15 -2 15 -9 16 12 15 -23 15 -27 16 5 
15 13 15 -1 16 -1 15 -19 15 9 15 -19 16 -32 15 -5 
15 8 16 -31 15 2 15 4 16 11 15 7 15 -15 16 46 
15 20 15 20 15 -5 16 36 15 -2 15 -8 16 5 15 14 
15 10 16 2 15 0 15 11 15 -23 16 24 15 1 15 -30 
16 -14 15 21 15 42 16 18 15 -6 15 35 15 -11 16 29 
15 -16 15 -34 16 -4 15 19 15 27 16 22 15 -26 15 -10 
16 -29 15 -5 15 54 15 19 16 17 15 36 15 -15 16 -45 
15 40 15 20 16 64 15 -63 15 26 15 43 16 49 15 -31 
15 -25 16 6 15 22 15 -72 16 97 15 13 15 20 15 9 
16 -3 15 41 15 -47 16 12 15 -44 15 -85 16 -5 15 -60 
15 -38 16 49 15 -49 15 -49 15 120 16 52 15 76 15 98 
16 6 15 -23 15 161 16 -44 15 116 15 -19 15 -184 16 105 
15 206 15 108 16 178 15 66 15 -48 16 192 15 -209 15 -98 
15 54 16 -106 15 -173 15 -167 16 -554 15 -13 15 507 16 176 
15 266 15 290 15 0 899 1600 300 MP stroke
1113 1765 PD
87 0 1069 1765 2 MP stroke
87 0 1069 1765 2 MP stroke
1342 2567 PD
87 0 1299 2567 2 MP stroke
87 0 1299 2567 2 MP stroke
1572 2470 PD
87 0 1528 2470 2 MP stroke
87 0 1528 2470 2 MP stroke
1801 2679 PD
87 0 1758 2679 2 MP stroke
87 0 1758 2679 2 MP stroke
2031 2705 PD
88 0 1987 2705 2 MP stroke
88 0 1987 2705 2 MP stroke
2260 2786 PD
87 0 2217 2786 2 MP stroke
87 0 2217 2786 2 MP stroke
2490 2931 PD
88 0 2446 2931 2 MP stroke
88 0 2446 2931 2 MP stroke
2720 2822 PD
87 0 2676 2822 2 MP stroke
87 0 2676 2822 2 MP stroke
2949 2890 PD
88 0 2905 2890 2 MP stroke
88 0 2905 2890 2 MP stroke
3179 2832 PD
87 0 3135 2832 2 MP stroke
87 0 3135 2832 2 MP stroke
3408 2722 PD
87 0 3365 2722 2 MP stroke
87 0 3365 2722 2 MP stroke
3638 2695 PD
87 0 3594 2695 2 MP stroke
87 0 3594 2695 2 MP stroke
3867 2761 PD
87 0 3824 2761 2 MP stroke
87 0 3824 2761 2 MP stroke
4097 2803 PD
87 0 4053 2803 2 MP stroke
87 0 4053 2803 2 MP stroke
4326 2839 PD
87 0 4283 2839 2 MP stroke
87 0 4283 2839 2 MP stroke
4556 2889 PD
87 0 4512 2889 2 MP stroke
87 0 4512 2889 2 MP stroke
4785 2900 PD
87 0 4742 2900 2 MP stroke
87 0 4742 2900 2 MP stroke
5015 2900 PD
88 0 4971 2900 2 MP stroke
88 0 4971 2900 2 MP stroke
5245 2909 PD
87 0 5201 2909 2 MP stroke
87 0 5201 2909 2 MP stroke
5474 2919 PD
88 0 5430 2919 2 MP stroke
88 0 5430 2919 2 MP stroke
gs 1040 1692 4508 1313 rc
0 j
36 47 -36 47 -36 -47 36 -47 1113 1812 5 MP
DP
36 47 -36 47 -36 -47 36 -47 1342 2614 5 MP
DP
36 47 -36 47 -36 -47 36 -47 1572 2517 5 MP
DP
36 47 -36 47 -36 -47 36 -47 1801 2726 5 MP
DP
36 47 -36 47 -36 -47 36 -47 2031 2752 5 MP
DP
36 47 -36 47 -36 -47 36 -47 2260 2833 5 MP
DP
36 47 -36 47 -36 -47 36 -47 2490 2978 5 MP
DP
36 47 -36 47 -36 -47 36 -47 2720 2869 5 MP
DP
36 47 -36 47 -36 -47 36 -47 2949 2937 5 MP
DP
36 47 -36 47 -36 -47 36 -47 3179 2879 5 MP
DP
36 47 -36 47 -36 -47 36 -47 3408 2769 5 MP
DP
36 47 -36 47 -36 -47 36 -47 3638 2742 5 MP
DP
36 47 -36 47 -36 -47 36 -47 3867 2808 5 MP
DP
36 47 -36 47 -36 -47 36 -47 4097 2850 5 MP
DP
36 47 -36 47 -36 -47 36 -47 4326 2886 5 MP
DP
36 47 -36 47 -36 -47 36 -47 4556 2936 5 MP
DP
36 47 -36 47 -36 -47 36 -47 4785 2947 5 MP
DP
36 47 -36 47 -36 -47 36 -47 5015 2947 5 MP
DP
36 47 -36 47 -36 -47 36 -47 5245 2956 5 MP
DP
36 47 -36 47 -36 -47 36 -47 5474 2966 5 MP
DP
gr

c12
15 -7 16 -5 15 -2 15 8 15 -2 16 -2 15 -3 15 -8 
16 7 15 4 15 15 16 15 15 -3 15 4 15 6 16 7 
15 -6 15 -8 16 -3 15 10 15 10 16 3 15 4 15 8 
16 8 15 -3 15 12 15 -8 16 9 15 9 15 -9 16 -14 
15 17 15 16 16 8 15 7 15 -2 15 -10 16 -9 15 7 
15 -10 16 -13 15 13 15 12 16 -10 15 15 15 15 15 12 
16 9 15 8 15 4 16 -2 15 7 15 7 16 1 15 -6 
15 -7 16 3 15 5 15 1 15 1 16 11 15 11 15 5 
16 -10 15 3 15 -16 16 -2 15 0 15 8 15 22 16 22 
15 6 15 23 16 3 15 -2 15 15 16 3 15 -6 15 -17 
15 -13 16 -11 15 8 15 -4 16 -10 15 -11 15 -6 16 9 
15 -4 15 -6 16 -11 15 -22 15 2 15 7 16 6 15 -3 
15 11 16 3 15 8 15 8 16 14 15 14 15 21 15 21 
16 2 15 -7 15 -12 16 13 15 13 15 -3 16 -6 15 19 
15 19 15 -6 16 0 15 -14 15 0 16 1 15 7 15 -9 
16 10 15 -15 15 1 15 -1 16 3 15 -26 15 20 16 22 
15 4 15 10 16 -10 15 8 15 3 16 -13 15 -1 15 -30 
15 -5 16 15 15 -19 15 -7 16 10 15 9 15 3 16 8 
15 -8 15 -1 15 7 16 15 15 -5 15 -18 16 4 15 3 
15 -5 16 -5 15 -14 15 5 15 -4 16 24 15 25 15 -2 
16 9 15 -17 15 -8 16 16 15 2 15 -13 16 -28 15 8 
15 9 15 -3 16 -3 15 -7 15 6 16 36 15 12 15 15 
16 24 15 -38 15 6 15 -4 16 21 15 20 15 4 16 -1 
15 -15 15 -2 16 2 15 11 15 -1 15 -48 16 14 15 7 
15 12 16 40 15 40 15 0 16 7 15 -14 15 23 16 -21 
15 -32 15 -2 15 9 16 2 15 -8 15 26 16 15 15 10 
15 -6 16 -28 15 9 15 -38 15 24 16 -5 15 1 15 6 
16 23 15 1 15 9 16 11 15 2 15 -10 15 -4 16 39 
15 30 15 18 16 -6 15 0 15 54 16 1 15 -40 15 13 
16 -31 15 87 15 -2 15 28 16 26 15 36 15 19 16 38 
15 27 15 21 16 0 15 -13 15 -57 15 2 16 -13 15 18 
15 34 16 -49 15 3 15 40 16 -1 15 16 15 25 15 -53 
16 -56 15 46 15 19 16 59 15 -59 15 57 16 20 15 51 
15 -118 16 -81 15 -4 15 41 15 42 16 77 15 28 15 21 
16 81 15 26 15 -117 16 63 15 -59 15 -95 15 51 16 119 
15 -66 15 -106 16 43 15 296 15 44 16 -157 15 84 15 -221 
15 -112 16 256 15 7 15 258 16 -61 15 421 15 381 16 -283 
15 -937 15 -815 15 0 899 2524 300 MP stroke
1113 1345 PD
87 0 1069 1345 2 MP stroke
87 0 1069 1345 2 MP stroke
1342 1674 PD
87 0 1299 1674 2 MP stroke
87 0 1299 1674 2 MP stroke
1572 1715 PD
87 0 1528 1715 2 MP stroke
87 0 1528 1715 2 MP stroke
1801 1768 PD
87 0 1758 1768 2 MP stroke
87 0 1758 1768 2 MP stroke
2031 2009 PD
88 0 1987 2009 2 MP stroke
88 0 1987 2009 2 MP stroke
2260 2107 PD
87 0 2217 2107 2 MP stroke
87 0 2217 2107 2 MP stroke
2490 2088 PD
88 0 2446 2088 2 MP stroke
88 0 2446 2088 2 MP stroke
2720 2192 PD
87 0 2676 2192 2 MP stroke
87 0 2676 2192 2 MP stroke
2949 2212 PD
88 0 2905 2212 2 MP stroke
88 0 2905 2212 2 MP stroke
3179 2245 PD
87 0 3135 2245 2 MP stroke
87 0 3135 2245 2 MP stroke
3408 2219 PD
87 0 3365 2219 2 MP stroke
87 0 3365 2219 2 MP stroke
3638 2234 PD
87 0 3594 2234 2 MP stroke
87 0 3594 2234 2 MP stroke
3867 2249 PD
87 0 3824 2249 2 MP stroke
87 0 3824 2249 2 MP stroke
4097 2330 PD
87 0 4053 2330 2 MP stroke
87 0 4053 2330 2 MP stroke
4326 2275 PD
87 0 4283 2275 2 MP stroke
87 0 4283 2275 2 MP stroke
4556 2362 PD
87 0 4512 2362 2 MP stroke
87 0 4512 2362 2 MP stroke
4785 2434 PD
87 0 4742 2434 2 MP stroke
87 0 4742 2434 2 MP stroke
5015 2437 PD
88 0 4971 2437 2 MP stroke
88 0 4971 2437 2 MP stroke
5245 2489 PD
87 0 5201 2489 2 MP stroke
87 0 5201 2489 2 MP stroke
5474 2516 PD
88 0 5430 2516 2 MP stroke
88 0 5430 2516 2 MP stroke
gs 1040 1272 4508 1318 rc
0 j
0 -58 -58 0 0 58 58 0 1084 1316 5 MP
DP
0 -58 -58 0 0 58 58 0 1313 1645 5 MP
DP
0 -58 -58 0 0 58 58 0 1543 1686 5 MP
DP
0 -58 -58 0 0 58 58 0 1772 1739 5 MP
DP
0 -58 -58 0 0 58 58 0 2002 1980 5 MP
DP
0 -58 -58 0 0 58 58 0 2231 2078 5 MP
DP
0 -58 -58 0 0 58 58 0 2461 2059 5 MP
DP
0 -58 -58 0 0 58 58 0 2691 2163 5 MP
DP
0 -58 -58 0 0 58 58 0 2920 2183 5 MP
DP
0 -58 -58 0 0 58 58 0 3150 2216 5 MP
DP
0 -58 -58 0 0 58 58 0 3379 2190 5 MP
DP
0 -58 -58 0 0 58 58 0 3609 2205 5 MP
DP
0 -58 -58 0 0 58 58 0 3838 2220 5 MP
DP
0 -58 -58 0 0 58 58 0 4068 2301 5 MP
DP
0 -58 -58 0 0 58 58 0 4297 2246 5 MP
DP
0 -58 -58 0 0 58 58 0 4527 2333 5 MP
DP
0 -58 -58 0 0 58 58 0 4756 2405 5 MP
DP
0 -58 -58 0 0 58 58 0 4986 2408 5 MP
DP
0 -58 -58 0 0 58 58 0 5216 2460 5 MP
DP
0 -58 -58 0 0 58 58 0 5445 2487 5 MP
DP
gr

0 sg
15 -8 16 -17 15 -9 15 -5 15 3 16 7 15 7 15 6 
16 10 15 2 15 -6 16 -3 15 8 15 -1 15 -2 16 -5 
15 -6 15 0 16 -3 15 13 15 -15 16 -7 15 -5 15 1 
16 0 15 -1 15 2 15 12 16 -1 15 2 15 3 16 4 
15 -7 15 -6 16 14 15 10 15 3 15 5 16 -7 15 -3 
15 3 16 -12 15 -1 15 -15 16 0 15 8 15 -11 15 -4 
16 -9 15 6 15 3 16 8 15 -2 15 -11 16 5 15 8 
15 -6 16 3 15 11 15 -9 15 15 16 3 15 19 15 17 
16 3 15 10 15 1 16 0 15 12 15 11 15 10 16 8 
15 -4 15 2 16 8 15 -19 15 -7 16 -4 15 -2 15 3 
15 -6 16 6 15 -5 15 6 16 6 15 -13 15 8 16 -5 
15 -2 15 14 16 -5 15 -6 15 -8 15 13 16 -6 15 -4 
15 12 16 0 15 -10 15 8 16 9 15 -6 15 -9 15 3 
16 5 15 -17 15 -8 16 7 15 -8 15 3 16 -24 15 -5 
15 14 15 10 16 -19 15 -19 15 -3 16 2 15 -6 15 -5 
16 -8 15 -2 15 -8 15 -5 16 -3 15 6 15 -13 16 20 
15 -5 15 -14 16 -1 15 8 15 1 16 8 15 -5 15 -5 
15 11 16 -18 15 -9 15 9 16 -14 15 -22 15 1 16 -1 
15 9 15 -25 15 -11 16 -10 15 -10 15 10 16 0 15 -5 
15 8 16 7 15 2 15 4 15 -11 16 -17 15 -31 15 14 
16 -8 15 -20 15 3 16 10 15 8 15 10 16 14 15 -14 
15 -3 15 -7 16 -17 15 5 15 -24 16 -7 15 -2 15 -14 
16 9 15 -36 15 4 15 -14 16 -16 15 7 15 15 16 8 
15 18 15 2 16 -17 15 9 15 -20 15 11 16 17 15 -7 
15 -9 16 -11 15 10 15 14 16 -8 15 -6 15 -6 16 22 
15 -5 15 -2 15 -37 16 8 15 4 15 -12 16 6 15 -13 
15 -6 16 -10 15 15 15 18 15 10 16 27 15 23 15 21 
16 -14 15 53 15 12 16 -15 15 5 15 17 15 7 16 39 
15 34 15 0 16 -46 15 4 15 1 16 -29 15 38 15 -105 
16 36 15 -28 15 34 15 57 16 -8 15 -113 15 5 16 -6 
15 -27 15 1 16 -5 15 31 15 -10 15 -5 16 -44 15 -24 
15 -17 16 -24 15 -128 15 -2 16 -14 15 -1 15 -31 15 62 
16 -18 15 -20 15 39 16 26 15 16 15 -5 16 -53 15 14 
15 -5 16 83 15 -52 15 47 15 -87 16 -8 15 55 15 -5 
16 113 15 13 15 -93 16 32 15 115 15 35 15 -157 16 -73 
15 62 15 80 16 -50 15 140 15 28 16 56 15 -75 15 150 
15 -166 16 140 15 25 15 361 16 -98 15 -47 15 -590 16 219 
15 -7 15 443 15 -1726 899 4249 300 MP stroke
1113 2934 PD
87 0 1069 2934 2 MP stroke
87 0 1069 2934 2 MP stroke
1342 3229 PD
87 0 1299 3229 2 MP stroke
87 0 1299 3229 2 MP stroke
1572 3268 PD
87 0 1528 3268 2 MP stroke
87 0 1528 3268 2 MP stroke
1801 2968 PD
87 0 1758 2968 2 MP stroke
87 0 1758 2968 2 MP stroke
2031 2808 PD
88 0 1987 2808 2 MP stroke
88 0 1987 2808 2 MP stroke
2260 3060 PD
87 0 2217 3060 2 MP stroke
87 0 2217 3060 2 MP stroke
2490 3009 PD
88 0 2446 3009 2 MP stroke
88 0 2446 3009 2 MP stroke
2720 3026 PD
87 0 2676 3026 2 MP stroke
87 0 2676 3026 2 MP stroke
2949 2930 PD
88 0 2905 2930 2 MP stroke
88 0 2905 2930 2 MP stroke
3179 2894 PD
87 0 3135 2894 2 MP stroke
87 0 3135 2894 2 MP stroke
3408 2809 PD
87 0 3365 2809 2 MP stroke
87 0 3365 2809 2 MP stroke
3638 2788 PD
87 0 3594 2788 2 MP stroke
87 0 3594 2788 2 MP stroke
3867 2710 PD
87 0 3824 2710 2 MP stroke
87 0 3824 2710 2 MP stroke
4097 2706 PD
87 0 4053 2706 2 MP stroke
87 0 4053 2706 2 MP stroke
4326 2686 PD
87 0 4283 2686 2 MP stroke
87 0 4283 2686 2 MP stroke
4556 2801 PD
87 0 4512 2801 2 MP stroke
87 0 4512 2801 2 MP stroke
4785 2801 PD
87 0 4742 2801 2 MP stroke
87 0 4742 2801 2 MP stroke
5015 2792 PD
88 0 4971 2792 2 MP stroke
88 0 4971 2792 2 MP stroke
5245 2779 PD
87 0 5201 2779 2 MP stroke
87 0 5201 2779 2 MP stroke
5474 2771 PD
88 0 5430 2771 2 MP stroke
88 0 5430 2771 2 MP stroke
gs 1040 2613 4508 729 rc
1077 2934 mt 1149 2934 L
1113 2898 mt 1113 2970 L
1306 3229 mt 1378 3229 L
1342 3193 mt 1342 3265 L
1536 3268 mt 1608 3268 L
1572 3232 mt 1572 3304 L
1765 2968 mt 1837 2968 L
1801 2932 mt 1801 3004 L
1995 2808 mt 2067 2808 L
2031 2772 mt 2031 2844 L
2224 3060 mt 2296 3060 L
2260 3024 mt 2260 3096 L
2454 3009 mt 2526 3009 L
2490 2973 mt 2490 3045 L
2684 3026 mt 2756 3026 L
2720 2990 mt 2720 3062 L
2913 2930 mt 2985 2930 L
2949 2894 mt 2949 2966 L
3143 2894 mt 3215 2894 L
3179 2858 mt 3179 2930 L
3372 2809 mt 3444 2809 L
3408 2773 mt 3408 2845 L
3602 2788 mt 3674 2788 L
3638 2752 mt 3638 2824 L
3831 2710 mt 3903 2710 L
3867 2674 mt 3867 2746 L
4061 2706 mt 4133 2706 L
4097 2670 mt 4097 2742 L
4290 2686 mt 4362 2686 L
4326 2650 mt 4326 2722 L
4520 2801 mt 4592 2801 L
4556 2765 mt 4556 2837 L
4749 2801 mt 4821 2801 L
4785 2765 mt 4785 2837 L
4979 2792 mt 5051 2792 L
5015 2756 mt 5015 2828 L
5209 2779 mt 5281 2779 L
5245 2743 mt 5245 2815 L
5438 2771 mt 5510 2771 L
5474 2735 mt 5474 2807 L
gr

gr

1 sg
0 918 1538 0 0 -918 4658 1367 4 MP
PP
-1538 0 0 918 1538 0 0 -918 4658 1367 5 MP stroke
4 w
DO
SO
6 w
0 sg
4658 1367 mt 6196 1367 L
4658  449 mt 6196  449 L
4658 1367 mt 4658  449 L
6196 1367 mt 6196  449 L
4658 1367 mt 6196 1367 L
4658 1367 mt 4658  449 L
4658 1367 mt 6196 1367 L
4658  449 mt 6196  449 L
4658 1367 mt 4658  449 L
6196 1367 mt 6196  449 L
5125  581 mt 
(original BO) s
gs 4658 449 1539 919 rc
gs 4836 465 147 147 rc
0 j
41 71 -82 0 41 -71 4909 585 4 MP
c8
DP
gr

c8
gr

c8
0 sg
5125  729 mt 
(random embedding) s
gs 4658 449 1539 919 rc
gs 4836 613 147 147 rc
c9
  36   36 4909  686 FO
gr

c9
gr

c9
0 sg
5125  877 mt 
(subpsace learning) s
gs 4658 449 1539 919 rc
gs 4836 761 147 147 rc
c10
4873  834 mt 4945  834 L
4909  798 mt 4909  870 L
4884  809 mt 4934  859 L
4934  809 mt 4884  859 L
gr

c10
gr

c10
0 sg
5125 1024 mt 
(additive model) s
gs 4658 449 1539 919 rc
gs 4836 908 147 147 rc
0 j
36 47 -36 47 -36 -47 36 -47 4909 1028 5 MP
c11
DP
gr

c11
gr

c11
0 sg
5125 1172 mt 
(anova ve) s
gs 4658 449 1539 919 rc
gs 4836 1056 147 147 rc
0 j
0 -58 -58 0 0 58 58 0 4880 1100 5 MP
c12
DP
gr

c12
gr

c12
0 sg
5125 1320 mt 
(random selection) s
gs 4658 449 1539 919 rc
gs 4836 1204 147 147 rc
4873 1277 mt 4945 1277 L
4909 1241 mt 4909 1313 L
gr

gr


end %%Color Dict

eplot
%%EndObject

epage
end

showpage

%%Trailer
%%EOF
