%!PS-Adobe-3.0 EPSF-3.0
%%Creator: MATLAB, The MathWorks, Inc. Version 7.12.0.635 (R2011a). Operating System: Linux 3.16.0-4-amd64 #1 SMP Debian 3.16.7-ckt20-1+deb8u3 (2016-01-17) x86_64.
%%Title: /home/jaemin/Research/codes_MATSIM/HIGHDIM_BO_plot/results/MATSIM_travel_time/MATSIM_travel_time_f_simple_regret.eps
%%CreationDate: 10/09/2016  12:11:49
%%DocumentNeededFonts: Helvetica
%%DocumentProcessColors: Cyan Magenta Yellow Black
%%LanguageLevel: 2
%%Pages: 1
%%BoundingBox:    49   199   551   591
%%EndComments

%%BeginProlog
% MathWorks dictionary
/MathWorks 160 dict begin
% definition operators
/bdef {bind def} bind def
/ldef {load def} bind def
/xdef {exch def} bdef
/xstore {exch store} bdef
% operator abbreviations
/c  /clip ldef
/cc /concat ldef
/cp /closepath ldef
/gr /grestore ldef
/gs /gsave ldef
/mt /moveto ldef
/np /newpath ldef
/cm /currentmatrix ldef
/sm /setmatrix ldef
/rm /rmoveto ldef
/rl /rlineto ldef
/s {show newpath} bdef
/sc {setcmykcolor} bdef
/sr /setrgbcolor ldef
/sg /setgray ldef
/w /setlinewidth ldef
/j /setlinejoin ldef
/cap /setlinecap ldef
/rc {rectclip} bdef
/rf {rectfill} bdef
% page state control
/pgsv () def
/bpage {/pgsv save def} bdef
/epage {pgsv restore} bdef
/bplot /gsave ldef
/eplot {stroke grestore} bdef
% orientation switch
/portraitMode 0 def /landscapeMode 1 def /rotateMode 2 def
% coordinate system mappings
/dpi2point 0 def
% font control
/FontSize 0 def
/FMS {/FontSize xstore findfont [FontSize 0 0 FontSize neg 0 0]
  makefont setfont} bdef
/reencode {exch dup where {pop load} {pop StandardEncoding} ifelse
  exch dup 3 1 roll findfont dup length dict begin
  { 1 index /FID ne {def}{pop pop} ifelse } forall
  /Encoding exch def currentdict end definefont pop} bdef
/isroman {findfont /CharStrings get /Agrave known} bdef
/FMSR {3 1 roll 1 index dup isroman {reencode} {pop pop} ifelse
  exch FMS} bdef
/csm {1 dpi2point div -1 dpi2point div scale neg translate
 dup landscapeMode eq {pop -90 rotate}
  {rotateMode eq {90 rotate} if} ifelse} bdef
% line types: solid, dotted, dashed, dotdash
/SO { [] 0 setdash } bdef
/DO { [.5 dpi2point mul 4 dpi2point mul] 0 setdash } bdef
/DA { [6 dpi2point mul] 0 setdash } bdef
/DD { [.5 dpi2point mul 4 dpi2point mul 6 dpi2point mul 4
  dpi2point mul] 0 setdash } bdef
% macros for lines and objects
/L {lineto stroke} bdef
/MP {3 1 roll moveto 1 sub {rlineto} repeat} bdef
/AP {{rlineto} repeat} bdef
/PDlw -1 def
/W {/PDlw currentlinewidth def setlinewidth} def
/PP {closepath eofill} bdef
/DP {closepath stroke} bdef
/MR {4 -2 roll moveto dup  0 exch rlineto exch 0 rlineto
  neg 0 exch rlineto closepath} bdef
/FR {MR stroke} bdef
/PR {MR fill} bdef
/L1i {{currentfile picstr readhexstring pop} image} bdef
/tMatrix matrix def
/MakeOval {newpath tMatrix currentmatrix pop translate scale
0 0 1 0 360 arc tMatrix setmatrix} bdef
/FO {MakeOval stroke} bdef
/PO {MakeOval fill} bdef
/PD {currentlinewidth 2 div 0 360 arc fill
   PDlw -1 eq not {PDlw w /PDlw -1 def} if} def
/FA {newpath tMatrix currentmatrix pop translate scale
  0 0 1 5 -2 roll arc tMatrix setmatrix stroke} bdef
/PA {newpath tMatrix currentmatrix pop	translate 0 0 moveto scale
  0 0 1 5 -2 roll arc closepath tMatrix setmatrix fill} bdef
/FAn {newpath tMatrix currentmatrix pop translate scale
  0 0 1 5 -2 roll arcn tMatrix setmatrix stroke} bdef
/PAn {newpath tMatrix currentmatrix pop translate 0 0 moveto scale
  0 0 1 5 -2 roll arcn closepath tMatrix setmatrix fill} bdef
/vradius 0 def /hradius 0 def /lry 0 def
/lrx 0 def /uly 0 def /ulx 0 def /rad 0 def
/MRR {/vradius xdef /hradius xdef /lry xdef /lrx xdef /uly xdef
  /ulx xdef newpath tMatrix currentmatrix pop ulx hradius add uly
  vradius add translate hradius vradius scale 0 0 1 180 270 arc 
  tMatrix setmatrix lrx hradius sub uly vradius add translate
  hradius vradius scale 0 0 1 270 360 arc tMatrix setmatrix
  lrx hradius sub lry vradius sub translate hradius vradius scale
  0 0 1 0 90 arc tMatrix setmatrix ulx hradius add lry vradius sub
  translate hradius vradius scale 0 0 1 90 180 arc tMatrix setmatrix
  closepath} bdef
/FRR {MRR stroke } bdef
/PRR {MRR fill } bdef
/MlrRR {/lry xdef /lrx xdef /uly xdef /ulx xdef /rad lry uly sub 2 div def
  newpath tMatrix currentmatrix pop ulx rad add uly rad add translate
  rad rad scale 0 0 1 90 270 arc tMatrix setmatrix lrx rad sub lry rad
  sub translate rad rad scale 0 0 1 270 90 arc tMatrix setmatrix
  closepath} bdef
/FlrRR {MlrRR stroke } bdef
/PlrRR {MlrRR fill } bdef
/MtbRR {/lry xdef /lrx xdef /uly xdef /ulx xdef /rad lrx ulx sub 2 div def
  newpath tMatrix currentmatrix pop ulx rad add uly rad add translate
  rad rad scale 0 0 1 180 360 arc tMatrix setmatrix lrx rad sub lry rad
  sub translate rad rad scale 0 0 1 0 180 arc tMatrix setmatrix
  closepath} bdef
/FtbRR {MtbRR stroke } bdef
/PtbRR {MtbRR fill } bdef
/stri 6 array def /dtri 6 array def
/smat 6 array def /dmat 6 array def
/tmat1 6 array def /tmat2 6 array def /dif 3 array def
/asub {/ind2 exch def /ind1 exch def dup dup
  ind1 get exch ind2 get sub exch } bdef
/tri_to_matrix {
  2 0 asub 3 1 asub 4 0 asub 5 1 asub
  dup 0 get exch 1 get 7 -1 roll astore } bdef
/compute_transform {
  dmat dtri tri_to_matrix tmat1 invertmatrix 
  smat stri tri_to_matrix tmat2 concatmatrix } bdef
/ds {stri astore pop} bdef
/dt {dtri astore pop} bdef
/db {2 copy /cols xdef /rows xdef mul dup 3 mul string
  currentfile 
  3 index 0 eq {/ASCIIHexDecode filter}
  {/ASCII85Decode filter 3 index 2 eq {/RunLengthDecode filter} if }
  ifelse exch readstring pop
  dup 0 3 index getinterval /rbmap xdef
  dup 2 index dup getinterval /gbmap xdef
  1 index dup 2 mul exch getinterval /bbmap xdef pop pop}bdef
/it {gs np dtri aload pop moveto lineto lineto cp c
  cols rows 8 compute_transform 
  rbmap gbmap bbmap true 3 colorimage gr}bdef
/il {newpath moveto lineto stroke}bdef
currentdict end def
%%EndProlog

%%BeginSetup
MathWorks begin

0 cap

end
%%EndSetup

%%Page: 1 1
%%BeginPageSetup
%%PageBoundingBox:    49   199   551   591
MathWorks begin
bpage
%%EndPageSetup

%%BeginObject: obj1
bplot

/dpi2point 12 def
portraitMode 0216 7344 csm

  380   247  6024  4708 rc
89 dict begin %Colortable dictionary
/c0 { 0.000000 0.000000 0.000000 sr} bdef
/c1 { 1.000000 1.000000 1.000000 sr} bdef
/c2 { 0.900000 0.000000 0.000000 sr} bdef
/c3 { 0.000000 0.820000 0.000000 sr} bdef
/c4 { 0.000000 0.000000 0.800000 sr} bdef
/c5 { 0.910000 0.820000 0.320000 sr} bdef
/c6 { 1.000000 0.260000 0.820000 sr} bdef
/c7 { 0.000000 0.820000 0.820000 sr} bdef
c0
1 j
1 sg
   0    0 6913 5186 rf
6 w
0 4226 5356 0 0 -4226 899 4615 4 MP
PP
-5356 0 0 4226 5356 0 0 -4226 899 4615 5 MP stroke
4 w
DO
SO
6 w
0 sg
 899 4615 mt 6255 4615 L
 899  389 mt 6255  389 L
 899 4615 mt  899  389 L
6255 4615 mt 6255  389 L
 899 4615 mt 6255 4615 L
 899 4615 mt  899  389 L
 899 4615 mt  899 4561 L
 899  389 mt  899  442 L
%%IncludeResource: font Helvetica
/Helvetica /ISOLatin1Encoding 120 FMSR

 866 4760 mt 
(0) s
1494 4615 mt 1494 4561 L
1494  389 mt 1494  442 L
1428 4760 mt 
(50) s
2089 4615 mt 2089 4561 L
2089  389 mt 2089  442 L
1989 4760 mt 
(100) s
2684 4615 mt 2684 4561 L
2684  389 mt 2684  442 L
2584 4760 mt 
(150) s
3279 4615 mt 3279 4561 L
3279  389 mt 3279  442 L
3179 4760 mt 
(200) s
3874 4615 mt 3874 4561 L
3874  389 mt 3874  442 L
3774 4760 mt 
(250) s
4469 4615 mt 4469 4561 L
4469  389 mt 4469  442 L
4369 4760 mt 
(300) s
5064 4615 mt 5064 4561 L
5064  389 mt 5064  442 L
4964 4760 mt 
(350) s
5659 4615 mt 5659 4561 L
5659  389 mt 5659  442 L
5559 4760 mt 
(400) s
6255 4615 mt 6255 4561 L
6255  389 mt 6255  442 L
6155 4760 mt 
(450) s
 899 4615 mt  952 4615 L
6255 4615 mt 6201 4615 L
 598 4659 mt 
(1486) s
 899 4145 mt  952 4145 L
6255 4145 mt 6201 4145 L
 598 4189 mt 
(1488) s
 899 3675 mt  952 3675 L
6255 3675 mt 6201 3675 L
 598 3719 mt 
(1490) s
 899 3206 mt  952 3206 L
6255 3206 mt 6201 3206 L
 598 3250 mt 
(1492) s
 899 2736 mt  952 2736 L
6255 2736 mt 6201 2736 L
 598 2780 mt 
(1494) s
 899 2267 mt  952 2267 L
6255 2267 mt 6201 2267 L
 598 2311 mt 
(1496) s
 899 1797 mt  952 1797 L
6255 1797 mt 6201 1797 L
 598 1841 mt 
(1498) s
 899 1328 mt  952 1328 L
6255 1328 mt 6201 1328 L
 598 1372 mt 
(1500) s
 899  858 mt  952  858 L
6255  858 mt 6201  858 L
 598  902 mt 
(1502) s
 899  389 mt  952  389 L
6255  389 mt 6201  389 L
 598  433 mt 
(1504) s
 899 4615 mt 6255 4615 L
 899  389 mt 6255  389 L
 899 4615 mt  899  389 L
6255 4615 mt 6255  389 L
gs 899 389 5357 4227 rc
gs 992 2489 4718 851 rc
0 j
41 71 -82 0 41 -71 1065 2609 4 MP
/c8 { 0.000000 1.000000 0.000000 sr} bdef
c8
DP
41 71 -82 0 41 -71 1244 3046 4 MP
DP
41 71 -82 0 41 -71 1422 3046 4 MP
DP
41 71 -82 0 41 -71 1601 3046 4 MP
DP
41 71 -82 0 41 -71 1779 3046 4 MP
DP
41 71 -82 0 41 -71 1958 3046 4 MP
DP
41 71 -82 0 41 -71 2136 3046 4 MP
DP
41 71 -82 0 41 -71 2315 3046 4 MP
DP
41 71 -82 0 41 -71 2493 3046 4 MP
DP
41 71 -82 0 41 -71 2672 3046 4 MP
DP
41 71 -82 0 41 -71 2850 3046 4 MP
DP
41 71 -82 0 41 -71 3029 3046 4 MP
DP
41 71 -82 0 41 -71 3208 3046 4 MP
DP
41 71 -82 0 41 -71 3386 3118 4 MP
DP
41 71 -82 0 41 -71 3565 3118 4 MP
DP
41 71 -82 0 41 -71 3743 3247 4 MP
DP
41 71 -82 0 41 -71 3922 3247 4 MP
DP
41 71 -82 0 41 -71 4100 3247 4 MP
DP
41 71 -82 0 41 -71 4279 3247 4 MP
DP
41 71 -82 0 41 -71 4457 3247 4 MP
DP
41 71 -82 0 41 -71 4636 3247 4 MP
DP
41 71 -82 0 41 -71 4814 3247 4 MP
DP
41 71 -82 0 41 -71 4993 3247 4 MP
DP
41 71 -82 0 41 -71 5171 3247 4 MP
DP
41 71 -82 0 41 -71 5350 3313 4 MP
DP
41 71 -82 0 41 -71 5528 3313 4 MP
DP
41 71 -82 0 41 -71 5636 3313 4 MP
DP
gr

c8
gs 992 3017 4718 839 rc
/c9 { 0.000000 1.000000 1.000000 sr} bdef
c9
  36   36 1065 3090 FO
  36   36 1244 3090 FO
  36   36 1422 3090 FO
  36   36 1601 3090 FO
  36   36 1779 3090 FO
  36   36 1958 3689 FO
  36   36 2136 3689 FO
  36   36 2315 3689 FO
  36   36 2493 3689 FO
  36   36 2672 3782 FO
  36   36 2850 3782 FO
  36   36 3029 3782 FO
  36   36 3208 3782 FO
  36   36 3386 3782 FO
  36   36 3565 3782 FO
  36   36 3743 3782 FO
  36   36 3922 3782 FO
  36   36 4100 3782 FO
  36   36 4279 3782 FO
  36   36 4457 3782 FO
  36   36 4636 3782 FO
  36   36 4814 3782 FO
  36   36 4993 3782 FO
  36   36 5171 3782 FO
  36   36 5350 3782 FO
  36   36 5528 3782 FO
  36   36 5636 3782 FO
gr

c9
gs 992 2634 4718 1195 rc
/c10 { 0.000000 0.000000 1.000000 sr} bdef
c10
1029 2707 mt 1101 2707 L
1065 2671 mt 1065 2743 L
1208 2707 mt 1280 2707 L
1244 2671 mt 1244 2743 L
1386 2707 mt 1458 2707 L
1422 2671 mt 1422 2743 L
1565 3008 mt 1637 3008 L
1601 2972 mt 1601 3044 L
1743 3225 mt 1815 3225 L
1779 3189 mt 1779 3261 L
1922 3225 mt 1994 3225 L
1958 3189 mt 1958 3261 L
2100 3225 mt 2172 3225 L
2136 3189 mt 2136 3261 L
2279 3225 mt 2351 3225 L
2315 3189 mt 2315 3261 L
2457 3225 mt 2529 3225 L
2493 3189 mt 2493 3261 L
2636 3225 mt 2708 3225 L
2672 3189 mt 2672 3261 L
2814 3536 mt 2886 3536 L
2850 3500 mt 2850 3572 L
2993 3536 mt 3065 3536 L
3029 3500 mt 3029 3572 L
3172 3536 mt 3244 3536 L
3208 3500 mt 3208 3572 L
3350 3536 mt 3422 3536 L
3386 3500 mt 3386 3572 L
3529 3536 mt 3601 3536 L
3565 3500 mt 3565 3572 L
3707 3536 mt 3779 3536 L
3743 3500 mt 3743 3572 L
3886 3536 mt 3958 3536 L
3922 3500 mt 3922 3572 L
4064 3755 mt 4136 3755 L
4100 3719 mt 4100 3791 L
4243 3755 mt 4315 3755 L
4279 3719 mt 4279 3791 L
4421 3755 mt 4493 3755 L
4457 3719 mt 4457 3791 L
4600 3755 mt 4672 3755 L
4636 3719 mt 4636 3791 L
4778 3755 mt 4850 3755 L
4814 3719 mt 4814 3791 L
4957 3755 mt 5029 3755 L
4993 3719 mt 4993 3791 L
5135 3755 mt 5207 3755 L
5171 3719 mt 5171 3791 L
5314 3755 mt 5386 3755 L
5350 3719 mt 5350 3791 L
5492 3755 mt 5564 3755 L
5528 3719 mt 5528 3791 L
5600 3755 mt 5672 3755 L
5636 3719 mt 5636 3791 L
1040 2682 mt 1090 2732 L
1090 2682 mt 1040 2732 L
1219 2682 mt 1269 2732 L
1269 2682 mt 1219 2732 L
1397 2682 mt 1447 2732 L
1447 2682 mt 1397 2732 L
1576 2983 mt 1626 3033 L
1626 2983 mt 1576 3033 L
1754 3200 mt 1804 3250 L
1804 3200 mt 1754 3250 L
1933 3200 mt 1983 3250 L
1983 3200 mt 1933 3250 L
2111 3200 mt 2161 3250 L
2161 3200 mt 2111 3250 L
2290 3200 mt 2340 3250 L
2340 3200 mt 2290 3250 L
2468 3200 mt 2518 3250 L
2518 3200 mt 2468 3250 L
2647 3200 mt 2697 3250 L
2697 3200 mt 2647 3250 L
2825 3511 mt 2875 3561 L
2875 3511 mt 2825 3561 L
3004 3511 mt 3054 3561 L
3054 3511 mt 3004 3561 L
3183 3511 mt 3233 3561 L
3233 3511 mt 3183 3561 L
3361 3511 mt 3411 3561 L
3411 3511 mt 3361 3561 L
3540 3511 mt 3590 3561 L
3590 3511 mt 3540 3561 L
3718 3511 mt 3768 3561 L
3768 3511 mt 3718 3561 L
3897 3511 mt 3947 3561 L
3947 3511 mt 3897 3561 L
4075 3730 mt 4125 3780 L
4125 3730 mt 4075 3780 L
4254 3730 mt 4304 3780 L
4304 3730 mt 4254 3780 L
4432 3730 mt 4482 3780 L
4482 3730 mt 4432 3780 L
4611 3730 mt 4661 3780 L
4661 3730 mt 4611 3780 L
4789 3730 mt 4839 3780 L
4839 3730 mt 4789 3780 L
4968 3730 mt 5018 3780 L
5018 3730 mt 4968 3780 L
5146 3730 mt 5196 3780 L
5196 3730 mt 5146 3780 L
5325 3730 mt 5375 3780 L
5375 3730 mt 5325 3780 L
5503 3730 mt 5553 3780 L
5553 3730 mt 5503 3780 L
5611 3730 mt 5661 3780 L
5661 3730 mt 5611 3780 L
gr

c10
gs 992 3033 4718 1282 rc
0 j
36 47 -36 47 -36 -47 36 -47 1065 3153 5 MP
/c11 { 1.000000 0.000000 1.000000 sr} bdef
c11
DP
36 47 -36 47 -36 -47 36 -47 1244 3153 5 MP
DP
36 47 -36 47 -36 -47 36 -47 1422 3153 5 MP
DP
36 47 -36 47 -36 -47 36 -47 1601 3278 5 MP
DP
36 47 -36 47 -36 -47 36 -47 1779 3278 5 MP
DP
36 47 -36 47 -36 -47 36 -47 1958 3278 5 MP
DP
36 47 -36 47 -36 -47 36 -47 2136 3278 5 MP
DP
36 47 -36 47 -36 -47 36 -47 2315 3278 5 MP
DP
36 47 -36 47 -36 -47 36 -47 2493 3278 5 MP
DP
36 47 -36 47 -36 -47 36 -47 2672 3509 5 MP
DP
36 47 -36 47 -36 -47 36 -47 2850 3509 5 MP
DP
36 47 -36 47 -36 -47 36 -47 3029 3509 5 MP
DP
36 47 -36 47 -36 -47 36 -47 3208 3509 5 MP
DP
36 47 -36 47 -36 -47 36 -47 3386 3664 5 MP
DP
36 47 -36 47 -36 -47 36 -47 3565 3664 5 MP
DP
36 47 -36 47 -36 -47 36 -47 3743 3664 5 MP
DP
36 47 -36 47 -36 -47 36 -47 3922 3664 5 MP
DP
36 47 -36 47 -36 -47 36 -47 4100 3664 5 MP
DP
36 47 -36 47 -36 -47 36 -47 4279 3664 5 MP
DP
36 47 -36 47 -36 -47 36 -47 4457 4288 5 MP
DP
36 47 -36 47 -36 -47 36 -47 4636 4288 5 MP
DP
36 47 -36 47 -36 -47 36 -47 4814 4288 5 MP
DP
36 47 -36 47 -36 -47 36 -47 4993 4288 5 MP
DP
36 47 -36 47 -36 -47 36 -47 5171 4288 5 MP
DP
36 47 -36 47 -36 -47 36 -47 5350 4288 5 MP
DP
36 47 -36 47 -36 -47 36 -47 5528 4288 5 MP
DP
36 47 -36 47 -36 -47 36 -47 5636 4288 5 MP
DP
gr

c11
gs 992 2567 4718 1191 rc
0 j
0 -58 -58 0 0 58 58 0 1036 2611 5 MP
/c12 { 1.000000 0.000000 0.000000 sr} bdef
c12
DP
0 -58 -58 0 0 58 58 0 1215 2611 5 MP
DP
0 -58 -58 0 0 58 58 0 1393 3370 5 MP
DP
0 -58 -58 0 0 58 58 0 1572 3613 5 MP
DP
0 -58 -58 0 0 58 58 0 1750 3613 5 MP
DP
0 -58 -58 0 0 58 58 0 1929 3613 5 MP
DP
0 -58 -58 0 0 58 58 0 2107 3613 5 MP
DP
0 -58 -58 0 0 58 58 0 2286 3613 5 MP
DP
0 -58 -58 0 0 58 58 0 2464 3613 5 MP
DP
0 -58 -58 0 0 58 58 0 2643 3613 5 MP
DP
0 -58 -58 0 0 58 58 0 2821 3613 5 MP
DP
0 -58 -58 0 0 58 58 0 3000 3655 5 MP
DP
0 -58 -58 0 0 58 58 0 3179 3655 5 MP
DP
0 -58 -58 0 0 58 58 0 3357 3655 5 MP
DP
0 -58 -58 0 0 58 58 0 3536 3655 5 MP
DP
0 -58 -58 0 0 58 58 0 3714 3655 5 MP
DP
0 -58 -58 0 0 58 58 0 3893 3655 5 MP
DP
0 -58 -58 0 0 58 58 0 4071 3655 5 MP
DP
0 -58 -58 0 0 58 58 0 4250 3655 5 MP
DP
0 -58 -58 0 0 58 58 0 4428 3655 5 MP
DP
0 -58 -58 0 0 58 58 0 4607 3655 5 MP
DP
0 -58 -58 0 0 58 58 0 4785 3655 5 MP
DP
0 -58 -58 0 0 58 58 0 4964 3655 5 MP
DP
0 -58 -58 0 0 58 58 0 5142 3655 5 MP
DP
0 -58 -58 0 0 58 58 0 5321 3655 5 MP
DP
0 -58 -58 0 0 58 58 0 5499 3655 5 MP
DP
0 -58 -58 0 0 58 58 0 5607 3655 5 MP
DP
gr

c12
gs 992 2869 4718 321 rc
0 j
-41 71 -41 -71 82 0 1024 2966 4 MP
/c13 { 1.000000 1.000000 0.000000 sr} bdef
c13
DP
-41 71 -41 -71 82 0 1203 2966 4 MP
DP
-41 71 -41 -71 82 0 1381 2966 4 MP
DP
-41 71 -41 -71 82 0 1560 2966 4 MP
DP
-41 71 -41 -71 82 0 1738 2966 4 MP
DP
-41 71 -41 -71 82 0 1917 2979 4 MP
DP
-41 71 -41 -71 82 0 2095 2979 4 MP
DP
-41 71 -41 -71 82 0 2274 2979 4 MP
DP
-41 71 -41 -71 82 0 2452 2979 4 MP
DP
-41 71 -41 -71 82 0 2631 2979 4 MP
DP
-41 71 -41 -71 82 0 2809 3119 4 MP
DP
-41 71 -41 -71 82 0 2988 3119 4 MP
DP
-41 71 -41 -71 82 0 3167 3119 4 MP
DP
-41 71 -41 -71 82 0 3345 3119 4 MP
DP
-41 71 -41 -71 82 0 3524 3119 4 MP
DP
-41 71 -41 -71 82 0 3702 3119 4 MP
DP
-41 71 -41 -71 82 0 3881 3119 4 MP
DP
-41 71 -41 -71 82 0 4059 3119 4 MP
DP
-41 71 -41 -71 82 0 4238 3119 4 MP
DP
-41 71 -41 -71 82 0 4416 3140 4 MP
DP
-41 71 -41 -71 82 0 4595 3140 4 MP
DP
-41 71 -41 -71 82 0 4773 3140 4 MP
DP
-41 71 -41 -71 82 0 4952 3140 4 MP
DP
-41 71 -41 -71 82 0 5130 3140 4 MP
DP
-41 71 -41 -71 82 0 5309 3140 4 MP
DP
-41 71 -41 -71 82 0 5487 3140 4 MP
DP
-41 71 -41 -71 82 0 5595 3140 4 MP
DP
gr

c13
gs 992 2847 4718 858 rc
0 sg
1029 2920 mt 1101 2920 L
1065 2884 mt 1065 2956 L
1208 3138 mt 1280 3138 L
1244 3102 mt 1244 3174 L
1386 3138 mt 1458 3138 L
1422 3102 mt 1422 3174 L
1565 3138 mt 1637 3138 L
1601 3102 mt 1601 3174 L
1743 3257 mt 1815 3257 L
1779 3221 mt 1779 3293 L
1922 3535 mt 1994 3535 L
1958 3499 mt 1958 3571 L
2100 3535 mt 2172 3535 L
2136 3499 mt 2136 3571 L
2279 3535 mt 2351 3535 L
2315 3499 mt 2315 3571 L
2457 3535 mt 2529 3535 L
2493 3499 mt 2493 3571 L
2636 3535 mt 2708 3535 L
2672 3499 mt 2672 3571 L
2814 3535 mt 2886 3535 L
2850 3499 mt 2850 3571 L
2993 3535 mt 3065 3535 L
3029 3499 mt 3029 3571 L
3172 3535 mt 3244 3535 L
3208 3499 mt 3208 3571 L
3350 3535 mt 3422 3535 L
3386 3499 mt 3386 3571 L
3529 3535 mt 3601 3535 L
3565 3499 mt 3565 3571 L
3707 3631 mt 3779 3631 L
3743 3595 mt 3743 3667 L
3886 3631 mt 3958 3631 L
3922 3595 mt 3922 3667 L
4064 3631 mt 4136 3631 L
4100 3595 mt 4100 3667 L
4243 3631 mt 4315 3631 L
4279 3595 mt 4279 3667 L
4421 3631 mt 4493 3631 L
4457 3595 mt 4457 3667 L
4600 3631 mt 4672 3631 L
4636 3595 mt 4636 3667 L
4778 3631 mt 4850 3631 L
4814 3595 mt 4814 3667 L
4957 3631 mt 5029 3631 L
4993 3595 mt 4993 3667 L
5135 3631 mt 5207 3631 L
5171 3595 mt 5171 3667 L
5314 3631 mt 5386 3631 L
5350 3595 mt 5350 3667 L
5492 3631 mt 5564 3631 L
5528 3595 mt 5528 3667 L
5600 3631 mt 5672 3631 L
5636 3595 mt 5636 3667 L
gr

0 sg
gr

2979 4903 mt 
(Number of evaluations) s
 516 2956 mt  -90 rotate
(Travel Time \(sec\)) s
90 rotate
 882 4658 mt 
( ) s
6239  431 mt 
( ) s
gs 899 389 5357 4227 rc
c8
12 0 12 0 12 0 12 0 12 0 12 0 12 0 12 0 
12 0 11 0 12 0 12 0 12 0 12 0 12 0 12 0 
12 0 12 0 12 0 11 0 12 0 12 0 12 0 12 0 
12 0 12 0 12 0 12 0 12 0 11 0 12 66 12 0 
12 0 12 0 12 0 12 0 12 0 12 0 12 0 12 0 
11 0 12 0 12 0 12 0 12 0 12 0 12 0 12 0 
12 0 12 0 11 0 12 0 12 0 12 0 12 0 12 0 
12 0 12 0 12 0 12 0 11 0 12 0 12 0 12 0 
12 0 12 0 12 0 12 0 12 0 12 0 11 0 12 0 
12 0 12 0 12 0 12 0 12 0 12 0 12 0 12 0 
11 0 12 0 12 0 12 0 12 0 12 0 12 0 12 0 
12 0 12 0 12 0 11 0 12 0 12 0 12 0 12 0 
12 0 12 0 12 0 12 0 12 0 11 0 12 0 12 0 
12 0 12 0 12 0 12 0 12 0 12 0 12 0 11 0 
12 0 12 0 12 0 12 0 12 0 12 0 12 0 12 0 
12 0 11 0 12 0 12 0 12 0 12 0 12 0 12 0 
12 0 12 0 12 0 12 0 11 0 12 0 12 0 12 0 
12 0 12 0 12 0 12 0 12 0 12 0 11 0 12 0 
12 0 12 0 12 0 12 0 12 0 12 0 12 0 12 0 
11 0 12 0 12 0 12 0 12 0 12 0 12 0 12 0 
12 0 12 0 11 0 12 0 12 0 12 0 12 129 12 0 
12 0 12 0 12 0 12 0 11 0 12 0 12 0 12 0 
12 0 12 0 12 0 12 0 12 0 12 0 12 0 11 0 
12 0 12 0 12 0 12 0 12 0 12 0 12 0 12 72 
12 0 11 0 12 0 12 0 12 0 12 0 12 0 12 0 
12 0 12 0 12 0 11 0 12 0 12 0 12 0 12 0 
12 0 12 0 12 0 12 0 12 0 11 0 12 0 12 0 
12 0 12 0 12 0 12 0 12 0 12 0 12 0 12 0 
11 0 12 0 12 0 12 0 12 0 12 0 12 0 12 0 
12 0 12 0 11 0 12 0 12 0 12 0 12 0 12 0 
12 0 12 0 12 0 12 0 11 0 12 0 12 0 12 0 
12 0 12 0 12 0 12 0 12 0 12 0 11 0 12 0 
12 0 12 0 12 0 12 0 12 0 12 0 12 0 12 0 
12 0 11 0 12 0 12 0 12 0 12 0 12 0 12 0 
12 0 12 0 12 0 11 0 12 0 12 0 12 0 12 0 
12 0 12 0 12 0 12 0 12 0 11 0 12 0 12 0 
12 0 12 0 12 0 12 0 12 0 12 0 12 0 11 0 
12 0 12 0 12 0 2077 2999 300 MP stroke
12 0 12 0 12 0 12 0 12 0 12 0 11 0 12 0 
12 0 12 0 12 0 12 0 12 0 12 0 12 0 12 0 
12 0 11 0 12 0 12 0 12 0 12 0 12 0 12 0 
12 0 12 0 12 0 11 0 12 0 12 0 12 0 12 0 
12 0 12 0 12 0 12 0 12 0 11 0 12 0 12 0 
12 0 12 0 12 0 12 0 12 0 12 0 12 0 11 0 
12 0 12 0 12 0 12 0 12 0 12 0 12 0 12 0 
12 0 12 0 11 0 12 0 12 0 12 0 12 0 12 0 
12 0 12 0 12 0 12 0 11 0 12 0 12 0 12 0 
12 0 12 0 12 0 12 0 12 0 12 361 11 0 12 76 
12 0 12 0 12 0 12 0 12 0 12 0 12 0 12 0 
11 0 12 0 12 0 12 0 12 0 12 0 12 0 12 1168 
12 0 12 0 11 614 899 780 100 MP stroke
1065 2562 PD
92 0 1019 2562 2 MP stroke
92 0 1019 2562 2 MP stroke
1244 2999 PD
91 0 1198 2999 2 MP stroke
91 0 1198 2999 2 MP stroke
1422 2999 PD
92 0 1376 2999 2 MP stroke
92 0 1376 2999 2 MP stroke
1601 2999 PD
91 0 1555 2999 2 MP stroke
91 0 1555 2999 2 MP stroke
1779 2999 PD
91 0 1734 2999 2 MP stroke
91 0 1734 2999 2 MP stroke
1958 2999 PD
92 0 1912 2999 2 MP stroke
92 0 1912 2999 2 MP stroke
2136 2999 PD
91 0 2091 2999 2 MP stroke
91 0 2091 2999 2 MP stroke
2315 2999 PD
92 0 2269 2999 2 MP stroke
92 0 2269 2999 2 MP stroke
2493 2999 PD
91 0 2448 2999 2 MP stroke
91 0 2448 2999 2 MP stroke
2672 2999 PD
92 0 2626 2999 2 MP stroke
92 0 2626 2999 2 MP stroke
2850 2999 PD
91 0 2805 2999 2 MP stroke
91 0 2805 2999 2 MP stroke
3029 2999 PD
92 0 2983 2999 2 MP stroke
92 0 2983 2999 2 MP stroke
3208 2999 PD
91 0 3162 2999 2 MP stroke
91 0 3162 2999 2 MP stroke
3386 3071 PD
92 0 3340 3071 2 MP stroke
92 0 3340 3071 2 MP stroke
3565 3071 PD
91 0 3519 3071 2 MP stroke
91 0 3519 3071 2 MP stroke
3743 3200 PD
92 0 3697 3200 2 MP stroke
92 0 3697 3200 2 MP stroke
3922 3200 PD
91 0 3876 3200 2 MP stroke
91 0 3876 3200 2 MP stroke
4100 3200 PD
92 0 4054 3200 2 MP stroke
92 0 4054 3200 2 MP stroke
4279 3200 PD
91 0 4233 3200 2 MP stroke
91 0 4233 3200 2 MP stroke
4457 3200 PD
91 0 4412 3200 2 MP stroke
91 0 4412 3200 2 MP stroke
4636 3200 PD
92 0 4590 3200 2 MP stroke
92 0 4590 3200 2 MP stroke
4814 3200 PD
91 0 4769 3200 2 MP stroke
91 0 4769 3200 2 MP stroke
4993 3200 PD
92 0 4947 3200 2 MP stroke
92 0 4947 3200 2 MP stroke
5171 3200 PD
91 0 5126 3200 2 MP stroke
91 0 5126 3200 2 MP stroke
5350 3266 PD
92 0 5304 3266 2 MP stroke
92 0 5304 3266 2 MP stroke
5528 3266 PD
91 0 5483 3266 2 MP stroke
91 0 5483 3266 2 MP stroke
5636 3266 PD
91 0 5590 3266 2 MP stroke
91 0 5590 3266 2 MP stroke
gs 992 2489 4718 851 rc
0 j
41 71 -82 0 41 -71 1065 2609 4 MP
DP
41 71 -82 0 41 -71 1244 3046 4 MP
DP
41 71 -82 0 41 -71 1422 3046 4 MP
DP
41 71 -82 0 41 -71 1601 3046 4 MP
DP
41 71 -82 0 41 -71 1779 3046 4 MP
DP
41 71 -82 0 41 -71 1958 3046 4 MP
DP
41 71 -82 0 41 -71 2136 3046 4 MP
DP
41 71 -82 0 41 -71 2315 3046 4 MP
DP
41 71 -82 0 41 -71 2493 3046 4 MP
DP
41 71 -82 0 41 -71 2672 3046 4 MP
DP
41 71 -82 0 41 -71 2850 3046 4 MP
DP
41 71 -82 0 41 -71 3029 3046 4 MP
DP
41 71 -82 0 41 -71 3208 3046 4 MP
DP
41 71 -82 0 41 -71 3386 3118 4 MP
DP
41 71 -82 0 41 -71 3565 3118 4 MP
DP
41 71 -82 0 41 -71 3743 3247 4 MP
DP
41 71 -82 0 41 -71 3922 3247 4 MP
DP
41 71 -82 0 41 -71 4100 3247 4 MP
DP
41 71 -82 0 41 -71 4279 3247 4 MP
DP
41 71 -82 0 41 -71 4457 3247 4 MP
DP
41 71 -82 0 41 -71 4636 3247 4 MP
DP
41 71 -82 0 41 -71 4814 3247 4 MP
DP
41 71 -82 0 41 -71 4993 3247 4 MP
DP
41 71 -82 0 41 -71 5171 3247 4 MP
DP
41 71 -82 0 41 -71 5350 3313 4 MP
DP
41 71 -82 0 41 -71 5528 3313 4 MP
DP
41 71 -82 0 41 -71 5636 3313 4 MP
DP
gr

c9
12 0 12 0 12 0 12 0 12 0 12 0 12 0 12 0 
12 0 11 0 12 0 12 0 12 0 12 0 12 0 12 0 
12 0 12 0 12 0 11 0 12 0 12 0 12 0 12 0 
12 0 12 0 12 0 12 0 12 0 11 0 12 0 12 0 
12 0 12 0 12 0 12 0 12 0 12 0 12 0 12 0 
11 0 12 0 12 0 12 0 12 0 12 0 12 0 12 0 
12 0 12 0 11 0 12 0 12 0 12 0 12 0 12 0 
12 0 12 0 12 0 12 0 11 0 12 0 12 0 12 0 
12 0 12 0 12 0 12 0 12 0 12 0 11 0 12 0 
12 0 12 0 12 0 12 0 12 0 12 0 12 0 12 0 
11 0 12 0 12 0 12 0 12 0 12 0 12 0 12 0 
12 0 12 0 12 0 11 0 12 0 12 0 12 0 12 0 
12 0 12 0 12 0 12 0 12 0 11 0 12 0 12 0 
12 0 12 0 12 0 12 0 12 0 12 0 12 0 11 0 
12 0 12 0 12 0 12 0 12 0 12 0 12 0 12 0 
12 0 11 0 12 0 12 0 12 0 12 0 12 0 12 0 
12 0 12 0 12 0 12 0 11 0 12 0 12 0 12 0 
12 0 12 0 12 0 12 0 12 0 12 0 11 0 12 0 
12 0 12 0 12 0 12 0 12 0 12 0 12 0 12 0 
11 0 12 0 12 0 12 0 12 0 12 0 12 0 12 0 
12 0 12 0 11 0 12 0 12 0 12 0 12 0 12 0 
12 0 12 0 12 0 12 0 11 0 12 0 12 0 12 0 
12 0 12 0 12 0 12 0 12 0 12 0 12 0 11 0 
12 0 12 0 12 0 12 0 12 0 12 0 12 0 12 0 
12 0 11 0 12 0 12 0 12 0 12 0 12 0 12 0 
12 0 12 0 12 0 11 0 12 0 12 0 12 0 12 0 
12 0 12 0 12 0 12 0 12 0 11 0 12 0 12 0 
12 0 12 0 12 0 12 0 12 0 12 0 12 0 12 0 
11 0 12 0 12 0 12 0 12 0 12 0 12 0 12 0 
12 0 12 0 11 0 12 0 12 0 12 0 12 0 12 0 
12 0 12 0 12 0 12 0 11 0 12 0 12 0 12 0 
12 0 12 0 12 0 12 0 12 0 12 0 11 93 12 0 
12 0 12 0 12 0 12 0 12 0 12 0 12 0 12 0 
12 0 11 0 12 0 12 0 12 0 12 0 12 0 12 0 
12 0 12 0 12 0 11 0 12 0 12 0 12 0 12 0 
12 0 12 0 12 0 12 0 12 0 11 0 12 0 12 0 
12 0 12 0 12 0 12 0 12 0 12 0 12 0 11 0 
12 0 12 0 12 0 2077 3689 300 MP stroke
12 0 12 0 12 0 12 0 12 0 12 0 11 0 12 0 
12 0 12 0 12 0 12 0 12 0 12 0 12 0 12 0 
12 0 11 0 12 0 12 599 12 0 12 0 12 0 12 0 
12 0 12 0 12 0 11 0 12 0 12 0 12 0 12 0 
12 0 12 0 12 0 12 0 12 0 11 0 12 0 12 0 
12 0 12 0 12 0 12 0 12 0 12 0 12 0 11 0 
12 0 12 0 12 0 12 0 12 0 12 0 12 0 12 0 
12 0 12 0 11 0 12 0 12 0 12 0 12 0 12 0 
12 0 12 0 12 0 12 0 11 0 12 0 12 0 12 0 
12 0 12 0 12 0 12 0 12 0 12 0 11 0 12 0 
12 0 12 0 12 0 12 0 12 0 12 0 12 0 12 0 
11 0 12 0 12 0 12 0 12 0 12 0 12 0 12 0 
12 0 12 0 11 0 899 3090 100 MP stroke
1065 3090 PD
92 0 1019 3090 2 MP stroke
92 0 1019 3090 2 MP stroke
1244 3090 PD
91 0 1198 3090 2 MP stroke
91 0 1198 3090 2 MP stroke
1422 3090 PD
92 0 1376 3090 2 MP stroke
92 0 1376 3090 2 MP stroke
1601 3090 PD
91 0 1555 3090 2 MP stroke
91 0 1555 3090 2 MP stroke
1779 3090 PD
91 0 1734 3090 2 MP stroke
91 0 1734 3090 2 MP stroke
1958 3689 PD
92 0 1912 3689 2 MP stroke
92 0 1912 3689 2 MP stroke
2136 3689 PD
91 0 2091 3689 2 MP stroke
91 0 2091 3689 2 MP stroke
2315 3689 PD
92 0 2269 3689 2 MP stroke
92 0 2269 3689 2 MP stroke
2493 3689 PD
91 0 2448 3689 2 MP stroke
91 0 2448 3689 2 MP stroke
2672 3782 PD
92 0 2626 3782 2 MP stroke
92 0 2626 3782 2 MP stroke
2850 3782 PD
91 0 2805 3782 2 MP stroke
91 0 2805 3782 2 MP stroke
3029 3782 PD
92 0 2983 3782 2 MP stroke
92 0 2983 3782 2 MP stroke
3208 3782 PD
91 0 3162 3782 2 MP stroke
91 0 3162 3782 2 MP stroke
3386 3782 PD
92 0 3340 3782 2 MP stroke
92 0 3340 3782 2 MP stroke
3565 3782 PD
91 0 3519 3782 2 MP stroke
91 0 3519 3782 2 MP stroke
3743 3782 PD
92 0 3697 3782 2 MP stroke
92 0 3697 3782 2 MP stroke
3922 3782 PD
91 0 3876 3782 2 MP stroke
91 0 3876 3782 2 MP stroke
4100 3782 PD
92 0 4054 3782 2 MP stroke
92 0 4054 3782 2 MP stroke
4279 3782 PD
91 0 4233 3782 2 MP stroke
91 0 4233 3782 2 MP stroke
4457 3782 PD
91 0 4412 3782 2 MP stroke
91 0 4412 3782 2 MP stroke
4636 3782 PD
92 0 4590 3782 2 MP stroke
92 0 4590 3782 2 MP stroke
4814 3782 PD
91 0 4769 3782 2 MP stroke
91 0 4769 3782 2 MP stroke
4993 3782 PD
92 0 4947 3782 2 MP stroke
92 0 4947 3782 2 MP stroke
5171 3782 PD
91 0 5126 3782 2 MP stroke
91 0 5126 3782 2 MP stroke
5350 3782 PD
92 0 5304 3782 2 MP stroke
92 0 5304 3782 2 MP stroke
5528 3782 PD
91 0 5483 3782 2 MP stroke
91 0 5483 3782 2 MP stroke
5636 3782 PD
91 0 5590 3782 2 MP stroke
91 0 5590 3782 2 MP stroke
gs 992 3017 4718 839 rc
  36   36 1065 3090 FO
  36   36 1244 3090 FO
  36   36 1422 3090 FO
  36   36 1601 3090 FO
  36   36 1779 3090 FO
  36   36 1958 3689 FO
  36   36 2136 3689 FO
  36   36 2315 3689 FO
  36   36 2493 3689 FO
  36   36 2672 3782 FO
  36   36 2850 3782 FO
  36   36 3029 3782 FO
  36   36 3208 3782 FO
  36   36 3386 3782 FO
  36   36 3565 3782 FO
  36   36 3743 3782 FO
  36   36 3922 3782 FO
  36   36 4100 3782 FO
  36   36 4279 3782 FO
  36   36 4457 3782 FO
  36   36 4636 3782 FO
  36   36 4814 3782 FO
  36   36 4993 3782 FO
  36   36 5171 3782 FO
  36   36 5350 3782 FO
  36   36 5528 3782 FO
  36   36 5636 3782 FO
gr

c10
12 0 12 0 12 0 12 0 12 0 12 0 12 0 12 0 
12 0 11 0 12 0 12 0 12 0 12 0 12 0 12 0 
12 0 12 0 12 0 11 0 12 0 12 0 12 0 12 0 
12 0 12 0 12 0 12 0 12 0 11 0 12 0 12 0 
12 0 12 0 12 0 12 0 12 0 12 0 12 0 12 0 
11 0 12 0 12 0 12 0 12 0 12 0 12 0 12 0 
12 0 12 0 11 0 12 0 12 0 12 0 12 0 12 0 
12 0 12 0 12 0 12 0 11 0 12 0 12 0 12 0 
12 0 12 0 12 0 12 0 12 0 12 0 11 0 12 0 
12 0 12 0 12 0 12 0 12 0 12 0 12 0 12 0 
11 0 12 0 12 0 12 0 12 0 12 0 12 0 12 0 
12 0 12 0 12 0 11 0 12 0 12 0 12 0 12 0 
12 0 12 0 12 0 12 0 12 0 11 0 12 0 12 0 
12 0 12 0 12 0 12 0 12 0 12 0 12 0 11 0 
12 0 12 0 12 0 12 0 12 0 12 0 12 0 12 0 
12 0 11 0 12 0 12 0 12 0 12 0 12 0 12 0 
12 0 12 0 12 0 12 0 11 0 12 0 12 0 12 0 
12 0 12 0 12 0 12 0 12 219 12 0 11 0 12 0 
12 0 12 0 12 0 12 0 12 0 12 0 12 0 12 0 
11 0 12 0 12 0 12 0 12 0 12 0 12 0 12 0 
12 0 12 0 11 0 12 0 12 0 12 0 12 0 12 0 
12 0 12 0 12 0 12 0 11 0 12 0 12 0 12 0 
12 0 12 0 12 0 12 0 12 0 12 0 12 0 11 0 
12 0 12 0 12 0 12 0 12 0 12 0 12 0 12 0 
12 0 11 0 12 0 12 0 12 0 12 0 12 0 12 0 
12 0 12 0 12 0 11 0 12 0 12 0 12 0 12 0 
12 0 12 0 12 0 12 0 12 0 11 0 12 0 12 0 
12 0 12 0 12 0 12 0 12 0 12 0 12 0 12 0 
11 0 12 0 12 0 12 0 12 0 12 0 12 0 12 0 
12 0 12 0 11 0 12 311 12 0 12 0 12 0 12 0 
12 0 12 0 12 0 12 0 11 0 12 0 12 0 12 0 
12 0 12 0 12 0 12 0 12 0 12 0 11 0 12 0 
12 0 12 0 12 0 12 0 12 0 12 0 12 0 12 0 
12 0 11 0 12 0 12 0 12 0 12 0 12 0 12 0 
12 0 12 0 12 0 11 0 12 0 12 0 12 0 12 0 
12 0 12 0 12 0 12 0 12 0 11 0 12 0 12 0 
12 0 12 0 12 0 12 0 12 0 12 0 12 0 11 0 
12 0 12 0 12 0 2077 3225 300 MP stroke
12 0 12 0 12 0 12 0 12 0 12 0 11 0 12 0 
12 0 12 0 12 0 12 0 12 0 12 0 12 0 12 0 
12 0 11 0 12 0 12 0 12 0 12 0 12 0 12 0 
12 0 12 0 12 0 11 0 12 0 12 0 12 0 12 0 
12 0 12 0 12 0 12 217 12 0 11 0 12 0 12 0 
12 0 12 0 12 0 12 0 12 0 12 0 12 0 11 0 
12 0 12 0 12 0 12 0 12 301 12 0 12 0 12 0 
12 0 12 0 11 0 12 0 12 0 12 0 12 0 12 0 
12 0 12 0 12 0 12 0 11 0 12 0 12 0 12 0 
12 0 12 0 12 0 12 0 12 0 12 0 11 0 12 0 
12 0 12 0 12 0 12 0 12 0 12 0 12 0 12 0 
11 0 12 0 12 0 12 0 12 0 12 0 12 0 12 0 
12 0 12 0 11 1142 899 1565 100 MP stroke
1065 2707 PD
92 0 1019 2707 2 MP stroke
92 0 1019 2707 2 MP stroke
1244 2707 PD
91 0 1198 2707 2 MP stroke
91 0 1198 2707 2 MP stroke
1422 2707 PD
92 0 1376 2707 2 MP stroke
92 0 1376 2707 2 MP stroke
1601 3008 PD
91 0 1555 3008 2 MP stroke
91 0 1555 3008 2 MP stroke
1779 3225 PD
91 0 1734 3225 2 MP stroke
91 0 1734 3225 2 MP stroke
1958 3225 PD
92 0 1912 3225 2 MP stroke
92 0 1912 3225 2 MP stroke
2136 3225 PD
91 0 2091 3225 2 MP stroke
91 0 2091 3225 2 MP stroke
2315 3225 PD
92 0 2269 3225 2 MP stroke
92 0 2269 3225 2 MP stroke
2493 3225 PD
91 0 2448 3225 2 MP stroke
91 0 2448 3225 2 MP stroke
2672 3225 PD
92 0 2626 3225 2 MP stroke
92 0 2626 3225 2 MP stroke
2850 3536 PD
91 0 2805 3536 2 MP stroke
91 0 2805 3536 2 MP stroke
3029 3536 PD
92 0 2983 3536 2 MP stroke
92 0 2983 3536 2 MP stroke
3208 3536 PD
91 0 3162 3536 2 MP stroke
91 0 3162 3536 2 MP stroke
3386 3536 PD
92 0 3340 3536 2 MP stroke
92 0 3340 3536 2 MP stroke
3565 3536 PD
91 0 3519 3536 2 MP stroke
91 0 3519 3536 2 MP stroke
3743 3536 PD
92 0 3697 3536 2 MP stroke
92 0 3697 3536 2 MP stroke
3922 3536 PD
91 0 3876 3536 2 MP stroke
91 0 3876 3536 2 MP stroke
4100 3755 PD
92 0 4054 3755 2 MP stroke
92 0 4054 3755 2 MP stroke
4279 3755 PD
91 0 4233 3755 2 MP stroke
91 0 4233 3755 2 MP stroke
4457 3755 PD
91 0 4412 3755 2 MP stroke
91 0 4412 3755 2 MP stroke
4636 3755 PD
92 0 4590 3755 2 MP stroke
92 0 4590 3755 2 MP stroke
4814 3755 PD
91 0 4769 3755 2 MP stroke
91 0 4769 3755 2 MP stroke
4993 3755 PD
92 0 4947 3755 2 MP stroke
92 0 4947 3755 2 MP stroke
5171 3755 PD
91 0 5126 3755 2 MP stroke
91 0 5126 3755 2 MP stroke
5350 3755 PD
92 0 5304 3755 2 MP stroke
92 0 5304 3755 2 MP stroke
5528 3755 PD
91 0 5483 3755 2 MP stroke
91 0 5483 3755 2 MP stroke
5636 3755 PD
91 0 5590 3755 2 MP stroke
91 0 5590 3755 2 MP stroke
gs 992 2634 4718 1195 rc
1029 2707 mt 1101 2707 L
1065 2671 mt 1065 2743 L
1208 2707 mt 1280 2707 L
1244 2671 mt 1244 2743 L
1386 2707 mt 1458 2707 L
1422 2671 mt 1422 2743 L
1565 3008 mt 1637 3008 L
1601 2972 mt 1601 3044 L
1743 3225 mt 1815 3225 L
1779 3189 mt 1779 3261 L
1922 3225 mt 1994 3225 L
1958 3189 mt 1958 3261 L
2100 3225 mt 2172 3225 L
2136 3189 mt 2136 3261 L
2279 3225 mt 2351 3225 L
2315 3189 mt 2315 3261 L
2457 3225 mt 2529 3225 L
2493 3189 mt 2493 3261 L
2636 3225 mt 2708 3225 L
2672 3189 mt 2672 3261 L
2814 3536 mt 2886 3536 L
2850 3500 mt 2850 3572 L
2993 3536 mt 3065 3536 L
3029 3500 mt 3029 3572 L
3172 3536 mt 3244 3536 L
3208 3500 mt 3208 3572 L
3350 3536 mt 3422 3536 L
3386 3500 mt 3386 3572 L
3529 3536 mt 3601 3536 L
3565 3500 mt 3565 3572 L
3707 3536 mt 3779 3536 L
3743 3500 mt 3743 3572 L
3886 3536 mt 3958 3536 L
3922 3500 mt 3922 3572 L
4064 3755 mt 4136 3755 L
4100 3719 mt 4100 3791 L
4243 3755 mt 4315 3755 L
4279 3719 mt 4279 3791 L
4421 3755 mt 4493 3755 L
4457 3719 mt 4457 3791 L
4600 3755 mt 4672 3755 L
4636 3719 mt 4636 3791 L
4778 3755 mt 4850 3755 L
4814 3719 mt 4814 3791 L
4957 3755 mt 5029 3755 L
4993 3719 mt 4993 3791 L
5135 3755 mt 5207 3755 L
5171 3719 mt 5171 3791 L
5314 3755 mt 5386 3755 L
5350 3719 mt 5350 3791 L
5492 3755 mt 5564 3755 L
5528 3719 mt 5528 3791 L
5600 3755 mt 5672 3755 L
5636 3719 mt 5636 3791 L
1040 2682 mt 1090 2732 L
1090 2682 mt 1040 2732 L
1219 2682 mt 1269 2732 L
1269 2682 mt 1219 2732 L
1397 2682 mt 1447 2732 L
1447 2682 mt 1397 2732 L
1576 2983 mt 1626 3033 L
1626 2983 mt 1576 3033 L
1754 3200 mt 1804 3250 L
1804 3200 mt 1754 3250 L
1933 3200 mt 1983 3250 L
1983 3200 mt 1933 3250 L
2111 3200 mt 2161 3250 L
2161 3200 mt 2111 3250 L
2290 3200 mt 2340 3250 L
2340 3200 mt 2290 3250 L
2468 3200 mt 2518 3250 L
2518 3200 mt 2468 3250 L
2647 3200 mt 2697 3250 L
2697 3200 mt 2647 3250 L
2825 3511 mt 2875 3561 L
2875 3511 mt 2825 3561 L
3004 3511 mt 3054 3561 L
3054 3511 mt 3004 3561 L
3183 3511 mt 3233 3561 L
3233 3511 mt 3183 3561 L
3361 3511 mt 3411 3561 L
3411 3511 mt 3361 3561 L
3540 3511 mt 3590 3561 L
3590 3511 mt 3540 3561 L
3718 3511 mt 3768 3561 L
3768 3511 mt 3718 3561 L
3897 3511 mt 3947 3561 L
3947 3511 mt 3897 3561 L
4075 3730 mt 4125 3780 L
4125 3730 mt 4075 3780 L
4254 3730 mt 4304 3780 L
4304 3730 mt 4254 3780 L
4432 3730 mt 4482 3780 L
4482 3730 mt 4432 3780 L
4611 3730 mt 4661 3780 L
4661 3730 mt 4611 3780 L
4789 3730 mt 4839 3780 L
4839 3730 mt 4789 3780 L
4968 3730 mt 5018 3780 L
5018 3730 mt 4968 3780 L
5146 3730 mt 5196 3780 L
5196 3730 mt 5146 3780 L
5325 3730 mt 5375 3780 L
5375 3730 mt 5325 3780 L
5503 3730 mt 5553 3780 L
5553 3730 mt 5503 3780 L
5611 3730 mt 5661 3780 L
5661 3730 mt 5611 3780 L
gr

c11
12 0 12 0 12 0 12 0 12 0 12 0 12 0 12 0 
12 0 11 0 12 0 12 0 12 0 12 0 12 0 12 0 
12 0 12 0 12 0 11 0 12 0 12 0 12 0 12 0 
12 0 12 0 12 0 12 0 12 0 11 0 12 0 12 0 
12 0 12 0 12 0 12 0 12 0 12 0 12 0 12 0 
11 0 12 0 12 0 12 0 12 0 12 0 12 0 12 0 
12 0 12 0 11 0 12 0 12 0 12 0 12 0 12 0 
12 0 12 0 12 0 12 0 11 0 12 0 12 0 12 0 
12 0 12 0 12 0 12 0 12 0 12 0 11 0 12 0 
12 0 12 0 12 0 12 0 12 0 12 0 12 0 12 0 
11 0 12 0 12 0 12 0 12 0 12 0 12 0 12 0 
12 0 12 0 12 0 11 0 12 0 12 0 12 0 12 0 
12 0 12 0 12 0 12 0 12 0 11 0 12 0 12 0 
12 0 12 0 12 0 12 0 12 0 12 624 12 0 11 0 
12 0 12 0 12 0 12 0 12 0 12 0 12 0 12 0 
12 0 11 0 12 0 12 0 12 0 12 0 12 0 12 0 
12 0 12 0 12 0 12 0 11 0 12 0 12 0 12 0 
12 0 12 0 12 0 12 0 12 0 12 0 11 0 12 0 
12 0 12 0 12 0 12 0 12 0 12 0 12 0 12 0 
11 0 12 0 12 0 12 0 12 0 12 0 12 0 12 0 
12 0 12 0 11 0 12 0 12 0 12 0 12 0 12 0 
12 0 12 0 12 0 12 0 11 0 12 0 12 0 12 0 
12 0 12 0 12 0 12 0 12 0 12 0 12 0 11 0 
12 0 12 0 12 0 12 0 12 0 12 0 12 0 12 0 
12 0 11 0 12 0 12 0 12 0 12 0 12 0 12 155 
12 0 12 0 12 0 11 0 12 0 12 0 12 0 12 0 
12 0 12 0 12 0 12 0 12 0 11 0 12 0 12 0 
12 0 12 0 12 0 12 0 12 0 12 0 12 0 12 0 
11 0 12 0 12 0 12 0 12 0 12 0 12 0 12 0 
12 0 12 0 11 0 12 0 12 0 12 0 12 0 12 0 
12 0 12 0 12 0 12 0 11 0 12 0 12 0 12 0 
12 0 12 0 12 0 12 0 12 231 12 0 11 0 12 0 
12 0 12 0 12 0 12 0 12 0 12 0 12 0 12 0 
12 0 11 0 12 0 12 0 12 0 12 0 12 0 12 0 
12 0 12 0 12 0 11 0 12 0 12 0 12 0 12 0 
12 0 12 0 12 0 12 0 12 0 11 0 12 0 12 0 
12 0 12 0 12 0 12 0 12 0 12 0 12 0 11 0 
12 0 12 0 12 0 2077 3231 300 MP stroke
12 0 12 0 12 0 12 0 12 0 12 0 11 0 12 0 
12 0 12 0 12 0 12 0 12 0 12 0 12 0 12 0 
12 0 11 0 12 0 12 0 12 0 12 0 12 0 12 0 
12 0 12 0 12 0 11 0 12 0 12 0 12 0 12 0 
12 0 12 0 12 0 12 0 12 0 11 0 12 0 12 0 
12 0 12 0 12 0 12 0 12 0 12 0 12 0 11 0 
12 0 12 0 12 0 12 0 12 0 12 0 12 125 12 0 
12 0 12 0 11 0 12 0 12 0 12 0 12 0 12 0 
12 0 12 0 12 0 12 0 11 0 12 0 12 0 12 0 
12 0 12 0 12 0 12 0 12 0 12 0 11 0 12 0 
12 0 12 0 12 0 12 0 12 0 12 0 12 0 12 0 
11 0 12 0 12 0 12 0 12 430 12 0 12 0 12 280 
12 0 12 0 11 608 899 1788 100 MP stroke
1065 3106 PD
92 0 1019 3106 2 MP stroke
92 0 1019 3106 2 MP stroke
1244 3106 PD
91 0 1198 3106 2 MP stroke
91 0 1198 3106 2 MP stroke
1422 3106 PD
92 0 1376 3106 2 MP stroke
92 0 1376 3106 2 MP stroke
1601 3231 PD
91 0 1555 3231 2 MP stroke
91 0 1555 3231 2 MP stroke
1779 3231 PD
91 0 1734 3231 2 MP stroke
91 0 1734 3231 2 MP stroke
1958 3231 PD
92 0 1912 3231 2 MP stroke
92 0 1912 3231 2 MP stroke
2136 3231 PD
91 0 2091 3231 2 MP stroke
91 0 2091 3231 2 MP stroke
2315 3231 PD
92 0 2269 3231 2 MP stroke
92 0 2269 3231 2 MP stroke
2493 3231 PD
91 0 2448 3231 2 MP stroke
91 0 2448 3231 2 MP stroke
2672 3462 PD
92 0 2626 3462 2 MP stroke
92 0 2626 3462 2 MP stroke
2850 3462 PD
91 0 2805 3462 2 MP stroke
91 0 2805 3462 2 MP stroke
3029 3462 PD
92 0 2983 3462 2 MP stroke
92 0 2983 3462 2 MP stroke
3208 3462 PD
91 0 3162 3462 2 MP stroke
91 0 3162 3462 2 MP stroke
3386 3617 PD
92 0 3340 3617 2 MP stroke
92 0 3340 3617 2 MP stroke
3565 3617 PD
91 0 3519 3617 2 MP stroke
91 0 3519 3617 2 MP stroke
3743 3617 PD
92 0 3697 3617 2 MP stroke
92 0 3697 3617 2 MP stroke
3922 3617 PD
91 0 3876 3617 2 MP stroke
91 0 3876 3617 2 MP stroke
4100 3617 PD
92 0 4054 3617 2 MP stroke
92 0 4054 3617 2 MP stroke
4279 3617 PD
91 0 4233 3617 2 MP stroke
91 0 4233 3617 2 MP stroke
4457 4241 PD
91 0 4412 4241 2 MP stroke
91 0 4412 4241 2 MP stroke
4636 4241 PD
92 0 4590 4241 2 MP stroke
92 0 4590 4241 2 MP stroke
4814 4241 PD
91 0 4769 4241 2 MP stroke
91 0 4769 4241 2 MP stroke
4993 4241 PD
92 0 4947 4241 2 MP stroke
92 0 4947 4241 2 MP stroke
5171 4241 PD
91 0 5126 4241 2 MP stroke
91 0 5126 4241 2 MP stroke
5350 4241 PD
92 0 5304 4241 2 MP stroke
92 0 5304 4241 2 MP stroke
5528 4241 PD
91 0 5483 4241 2 MP stroke
91 0 5483 4241 2 MP stroke
5636 4241 PD
91 0 5590 4241 2 MP stroke
91 0 5590 4241 2 MP stroke
gs 992 3033 4718 1282 rc
0 j
36 47 -36 47 -36 -47 36 -47 1065 3153 5 MP
DP
36 47 -36 47 -36 -47 36 -47 1244 3153 5 MP
DP
36 47 -36 47 -36 -47 36 -47 1422 3153 5 MP
DP
36 47 -36 47 -36 -47 36 -47 1601 3278 5 MP
DP
36 47 -36 47 -36 -47 36 -47 1779 3278 5 MP
DP
36 47 -36 47 -36 -47 36 -47 1958 3278 5 MP
DP
36 47 -36 47 -36 -47 36 -47 2136 3278 5 MP
DP
36 47 -36 47 -36 -47 36 -47 2315 3278 5 MP
DP
36 47 -36 47 -36 -47 36 -47 2493 3278 5 MP
DP
36 47 -36 47 -36 -47 36 -47 2672 3509 5 MP
DP
36 47 -36 47 -36 -47 36 -47 2850 3509 5 MP
DP
36 47 -36 47 -36 -47 36 -47 3029 3509 5 MP
DP
36 47 -36 47 -36 -47 36 -47 3208 3509 5 MP
DP
36 47 -36 47 -36 -47 36 -47 3386 3664 5 MP
DP
36 47 -36 47 -36 -47 36 -47 3565 3664 5 MP
DP
36 47 -36 47 -36 -47 36 -47 3743 3664 5 MP
DP
36 47 -36 47 -36 -47 36 -47 3922 3664 5 MP
DP
36 47 -36 47 -36 -47 36 -47 4100 3664 5 MP
DP
36 47 -36 47 -36 -47 36 -47 4279 3664 5 MP
DP
36 47 -36 47 -36 -47 36 -47 4457 4288 5 MP
DP
36 47 -36 47 -36 -47 36 -47 4636 4288 5 MP
DP
36 47 -36 47 -36 -47 36 -47 4814 4288 5 MP
DP
36 47 -36 47 -36 -47 36 -47 4993 4288 5 MP
DP
36 47 -36 47 -36 -47 36 -47 5171 4288 5 MP
DP
36 47 -36 47 -36 -47 36 -47 5350 4288 5 MP
DP
36 47 -36 47 -36 -47 36 -47 5528 4288 5 MP
DP
36 47 -36 47 -36 -47 36 -47 5636 4288 5 MP
DP
gr

c12
12 0 12 0 12 0 12 0 12 0 12 0 12 0 12 0 
12 0 11 0 12 0 12 0 12 0 12 0 12 0 12 0 
12 0 12 0 12 0 11 0 12 0 12 0 12 0 12 0 
12 0 12 0 12 0 12 0 12 0 11 0 12 0 12 0 
12 0 12 0 12 0 12 0 12 0 12 0 12 0 12 0 
11 0 12 0 12 0 12 0 12 0 12 0 12 0 12 0 
12 0 12 0 11 0 12 0 12 0 12 0 12 0 12 0 
12 0 12 0 12 0 12 0 11 0 12 0 12 0 12 0 
12 0 12 0 12 0 12 0 12 0 12 0 11 0 12 0 
12 0 12 0 12 0 12 0 12 0 12 0 12 0 12 0 
11 0 12 0 12 0 12 0 12 0 12 0 12 0 12 0 
12 0 12 0 12 0 11 0 12 0 12 0 12 0 12 0 
12 0 12 0 12 0 12 0 12 0 11 0 12 0 12 0 
12 0 12 0 12 0 12 0 12 0 12 0 12 0 11 0 
12 0 12 0 12 0 12 0 12 0 12 0 12 0 12 0 
12 0 11 0 12 0 12 0 12 0 12 0 12 0 12 0 
12 0 12 0 12 0 12 0 11 0 12 0 12 0 12 0 
12 0 12 0 12 0 12 0 12 0 12 0 11 0 12 0 
12 0 12 0 12 0 12 0 12 0 12 0 12 0 12 0 
11 0 12 0 12 0 12 0 12 0 12 0 12 0 12 0 
12 0 12 0 11 0 12 0 12 0 12 0 12 0 12 0 
12 0 12 0 12 0 12 0 11 0 12 0 12 0 12 0 
12 0 12 0 12 0 12 0 12 0 12 0 12 0 11 0 
12 0 12 0 12 0 12 0 12 0 12 0 12 0 12 0 
12 0 11 0 12 0 12 0 12 0 12 0 12 0 12 0 
12 0 12 0 12 0 11 0 12 0 12 0 12 0 12 0 
12 0 12 0 12 0 12 0 12 0 11 0 12 0 12 0 
12 0 12 0 12 0 12 0 12 0 12 0 12 0 12 0 
11 0 12 0 12 0 12 0 12 0 12 0 12 0 12 0 
12 0 12 42 11 0 12 0 12 0 12 0 12 0 12 0 
12 0 12 0 12 0 12 0 11 0 12 0 12 0 12 0 
12 0 12 0 12 0 12 0 12 0 12 0 11 0 12 0 
12 0 12 0 12 0 12 0 12 0 12 0 12 0 12 0 
12 0 11 0 12 0 12 0 12 0 12 0 12 0 12 0 
12 0 12 0 12 0 11 0 12 0 12 0 12 0 12 0 
12 0 12 0 12 0 12 0 12 0 11 0 12 0 12 0 
12 0 12 0 12 0 12 0 12 0 12 0 12 0 11 0 
12 0 12 0 12 0 2077 3642 300 MP stroke
12 0 12 0 12 0 12 0 12 0 12 0 11 0 12 0 
12 0 12 0 12 0 12 0 12 0 12 0 12 0 12 0 
12 0 11 0 12 0 12 0 12 0 12 0 12 0 12 0 
12 0 12 0 12 0 11 0 12 0 12 0 12 0 12 0 
12 0 12 0 12 0 12 0 12 0 11 0 12 0 12 0 
12 0 12 0 12 243 12 0 12 0 12 0 12 0 11 0 
12 0 12 0 12 0 12 0 12 0 12 0 12 0 12 0 
12 0 12 0 11 0 12 531 12 0 12 228 12 0 12 0 
12 0 12 0 12 0 12 0 11 0 12 0 12 0 12 0 
12 0 12 0 12 0 12 0 12 0 12 0 11 0 12 0 
12 0 12 0 12 0 12 0 12 0 12 0 12 0 12 0 
11 0 12 0 12 0 12 0 12 0 12 0 12 0 12 0 
12 0 12 0 11 1088 899 1552 100 MP stroke
1065 2640 PD
92 0 1019 2640 2 MP stroke
92 0 1019 2640 2 MP stroke
1244 2640 PD
91 0 1198 2640 2 MP stroke
91 0 1198 2640 2 MP stroke
1422 3399 PD
92 0 1376 3399 2 MP stroke
92 0 1376 3399 2 MP stroke
1601 3642 PD
91 0 1555 3642 2 MP stroke
91 0 1555 3642 2 MP stroke
1779 3642 PD
91 0 1734 3642 2 MP stroke
91 0 1734 3642 2 MP stroke
1958 3642 PD
92 0 1912 3642 2 MP stroke
92 0 1912 3642 2 MP stroke
2136 3642 PD
91 0 2091 3642 2 MP stroke
91 0 2091 3642 2 MP stroke
2315 3642 PD
92 0 2269 3642 2 MP stroke
92 0 2269 3642 2 MP stroke
2493 3642 PD
91 0 2448 3642 2 MP stroke
91 0 2448 3642 2 MP stroke
2672 3642 PD
92 0 2626 3642 2 MP stroke
92 0 2626 3642 2 MP stroke
2850 3642 PD
91 0 2805 3642 2 MP stroke
91 0 2805 3642 2 MP stroke
3029 3684 PD
92 0 2983 3684 2 MP stroke
92 0 2983 3684 2 MP stroke
3208 3684 PD
91 0 3162 3684 2 MP stroke
91 0 3162 3684 2 MP stroke
3386 3684 PD
92 0 3340 3684 2 MP stroke
92 0 3340 3684 2 MP stroke
3565 3684 PD
91 0 3519 3684 2 MP stroke
91 0 3519 3684 2 MP stroke
3743 3684 PD
92 0 3697 3684 2 MP stroke
92 0 3697 3684 2 MP stroke
3922 3684 PD
91 0 3876 3684 2 MP stroke
91 0 3876 3684 2 MP stroke
4100 3684 PD
92 0 4054 3684 2 MP stroke
92 0 4054 3684 2 MP stroke
4279 3684 PD
91 0 4233 3684 2 MP stroke
91 0 4233 3684 2 MP stroke
4457 3684 PD
91 0 4412 3684 2 MP stroke
91 0 4412 3684 2 MP stroke
4636 3684 PD
92 0 4590 3684 2 MP stroke
92 0 4590 3684 2 MP stroke
4814 3684 PD
91 0 4769 3684 2 MP stroke
91 0 4769 3684 2 MP stroke
4993 3684 PD
92 0 4947 3684 2 MP stroke
92 0 4947 3684 2 MP stroke
5171 3684 PD
91 0 5126 3684 2 MP stroke
91 0 5126 3684 2 MP stroke
5350 3684 PD
92 0 5304 3684 2 MP stroke
92 0 5304 3684 2 MP stroke
5528 3684 PD
91 0 5483 3684 2 MP stroke
91 0 5483 3684 2 MP stroke
5636 3684 PD
91 0 5590 3684 2 MP stroke
91 0 5590 3684 2 MP stroke
gs 992 2567 4718 1191 rc
0 j
0 -58 -58 0 0 58 58 0 1036 2611 5 MP
DP
0 -58 -58 0 0 58 58 0 1215 2611 5 MP
DP
0 -58 -58 0 0 58 58 0 1393 3370 5 MP
DP
0 -58 -58 0 0 58 58 0 1572 3613 5 MP
DP
0 -58 -58 0 0 58 58 0 1750 3613 5 MP
DP
0 -58 -58 0 0 58 58 0 1929 3613 5 MP
DP
0 -58 -58 0 0 58 58 0 2107 3613 5 MP
DP
0 -58 -58 0 0 58 58 0 2286 3613 5 MP
DP
0 -58 -58 0 0 58 58 0 2464 3613 5 MP
DP
0 -58 -58 0 0 58 58 0 2643 3613 5 MP
DP
0 -58 -58 0 0 58 58 0 2821 3613 5 MP
DP
0 -58 -58 0 0 58 58 0 3000 3655 5 MP
DP
0 -58 -58 0 0 58 58 0 3179 3655 5 MP
DP
0 -58 -58 0 0 58 58 0 3357 3655 5 MP
DP
0 -58 -58 0 0 58 58 0 3536 3655 5 MP
DP
0 -58 -58 0 0 58 58 0 3714 3655 5 MP
DP
0 -58 -58 0 0 58 58 0 3893 3655 5 MP
DP
0 -58 -58 0 0 58 58 0 4071 3655 5 MP
DP
0 -58 -58 0 0 58 58 0 4250 3655 5 MP
DP
0 -58 -58 0 0 58 58 0 4428 3655 5 MP
DP
0 -58 -58 0 0 58 58 0 4607 3655 5 MP
DP
0 -58 -58 0 0 58 58 0 4785 3655 5 MP
DP
0 -58 -58 0 0 58 58 0 4964 3655 5 MP
DP
0 -58 -58 0 0 58 58 0 5142 3655 5 MP
DP
0 -58 -58 0 0 58 58 0 5321 3655 5 MP
DP
0 -58 -58 0 0 58 58 0 5499 3655 5 MP
DP
0 -58 -58 0 0 58 58 0 5607 3655 5 MP
DP
gr

c13
12 0 12 0 12 0 12 0 12 0 12 0 12 0 12 0 
12 0 11 0 12 0 12 0 12 0 12 0 12 0 12 0 
12 0 12 0 12 0 11 0 12 0 12 0 12 0 12 0 
12 0 12 0 12 0 12 0 12 0 11 0 12 0 12 0 
12 0 12 0 12 0 12 0 12 0 12 0 12 0 12 0 
11 0 12 0 12 0 12 0 12 0 12 0 12 0 12 0 
12 0 12 0 11 0 12 0 12 0 12 0 12 0 12 0 
12 0 12 0 12 0 12 0 11 0 12 0 12 0 12 0 
12 0 12 0 12 0 12 0 12 0 12 0 11 0 12 0 
12 0 12 0 12 0 12 0 12 0 12 0 12 0 12 0 
11 0 12 0 12 0 12 0 12 0 12 0 12 0 12 0 
12 0 12 0 12 0 11 0 12 0 12 0 12 0 12 0 
12 0 12 0 12 0 12 0 12 0 11 0 12 21 12 0 
12 0 12 0 12 0 12 0 12 0 12 0 12 0 11 0 
12 0 12 0 12 0 12 0 12 0 12 0 12 0 12 0 
12 0 11 0 12 0 12 0 12 0 12 0 12 0 12 0 
12 0 12 0 12 0 12 0 11 0 12 0 12 0 12 0 
12 0 12 0 12 0 12 0 12 0 12 0 11 0 12 0 
12 0 12 0 12 0 12 0 12 0 12 0 12 0 12 0 
11 0 12 0 12 0 12 0 12 0 12 0 12 0 12 0 
12 0 12 0 11 0 12 0 12 0 12 0 12 0 12 0 
12 0 12 0 12 0 12 0 11 0 12 0 12 0 12 0 
12 0 12 0 12 0 12 0 12 0 12 0 12 0 11 0 
12 0 12 0 12 0 12 0 12 0 12 0 12 0 12 0 
12 0 11 0 12 0 12 0 12 0 12 0 12 0 12 0 
12 0 12 0 12 0 11 0 12 0 12 0 12 0 12 0 
12 0 12 0 12 0 12 0 12 0 11 0 12 0 12 0 
12 0 12 0 12 0 12 0 12 0 12 0 12 0 12 0 
11 0 12 0 12 0 12 0 12 0 12 0 12 0 12 0 
12 0 12 0 11 0 12 0 12 0 12 0 12 0 12 0 
12 4 12 0 12 0 12 136 11 0 12 0 12 0 12 0 
12 0 12 0 12 0 12 0 12 0 12 0 11 0 12 0 
12 0 12 0 12 0 12 0 12 0 12 0 12 0 12 0 
12 0 11 0 12 0 12 0 12 0 12 0 12 0 12 0 
12 0 12 0 12 0 11 0 12 0 12 0 12 0 12 0 
12 0 12 0 12 0 12 0 12 0 11 0 12 0 12 0 
12 0 12 0 12 0 12 0 12 0 12 0 12 0 11 0 
12 0 12 0 12 0 2077 2955 300 MP stroke
12 0 12 0 12 0 12 0 12 0 12 0 11 0 12 0 
12 0 12 0 12 13 12 0 12 0 12 0 12 0 12 0 
12 0 11 0 12 0 12 0 12 0 12 0 12 0 12 0 
12 0 12 0 12 0 11 0 12 0 12 0 12 0 12 0 
12 0 12 0 12 0 12 0 12 0 11 0 12 0 12 0 
12 0 12 0 12 0 12 0 12 0 12 0 12 0 11 0 
12 0 12 0 12 0 12 0 12 0 12 0 12 0 12 0 
12 0 12 0 11 0 12 0 12 0 12 0 12 0 12 0 
12 0 12 0 12 0 12 0 11 0 12 0 12 0 12 0 
12 0 12 0 12 0 12 0 12 0 12 0 11 0 12 0 
12 0 12 0 12 0 12 0 12 0 12 0 12 0 12 745 
11 72 12 0 12 0 12 0 12 0 12 0 12 0 12 0 
12 391 12 183 11 1011 899 540 100 MP stroke
1065 2942 PD
92 0 1019 2942 2 MP stroke
92 0 1019 2942 2 MP stroke
1244 2942 PD
91 0 1198 2942 2 MP stroke
91 0 1198 2942 2 MP stroke
1422 2942 PD
92 0 1376 2942 2 MP stroke
92 0 1376 2942 2 MP stroke
1601 2942 PD
91 0 1555 2942 2 MP stroke
91 0 1555 2942 2 MP stroke
1779 2942 PD
91 0 1734 2942 2 MP stroke
91 0 1734 2942 2 MP stroke
1958 2955 PD
92 0 1912 2955 2 MP stroke
92 0 1912 2955 2 MP stroke
2136 2955 PD
91 0 2091 2955 2 MP stroke
91 0 2091 2955 2 MP stroke
2315 2955 PD
92 0 2269 2955 2 MP stroke
92 0 2269 2955 2 MP stroke
2493 2955 PD
91 0 2448 2955 2 MP stroke
91 0 2448 2955 2 MP stroke
2672 2955 PD
92 0 2626 2955 2 MP stroke
92 0 2626 2955 2 MP stroke
2850 3095 PD
91 0 2805 3095 2 MP stroke
91 0 2805 3095 2 MP stroke
3029 3095 PD
92 0 2983 3095 2 MP stroke
92 0 2983 3095 2 MP stroke
3208 3095 PD
91 0 3162 3095 2 MP stroke
91 0 3162 3095 2 MP stroke
3386 3095 PD
92 0 3340 3095 2 MP stroke
92 0 3340 3095 2 MP stroke
3565 3095 PD
91 0 3519 3095 2 MP stroke
91 0 3519 3095 2 MP stroke
3743 3095 PD
92 0 3697 3095 2 MP stroke
92 0 3697 3095 2 MP stroke
3922 3095 PD
91 0 3876 3095 2 MP stroke
91 0 3876 3095 2 MP stroke
4100 3095 PD
92 0 4054 3095 2 MP stroke
92 0 4054 3095 2 MP stroke
4279 3095 PD
91 0 4233 3095 2 MP stroke
91 0 4233 3095 2 MP stroke
4457 3116 PD
91 0 4412 3116 2 MP stroke
91 0 4412 3116 2 MP stroke
4636 3116 PD
92 0 4590 3116 2 MP stroke
92 0 4590 3116 2 MP stroke
4814 3116 PD
91 0 4769 3116 2 MP stroke
91 0 4769 3116 2 MP stroke
4993 3116 PD
92 0 4947 3116 2 MP stroke
92 0 4947 3116 2 MP stroke
5171 3116 PD
91 0 5126 3116 2 MP stroke
91 0 5126 3116 2 MP stroke
5350 3116 PD
92 0 5304 3116 2 MP stroke
92 0 5304 3116 2 MP stroke
5528 3116 PD
91 0 5483 3116 2 MP stroke
91 0 5483 3116 2 MP stroke
5636 3116 PD
91 0 5590 3116 2 MP stroke
91 0 5590 3116 2 MP stroke
gs 992 2869 4718 321 rc
0 j
-41 71 -41 -71 82 0 1024 2966 4 MP
DP
-41 71 -41 -71 82 0 1203 2966 4 MP
DP
-41 71 -41 -71 82 0 1381 2966 4 MP
DP
-41 71 -41 -71 82 0 1560 2966 4 MP
DP
-41 71 -41 -71 82 0 1738 2966 4 MP
DP
-41 71 -41 -71 82 0 1917 2979 4 MP
DP
-41 71 -41 -71 82 0 2095 2979 4 MP
DP
-41 71 -41 -71 82 0 2274 2979 4 MP
DP
-41 71 -41 -71 82 0 2452 2979 4 MP
DP
-41 71 -41 -71 82 0 2631 2979 4 MP
DP
-41 71 -41 -71 82 0 2809 3119 4 MP
DP
-41 71 -41 -71 82 0 2988 3119 4 MP
DP
-41 71 -41 -71 82 0 3167 3119 4 MP
DP
-41 71 -41 -71 82 0 3345 3119 4 MP
DP
-41 71 -41 -71 82 0 3524 3119 4 MP
DP
-41 71 -41 -71 82 0 3702 3119 4 MP
DP
-41 71 -41 -71 82 0 3881 3119 4 MP
DP
-41 71 -41 -71 82 0 4059 3119 4 MP
DP
-41 71 -41 -71 82 0 4238 3119 4 MP
DP
-41 71 -41 -71 82 0 4416 3140 4 MP
DP
-41 71 -41 -71 82 0 4595 3140 4 MP
DP
-41 71 -41 -71 82 0 4773 3140 4 MP
DP
-41 71 -41 -71 82 0 4952 3140 4 MP
DP
-41 71 -41 -71 82 0 5130 3140 4 MP
DP
-41 71 -41 -71 82 0 5309 3140 4 MP
DP
-41 71 -41 -71 82 0 5487 3140 4 MP
DP
-41 71 -41 -71 82 0 5595 3140 4 MP
DP
gr

0 sg
12 0 12 0 12 0 12 0 12 0 12 0 12 0 12 0 
12 0 11 0 12 0 12 0 12 0 12 0 12 0 12 0 
12 0 12 0 12 0 11 0 12 0 12 0 12 0 12 0 
12 0 12 0 12 0 12 0 12 0 11 0 12 0 12 0 
12 0 12 0 12 0 12 0 12 0 12 0 12 0 12 0 
11 0 12 0 12 0 12 0 12 0 12 0 12 0 12 0 
12 0 12 0 11 0 12 0 12 0 12 0 12 0 12 0 
12 0 12 0 12 0 12 0 11 0 12 0 12 0 12 0 
12 0 12 0 12 0 12 0 12 0 12 0 11 0 12 0 
12 0 12 0 12 0 12 0 12 0 12 0 12 0 12 0 
11 0 12 0 12 0 12 0 12 0 12 0 12 0 12 0 
12 0 12 0 12 0 11 0 12 0 12 0 12 0 12 0 
12 0 12 0 12 0 12 0 12 0 11 0 12 0 12 0 
12 0 12 0 12 0 12 0 12 0 12 0 12 0 11 0 
12 0 12 0 12 0 12 0 12 0 12 0 12 0 12 0 
12 0 11 0 12 0 12 0 12 0 12 0 12 0 12 0 
12 0 12 0 12 0 12 0 11 0 12 0 12 0 12 0 
12 0 12 0 12 0 12 0 12 0 12 0 11 0 12 0 
12 0 12 0 12 0 12 0 12 0 12 0 12 0 12 0 
11 0 12 0 12 0 12 0 12 0 12 0 12 0 12 0 
12 0 12 96 11 0 12 0 12 0 12 0 12 0 12 0 
12 0 12 0 12 0 12 0 11 0 12 0 12 0 12 0 
12 0 12 0 12 0 12 0 12 0 12 0 12 0 11 0 
12 0 12 0 12 0 12 0 12 0 12 0 12 0 12 0 
12 0 11 0 12 0 12 0 12 0 12 0 12 0 12 0 
12 0 12 0 12 0 11 0 12 0 12 0 12 0 12 0 
12 0 12 0 12 0 12 0 12 0 11 0 12 0 12 0 
12 0 12 0 12 0 12 0 12 0 12 0 12 0 12 0 
11 0 12 0 12 0 12 0 12 0 12 0 12 0 12 0 
12 0 12 0 11 0 12 0 12 0 12 0 12 0 12 0 
12 0 12 0 12 0 12 0 11 0 12 0 12 0 12 0 
12 0 12 0 12 0 12 0 12 0 12 0 11 0 12 0 
12 0 12 0 12 0 12 0 12 0 12 0 12 0 12 0 
12 0 11 0 12 0 12 0 12 0 12 0 12 0 12 0 
12 0 12 0 12 0 11 0 12 0 12 0 12 0 12 0 
12 0 12 0 12 0 12 0 12 0 11 0 12 0 12 0 
12 0 12 0 12 0 12 0 12 0 12 0 12 0 11 0 
12 0 12 0 12 0 2077 3535 300 MP stroke
12 0 12 0 12 0 12 0 12 0 12 0 11 0 12 0 
12 0 12 0 12 0 12 0 12 0 12 0 12 0 12 0 
12 0 11 278 12 0 12 0 12 0 12 0 12 0 12 0 
12 0 12 0 12 0 11 0 12 0 12 0 12 0 12 0 
12 0 12 0 12 0 12 119 12 0 11 0 12 0 12 0 
12 0 12 0 12 0 12 0 12 0 12 0 12 0 11 0 
12 0 12 0 12 0 12 0 12 0 12 0 12 0 12 0 
12 0 12 0 11 0 12 0 12 0 12 0 12 0 12 0 
12 0 12 0 12 0 12 0 11 0 12 0 12 0 12 0 
12 194 12 0 12 0 12 0 12 24 12 0 11 0 12 0 
12 0 12 0 12 0 12 0 12 0 12 0 12 0 12 0 
11 0 12 0 12 0 12 560 12 0 12 0 12 0 12 0 
12 0 12 0 11 0 899 2360 100 MP stroke
1065 2920 PD
92 0 1019 2920 2 MP stroke
92 0 1019 2920 2 MP stroke
1244 3138 PD
91 0 1198 3138 2 MP stroke
91 0 1198 3138 2 MP stroke
1422 3138 PD
92 0 1376 3138 2 MP stroke
92 0 1376 3138 2 MP stroke
1601 3138 PD
91 0 1555 3138 2 MP stroke
91 0 1555 3138 2 MP stroke
1779 3257 PD
91 0 1734 3257 2 MP stroke
91 0 1734 3257 2 MP stroke
1958 3535 PD
92 0 1912 3535 2 MP stroke
92 0 1912 3535 2 MP stroke
2136 3535 PD
91 0 2091 3535 2 MP stroke
91 0 2091 3535 2 MP stroke
2315 3535 PD
92 0 2269 3535 2 MP stroke
92 0 2269 3535 2 MP stroke
2493 3535 PD
91 0 2448 3535 2 MP stroke
91 0 2448 3535 2 MP stroke
2672 3535 PD
92 0 2626 3535 2 MP stroke
92 0 2626 3535 2 MP stroke
2850 3535 PD
91 0 2805 3535 2 MP stroke
91 0 2805 3535 2 MP stroke
3029 3535 PD
92 0 2983 3535 2 MP stroke
92 0 2983 3535 2 MP stroke
3208 3535 PD
91 0 3162 3535 2 MP stroke
91 0 3162 3535 2 MP stroke
3386 3535 PD
92 0 3340 3535 2 MP stroke
92 0 3340 3535 2 MP stroke
3565 3535 PD
91 0 3519 3535 2 MP stroke
91 0 3519 3535 2 MP stroke
3743 3631 PD
92 0 3697 3631 2 MP stroke
92 0 3697 3631 2 MP stroke
3922 3631 PD
91 0 3876 3631 2 MP stroke
91 0 3876 3631 2 MP stroke
4100 3631 PD
92 0 4054 3631 2 MP stroke
92 0 4054 3631 2 MP stroke
4279 3631 PD
91 0 4233 3631 2 MP stroke
91 0 4233 3631 2 MP stroke
4457 3631 PD
91 0 4412 3631 2 MP stroke
91 0 4412 3631 2 MP stroke
4636 3631 PD
92 0 4590 3631 2 MP stroke
92 0 4590 3631 2 MP stroke
4814 3631 PD
91 0 4769 3631 2 MP stroke
91 0 4769 3631 2 MP stroke
4993 3631 PD
92 0 4947 3631 2 MP stroke
92 0 4947 3631 2 MP stroke
5171 3631 PD
91 0 5126 3631 2 MP stroke
91 0 5126 3631 2 MP stroke
5350 3631 PD
92 0 5304 3631 2 MP stroke
92 0 5304 3631 2 MP stroke
5528 3631 PD
91 0 5483 3631 2 MP stroke
91 0 5483 3631 2 MP stroke
5636 3631 PD
91 0 5590 3631 2 MP stroke
91 0 5590 3631 2 MP stroke
gs 992 2847 4718 858 rc
1029 2920 mt 1101 2920 L
1065 2884 mt 1065 2956 L
1208 3138 mt 1280 3138 L
1244 3102 mt 1244 3174 L
1386 3138 mt 1458 3138 L
1422 3102 mt 1422 3174 L
1565 3138 mt 1637 3138 L
1601 3102 mt 1601 3174 L
1743 3257 mt 1815 3257 L
1779 3221 mt 1779 3293 L
1922 3535 mt 1994 3535 L
1958 3499 mt 1958 3571 L
2100 3535 mt 2172 3535 L
2136 3499 mt 2136 3571 L
2279 3535 mt 2351 3535 L
2315 3499 mt 2315 3571 L
2457 3535 mt 2529 3535 L
2493 3499 mt 2493 3571 L
2636 3535 mt 2708 3535 L
2672 3499 mt 2672 3571 L
2814 3535 mt 2886 3535 L
2850 3499 mt 2850 3571 L
2993 3535 mt 3065 3535 L
3029 3499 mt 3029 3571 L
3172 3535 mt 3244 3535 L
3208 3499 mt 3208 3571 L
3350 3535 mt 3422 3535 L
3386 3499 mt 3386 3571 L
3529 3535 mt 3601 3535 L
3565 3499 mt 3565 3571 L
3707 3631 mt 3779 3631 L
3743 3595 mt 3743 3667 L
3886 3631 mt 3958 3631 L
3922 3595 mt 3922 3667 L
4064 3631 mt 4136 3631 L
4100 3595 mt 4100 3667 L
4243 3631 mt 4315 3631 L
4279 3595 mt 4279 3667 L
4421 3631 mt 4493 3631 L
4457 3595 mt 4457 3667 L
4600 3631 mt 4672 3631 L
4636 3595 mt 4636 3667 L
4778 3631 mt 4850 3631 L
4814 3595 mt 4814 3667 L
4957 3631 mt 5029 3631 L
4993 3595 mt 4993 3667 L
5135 3631 mt 5207 3631 L
5171 3595 mt 5171 3667 L
5314 3631 mt 5386 3631 L
5350 3595 mt 5350 3667 L
5492 3631 mt 5564 3631 L
5528 3595 mt 5528 3667 L
5600 3631 mt 5672 3631 L
5636 3595 mt 5636 3667 L
gr

gr

1 sg
0 1064 1538 0 0 -1064 4658 1513 4 MP
PP
-1538 0 0 1064 1538 0 0 -1064 4658 1513 5 MP stroke
4 w
DO
SO
6 w
0 sg
4658 1513 mt 6196 1513 L
4658  449 mt 6196  449 L
4658 1513 mt 4658  449 L
6196 1513 mt 6196  449 L
4658 1513 mt 6196 1513 L
4658 1513 mt 4658  449 L
4658 1513 mt 6196 1513 L
4658  449 mt 6196  449 L
4658 1513 mt 4658  449 L
6196 1513 mt 6196  449 L
5125  580 mt 
(original BO) s
gs 4658 449 1539 1065 rc
gs 4836 465 147 147 rc
0 j
41 71 -82 0 41 -71 4909 585 4 MP
c8
DP
gr

c8
gr

c8
0 sg
5125  728 mt 
(random embedding) s
gs 4658 449 1539 1065 rc
gs 4836 612 147 147 rc
c9
  36   36 4909  685 FO
gr

c9
gr

c9
0 sg
5125  876 mt 
(subpsace learning) s
gs 4658 449 1539 1065 rc
gs 4836 760 147 147 rc
c10
4873  833 mt 4945  833 L
4909  797 mt 4909  869 L
4884  808 mt 4934  858 L
4934  808 mt 4884  858 L
gr

c10
gr

c10
0 sg
5125 1024 mt 
(additive model) s
gs 4658 449 1539 1065 rc
gs 4836 908 147 147 rc
0 j
36 47 -36 47 -36 -47 36 -47 4909 1028 5 MP
c11
DP
gr

c11
gr

c11
0 sg
5125 1171 mt 
(anova ve) s
gs 4658 449 1539 1065 rc
gs 4836 1055 147 147 rc
0 j
0 -58 -58 0 0 58 58 0 4880 1099 5 MP
c12
DP
gr

c12
gr

c12
0 sg
5125 1319 mt 
(genetic algorithm) s
gs 4658 449 1539 1065 rc
gs 4836 1203 147 147 rc
0 j
-41 71 -41 -71 82 0 4868 1300 4 MP
c13
DP
gr

c13
gr

c13
0 sg
5125 1467 mt 
(random selection) s
gs 4658 449 1539 1065 rc
gs 4836 1350 147 147 rc
4873 1423 mt 4945 1423 L
4909 1387 mt 4909 1459 L
gr

gr


end %%Color Dict

eplot
%%EndObject

epage
end

showpage

%%Trailer
%%EOF
