%!PS-Adobe-3.0 EPSF-3.0
%%Creator: MATLAB, The MathWorks, Inc. Version 7.12.0.635 (R2011a). Operating System: Linux 3.16.0-4-amd64 #1 SMP Debian 3.16.7-ckt20-1+deb8u3 (2016-01-17) x86_64.
%%Title: /home/jaemin/Research/codes_MATSIM/HIGHDIM_BO_plot/results/MATSIM_score/MATSIM_score_avr_cumulative_regret.eps
%%CreationDate: 10/08/2016  13:55:24
%%DocumentNeededFonts: Helvetica
%%DocumentProcessColors: Cyan Magenta Yellow Black
%%LanguageLevel: 2
%%Pages: 1
%%BoundingBox:    47   199   551   591
%%EndComments

%%BeginProlog
% MathWorks dictionary
/MathWorks 160 dict begin
% definition operators
/bdef {bind def} bind def
/ldef {load def} bind def
/xdef {exch def} bdef
/xstore {exch store} bdef
% operator abbreviations
/c  /clip ldef
/cc /concat ldef
/cp /closepath ldef
/gr /grestore ldef
/gs /gsave ldef
/mt /moveto ldef
/np /newpath ldef
/cm /currentmatrix ldef
/sm /setmatrix ldef
/rm /rmoveto ldef
/rl /rlineto ldef
/s {show newpath} bdef
/sc {setcmykcolor} bdef
/sr /setrgbcolor ldef
/sg /setgray ldef
/w /setlinewidth ldef
/j /setlinejoin ldef
/cap /setlinecap ldef
/rc {rectclip} bdef
/rf {rectfill} bdef
% page state control
/pgsv () def
/bpage {/pgsv save def} bdef
/epage {pgsv restore} bdef
/bplot /gsave ldef
/eplot {stroke grestore} bdef
% orientation switch
/portraitMode 0 def /landscapeMode 1 def /rotateMode 2 def
% coordinate system mappings
/dpi2point 0 def
% font control
/FontSize 0 def
/FMS {/FontSize xstore findfont [FontSize 0 0 FontSize neg 0 0]
  makefont setfont} bdef
/reencode {exch dup where {pop load} {pop StandardEncoding} ifelse
  exch dup 3 1 roll findfont dup length dict begin
  { 1 index /FID ne {def}{pop pop} ifelse } forall
  /Encoding exch def currentdict end definefont pop} bdef
/isroman {findfont /CharStrings get /Agrave known} bdef
/FMSR {3 1 roll 1 index dup isroman {reencode} {pop pop} ifelse
  exch FMS} bdef
/csm {1 dpi2point div -1 dpi2point div scale neg translate
 dup landscapeMode eq {pop -90 rotate}
  {rotateMode eq {90 rotate} if} ifelse} bdef
% line types: solid, dotted, dashed, dotdash
/SO { [] 0 setdash } bdef
/DO { [.5 dpi2point mul 4 dpi2point mul] 0 setdash } bdef
/DA { [6 dpi2point mul] 0 setdash } bdef
/DD { [.5 dpi2point mul 4 dpi2point mul 6 dpi2point mul 4
  dpi2point mul] 0 setdash } bdef
% macros for lines and objects
/L {lineto stroke} bdef
/MP {3 1 roll moveto 1 sub {rlineto} repeat} bdef
/AP {{rlineto} repeat} bdef
/PDlw -1 def
/W {/PDlw currentlinewidth def setlinewidth} def
/PP {closepath eofill} bdef
/DP {closepath stroke} bdef
/MR {4 -2 roll moveto dup  0 exch rlineto exch 0 rlineto
  neg 0 exch rlineto closepath} bdef
/FR {MR stroke} bdef
/PR {MR fill} bdef
/L1i {{currentfile picstr readhexstring pop} image} bdef
/tMatrix matrix def
/MakeOval {newpath tMatrix currentmatrix pop translate scale
0 0 1 0 360 arc tMatrix setmatrix} bdef
/FO {MakeOval stroke} bdef
/PO {MakeOval fill} bdef
/PD {currentlinewidth 2 div 0 360 arc fill
   PDlw -1 eq not {PDlw w /PDlw -1 def} if} def
/FA {newpath tMatrix currentmatrix pop translate scale
  0 0 1 5 -2 roll arc tMatrix setmatrix stroke} bdef
/PA {newpath tMatrix currentmatrix pop	translate 0 0 moveto scale
  0 0 1 5 -2 roll arc closepath tMatrix setmatrix fill} bdef
/FAn {newpath tMatrix currentmatrix pop translate scale
  0 0 1 5 -2 roll arcn tMatrix setmatrix stroke} bdef
/PAn {newpath tMatrix currentmatrix pop translate 0 0 moveto scale
  0 0 1 5 -2 roll arcn closepath tMatrix setmatrix fill} bdef
/vradius 0 def /hradius 0 def /lry 0 def
/lrx 0 def /uly 0 def /ulx 0 def /rad 0 def
/MRR {/vradius xdef /hradius xdef /lry xdef /lrx xdef /uly xdef
  /ulx xdef newpath tMatrix currentmatrix pop ulx hradius add uly
  vradius add translate hradius vradius scale 0 0 1 180 270 arc 
  tMatrix setmatrix lrx hradius sub uly vradius add translate
  hradius vradius scale 0 0 1 270 360 arc tMatrix setmatrix
  lrx hradius sub lry vradius sub translate hradius vradius scale
  0 0 1 0 90 arc tMatrix setmatrix ulx hradius add lry vradius sub
  translate hradius vradius scale 0 0 1 90 180 arc tMatrix setmatrix
  closepath} bdef
/FRR {MRR stroke } bdef
/PRR {MRR fill } bdef
/MlrRR {/lry xdef /lrx xdef /uly xdef /ulx xdef /rad lry uly sub 2 div def
  newpath tMatrix currentmatrix pop ulx rad add uly rad add translate
  rad rad scale 0 0 1 90 270 arc tMatrix setmatrix lrx rad sub lry rad
  sub translate rad rad scale 0 0 1 270 90 arc tMatrix setmatrix
  closepath} bdef
/FlrRR {MlrRR stroke } bdef
/PlrRR {MlrRR fill } bdef
/MtbRR {/lry xdef /lrx xdef /uly xdef /ulx xdef /rad lrx ulx sub 2 div def
  newpath tMatrix currentmatrix pop ulx rad add uly rad add translate
  rad rad scale 0 0 1 180 360 arc tMatrix setmatrix lrx rad sub lry rad
  sub translate rad rad scale 0 0 1 0 180 arc tMatrix setmatrix
  closepath} bdef
/FtbRR {MtbRR stroke } bdef
/PtbRR {MtbRR fill } bdef
/stri 6 array def /dtri 6 array def
/smat 6 array def /dmat 6 array def
/tmat1 6 array def /tmat2 6 array def /dif 3 array def
/asub {/ind2 exch def /ind1 exch def dup dup
  ind1 get exch ind2 get sub exch } bdef
/tri_to_matrix {
  2 0 asub 3 1 asub 4 0 asub 5 1 asub
  dup 0 get exch 1 get 7 -1 roll astore } bdef
/compute_transform {
  dmat dtri tri_to_matrix tmat1 invertmatrix 
  smat stri tri_to_matrix tmat2 concatmatrix } bdef
/ds {stri astore pop} bdef
/dt {dtri astore pop} bdef
/db {2 copy /cols xdef /rows xdef mul dup 3 mul string
  currentfile 
  3 index 0 eq {/ASCIIHexDecode filter}
  {/ASCII85Decode filter 3 index 2 eq {/RunLengthDecode filter} if }
  ifelse exch readstring pop
  dup 0 3 index getinterval /rbmap xdef
  dup 2 index dup getinterval /gbmap xdef
  1 index dup 2 mul exch getinterval /bbmap xdef pop pop}bdef
/it {gs np dtri aload pop moveto lineto lineto cp c
  cols rows 8 compute_transform 
  rbmap gbmap bbmap true 3 colorimage gr}bdef
/il {newpath moveto lineto stroke}bdef
currentdict end def
%%EndProlog

%%BeginSetup
MathWorks begin

0 cap

end
%%EndSetup

%%Page: 1 1
%%BeginPageSetup
%%PageBoundingBox:    47   199   551   591
MathWorks begin
bpage
%%EndPageSetup

%%BeginObject: obj1
bplot

/dpi2point 12 def
portraitMode 0216 7344 csm

  359   247  6045  4708 rc
88 dict begin %Colortable dictionary
/c0 { 0.000000 0.000000 0.000000 sr} bdef
/c1 { 1.000000 1.000000 1.000000 sr} bdef
/c2 { 0.900000 0.000000 0.000000 sr} bdef
/c3 { 0.000000 0.820000 0.000000 sr} bdef
/c4 { 0.000000 0.000000 0.800000 sr} bdef
/c5 { 0.910000 0.820000 0.320000 sr} bdef
/c6 { 1.000000 0.260000 0.820000 sr} bdef
/c7 { 0.000000 0.820000 0.820000 sr} bdef
c0
1 j
1 sg
   0    0 6913 5186 rf
6 w
0 4226 5356 0 0 -4226 899 4615 4 MP
PP
-5356 0 0 4226 5356 0 0 -4226 899 4615 5 MP stroke
4 w
DO
SO
6 w
0 sg
 899 4615 mt 6255 4615 L
 899  389 mt 6255  389 L
 899 4615 mt  899  389 L
6255 4615 mt 6255  389 L
 899 4615 mt 6255 4615 L
 899 4615 mt  899  389 L
 899 4615 mt  899 4561 L
 899  389 mt  899  442 L
%%IncludeResource: font Helvetica
/Helvetica /ISOLatin1Encoding 120 FMSR

 866 4760 mt 
(0) s
1664 4615 mt 1664 4561 L
1664  389 mt 1664  442 L
1598 4760 mt 
(50) s
2429 4615 mt 2429 4561 L
2429  389 mt 2429  442 L
2329 4760 mt 
(100) s
3194 4615 mt 3194 4561 L
3194  389 mt 3194  442 L
3094 4760 mt 
(150) s
3959 4615 mt 3959 4561 L
3959  389 mt 3959  442 L
3859 4760 mt 
(200) s
4724 4615 mt 4724 4561 L
4724  389 mt 4724  442 L
4624 4760 mt 
(250) s
5489 4615 mt 5489 4561 L
5489  389 mt 5489  442 L
5389 4760 mt 
(300) s
6255 4615 mt 6255 4561 L
6255  389 mt 6255  442 L
6155 4760 mt 
(350) s
 899 4615 mt  952 4615 L
6255 4615 mt 6201 4615 L
 731 4659 mt 
(37) s
 899 4011 mt  952 4011 L
6255 4011 mt 6201 4011 L
 631 4055 mt 
(37.5) s
 899 3407 mt  952 3407 L
6255 3407 mt 6201 3407 L
 731 3451 mt 
(38) s
 899 2803 mt  952 2803 L
6255 2803 mt 6201 2803 L
 631 2847 mt 
(38.5) s
 899 2200 mt  952 2200 L
6255 2200 mt 6201 2200 L
 731 2244 mt 
(39) s
 899 1596 mt  952 1596 L
6255 1596 mt 6201 1596 L
 631 1640 mt 
(39.5) s
 899  992 mt  952  992 L
6255  992 mt 6201  992 L
 731 1036 mt 
(40) s
 899  389 mt  952  389 L
6255  389 mt 6201  389 L
 631  433 mt 
(40.5) s
 899 4615 mt 6255 4615 L
 899  389 mt 6255  389 L
 899 4615 mt  899  389 L
6255 4615 mt 6255  389 L
gs 899 389 5357 4227 rc
gs 1040 1349 4508 221 rc
0 j
41 71 -82 0 41 -71 1113 1477 4 MP
/c8 { 0.000000 1.000000 0.000000 sr} bdef
c8
DP
41 71 -82 0 41 -71 1342 1500 4 MP
DP
41 71 -82 0 41 -71 1572 1494 4 MP
DP
41 71 -82 0 41 -71 1801 1469 4 MP
DP
41 71 -82 0 41 -71 2031 1481 4 MP
DP
41 71 -82 0 41 -71 2260 1484 4 MP
DP
41 71 -82 0 41 -71 2490 1497 4 MP
DP
41 71 -82 0 41 -71 2720 1533 4 MP
DP
41 71 -82 0 41 -71 2949 1538 4 MP
DP
41 71 -82 0 41 -71 3179 1543 4 MP
DP
41 71 -82 0 41 -71 3408 1514 4 MP
DP
41 71 -82 0 41 -71 3638 1515 4 MP
DP
41 71 -82 0 41 -71 3867 1514 4 MP
DP
41 71 -82 0 41 -71 4097 1517 4 MP
DP
41 71 -82 0 41 -71 4326 1521 4 MP
DP
41 71 -82 0 41 -71 4556 1515 4 MP
DP
41 71 -82 0 41 -71 4785 1503 4 MP
DP
41 71 -82 0 41 -71 5015 1500 4 MP
DP
41 71 -82 0 41 -71 5245 1507 4 MP
DP
41 71 -82 0 41 -71 5474 1507 4 MP
DP
gr

c8
gs 1040 2242 4508 226 rc
/c9 { 0.000000 1.000000 1.000000 sr} bdef
c9
  36   36 1113 2315 FO
  36   36 1342 2358 FO
  36   36 1572 2372 FO
  36   36 1801 2378 FO
  36   36 2031 2382 FO
  36   36 2260 2385 FO
  36   36 2490 2387 FO
  36   36 2720 2388 FO
  36   36 2949 2389 FO
  36   36 3179 2390 FO
  36   36 3408 2391 FO
  36   36 3638 2391 FO
  36   36 3867 2392 FO
  36   36 4097 2392 FO
  36   36 4326 2393 FO
  36   36 4556 2393 FO
  36   36 4785 2393 FO
  36   36 5015 2394 FO
  36   36 5245 2394 FO
  36   36 5474 2394 FO
gr

c9
gs 1040 1759 4508 424 rc
/c10 { 0.000000 0.000000 1.000000 sr} bdef
c10
1077 1832 mt 1149 1832 L
1113 1796 mt 1113 1868 L
1306 1970 mt 1378 1970 L
1342 1934 mt 1342 2006 L
1536 2019 mt 1608 2019 L
1572 1983 mt 1572 2055 L
1765 2046 mt 1837 2046 L
1801 2010 mt 1801 2082 L
1995 2062 mt 2067 2062 L
2031 2026 mt 2031 2098 L
2224 2072 mt 2296 2072 L
2260 2036 mt 2260 2108 L
2454 2080 mt 2526 2080 L
2490 2044 mt 2490 2116 L
2684 2086 mt 2756 2086 L
2720 2050 mt 2720 2122 L
2913 2090 mt 2985 2090 L
2949 2054 mt 2949 2126 L
3143 2093 mt 3215 2093 L
3179 2057 mt 3179 2129 L
3372 2096 mt 3444 2096 L
3408 2060 mt 3408 2132 L
3602 2099 mt 3674 2099 L
3638 2063 mt 3638 2135 L
3831 2101 mt 3903 2101 L
3867 2065 mt 3867 2137 L
4061 2102 mt 4133 2102 L
4097 2066 mt 4097 2138 L
4290 2104 mt 4362 2104 L
4326 2068 mt 4326 2140 L
4520 2105 mt 4592 2105 L
4556 2069 mt 4556 2141 L
4749 2106 mt 4821 2106 L
4785 2070 mt 4785 2142 L
4979 2107 mt 5051 2107 L
5015 2071 mt 5015 2143 L
5209 2108 mt 5281 2108 L
5245 2072 mt 5245 2144 L
5438 2109 mt 5510 2109 L
5474 2073 mt 5474 2145 L
1088 1807 mt 1138 1857 L
1138 1807 mt 1088 1857 L
1317 1945 mt 1367 1995 L
1367 1945 mt 1317 1995 L
1547 1994 mt 1597 2044 L
1597 1994 mt 1547 2044 L
1776 2021 mt 1826 2071 L
1826 2021 mt 1776 2071 L
2006 2037 mt 2056 2087 L
2056 2037 mt 2006 2087 L
2235 2047 mt 2285 2097 L
2285 2047 mt 2235 2097 L
2465 2055 mt 2515 2105 L
2515 2055 mt 2465 2105 L
2695 2061 mt 2745 2111 L
2745 2061 mt 2695 2111 L
2924 2065 mt 2974 2115 L
2974 2065 mt 2924 2115 L
3154 2068 mt 3204 2118 L
3204 2068 mt 3154 2118 L
3383 2071 mt 3433 2121 L
3433 2071 mt 3383 2121 L
3613 2074 mt 3663 2124 L
3663 2074 mt 3613 2124 L
3842 2076 mt 3892 2126 L
3892 2076 mt 3842 2126 L
4072 2077 mt 4122 2127 L
4122 2077 mt 4072 2127 L
4301 2079 mt 4351 2129 L
4351 2079 mt 4301 2129 L
4531 2080 mt 4581 2130 L
4581 2080 mt 4531 2130 L
4760 2081 mt 4810 2131 L
4810 2081 mt 4760 2131 L
4990 2082 mt 5040 2132 L
5040 2082 mt 4990 2132 L
5220 2083 mt 5270 2133 L
5270 2083 mt 5220 2133 L
5449 2084 mt 5499 2134 L
5499 2084 mt 5449 2134 L
gr

c10
gs 1040 3689 4508 718 rc
0 j
36 47 -36 47 -36 -47 36 -47 1113 3809 5 MP
/c11 { 1.000000 0.000000 1.000000 sr} bdef
c11
DP
36 47 -36 47 -36 -47 36 -47 1342 4013 5 MP
DP
36 47 -36 47 -36 -47 36 -47 1572 4078 5 MP
DP
36 47 -36 47 -36 -47 36 -47 1801 4091 5 MP
DP
36 47 -36 47 -36 -47 36 -47 2031 4158 5 MP
DP
36 47 -36 47 -36 -47 36 -47 2260 4211 5 MP
DP
36 47 -36 47 -36 -47 36 -47 2490 4223 5 MP
DP
36 47 -36 47 -36 -47 36 -47 2720 4231 5 MP
DP
36 47 -36 47 -36 -47 36 -47 2949 4259 5 MP
DP
36 47 -36 47 -36 -47 36 -47 3179 4281 5 MP
DP
36 47 -36 47 -36 -47 36 -47 3408 4299 5 MP
DP
36 47 -36 47 -36 -47 36 -47 3638 4314 5 MP
DP
36 47 -36 47 -36 -47 36 -47 3867 4326 5 MP
DP
36 47 -36 47 -36 -47 36 -47 4097 4337 5 MP
DP
36 47 -36 47 -36 -47 36 -47 4326 4347 5 MP
DP
36 47 -36 47 -36 -47 36 -47 4556 4355 5 MP
DP
36 47 -36 47 -36 -47 36 -47 4785 4362 5 MP
DP
36 47 -36 47 -36 -47 36 -47 5015 4369 5 MP
DP
36 47 -36 47 -36 -47 36 -47 5245 4374 5 MP
DP
36 47 -36 47 -36 -47 36 -47 5474 4380 5 MP
DP
gr

c11
gs 1040 4050 4508 457 rc
0 j
0 -58 -58 0 0 58 58 0 1084 4094 5 MP
/c12 { 1.000000 0.000000 0.000000 sr} bdef
c12
DP
0 -58 -58 0 0 58 58 0 1313 4213 5 MP
DP
0 -58 -58 0 0 58 58 0 1543 4297 5 MP
DP
0 -58 -58 0 0 58 58 0 1772 4343 5 MP
DP
0 -58 -58 0 0 58 58 0 2002 4387 5 MP
DP
0 -58 -58 0 0 58 58 0 2231 4404 5 MP
DP
0 -58 -58 0 0 58 58 0 2461 4389 5 MP
DP
0 -58 -58 0 0 58 58 0 2691 4396 5 MP
DP
0 -58 -58 0 0 58 58 0 2920 4375 5 MP
DP
0 -58 -58 0 0 58 58 0 3150 4358 5 MP
DP
0 -58 -58 0 0 58 58 0 3379 4350 5 MP
DP
0 -58 -58 0 0 58 58 0 3609 4336 5 MP
DP
0 -58 -58 0 0 58 58 0 3838 4324 5 MP
DP
0 -58 -58 0 0 58 58 0 4068 4316 5 MP
DP
0 -58 -58 0 0 58 58 0 4297 4311 5 MP
DP
0 -58 -58 0 0 58 58 0 4527 4301 5 MP
DP
0 -58 -58 0 0 58 58 0 4756 4295 5 MP
DP
0 -58 -58 0 0 58 58 0 4986 4290 5 MP
DP
0 -58 -58 0 0 58 58 0 5216 4286 5 MP
DP
0 -58 -58 0 0 58 58 0 5445 4281 5 MP
DP
gr

c12
gs 1040 1527 4508 275 rc
0 sg
1077 1600 mt 1149 1600 L
1113 1564 mt 1113 1636 L
1306 1681 mt 1378 1681 L
1342 1645 mt 1342 1717 L
1536 1700 mt 1608 1700 L
1572 1664 mt 1572 1736 L
1765 1694 mt 1837 1694 L
1801 1658 mt 1801 1730 L
1995 1703 mt 2067 1703 L
2031 1667 mt 2031 1739 L
2224 1728 mt 2296 1728 L
2260 1692 mt 2260 1764 L
2454 1727 mt 2526 1727 L
2490 1691 mt 2490 1763 L
2684 1716 mt 2756 1716 L
2720 1680 mt 2720 1752 L
2913 1713 mt 2985 1713 L
2949 1677 mt 2949 1749 L
3143 1712 mt 3215 1712 L
3179 1676 mt 3179 1748 L
3372 1711 mt 3444 1711 L
3408 1675 mt 3408 1747 L
3602 1703 mt 3674 1703 L
3638 1667 mt 3638 1739 L
3831 1703 mt 3903 1703 L
3867 1667 mt 3867 1739 L
4061 1707 mt 4133 1707 L
4097 1671 mt 4097 1743 L
4290 1705 mt 4362 1705 L
4326 1669 mt 4326 1741 L
4520 1702 mt 4592 1702 L
4556 1666 mt 4556 1738 L
4749 1707 mt 4821 1707 L
4785 1671 mt 4785 1743 L
4979 1707 mt 5051 1707 L
5015 1671 mt 5015 1743 L
5209 1707 mt 5281 1707 L
5245 1671 mt 5245 1743 L
5438 1710 mt 5510 1710 L
5474 1674 mt 5474 1746 L
gr

0 sg
gr

3330 4903 mt 
(Iterations) s
 495 2628 mt  -90 rotate
(R) s
90 rotate
%%IncludeResource: font Helvetica
/Helvetica /ISOLatin1Encoding 96 FMSR

 555 2542 mt  -90 rotate
(T) s
90 rotate
%%IncludeResource: font Helvetica
/Helvetica /ISOLatin1Encoding 120 FMSR

 495 2484 mt  -90 rotate
(/T) s
90 rotate
 882 4658 mt 
( ) s
6239  431 mt 
( ) s
gs 899 389 5357 4227 rc
c8
15 3 16 0 15 -2 15 2 15 0 16 -1 15 1 15 -2 
16 1 15 -2 15 1 16 -1 15 1 15 -1 15 0 16 2 
15 -2 15 0 16 1 15 1 15 -2 16 0 15 1 15 3 
16 1 15 -2 15 2 15 3 16 0 15 -1 15 2 16 -2 
15 2 15 0 16 -1 15 -1 15 -1 15 2 16 1 15 -4 
15 -1 16 -2 15 0 15 0 16 2 15 -2 15 2 15 -3 
16 1 15 0 15 -1 16 -4 15 2 15 -3 16 0 15 -2 
15 1 16 0 15 -1 15 -2 15 0 16 1 15 -5 15 2 
16 -2 15 0 15 1 16 -1 15 1 15 2 15 1 16 0 
15 -1 15 -2 16 -3 15 4 15 1 16 -2 15 2 15 1 
15 0 16 -1 15 -2 15 -1 16 0 15 1 15 -1 16 2 
15 1 15 -1 16 2 15 0 15 -3 15 1 16 1 15 1 
15 2 16 -1 15 -3 15 1 16 1 15 -1 15 0 15 0 
16 2 15 -3 15 3 16 -1 15 2 15 -3 16 2 15 -1 
15 -1 15 0 16 1 15 -2 15 1 16 -1 15 0 15 2 
16 1 15 5 15 1 15 -4 16 2 15 -1 15 0 16 2 
15 -1 15 3 16 -2 15 0 15 -2 16 -1 15 -2 15 -3 
15 -1 16 -1 15 -3 15 -5 16 -2 15 -3 15 -6 16 1 
15 -4 15 -4 15 3 16 -3 15 1 15 1 16 0 15 -1 
15 2 16 -1 15 -1 15 0 15 -1 16 -2 15 -3 15 4 
16 6 15 1 15 4 16 -3 15 0 15 0 16 -3 15 -2 
15 2 15 5 16 0 15 -2 15 0 16 1 15 -2 15 0 
16 -3 15 4 15 -1 15 6 16 3 15 -1 15 7 16 1 
15 -1 15 2 16 7 15 -1 15 7 15 -2 16 3 15 1 
15 4 16 2 15 4 15 5 16 -2 15 4 15 1 16 3 
15 -1 15 -4 15 2 16 -3 15 2 15 -2 16 -5 15 5 
15 4 16 4 15 2 15 -1 15 10 16 8 15 -2 15 -6 
16 -6 15 1 15 0 16 0 15 -4 15 -1 15 -7 16 0 
15 9 15 -2 16 -1 15 4 15 -7 16 5 15 -2 15 -4 
16 -10 15 13 15 13 15 -1 16 11 15 5 15 -10 16 -2 
15 0 15 5 16 -1 15 -3 15 3 15 -6 16 -4 15 -8 
15 4 16 -5 15 0 15 -1 16 -4 15 -7 15 2 15 2 
16 -10 15 6 15 -2 16 0 15 1 15 -2 16 7 15 -2 
15 -2 16 0 15 -4 15 11 15 0 16 -11 15 6 15 3 
16 -22 15 -8 15 7 16 -11 15 0 15 3 15 -6 16 13 
15 9 15 -11 16 -16 15 37 15 19 16 -29 15 2 15 7 
15 -34 16 21 15 -24 15 23 16 30 15 -84 15 61 16 139 
15 73 15 15 15 0 899 1230 300 MP stroke
1113 1430 PD
87 0 1069 1430 2 MP stroke
87 0 1069 1430 2 MP stroke
1342 1453 PD
87 0 1299 1453 2 MP stroke
87 0 1299 1453 2 MP stroke
1572 1447 PD
87 0 1528 1447 2 MP stroke
87 0 1528 1447 2 MP stroke
1801 1422 PD
87 0 1758 1422 2 MP stroke
87 0 1758 1422 2 MP stroke
2031 1434 PD
88 0 1987 1434 2 MP stroke
88 0 1987 1434 2 MP stroke
2260 1437 PD
87 0 2217 1437 2 MP stroke
87 0 2217 1437 2 MP stroke
2490 1450 PD
88 0 2446 1450 2 MP stroke
88 0 2446 1450 2 MP stroke
2720 1486 PD
87 0 2676 1486 2 MP stroke
87 0 2676 1486 2 MP stroke
2949 1491 PD
88 0 2905 1491 2 MP stroke
88 0 2905 1491 2 MP stroke
3179 1496 PD
87 0 3135 1496 2 MP stroke
87 0 3135 1496 2 MP stroke
3408 1467 PD
87 0 3365 1467 2 MP stroke
87 0 3365 1467 2 MP stroke
3638 1468 PD
87 0 3594 1468 2 MP stroke
87 0 3594 1468 2 MP stroke
3867 1467 PD
87 0 3824 1467 2 MP stroke
87 0 3824 1467 2 MP stroke
4097 1470 PD
87 0 4053 1470 2 MP stroke
87 0 4053 1470 2 MP stroke
4326 1474 PD
87 0 4283 1474 2 MP stroke
87 0 4283 1474 2 MP stroke
4556 1468 PD
87 0 4512 1468 2 MP stroke
87 0 4512 1468 2 MP stroke
4785 1456 PD
87 0 4742 1456 2 MP stroke
87 0 4742 1456 2 MP stroke
5015 1453 PD
88 0 4971 1453 2 MP stroke
88 0 4971 1453 2 MP stroke
5245 1460 PD
87 0 5201 1460 2 MP stroke
87 0 5201 1460 2 MP stroke
5474 1460 PD
88 0 5430 1460 2 MP stroke
88 0 5430 1460 2 MP stroke
gs 1040 1349 4508 221 rc
0 j
41 71 -82 0 41 -71 1113 1477 4 MP
DP
41 71 -82 0 41 -71 1342 1500 4 MP
DP
41 71 -82 0 41 -71 1572 1494 4 MP
DP
41 71 -82 0 41 -71 1801 1469 4 MP
DP
41 71 -82 0 41 -71 2031 1481 4 MP
DP
41 71 -82 0 41 -71 2260 1484 4 MP
DP
41 71 -82 0 41 -71 2490 1497 4 MP
DP
41 71 -82 0 41 -71 2720 1533 4 MP
DP
41 71 -82 0 41 -71 2949 1538 4 MP
DP
41 71 -82 0 41 -71 3179 1543 4 MP
DP
41 71 -82 0 41 -71 3408 1514 4 MP
DP
41 71 -82 0 41 -71 3638 1515 4 MP
DP
41 71 -82 0 41 -71 3867 1514 4 MP
DP
41 71 -82 0 41 -71 4097 1517 4 MP
DP
41 71 -82 0 41 -71 4326 1521 4 MP
DP
41 71 -82 0 41 -71 4556 1515 4 MP
DP
41 71 -82 0 41 -71 4785 1503 4 MP
DP
41 71 -82 0 41 -71 5015 1500 4 MP
DP
41 71 -82 0 41 -71 5245 1507 4 MP
DP
41 71 -82 0 41 -71 5474 1507 4 MP
DP
gr

c9
15 0 16 0 15 0 15 0 15 0 16 0 15 0 15 0 
16 0 15 0 15 0 16 0 15 0 15 0 15 0 16 0 
15 0 15 0 16 0 15 0 15 0 16 0 15 0 15 0 
16 0 15 0 15 0 15 0 16 0 15 0 15 0 16 0 
15 0 15 0 16 0 15 0 15 0 15 1 16 0 15 0 
15 0 16 0 15 0 15 0 16 0 15 0 15 0 15 0 
16 0 15 0 15 0 16 0 15 0 15 0 16 0 15 0 
15 0 16 0 15 0 15 0 15 0 16 0 15 0 15 0 
16 0 15 0 15 0 16 0 15 0 15 0 15 0 16 0 
15 0 15 0 16 0 15 0 15 0 16 0 15 0 15 0 
15 0 16 0 15 0 15 0 16 0 15 1 15 0 16 0 
15 0 15 0 16 0 15 0 15 0 15 0 16 0 15 0 
15 0 16 0 15 0 15 0 16 0 15 0 15 0 15 0 
16 0 15 0 15 0 16 0 15 0 15 0 16 0 15 0 
15 0 15 0 16 0 15 0 15 0 16 0 15 1 15 0 
16 0 15 0 15 0 15 0 16 0 15 0 15 0 16 0 
15 0 15 0 16 0 15 0 15 0 16 0 15 0 15 0 
15 0 16 0 15 0 15 0 16 0 15 0 15 0 16 1 
15 0 15 0 15 0 16 0 15 0 15 0 16 0 15 0 
15 0 16 0 15 0 15 0 15 0 16 0 15 0 15 0 
16 0 15 1 15 0 16 0 15 0 15 0 16 0 15 0 
15 0 15 0 16 0 15 0 15 0 16 0 15 0 15 0 
16 1 15 0 15 0 15 0 16 0 15 0 15 0 16 0 
15 0 15 0 16 0 15 1 15 0 15 0 16 0 15 0 
15 0 16 0 15 0 15 0 16 0 15 1 15 0 16 0 
15 0 15 0 15 0 16 0 15 0 15 1 16 0 15 0 
15 0 16 0 15 0 15 0 15 1 16 0 15 0 15 0 
16 0 15 0 15 1 16 0 15 0 15 0 15 0 16 1 
15 0 15 0 16 0 15 0 15 1 16 0 15 0 15 0 
16 1 15 0 15 0 15 0 16 1 15 0 15 0 16 1 
15 0 15 0 16 1 15 0 15 1 15 0 16 0 15 1 
15 0 16 1 15 0 15 1 16 0 15 1 15 0 15 1 
16 1 15 0 15 1 16 1 15 1 15 0 16 1 15 1 
15 1 16 1 15 1 15 1 15 2 16 1 15 1 15 2 
16 2 15 1 15 2 16 2 15 3 15 2 15 3 16 3 
15 3 15 4 16 4 15 5 15 6 16 6 15 8 15 8 
15 11 16 13 15 16 15 21 16 27 15 39 15 58 16 96 
15 -11 15 -375 15 0 899 2398 300 MP stroke
1113 2315 PD
87 0 1069 2315 2 MP stroke
87 0 1069 2315 2 MP stroke
1342 2358 PD
87 0 1299 2358 2 MP stroke
87 0 1299 2358 2 MP stroke
1572 2372 PD
87 0 1528 2372 2 MP stroke
87 0 1528 2372 2 MP stroke
1801 2378 PD
87 0 1758 2378 2 MP stroke
87 0 1758 2378 2 MP stroke
2031 2382 PD
88 0 1987 2382 2 MP stroke
88 0 1987 2382 2 MP stroke
2260 2385 PD
87 0 2217 2385 2 MP stroke
87 0 2217 2385 2 MP stroke
2490 2387 PD
88 0 2446 2387 2 MP stroke
88 0 2446 2387 2 MP stroke
2720 2388 PD
87 0 2676 2388 2 MP stroke
87 0 2676 2388 2 MP stroke
2949 2389 PD
88 0 2905 2389 2 MP stroke
88 0 2905 2389 2 MP stroke
3179 2390 PD
87 0 3135 2390 2 MP stroke
87 0 3135 2390 2 MP stroke
3408 2391 PD
87 0 3365 2391 2 MP stroke
87 0 3365 2391 2 MP stroke
3638 2391 PD
87 0 3594 2391 2 MP stroke
87 0 3594 2391 2 MP stroke
3867 2392 PD
87 0 3824 2392 2 MP stroke
87 0 3824 2392 2 MP stroke
4097 2392 PD
87 0 4053 2392 2 MP stroke
87 0 4053 2392 2 MP stroke
4326 2393 PD
87 0 4283 2393 2 MP stroke
87 0 4283 2393 2 MP stroke
4556 2393 PD
87 0 4512 2393 2 MP stroke
87 0 4512 2393 2 MP stroke
4785 2393 PD
87 0 4742 2393 2 MP stroke
87 0 4742 2393 2 MP stroke
5015 2394 PD
88 0 4971 2394 2 MP stroke
88 0 4971 2394 2 MP stroke
5245 2394 PD
87 0 5201 2394 2 MP stroke
87 0 5201 2394 2 MP stroke
5474 2394 PD
88 0 5430 2394 2 MP stroke
88 0 5430 2394 2 MP stroke
gs 1040 2242 4508 226 rc
  36   36 1113 2315 FO
  36   36 1342 2358 FO
  36   36 1572 2372 FO
  36   36 1801 2378 FO
  36   36 2031 2382 FO
  36   36 2260 2385 FO
  36   36 2490 2387 FO
  36   36 2720 2388 FO
  36   36 2949 2389 FO
  36   36 3179 2390 FO
  36   36 3408 2391 FO
  36   36 3638 2391 FO
  36   36 3867 2392 FO
  36   36 4097 2392 FO
  36   36 4326 2393 FO
  36   36 4556 2393 FO
  36   36 4785 2393 FO
  36   36 5015 2394 FO
  36   36 5245 2394 FO
  36   36 5474 2394 FO
gr

c10
15 0 16 0 15 0 15 0 15 0 16 0 15 0 15 0 
16 0 15 0 15 0 16 1 15 0 15 0 15 0 16 0 
15 0 15 0 16 0 15 0 15 0 16 0 15 0 15 0 
16 0 15 0 15 0 15 0 16 1 15 0 15 0 16 0 
15 0 15 0 16 0 15 0 15 0 15 0 16 0 15 0 
15 0 16 0 15 0 15 1 16 0 15 0 15 0 15 0 
16 0 15 0 15 0 16 0 15 0 15 0 16 0 15 0 
15 1 16 0 15 0 15 0 15 0 16 0 15 0 15 0 
16 0 15 0 15 0 16 0 15 1 15 0 15 0 16 0 
15 0 15 0 16 0 15 0 15 0 16 0 15 0 15 1 
15 0 16 0 15 0 15 0 16 0 15 0 15 0 16 0 
15 0 15 1 16 0 15 0 15 0 15 0 16 0 15 0 
15 0 16 0 15 1 15 0 16 0 15 0 15 0 15 0 
16 0 15 0 15 1 16 0 15 0 15 0 16 0 15 0 
15 0 15 0 16 1 15 0 15 0 16 0 15 0 15 0 
16 0 15 1 15 0 15 0 16 0 15 0 15 0 16 1 
15 0 15 0 16 0 15 0 15 0 16 0 15 1 15 0 
15 0 16 0 15 0 15 1 16 0 15 0 15 0 16 0 
15 1 15 0 15 0 16 0 15 0 15 1 16 0 15 0 
15 0 16 0 15 1 15 0 15 0 16 0 15 1 15 0 
16 0 15 0 15 0 16 1 15 0 15 0 16 1 15 0 
15 0 15 0 16 1 15 0 15 0 16 1 15 0 15 0 
16 0 15 1 15 0 15 0 16 1 15 0 15 0 16 1 
15 0 15 0 16 1 15 0 15 1 15 0 16 0 15 1 
15 0 16 1 15 0 15 0 16 1 15 0 15 1 16 0 
15 1 15 0 15 1 16 0 15 1 15 0 16 1 15 0 
15 1 16 1 15 0 15 1 15 0 16 1 15 1 15 0 
16 1 15 1 15 0 16 1 15 1 15 1 15 0 16 1 
15 1 15 1 16 1 15 1 15 1 16 1 15 1 15 1 
16 1 15 1 15 1 15 1 16 1 15 2 15 1 16 1 
15 1 15 2 16 1 15 2 15 1 15 2 16 2 15 1 
15 2 16 2 15 2 15 2 16 2 15 3 15 2 15 2 
16 3 15 3 15 3 16 -2 15 3 15 3 16 4 15 3 
15 4 16 4 15 4 15 5 15 5 16 5 15 5 15 6 
16 7 15 6 15 8 16 8 15 9 15 10 15 10 16 12 
15 13 15 1 16 19 15 5 15 19 16 23 15 -4 15 24 
15 34 16 7 15 -6 15 -4 16 -43 15 -30 15 55 16 -78 
15 -186 15 85 15 0 899 1955 300 MP stroke
1113 1832 PD
87 0 1069 1832 2 MP stroke
87 0 1069 1832 2 MP stroke
1342 1970 PD
87 0 1299 1970 2 MP stroke
87 0 1299 1970 2 MP stroke
1572 2019 PD
87 0 1528 2019 2 MP stroke
87 0 1528 2019 2 MP stroke
1801 2046 PD
87 0 1758 2046 2 MP stroke
87 0 1758 2046 2 MP stroke
2031 2062 PD
88 0 1987 2062 2 MP stroke
88 0 1987 2062 2 MP stroke
2260 2072 PD
87 0 2217 2072 2 MP stroke
87 0 2217 2072 2 MP stroke
2490 2080 PD
88 0 2446 2080 2 MP stroke
88 0 2446 2080 2 MP stroke
2720 2086 PD
87 0 2676 2086 2 MP stroke
87 0 2676 2086 2 MP stroke
2949 2090 PD
88 0 2905 2090 2 MP stroke
88 0 2905 2090 2 MP stroke
3179 2093 PD
87 0 3135 2093 2 MP stroke
87 0 3135 2093 2 MP stroke
3408 2096 PD
87 0 3365 2096 2 MP stroke
87 0 3365 2096 2 MP stroke
3638 2099 PD
87 0 3594 2099 2 MP stroke
87 0 3594 2099 2 MP stroke
3867 2101 PD
87 0 3824 2101 2 MP stroke
87 0 3824 2101 2 MP stroke
4097 2102 PD
87 0 4053 2102 2 MP stroke
87 0 4053 2102 2 MP stroke
4326 2104 PD
87 0 4283 2104 2 MP stroke
87 0 4283 2104 2 MP stroke
4556 2105 PD
87 0 4512 2105 2 MP stroke
87 0 4512 2105 2 MP stroke
4785 2106 PD
87 0 4742 2106 2 MP stroke
87 0 4742 2106 2 MP stroke
5015 2107 PD
88 0 4971 2107 2 MP stroke
88 0 4971 2107 2 MP stroke
5245 2108 PD
87 0 5201 2108 2 MP stroke
87 0 5201 2108 2 MP stroke
5474 2109 PD
88 0 5430 2109 2 MP stroke
88 0 5430 2109 2 MP stroke
gs 1040 1759 4508 424 rc
1077 1832 mt 1149 1832 L
1113 1796 mt 1113 1868 L
1306 1970 mt 1378 1970 L
1342 1934 mt 1342 2006 L
1536 2019 mt 1608 2019 L
1572 1983 mt 1572 2055 L
1765 2046 mt 1837 2046 L
1801 2010 mt 1801 2082 L
1995 2062 mt 2067 2062 L
2031 2026 mt 2031 2098 L
2224 2072 mt 2296 2072 L
2260 2036 mt 2260 2108 L
2454 2080 mt 2526 2080 L
2490 2044 mt 2490 2116 L
2684 2086 mt 2756 2086 L
2720 2050 mt 2720 2122 L
2913 2090 mt 2985 2090 L
2949 2054 mt 2949 2126 L
3143 2093 mt 3215 2093 L
3179 2057 mt 3179 2129 L
3372 2096 mt 3444 2096 L
3408 2060 mt 3408 2132 L
3602 2099 mt 3674 2099 L
3638 2063 mt 3638 2135 L
3831 2101 mt 3903 2101 L
3867 2065 mt 3867 2137 L
4061 2102 mt 4133 2102 L
4097 2066 mt 4097 2138 L
4290 2104 mt 4362 2104 L
4326 2068 mt 4326 2140 L
4520 2105 mt 4592 2105 L
4556 2069 mt 4556 2141 L
4749 2106 mt 4821 2106 L
4785 2070 mt 4785 2142 L
4979 2107 mt 5051 2107 L
5015 2071 mt 5015 2143 L
5209 2108 mt 5281 2108 L
5245 2072 mt 5245 2144 L
5438 2109 mt 5510 2109 L
5474 2073 mt 5474 2145 L
1088 1807 mt 1138 1857 L
1138 1807 mt 1088 1857 L
1317 1945 mt 1367 1995 L
1367 1945 mt 1317 1995 L
1547 1994 mt 1597 2044 L
1597 1994 mt 1547 2044 L
1776 2021 mt 1826 2071 L
1826 2021 mt 1776 2071 L
2006 2037 mt 2056 2087 L
2056 2037 mt 2006 2087 L
2235 2047 mt 2285 2097 L
2285 2047 mt 2235 2097 L
2465 2055 mt 2515 2105 L
2515 2055 mt 2465 2105 L
2695 2061 mt 2745 2111 L
2745 2061 mt 2695 2111 L
2924 2065 mt 2974 2115 L
2974 2065 mt 2924 2115 L
3154 2068 mt 3204 2118 L
3204 2068 mt 3154 2118 L
3383 2071 mt 3433 2121 L
3433 2071 mt 3383 2121 L
3613 2074 mt 3663 2124 L
3663 2074 mt 3613 2124 L
3842 2076 mt 3892 2126 L
3892 2076 mt 3842 2126 L
4072 2077 mt 4122 2127 L
4122 2077 mt 4072 2127 L
4301 2079 mt 4351 2129 L
4351 2079 mt 4301 2129 L
4531 2080 mt 4581 2130 L
4581 2080 mt 4531 2130 L
4760 2081 mt 4810 2131 L
4810 2081 mt 4760 2131 L
4990 2082 mt 5040 2132 L
5040 2082 mt 4990 2132 L
5220 2083 mt 5270 2133 L
5270 2083 mt 5220 2133 L
5449 2084 mt 5499 2134 L
5499 2084 mt 5449 2134 L
gr

c11
15 1 16 0 15 0 15 1 15 0 16 0 15 1 15 0 
16 0 15 1 15 0 16 0 15 1 15 0 15 1 16 0 
15 0 15 1 16 0 15 0 15 1 16 0 15 1 15 0 
16 0 15 1 15 0 15 1 16 0 15 0 15 1 16 0 
15 1 15 0 16 0 15 1 15 0 15 1 16 0 15 1 
15 0 16 0 15 1 15 0 16 1 15 0 15 1 15 0 
16 1 15 0 15 1 16 0 15 1 15 0 16 1 15 0 
15 1 16 0 15 1 15 0 15 1 16 0 15 1 15 0 
16 1 15 0 15 1 16 0 15 1 15 0 15 1 16 1 
15 0 15 1 16 0 15 1 15 0 16 1 15 1 15 0 
15 1 16 1 15 0 15 1 16 0 15 1 15 1 16 0 
15 1 15 1 16 0 15 1 15 1 15 0 16 1 15 1 
15 1 16 0 15 1 15 1 16 1 15 0 15 1 15 1 
16 1 15 0 15 1 16 1 15 1 15 1 16 0 15 1 
15 1 15 1 16 1 15 1 15 1 16 1 15 0 15 1 
16 1 15 1 15 1 15 1 16 1 15 1 15 1 16 1 
15 1 15 1 16 1 15 1 15 1 16 1 15 1 15 1 
15 2 16 1 15 1 15 1 16 1 15 1 15 2 16 1 
15 1 15 1 15 1 16 2 15 1 15 1 16 2 15 1 
15 1 16 2 15 1 15 2 15 1 16 1 15 2 15 1 
16 2 15 2 15 1 16 2 15 1 15 2 16 2 15 1 
15 2 15 2 16 2 15 1 15 2 16 2 15 2 15 2 
16 2 15 2 15 2 15 2 16 2 15 0 15 1 16 1 
15 0 15 1 16 -1 15 0 15 2 15 0 16 2 15 1 
15 -1 16 1 15 -1 15 -1 16 -3 15 -5 15 -8 16 2 
15 3 15 2 15 3 16 2 15 3 15 2 16 3 15 3 
15 3 16 3 15 3 15 3 15 3 16 3 15 3 15 4 
16 3 15 3 15 4 16 4 15 4 15 3 15 4 16 4 
15 5 15 4 16 4 15 5 15 5 16 4 15 5 15 5 
16 6 15 5 15 6 15 5 16 4 15 5 15 1 16 3 
15 5 15 3 16 4 15 7 15 2 15 5 16 -17 15 -5 
15 -6 16 2 15 2 15 3 16 2 15 3 15 3 15 3 
16 3 15 3 15 4 16 3 15 4 15 4 16 4 15 4 
15 5 16 5 15 5 15 6 15 6 16 6 15 7 15 7 
16 8 15 8 15 10 16 10 15 11 15 12 15 13 16 14 
15 16 15 18 16 21 15 23 15 26 16 31 15 35 15 42 
15 16 16 38 15 42 15 53 16 23 15 57 15 -90 16 -5 
15 -136 15 -378 15 0 899 4034 300 MP stroke
1113 3762 PD
87 0 1069 3762 2 MP stroke
87 0 1069 3762 2 MP stroke
1342 3966 PD
87 0 1299 3966 2 MP stroke
87 0 1299 3966 2 MP stroke
1572 4031 PD
87 0 1528 4031 2 MP stroke
87 0 1528 4031 2 MP stroke
1801 4044 PD
87 0 1758 4044 2 MP stroke
87 0 1758 4044 2 MP stroke
2031 4111 PD
88 0 1987 4111 2 MP stroke
88 0 1987 4111 2 MP stroke
2260 4164 PD
87 0 2217 4164 2 MP stroke
87 0 2217 4164 2 MP stroke
2490 4176 PD
88 0 2446 4176 2 MP stroke
88 0 2446 4176 2 MP stroke
2720 4184 PD
87 0 2676 4184 2 MP stroke
87 0 2676 4184 2 MP stroke
2949 4212 PD
88 0 2905 4212 2 MP stroke
88 0 2905 4212 2 MP stroke
3179 4234 PD
87 0 3135 4234 2 MP stroke
87 0 3135 4234 2 MP stroke
3408 4252 PD
87 0 3365 4252 2 MP stroke
87 0 3365 4252 2 MP stroke
3638 4267 PD
87 0 3594 4267 2 MP stroke
87 0 3594 4267 2 MP stroke
3867 4279 PD
87 0 3824 4279 2 MP stroke
87 0 3824 4279 2 MP stroke
4097 4290 PD
87 0 4053 4290 2 MP stroke
87 0 4053 4290 2 MP stroke
4326 4300 PD
87 0 4283 4300 2 MP stroke
87 0 4283 4300 2 MP stroke
4556 4308 PD
87 0 4512 4308 2 MP stroke
87 0 4512 4308 2 MP stroke
4785 4315 PD
87 0 4742 4315 2 MP stroke
87 0 4742 4315 2 MP stroke
5015 4322 PD
88 0 4971 4322 2 MP stroke
88 0 4971 4322 2 MP stroke
5245 4327 PD
87 0 5201 4327 2 MP stroke
87 0 5201 4327 2 MP stroke
5474 4333 PD
88 0 5430 4333 2 MP stroke
88 0 5430 4333 2 MP stroke
gs 1040 3689 4508 718 rc
0 j
36 47 -36 47 -36 -47 36 -47 1113 3809 5 MP
DP
36 47 -36 47 -36 -47 36 -47 1342 4013 5 MP
DP
36 47 -36 47 -36 -47 36 -47 1572 4078 5 MP
DP
36 47 -36 47 -36 -47 36 -47 1801 4091 5 MP
DP
36 47 -36 47 -36 -47 36 -47 2031 4158 5 MP
DP
36 47 -36 47 -36 -47 36 -47 2260 4211 5 MP
DP
36 47 -36 47 -36 -47 36 -47 2490 4223 5 MP
DP
36 47 -36 47 -36 -47 36 -47 2720 4231 5 MP
DP
36 47 -36 47 -36 -47 36 -47 2949 4259 5 MP
DP
36 47 -36 47 -36 -47 36 -47 3179 4281 5 MP
DP
36 47 -36 47 -36 -47 36 -47 3408 4299 5 MP
DP
36 47 -36 47 -36 -47 36 -47 3638 4314 5 MP
DP
36 47 -36 47 -36 -47 36 -47 3867 4326 5 MP
DP
36 47 -36 47 -36 -47 36 -47 4097 4337 5 MP
DP
36 47 -36 47 -36 -47 36 -47 4326 4347 5 MP
DP
36 47 -36 47 -36 -47 36 -47 4556 4355 5 MP
DP
36 47 -36 47 -36 -47 36 -47 4785 4362 5 MP
DP
36 47 -36 47 -36 -47 36 -47 5015 4369 5 MP
DP
36 47 -36 47 -36 -47 36 -47 5245 4374 5 MP
DP
36 47 -36 47 -36 -47 36 -47 5474 4380 5 MP
DP
gr

c12
15 0 16 -1 15 0 15 -1 15 0 16 0 15 -1 15 0 
16 1 15 -1 15 0 16 -1 15 0 15 0 15 -1 16 0 
15 0 15 0 16 0 15 -1 15 0 16 -1 15 0 15 0 
16 -1 15 0 15 0 15 0 16 0 15 -1 15 0 16 0 
15 0 15 -1 16 1 15 0 15 0 15 1 16 -1 15 -1 
15 0 16 -2 15 0 15 0 16 -2 15 0 15 0 15 0 
16 0 15 0 15 -1 16 0 15 -1 15 -1 16 0 15 -1 
15 0 16 0 15 -1 15 -1 15 1 16 -1 15 -1 15 -1 
16 -1 15 -1 15 0 16 -1 15 -1 15 0 15 -1 16 -1 
15 0 15 -1 16 -1 15 0 15 -1 16 0 15 -1 15 0 
15 0 16 -1 15 0 15 0 16 0 15 -1 15 0 16 0 
15 -1 15 0 16 0 15 -1 15 0 15 -1 16 0 15 -1 
15 0 16 0 15 -1 15 -2 16 -1 15 -1 15 2 15 -1 
16 -1 15 0 15 -1 16 -1 15 -1 15 -2 16 0 15 -1 
15 0 15 -2 16 -1 15 -1 15 0 16 -1 15 -1 15 0 
16 -1 15 -2 15 -1 15 2 16 -2 15 -1 15 0 16 -2 
15 -1 15 -1 16 -1 15 -1 15 -1 16 -1 15 -1 15 0 
15 -1 16 -1 15 0 15 -1 16 0 15 -1 15 0 16 -1 
15 0 15 -1 15 0 16 -1 15 0 15 -1 16 -1 15 0 
15 -1 16 -1 15 -2 15 -1 15 -2 16 -1 15 -1 15 -1 
16 -1 15 -1 15 -2 16 -1 15 -1 15 -2 16 -1 15 -2 
15 -2 15 -1 16 -2 15 -1 15 -2 16 -1 15 -3 15 -1 
16 -2 15 -2 15 -1 15 2 16 2 15 -3 15 1 16 1 
15 1 15 1 16 1 15 1 15 1 15 1 16 1 15 2 
15 2 16 -2 15 -3 15 -2 16 -3 15 -2 15 -4 16 -3 
15 -3 15 -3 15 2 16 1 15 -2 15 1 16 1 15 1 
15 1 16 0 15 1 15 2 15 1 16 1 15 0 15 -2 
16 1 15 1 15 2 16 0 15 3 15 3 15 2 16 1 
15 1 15 1 16 1 15 3 15 3 16 3 15 3 15 2 
16 2 15 3 15 4 15 3 16 4 15 4 15 4 16 4 
15 4 15 5 16 4 15 3 15 3 15 4 16 3 15 4 
15 4 16 1 15 2 15 1 16 5 15 0 15 3 15 4 
16 4 15 3 15 5 16 6 15 6 15 7 16 2 15 7 
15 8 16 9 15 3 15 8 15 4 16 8 15 9 15 -3 
16 11 15 11 15 5 16 8 15 9 15 10 15 10 16 12 
15 13 15 11 16 18 15 21 15 -26 16 -18 15 -6 15 -7 
15 24 16 14 15 21 15 24 16 -4 15 4 15 -1 16 -66 
15 9 15 -258 15 0 899 4387 300 MP stroke
1113 4123 PD
87 0 1069 4123 2 MP stroke
87 0 1069 4123 2 MP stroke
1342 4242 PD
87 0 1299 4242 2 MP stroke
87 0 1299 4242 2 MP stroke
1572 4326 PD
87 0 1528 4326 2 MP stroke
87 0 1528 4326 2 MP stroke
1801 4372 PD
87 0 1758 4372 2 MP stroke
87 0 1758 4372 2 MP stroke
2031 4416 PD
88 0 1987 4416 2 MP stroke
88 0 1987 4416 2 MP stroke
2260 4433 PD
87 0 2217 4433 2 MP stroke
87 0 2217 4433 2 MP stroke
2490 4418 PD
88 0 2446 4418 2 MP stroke
88 0 2446 4418 2 MP stroke
2720 4425 PD
87 0 2676 4425 2 MP stroke
87 0 2676 4425 2 MP stroke
2949 4404 PD
88 0 2905 4404 2 MP stroke
88 0 2905 4404 2 MP stroke
3179 4387 PD
87 0 3135 4387 2 MP stroke
87 0 3135 4387 2 MP stroke
3408 4379 PD
87 0 3365 4379 2 MP stroke
87 0 3365 4379 2 MP stroke
3638 4365 PD
87 0 3594 4365 2 MP stroke
87 0 3594 4365 2 MP stroke
3867 4353 PD
87 0 3824 4353 2 MP stroke
87 0 3824 4353 2 MP stroke
4097 4345 PD
87 0 4053 4345 2 MP stroke
87 0 4053 4345 2 MP stroke
4326 4340 PD
87 0 4283 4340 2 MP stroke
87 0 4283 4340 2 MP stroke
4556 4330 PD
87 0 4512 4330 2 MP stroke
87 0 4512 4330 2 MP stroke
4785 4324 PD
87 0 4742 4324 2 MP stroke
87 0 4742 4324 2 MP stroke
5015 4319 PD
88 0 4971 4319 2 MP stroke
88 0 4971 4319 2 MP stroke
5245 4315 PD
87 0 5201 4315 2 MP stroke
87 0 5201 4315 2 MP stroke
5474 4310 PD
88 0 5430 4310 2 MP stroke
88 0 5430 4310 2 MP stroke
gs 1040 4050 4508 457 rc
0 j
0 -58 -58 0 0 58 58 0 1084 4094 5 MP
DP
0 -58 -58 0 0 58 58 0 1313 4213 5 MP
DP
0 -58 -58 0 0 58 58 0 1543 4297 5 MP
DP
0 -58 -58 0 0 58 58 0 1772 4343 5 MP
DP
0 -58 -58 0 0 58 58 0 2002 4387 5 MP
DP
0 -58 -58 0 0 58 58 0 2231 4404 5 MP
DP
0 -58 -58 0 0 58 58 0 2461 4389 5 MP
DP
0 -58 -58 0 0 58 58 0 2691 4396 5 MP
DP
0 -58 -58 0 0 58 58 0 2920 4375 5 MP
DP
0 -58 -58 0 0 58 58 0 3150 4358 5 MP
DP
0 -58 -58 0 0 58 58 0 3379 4350 5 MP
DP
0 -58 -58 0 0 58 58 0 3609 4336 5 MP
DP
0 -58 -58 0 0 58 58 0 3838 4324 5 MP
DP
0 -58 -58 0 0 58 58 0 4068 4316 5 MP
DP
0 -58 -58 0 0 58 58 0 4297 4311 5 MP
DP
0 -58 -58 0 0 58 58 0 4527 4301 5 MP
DP
0 -58 -58 0 0 58 58 0 4756 4295 5 MP
DP
0 -58 -58 0 0 58 58 0 4986 4290 5 MP
DP
0 -58 -58 0 0 58 58 0 5216 4286 5 MP
DP
0 -58 -58 0 0 58 58 0 5445 4281 5 MP
DP
gr

0 sg
15 0 16 0 15 0 15 0 15 0 16 0 15 0 15 1 
16 0 15 0 15 0 16 1 15 1 15 0 15 0 16 -1 
15 1 15 2 16 -1 15 0 15 1 16 -2 15 0 15 2 
16 -2 15 1 15 -2 15 -1 16 0 15 2 15 0 16 -1 
15 0 15 -1 16 -1 15 1 15 0 15 1 16 1 15 -1 
15 0 16 -1 15 1 15 0 16 1 15 0 15 2 15 0 
16 1 15 -1 15 1 16 1 15 0 15 1 16 -1 15 -1 
15 1 16 0 15 0 15 1 15 0 16 -1 15 2 15 -4 
16 0 15 0 15 0 16 1 15 -2 15 -2 15 0 16 1 
15 0 15 2 16 0 15 -2 15 0 16 -1 15 0 15 0 
15 2 16 1 15 2 15 0 16 0 15 1 15 -1 16 -1 
15 -2 15 -1 16 -1 15 -1 15 0 15 -1 16 2 15 1 
15 -1 16 1 15 1 15 -2 16 -1 15 4 15 0 15 0 
16 2 15 -1 15 -1 16 2 15 0 15 2 16 0 15 0 
15 2 15 -1 16 -3 15 -1 15 0 16 0 15 1 15 0 
16 1 15 -1 15 2 15 1 16 0 15 1 15 -5 16 2 
15 -1 15 -2 16 -1 15 -2 15 -3 16 0 15 0 15 -1 
15 -1 16 1 15 0 15 1 16 1 15 0 15 -2 16 2 
15 0 15 0 15 1 16 -1 15 -2 15 0 16 -2 15 -3 
15 -2 16 -1 15 -4 15 -1 15 3 16 -2 15 0 15 0 
16 3 15 3 15 1 16 4 15 0 15 -3 16 -3 15 -1 
15 0 15 -1 16 0 15 0 15 0 16 3 15 2 15 -1 
16 1 15 -2 15 2 15 0 16 1 15 0 15 -3 16 -3 
15 -2 15 -5 16 -5 15 1 15 -1 15 2 16 1 15 1 
15 1 16 -3 15 4 15 -2 16 -1 15 -1 15 -1 16 -1 
15 0 15 -1 15 -1 16 1 15 0 15 3 16 3 15 0 
15 0 16 0 15 3 15 -4 15 9 16 -1 15 2 15 6 
16 4 15 -2 15 3 16 3 15 -4 15 2 15 -2 16 7 
15 -1 15 2 16 2 15 6 15 -6 16 -2 15 -2 15 -2 
16 2 15 3 15 -4 15 1 16 -6 15 4 15 0 16 11 
15 2 15 1 16 4 15 -6 15 -6 15 0 16 0 15 -2 
15 -4 16 1 15 8 15 2 16 1 15 -4 15 -3 15 3 
16 5 15 -15 15 -5 16 -4 15 1 15 1 16 -5 15 3 
15 4 16 -6 15 2 15 8 15 13 16 14 15 -3 15 -17 
16 -12 15 6 15 6 16 23 15 18 15 10 15 11 16 10 
15 11 15 17 16 -1 15 5 15 -3 16 4 15 -14 15 -13 
15 -6 16 4 15 -7 15 30 16 19 15 -25 15 7 16 174 
15 -37 15 233 15 486 899 745 300 MP stroke
1113 1600 PD
87 0 1069 1600 2 MP stroke
87 0 1069 1600 2 MP stroke
1342 1681 PD
87 0 1299 1681 2 MP stroke
87 0 1299 1681 2 MP stroke
1572 1700 PD
87 0 1528 1700 2 MP stroke
87 0 1528 1700 2 MP stroke
1801 1694 PD
87 0 1758 1694 2 MP stroke
87 0 1758 1694 2 MP stroke
2031 1703 PD
88 0 1987 1703 2 MP stroke
88 0 1987 1703 2 MP stroke
2260 1728 PD
87 0 2217 1728 2 MP stroke
87 0 2217 1728 2 MP stroke
2490 1727 PD
88 0 2446 1727 2 MP stroke
88 0 2446 1727 2 MP stroke
2720 1716 PD
87 0 2676 1716 2 MP stroke
87 0 2676 1716 2 MP stroke
2949 1713 PD
88 0 2905 1713 2 MP stroke
88 0 2905 1713 2 MP stroke
3179 1712 PD
87 0 3135 1712 2 MP stroke
87 0 3135 1712 2 MP stroke
3408 1711 PD
87 0 3365 1711 2 MP stroke
87 0 3365 1711 2 MP stroke
3638 1703 PD
87 0 3594 1703 2 MP stroke
87 0 3594 1703 2 MP stroke
3867 1703 PD
87 0 3824 1703 2 MP stroke
87 0 3824 1703 2 MP stroke
4097 1707 PD
87 0 4053 1707 2 MP stroke
87 0 4053 1707 2 MP stroke
4326 1705 PD
87 0 4283 1705 2 MP stroke
87 0 4283 1705 2 MP stroke
4556 1702 PD
87 0 4512 1702 2 MP stroke
87 0 4512 1702 2 MP stroke
4785 1707 PD
87 0 4742 1707 2 MP stroke
87 0 4742 1707 2 MP stroke
5015 1707 PD
88 0 4971 1707 2 MP stroke
88 0 4971 1707 2 MP stroke
5245 1707 PD
87 0 5201 1707 2 MP stroke
87 0 5201 1707 2 MP stroke
5474 1710 PD
88 0 5430 1710 2 MP stroke
88 0 5430 1710 2 MP stroke
gs 1040 1527 4508 275 rc
1077 1600 mt 1149 1600 L
1113 1564 mt 1113 1636 L
1306 1681 mt 1378 1681 L
1342 1645 mt 1342 1717 L
1536 1700 mt 1608 1700 L
1572 1664 mt 1572 1736 L
1765 1694 mt 1837 1694 L
1801 1658 mt 1801 1730 L
1995 1703 mt 2067 1703 L
2031 1667 mt 2031 1739 L
2224 1728 mt 2296 1728 L
2260 1692 mt 2260 1764 L
2454 1727 mt 2526 1727 L
2490 1691 mt 2490 1763 L
2684 1716 mt 2756 1716 L
2720 1680 mt 2720 1752 L
2913 1713 mt 2985 1713 L
2949 1677 mt 2949 1749 L
3143 1712 mt 3215 1712 L
3179 1676 mt 3179 1748 L
3372 1711 mt 3444 1711 L
3408 1675 mt 3408 1747 L
3602 1703 mt 3674 1703 L
3638 1667 mt 3638 1739 L
3831 1703 mt 3903 1703 L
3867 1667 mt 3867 1739 L
4061 1707 mt 4133 1707 L
4097 1671 mt 4097 1743 L
4290 1705 mt 4362 1705 L
4326 1669 mt 4326 1741 L
4520 1702 mt 4592 1702 L
4556 1666 mt 4556 1738 L
4749 1707 mt 4821 1707 L
4785 1671 mt 4785 1743 L
4979 1707 mt 5051 1707 L
5015 1671 mt 5015 1743 L
5209 1707 mt 5281 1707 L
5245 1671 mt 5245 1743 L
5438 1710 mt 5510 1710 L
5474 1674 mt 5474 1746 L
gr

gr

1 sg
0 918 1538 0 0 -918 4658 1367 4 MP
PP
-1538 0 0 918 1538 0 0 -918 4658 1367 5 MP stroke
4 w
DO
SO
6 w
0 sg
4658 1367 mt 6196 1367 L
4658  449 mt 6196  449 L
4658 1367 mt 4658  449 L
6196 1367 mt 6196  449 L
4658 1367 mt 6196 1367 L
4658 1367 mt 4658  449 L
4658 1367 mt 6196 1367 L
4658  449 mt 6196  449 L
4658 1367 mt 4658  449 L
6196 1367 mt 6196  449 L
5125  581 mt 
(original BO) s
gs 4658 449 1539 919 rc
gs 4836 465 147 147 rc
0 j
41 71 -82 0 41 -71 4909 585 4 MP
c8
DP
gr

c8
gr

c8
0 sg
5125  729 mt 
(random embedding) s
gs 4658 449 1539 919 rc
gs 4836 613 147 147 rc
c9
  36   36 4909  686 FO
gr

c9
gr

c9
0 sg
5125  877 mt 
(subpsace learning) s
gs 4658 449 1539 919 rc
gs 4836 761 147 147 rc
c10
4873  834 mt 4945  834 L
4909  798 mt 4909  870 L
4884  809 mt 4934  859 L
4934  809 mt 4884  859 L
gr

c10
gr

c10
0 sg
5125 1024 mt 
(additive model) s
gs 4658 449 1539 919 rc
gs 4836 908 147 147 rc
0 j
36 47 -36 47 -36 -47 36 -47 4909 1028 5 MP
c11
DP
gr

c11
gr

c11
0 sg
5125 1172 mt 
(anova ve) s
gs 4658 449 1539 919 rc
gs 4836 1056 147 147 rc
0 j
0 -58 -58 0 0 58 58 0 4880 1100 5 MP
c12
DP
gr

c12
gr

c12
0 sg
5125 1320 mt 
(random selection) s
gs 4658 449 1539 919 rc
gs 4836 1204 147 147 rc
4873 1277 mt 4945 1277 L
4909 1241 mt 4909 1313 L
gr

gr


end %%Color Dict

eplot
%%EndObject

epage
end

showpage

%%Trailer
%%EOF
