%!PS-Adobe-3.0 EPSF-3.0
%%Creator: MATLAB, The MathWorks, Inc. Version 7.12.0.635 (R2011a). Operating System: Linux 3.16.0-4-amd64 #1 SMP Debian 3.16.7-ckt20-1+deb8u3 (2016-01-17) x86_64.
%%Title: /home/jaemin/Research/codes_MATSIM/HIGHDIM_BO_plot/results/MATSIM_score/MATSIM_score_f_simple_regret.eps
%%CreationDate: 10/02/2016  12:35:15
%%DocumentNeededFonts: Helvetica
%%DocumentProcessColors: Cyan Magenta Yellow Black
%%LanguageLevel: 2
%%Pages: 1
%%BoundingBox:    52   199   551   591
%%EndComments

%%BeginProlog
% MathWorks dictionary
/MathWorks 160 dict begin
% definition operators
/bdef {bind def} bind def
/ldef {load def} bind def
/xdef {exch def} bdef
/xstore {exch store} bdef
% operator abbreviations
/c  /clip ldef
/cc /concat ldef
/cp /closepath ldef
/gr /grestore ldef
/gs /gsave ldef
/mt /moveto ldef
/np /newpath ldef
/cm /currentmatrix ldef
/sm /setmatrix ldef
/rm /rmoveto ldef
/rl /rlineto ldef
/s {show newpath} bdef
/sc {setcmykcolor} bdef
/sr /setrgbcolor ldef
/sg /setgray ldef
/w /setlinewidth ldef
/j /setlinejoin ldef
/cap /setlinecap ldef
/rc {rectclip} bdef
/rf {rectfill} bdef
% page state control
/pgsv () def
/bpage {/pgsv save def} bdef
/epage {pgsv restore} bdef
/bplot /gsave ldef
/eplot {stroke grestore} bdef
% orientation switch
/portraitMode 0 def /landscapeMode 1 def /rotateMode 2 def
% coordinate system mappings
/dpi2point 0 def
% font control
/FontSize 0 def
/FMS {/FontSize xstore findfont [FontSize 0 0 FontSize neg 0 0]
  makefont setfont} bdef
/reencode {exch dup where {pop load} {pop StandardEncoding} ifelse
  exch dup 3 1 roll findfont dup length dict begin
  { 1 index /FID ne {def}{pop pop} ifelse } forall
  /Encoding exch def currentdict end definefont pop} bdef
/isroman {findfont /CharStrings get /Agrave known} bdef
/FMSR {3 1 roll 1 index dup isroman {reencode} {pop pop} ifelse
  exch FMS} bdef
/csm {1 dpi2point div -1 dpi2point div scale neg translate
 dup landscapeMode eq {pop -90 rotate}
  {rotateMode eq {90 rotate} if} ifelse} bdef
% line types: solid, dotted, dashed, dotdash
/SO { [] 0 setdash } bdef
/DO { [.5 dpi2point mul 4 dpi2point mul] 0 setdash } bdef
/DA { [6 dpi2point mul] 0 setdash } bdef
/DD { [.5 dpi2point mul 4 dpi2point mul 6 dpi2point mul 4
  dpi2point mul] 0 setdash } bdef
% macros for lines and objects
/L {lineto stroke} bdef
/MP {3 1 roll moveto 1 sub {rlineto} repeat} bdef
/AP {{rlineto} repeat} bdef
/PDlw -1 def
/W {/PDlw currentlinewidth def setlinewidth} def
/PP {closepath eofill} bdef
/DP {closepath stroke} bdef
/MR {4 -2 roll moveto dup  0 exch rlineto exch 0 rlineto
  neg 0 exch rlineto closepath} bdef
/FR {MR stroke} bdef
/PR {MR fill} bdef
/L1i {{currentfile picstr readhexstring pop} image} bdef
/tMatrix matrix def
/MakeOval {newpath tMatrix currentmatrix pop translate scale
0 0 1 0 360 arc tMatrix setmatrix} bdef
/FO {MakeOval stroke} bdef
/PO {MakeOval fill} bdef
/PD {currentlinewidth 2 div 0 360 arc fill
   PDlw -1 eq not {PDlw w /PDlw -1 def} if} def
/FA {newpath tMatrix currentmatrix pop translate scale
  0 0 1 5 -2 roll arc tMatrix setmatrix stroke} bdef
/PA {newpath tMatrix currentmatrix pop	translate 0 0 moveto scale
  0 0 1 5 -2 roll arc closepath tMatrix setmatrix fill} bdef
/FAn {newpath tMatrix currentmatrix pop translate scale
  0 0 1 5 -2 roll arcn tMatrix setmatrix stroke} bdef
/PAn {newpath tMatrix currentmatrix pop translate 0 0 moveto scale
  0 0 1 5 -2 roll arcn closepath tMatrix setmatrix fill} bdef
/vradius 0 def /hradius 0 def /lry 0 def
/lrx 0 def /uly 0 def /ulx 0 def /rad 0 def
/MRR {/vradius xdef /hradius xdef /lry xdef /lrx xdef /uly xdef
  /ulx xdef newpath tMatrix currentmatrix pop ulx hradius add uly
  vradius add translate hradius vradius scale 0 0 1 180 270 arc 
  tMatrix setmatrix lrx hradius sub uly vradius add translate
  hradius vradius scale 0 0 1 270 360 arc tMatrix setmatrix
  lrx hradius sub lry vradius sub translate hradius vradius scale
  0 0 1 0 90 arc tMatrix setmatrix ulx hradius add lry vradius sub
  translate hradius vradius scale 0 0 1 90 180 arc tMatrix setmatrix
  closepath} bdef
/FRR {MRR stroke } bdef
/PRR {MRR fill } bdef
/MlrRR {/lry xdef /lrx xdef /uly xdef /ulx xdef /rad lry uly sub 2 div def
  newpath tMatrix currentmatrix pop ulx rad add uly rad add translate
  rad rad scale 0 0 1 90 270 arc tMatrix setmatrix lrx rad sub lry rad
  sub translate rad rad scale 0 0 1 270 90 arc tMatrix setmatrix
  closepath} bdef
/FlrRR {MlrRR stroke } bdef
/PlrRR {MlrRR fill } bdef
/MtbRR {/lry xdef /lrx xdef /uly xdef /ulx xdef /rad lrx ulx sub 2 div def
  newpath tMatrix currentmatrix pop ulx rad add uly rad add translate
  rad rad scale 0 0 1 180 360 arc tMatrix setmatrix lrx rad sub lry rad
  sub translate rad rad scale 0 0 1 0 180 arc tMatrix setmatrix
  closepath} bdef
/FtbRR {MtbRR stroke } bdef
/PtbRR {MtbRR fill } bdef
/stri 6 array def /dtri 6 array def
/smat 6 array def /dmat 6 array def
/tmat1 6 array def /tmat2 6 array def /dif 3 array def
/asub {/ind2 exch def /ind1 exch def dup dup
  ind1 get exch ind2 get sub exch } bdef
/tri_to_matrix {
  2 0 asub 3 1 asub 4 0 asub 5 1 asub
  dup 0 get exch 1 get 7 -1 roll astore } bdef
/compute_transform {
  dmat dtri tri_to_matrix tmat1 invertmatrix 
  smat stri tri_to_matrix tmat2 concatmatrix } bdef
/ds {stri astore pop} bdef
/dt {dtri astore pop} bdef
/db {2 copy /cols xdef /rows xdef mul dup 3 mul string
  currentfile 
  3 index 0 eq {/ASCIIHexDecode filter}
  {/ASCII85Decode filter 3 index 2 eq {/RunLengthDecode filter} if }
  ifelse exch readstring pop
  dup 0 3 index getinterval /rbmap xdef
  dup 2 index dup getinterval /gbmap xdef
  1 index dup 2 mul exch getinterval /bbmap xdef pop pop}bdef
/it {gs np dtri aload pop moveto lineto lineto cp c
  cols rows 8 compute_transform 
  rbmap gbmap bbmap true 3 colorimage gr}bdef
/il {newpath moveto lineto stroke}bdef
currentdict end def
%%EndProlog

%%BeginSetup
MathWorks begin

0 cap

end
%%EndSetup

%%Page: 1 1
%%BeginPageSetup
%%PageBoundingBox:    52   199   551   591
MathWorks begin
bpage
%%EndPageSetup

%%BeginObject: obj1
bplot

/dpi2point 12 def
portraitMode 0216 7344 csm

  413   247  5991  4708 rc
89 dict begin %Colortable dictionary
/c0 { 0.000000 0.000000 0.000000 sr} bdef
/c1 { 1.000000 1.000000 1.000000 sr} bdef
/c2 { 0.900000 0.000000 0.000000 sr} bdef
/c3 { 0.000000 0.820000 0.000000 sr} bdef
/c4 { 0.000000 0.000000 0.800000 sr} bdef
/c5 { 0.910000 0.820000 0.320000 sr} bdef
/c6 { 1.000000 0.260000 0.820000 sr} bdef
/c7 { 0.000000 0.820000 0.820000 sr} bdef
c0
1 j
1 sg
   0    0 6913 5186 rf
6 w
0 4226 5356 0 0 -4226 899 4615 4 MP
PP
-5356 0 0 4226 5356 0 0 -4226 899 4615 5 MP stroke
4 w
DO
SO
6 w
0 sg
 899 4615 mt 6255 4615 L
 899  389 mt 6255  389 L
 899 4615 mt  899  389 L
6255 4615 mt 6255  389 L
 899 4615 mt 6255 4615 L
 899 4615 mt  899  389 L
 899 4615 mt  899 4561 L
 899  389 mt  899  442 L
%%IncludeResource: font Helvetica
/Helvetica /ISOLatin1Encoding 120 FMSR

 866 4760 mt 
(0) s
1494 4615 mt 1494 4561 L
1494  389 mt 1494  442 L
1428 4760 mt 
(50) s
2089 4615 mt 2089 4561 L
2089  389 mt 2089  442 L
1989 4760 mt 
(100) s
2684 4615 mt 2684 4561 L
2684  389 mt 2684  442 L
2584 4760 mt 
(150) s
3279 4615 mt 3279 4561 L
3279  389 mt 3279  442 L
3179 4760 mt 
(200) s
3874 4615 mt 3874 4561 L
3874  389 mt 3874  442 L
3774 4760 mt 
(250) s
4469 4615 mt 4469 4561 L
4469  389 mt 4469  442 L
4369 4760 mt 
(300) s
5064 4615 mt 5064 4561 L
5064  389 mt 5064  442 L
4964 4760 mt 
(350) s
5659 4615 mt 5659 4561 L
5659  389 mt 5659  442 L
5559 4760 mt 
(400) s
6255 4615 mt 6255 4561 L
6255  389 mt 6255  442 L
6155 4760 mt 
(450) s
 899 4615 mt  952 4615 L
6255 4615 mt 6201 4615 L
 631 4659 mt 
(36.5) s
 899 4086 mt  952 4086 L
6255 4086 mt 6201 4086 L
 731 4130 mt 
(37) s
 899 3558 mt  952 3558 L
6255 3558 mt 6201 3558 L
 631 3602 mt 
(37.5) s
 899 3030 mt  952 3030 L
6255 3030 mt 6201 3030 L
 731 3074 mt 
(38) s
 899 2502 mt  952 2502 L
6255 2502 mt 6201 2502 L
 631 2546 mt 
(38.5) s
 899 1973 mt  952 1973 L
6255 1973 mt 6201 1973 L
 731 2017 mt 
(39) s
 899 1445 mt  952 1445 L
6255 1445 mt 6201 1445 L
 631 1489 mt 
(39.5) s
 899  917 mt  952  917 L
6255  917 mt 6201  917 L
 731  961 mt 
(40) s
 899  389 mt  952  389 L
6255  389 mt 6201  389 L
 631  433 mt 
(40.5) s
 899 4615 mt 6255 4615 L
 899  389 mt 6255  389 L
 899 4615 mt  899  389 L
6255 4615 mt 6255  389 L
gs 899 389 5357 4227 rc
gs 992 2094 4718 206 rc
0 j
41 71 -82 0 41 -71 1065 2214 4 MP
/c8 { 0.000000 1.000000 0.000000 sr} bdef
c8
DP
41 71 -82 0 41 -71 1244 2214 4 MP
DP
41 71 -82 0 41 -71 1422 2214 4 MP
DP
41 71 -82 0 41 -71 1601 2273 4 MP
DP
41 71 -82 0 41 -71 1779 2273 4 MP
DP
41 71 -82 0 41 -71 1958 2273 4 MP
DP
41 71 -82 0 41 -71 2136 2273 4 MP
DP
41 71 -82 0 41 -71 2315 2273 4 MP
DP
41 71 -82 0 41 -71 2493 2273 4 MP
DP
41 71 -82 0 41 -71 2672 2273 4 MP
DP
41 71 -82 0 41 -71 2850 2273 4 MP
DP
41 71 -82 0 41 -71 3029 2273 4 MP
DP
41 71 -82 0 41 -71 3208 2273 4 MP
DP
41 71 -82 0 41 -71 3386 2273 4 MP
DP
41 71 -82 0 41 -71 3565 2273 4 MP
DP
41 71 -82 0 41 -71 3743 2273 4 MP
DP
41 71 -82 0 41 -71 3922 2273 4 MP
DP
41 71 -82 0 41 -71 4100 2273 4 MP
DP
41 71 -82 0 41 -71 4279 2273 4 MP
DP
41 71 -82 0 41 -71 4457 2273 4 MP
DP
41 71 -82 0 41 -71 4636 2273 4 MP
DP
41 71 -82 0 41 -71 4814 2273 4 MP
DP
41 71 -82 0 41 -71 4993 2273 4 MP
DP
41 71 -82 0 41 -71 5171 2273 4 MP
DP
41 71 -82 0 41 -71 5350 2273 4 MP
DP
41 71 -82 0 41 -71 5528 2273 4 MP
DP
41 71 -82 0 41 -71 5636 2273 4 MP
DP
gr

c8
gs 992 2020 4718 327 rc
/c9 { 0.000000 1.000000 1.000000 sr} bdef
c9
  36   36 1065 2093 FO
  36   36 1244 2110 FO
  36   36 1422 2177 FO
  36   36 1601 2177 FO
  36   36 1779 2177 FO
  36   36 1958 2177 FO
  36   36 2136 2177 FO
  36   36 2315 2177 FO
  36   36 2493 2205 FO
  36   36 2672 2205 FO
  36   36 2850 2205 FO
  36   36 3029 2205 FO
  36   36 3208 2205 FO
  36   36 3386 2205 FO
  36   36 3565 2273 FO
  36   36 3743 2273 FO
  36   36 3922 2273 FO
  36   36 4100 2273 FO
  36   36 4279 2273 FO
  36   36 4457 2273 FO
  36   36 4636 2273 FO
  36   36 4814 2273 FO
  36   36 4993 2273 FO
  36   36 5171 2273 FO
  36   36 5350 2273 FO
  36   36 5528 2273 FO
  36   36 5636 2273 FO
gr

c9
gs 992 1366 4718 735 rc
/c10 { 0.000000 0.000000 1.000000 sr} bdef
c10
1029 1439 mt 1101 1439 L
1065 1403 mt 1065 1475 L
1208 1439 mt 1280 1439 L
1244 1403 mt 1244 1475 L
1386 1439 mt 1458 1439 L
1422 1403 mt 1422 1475 L
1565 1439 mt 1637 1439 L
1601 1403 mt 1601 1475 L
1743 1439 mt 1815 1439 L
1779 1403 mt 1779 1475 L
1922 1594 mt 1994 1594 L
1958 1558 mt 1958 1630 L
2100 1594 mt 2172 1594 L
2136 1558 mt 2136 1630 L
2279 1594 mt 2351 1594 L
2315 1558 mt 2315 1630 L
2457 1594 mt 2529 1594 L
2493 1558 mt 2493 1630 L
2636 1594 mt 2708 1594 L
2672 1558 mt 2672 1630 L
2814 1908 mt 2886 1908 L
2850 1872 mt 2850 1944 L
2993 1958 mt 3065 1958 L
3029 1922 mt 3029 1994 L
3172 1958 mt 3244 1958 L
3208 1922 mt 3208 1994 L
3350 1958 mt 3422 1958 L
3386 1922 mt 3386 1994 L
3529 1958 mt 3601 1958 L
3565 1922 mt 3565 1994 L
3707 1958 mt 3779 1958 L
3743 1922 mt 3743 1994 L
3886 1958 mt 3958 1958 L
3922 1922 mt 3922 1994 L
4064 1958 mt 4136 1958 L
4100 1922 mt 4100 1994 L
4243 1958 mt 4315 1958 L
4279 1922 mt 4279 1994 L
4421 1958 mt 4493 1958 L
4457 1922 mt 4457 1994 L
4600 2027 mt 4672 2027 L
4636 1991 mt 4636 2063 L
4778 2027 mt 4850 2027 L
4814 1991 mt 4814 2063 L
4957 2027 mt 5029 2027 L
4993 1991 mt 4993 2063 L
5135 2027 mt 5207 2027 L
5171 1991 mt 5171 2063 L
5314 2027 mt 5386 2027 L
5350 1991 mt 5350 2063 L
5492 2027 mt 5564 2027 L
5528 1991 mt 5528 2063 L
5600 2027 mt 5672 2027 L
5636 1991 mt 5636 2063 L
1040 1414 mt 1090 1464 L
1090 1414 mt 1040 1464 L
1219 1414 mt 1269 1464 L
1269 1414 mt 1219 1464 L
1397 1414 mt 1447 1464 L
1447 1414 mt 1397 1464 L
1576 1414 mt 1626 1464 L
1626 1414 mt 1576 1464 L
1754 1414 mt 1804 1464 L
1804 1414 mt 1754 1464 L
1933 1569 mt 1983 1619 L
1983 1569 mt 1933 1619 L
2111 1569 mt 2161 1619 L
2161 1569 mt 2111 1619 L
2290 1569 mt 2340 1619 L
2340 1569 mt 2290 1619 L
2468 1569 mt 2518 1619 L
2518 1569 mt 2468 1619 L
2647 1569 mt 2697 1619 L
2697 1569 mt 2647 1619 L
2825 1883 mt 2875 1933 L
2875 1883 mt 2825 1933 L
3004 1933 mt 3054 1983 L
3054 1933 mt 3004 1983 L
3183 1933 mt 3233 1983 L
3233 1933 mt 3183 1983 L
3361 1933 mt 3411 1983 L
3411 1933 mt 3361 1983 L
3540 1933 mt 3590 1983 L
3590 1933 mt 3540 1983 L
3718 1933 mt 3768 1983 L
3768 1933 mt 3718 1983 L
3897 1933 mt 3947 1983 L
3947 1933 mt 3897 1983 L
4075 1933 mt 4125 1983 L
4125 1933 mt 4075 1983 L
4254 1933 mt 4304 1983 L
4304 1933 mt 4254 1983 L
4432 1933 mt 4482 1983 L
4482 1933 mt 4432 1983 L
4611 2002 mt 4661 2052 L
4661 2002 mt 4611 2052 L
4789 2002 mt 4839 2052 L
4839 2002 mt 4789 2052 L
4968 2002 mt 5018 2052 L
5018 2002 mt 4968 2052 L
5146 2002 mt 5196 2052 L
5196 2002 mt 5146 2052 L
5325 2002 mt 5375 2052 L
5375 2002 mt 5325 2052 L
5503 2002 mt 5553 2052 L
5553 2002 mt 5503 2052 L
5611 2002 mt 5661 2052 L
5661 2002 mt 5611 2052 L
gr

c10
gs 992 1922 4718 2078 rc
0 j
36 47 -36 47 -36 -47 36 -47 1065 2042 5 MP
/c11 { 1.000000 0.000000 1.000000 sr} bdef
c11
DP
36 47 -36 47 -36 -47 36 -47 1244 2135 5 MP
DP
36 47 -36 47 -36 -47 36 -47 1422 2135 5 MP
DP
36 47 -36 47 -36 -47 36 -47 1601 2135 5 MP
DP
36 47 -36 47 -36 -47 36 -47 1779 2224 5 MP
DP
36 47 -36 47 -36 -47 36 -47 1958 2224 5 MP
DP
36 47 -36 47 -36 -47 36 -47 2136 3625 5 MP
DP
36 47 -36 47 -36 -47 36 -47 2315 3733 5 MP
DP
36 47 -36 47 -36 -47 36 -47 2493 3733 5 MP
DP
36 47 -36 47 -36 -47 36 -47 2672 3733 5 MP
DP
36 47 -36 47 -36 -47 36 -47 2850 3968 5 MP
DP
36 47 -36 47 -36 -47 36 -47 3029 3968 5 MP
DP
36 47 -36 47 -36 -47 36 -47 3208 3968 5 MP
DP
36 47 -36 47 -36 -47 36 -47 3386 3968 5 MP
DP
36 47 -36 47 -36 -47 36 -47 3565 3973 5 MP
DP
36 47 -36 47 -36 -47 36 -47 3743 3973 5 MP
DP
36 47 -36 47 -36 -47 36 -47 3922 3973 5 MP
DP
36 47 -36 47 -36 -47 36 -47 4100 3973 5 MP
DP
36 47 -36 47 -36 -47 36 -47 4279 3973 5 MP
DP
36 47 -36 47 -36 -47 36 -47 4457 3973 5 MP
DP
36 47 -36 47 -36 -47 36 -47 4636 3973 5 MP
DP
36 47 -36 47 -36 -47 36 -47 4814 3973 5 MP
DP
36 47 -36 47 -36 -47 36 -47 4993 3973 5 MP
DP
36 47 -36 47 -36 -47 36 -47 5171 3973 5 MP
DP
36 47 -36 47 -36 -47 36 -47 5350 3973 5 MP
DP
36 47 -36 47 -36 -47 36 -47 5528 3973 5 MP
DP
36 47 -36 47 -36 -47 36 -47 5636 3973 5 MP
DP
gr

c11
gs 992 1804 4718 2420 rc
0 j
0 -58 -58 0 0 58 58 0 1036 1848 5 MP
/c12 { 1.000000 0.000000 0.000000 sr} bdef
c12
DP
0 -58 -58 0 0 58 58 0 1215 1848 5 MP
DP
0 -58 -58 0 0 58 58 0 1393 2054 5 MP
DP
0 -58 -58 0 0 58 58 0 1572 2054 5 MP
DP
0 -58 -58 0 0 58 58 0 1750 2054 5 MP
DP
0 -58 -58 0 0 58 58 0 1929 2054 5 MP
DP
0 -58 -58 0 0 58 58 0 2107 3858 5 MP
DP
0 -58 -58 0 0 58 58 0 2286 3897 5 MP
DP
0 -58 -58 0 0 58 58 0 2464 3999 5 MP
DP
0 -58 -58 0 0 58 58 0 2643 3999 5 MP
DP
0 -58 -58 0 0 58 58 0 2821 4061 5 MP
DP
0 -58 -58 0 0 58 58 0 3000 4061 5 MP
DP
0 -58 -58 0 0 58 58 0 3179 4061 5 MP
DP
0 -58 -58 0 0 58 58 0 3357 4121 5 MP
DP
0 -58 -58 0 0 58 58 0 3536 4121 5 MP
DP
0 -58 -58 0 0 58 58 0 3714 4121 5 MP
DP
0 -58 -58 0 0 58 58 0 3893 4121 5 MP
DP
0 -58 -58 0 0 58 58 0 4071 4121 5 MP
DP
0 -58 -58 0 0 58 58 0 4250 4121 5 MP
DP
0 -58 -58 0 0 58 58 0 4428 4121 5 MP
DP
0 -58 -58 0 0 58 58 0 4607 4121 5 MP
DP
0 -58 -58 0 0 58 58 0 4785 4121 5 MP
DP
0 -58 -58 0 0 58 58 0 4964 4121 5 MP
DP
0 -58 -58 0 0 58 58 0 5142 4121 5 MP
DP
0 -58 -58 0 0 58 58 0 5321 4121 5 MP
DP
0 -58 -58 0 0 58 58 0 5499 4121 5 MP
DP
0 -58 -58 0 0 58 58 0 5607 4121 5 MP
DP
gr

c12
gs 992 1351 4718 287 rc
0 j
-41 71 -41 -71 82 0 1024 1448 4 MP
/c13 { 1.000000 1.000000 0.000000 sr} bdef
c13
DP
-41 71 -41 -71 82 0 1203 1448 4 MP
DP
-41 71 -41 -71 82 0 1381 1448 4 MP
DP
-41 71 -41 -71 82 0 1560 1448 4 MP
DP
-41 71 -41 -71 82 0 1738 1448 4 MP
DP
-41 71 -41 -71 82 0 1917 1448 4 MP
DP
-41 71 -41 -71 82 0 2095 1448 4 MP
DP
-41 71 -41 -71 82 0 2274 1448 4 MP
DP
-41 71 -41 -71 82 0 2452 1448 4 MP
DP
-41 71 -41 -71 82 0 2631 1588 4 MP
DP
-41 71 -41 -71 82 0 2809 1588 4 MP
DP
-41 71 -41 -71 82 0 2988 1588 4 MP
DP
-41 71 -41 -71 82 0 3167 1588 4 MP
DP
-41 71 -41 -71 82 0 3345 1588 4 MP
DP
-41 71 -41 -71 82 0 3524 1588 4 MP
DP
-41 71 -41 -71 82 0 3702 1588 4 MP
DP
-41 71 -41 -71 82 0 3881 1588 4 MP
DP
-41 71 -41 -71 82 0 4059 1588 4 MP
DP
-41 71 -41 -71 82 0 4238 1588 4 MP
DP
-41 71 -41 -71 82 0 4416 1588 4 MP
DP
-41 71 -41 -71 82 0 4595 1588 4 MP
DP
-41 71 -41 -71 82 0 4773 1588 4 MP
DP
-41 71 -41 -71 82 0 4952 1588 4 MP
DP
-41 71 -41 -71 82 0 5130 1588 4 MP
DP
-41 71 -41 -71 82 0 5309 1588 4 MP
DP
-41 71 -41 -71 82 0 5487 1588 4 MP
DP
-41 71 -41 -71 82 0 5595 1588 4 MP
DP
gr

c13
gs 992 1985 4718 374 rc
0 sg
1029 2058 mt 1101 2058 L
1065 2022 mt 1065 2094 L
1208 2058 mt 1280 2058 L
1244 2022 mt 1244 2094 L
1386 2058 mt 1458 2058 L
1422 2022 mt 1422 2094 L
1565 2058 mt 1637 2058 L
1601 2022 mt 1601 2094 L
1743 2132 mt 1815 2132 L
1779 2096 mt 1779 2168 L
1922 2253 mt 1994 2253 L
1958 2217 mt 1958 2289 L
2100 2253 mt 2172 2253 L
2136 2217 mt 2136 2289 L
2279 2253 mt 2351 2253 L
2315 2217 mt 2315 2289 L
2457 2253 mt 2529 2253 L
2493 2217 mt 2493 2289 L
2636 2253 mt 2708 2253 L
2672 2217 mt 2672 2289 L
2814 2253 mt 2886 2253 L
2850 2217 mt 2850 2289 L
2993 2253 mt 3065 2253 L
3029 2217 mt 3029 2289 L
3172 2253 mt 3244 2253 L
3208 2217 mt 3208 2289 L
3350 2285 mt 3422 2285 L
3386 2249 mt 3386 2321 L
3529 2285 mt 3601 2285 L
3565 2249 mt 3565 2321 L
3707 2285 mt 3779 2285 L
3743 2249 mt 3743 2321 L
3886 2285 mt 3958 2285 L
3922 2249 mt 3922 2321 L
4064 2285 mt 4136 2285 L
4100 2249 mt 4100 2321 L
4243 2285 mt 4315 2285 L
4279 2249 mt 4279 2321 L
4421 2285 mt 4493 2285 L
4457 2249 mt 4457 2321 L
4600 2285 mt 4672 2285 L
4636 2249 mt 4636 2321 L
4778 2285 mt 4850 2285 L
4814 2249 mt 4814 2321 L
4957 2285 mt 5029 2285 L
4993 2249 mt 4993 2321 L
5135 2285 mt 5207 2285 L
5171 2249 mt 5171 2321 L
5314 2285 mt 5386 2285 L
5350 2249 mt 5350 2321 L
5492 2285 mt 5564 2285 L
5528 2249 mt 5528 2321 L
5600 2285 mt 5672 2285 L
5636 2249 mt 5636 2321 L
gr

0 sg
gr

2979 4903 mt 
(Number of evaluations) s
 549 3133 mt  -90 rotate
(Simple Regret \(penalty\)) s
90 rotate
 882 4658 mt 
( ) s
6239  431 mt 
( ) s
gs 899 389 5357 4227 rc
c8
12 0 12 0 12 0 12 0 12 0 12 0 12 0 12 0 
12 0 11 0 12 0 12 0 12 0 12 0 12 0 12 0 
12 0 12 0 12 0 11 0 12 0 12 0 12 0 12 0 
12 0 12 0 12 0 12 0 12 0 11 0 12 0 12 0 
12 0 12 0 12 0 12 0 12 0 12 0 12 0 12 0 
11 0 12 0 12 0 12 0 12 0 12 0 12 0 12 0 
12 0 12 0 11 0 12 0 12 0 12 0 12 0 12 0 
12 0 12 0 12 0 12 0 11 0 12 0 12 0 12 0 
12 0 12 0 12 0 12 0 12 0 12 0 11 0 12 0 
12 0 12 0 12 0 12 0 12 0 12 0 12 0 12 0 
11 0 12 0 12 0 12 0 12 0 12 0 12 0 12 0 
12 0 12 0 12 0 11 0 12 0 12 0 12 0 12 0 
12 0 12 0 12 0 12 0 12 0 11 0 12 0 12 0 
12 0 12 0 12 0 12 0 12 0 12 0 12 0 11 0 
12 0 12 0 12 0 12 0 12 0 12 0 12 0 12 0 
12 0 11 0 12 0 12 0 12 0 12 0 12 0 12 0 
12 0 12 0 12 0 12 0 11 0 12 0 12 0 12 0 
12 0 12 0 12 0 12 0 12 0 12 0 11 0 12 0 
12 0 12 0 12 0 12 0 12 0 12 0 12 0 12 0 
11 0 12 0 12 0 12 0 12 0 12 0 12 0 12 0 
12 0 12 0 11 0 12 0 12 0 12 0 12 0 12 0 
12 0 12 0 12 0 12 0 11 0 12 0 12 0 12 0 
12 0 12 0 12 0 12 0 12 0 12 0 12 0 11 0 
12 0 12 0 12 0 12 0 12 0 12 0 12 0 12 0 
12 0 11 0 12 0 12 0 12 0 12 0 12 0 12 0 
12 0 12 0 12 0 11 0 12 0 12 0 12 0 12 0 
12 0 12 0 12 0 12 0 12 0 11 0 12 0 12 0 
12 0 12 0 12 0 12 0 12 0 12 0 12 0 12 0 
11 0 12 0 12 0 12 0 12 0 12 0 12 0 12 0 
12 0 12 0 11 0 12 0 12 0 12 0 12 0 12 0 
12 0 12 0 12 0 12 0 11 0 12 0 12 0 12 0 
12 0 12 0 12 0 12 0 12 0 12 0 11 0 12 0 
12 0 12 0 12 0 12 0 12 0 12 0 12 0 12 0 
12 0 11 0 12 0 12 0 12 0 12 0 12 0 12 0 
12 0 12 0 12 0 11 0 12 0 12 0 12 0 12 0 
12 0 12 0 12 0 12 0 12 0 11 0 12 0 12 0 
12 0 12 0 12 0 12 0 12 0 12 0 12 0 11 0 
12 0 12 0 12 0 2077 2226 300 MP stroke
12 0 12 0 12 0 12 0 12 0 12 0 11 0 12 0 
12 0 12 0 12 0 12 0 12 0 12 0 12 0 12 0 
12 0 11 0 12 0 12 0 12 0 12 0 12 0 12 0 
12 0 12 0 12 0 11 0 12 0 12 0 12 0 12 0 
12 0 12 0 12 0 12 0 12 0 11 0 12 0 12 0 
12 0 12 0 12 0 12 0 12 0 12 0 12 0 11 0 
12 0 12 0 12 0 12 0 12 0 12 59 12 0 12 0 
12 0 12 0 11 0 12 0 12 0 12 0 12 0 12 0 
12 0 12 0 12 0 12 0 11 0 12 0 12 0 12 0 
12 0 12 0 12 0 12 0 12 0 12 0 11 0 12 0 
12 0 12 0 12 0 12 0 12 0 12 0 12 0 12 0 
11 0 12 0 12 0 12 0 12 0 12 0 12 0 12 0 
12 0 12 667 11 0 899 1500 100 MP stroke
1065 2167 PD
92 0 1019 2167 2 MP stroke
92 0 1019 2167 2 MP stroke
1244 2167 PD
91 0 1198 2167 2 MP stroke
91 0 1198 2167 2 MP stroke
1422 2167 PD
92 0 1376 2167 2 MP stroke
92 0 1376 2167 2 MP stroke
1601 2226 PD
91 0 1555 2226 2 MP stroke
91 0 1555 2226 2 MP stroke
1779 2226 PD
91 0 1734 2226 2 MP stroke
91 0 1734 2226 2 MP stroke
1958 2226 PD
92 0 1912 2226 2 MP stroke
92 0 1912 2226 2 MP stroke
2136 2226 PD
91 0 2091 2226 2 MP stroke
91 0 2091 2226 2 MP stroke
2315 2226 PD
92 0 2269 2226 2 MP stroke
92 0 2269 2226 2 MP stroke
2493 2226 PD
91 0 2448 2226 2 MP stroke
91 0 2448 2226 2 MP stroke
2672 2226 PD
92 0 2626 2226 2 MP stroke
92 0 2626 2226 2 MP stroke
2850 2226 PD
91 0 2805 2226 2 MP stroke
91 0 2805 2226 2 MP stroke
3029 2226 PD
92 0 2983 2226 2 MP stroke
92 0 2983 2226 2 MP stroke
3208 2226 PD
91 0 3162 2226 2 MP stroke
91 0 3162 2226 2 MP stroke
3386 2226 PD
92 0 3340 2226 2 MP stroke
92 0 3340 2226 2 MP stroke
3565 2226 PD
91 0 3519 2226 2 MP stroke
91 0 3519 2226 2 MP stroke
3743 2226 PD
92 0 3697 2226 2 MP stroke
92 0 3697 2226 2 MP stroke
3922 2226 PD
91 0 3876 2226 2 MP stroke
91 0 3876 2226 2 MP stroke
4100 2226 PD
92 0 4054 2226 2 MP stroke
92 0 4054 2226 2 MP stroke
4279 2226 PD
91 0 4233 2226 2 MP stroke
91 0 4233 2226 2 MP stroke
4457 2226 PD
91 0 4412 2226 2 MP stroke
91 0 4412 2226 2 MP stroke
4636 2226 PD
92 0 4590 2226 2 MP stroke
92 0 4590 2226 2 MP stroke
4814 2226 PD
91 0 4769 2226 2 MP stroke
91 0 4769 2226 2 MP stroke
4993 2226 PD
92 0 4947 2226 2 MP stroke
92 0 4947 2226 2 MP stroke
5171 2226 PD
91 0 5126 2226 2 MP stroke
91 0 5126 2226 2 MP stroke
5350 2226 PD
92 0 5304 2226 2 MP stroke
92 0 5304 2226 2 MP stroke
5528 2226 PD
91 0 5483 2226 2 MP stroke
91 0 5483 2226 2 MP stroke
5636 2226 PD
91 0 5590 2226 2 MP stroke
91 0 5590 2226 2 MP stroke
gs 992 2094 4718 206 rc
0 j
41 71 -82 0 41 -71 1065 2214 4 MP
DP
41 71 -82 0 41 -71 1244 2214 4 MP
DP
41 71 -82 0 41 -71 1422 2214 4 MP
DP
41 71 -82 0 41 -71 1601 2273 4 MP
DP
41 71 -82 0 41 -71 1779 2273 4 MP
DP
41 71 -82 0 41 -71 1958 2273 4 MP
DP
41 71 -82 0 41 -71 2136 2273 4 MP
DP
41 71 -82 0 41 -71 2315 2273 4 MP
DP
41 71 -82 0 41 -71 2493 2273 4 MP
DP
41 71 -82 0 41 -71 2672 2273 4 MP
DP
41 71 -82 0 41 -71 2850 2273 4 MP
DP
41 71 -82 0 41 -71 3029 2273 4 MP
DP
41 71 -82 0 41 -71 3208 2273 4 MP
DP
41 71 -82 0 41 -71 3386 2273 4 MP
DP
41 71 -82 0 41 -71 3565 2273 4 MP
DP
41 71 -82 0 41 -71 3743 2273 4 MP
DP
41 71 -82 0 41 -71 3922 2273 4 MP
DP
41 71 -82 0 41 -71 4100 2273 4 MP
DP
41 71 -82 0 41 -71 4279 2273 4 MP
DP
41 71 -82 0 41 -71 4457 2273 4 MP
DP
41 71 -82 0 41 -71 4636 2273 4 MP
DP
41 71 -82 0 41 -71 4814 2273 4 MP
DP
41 71 -82 0 41 -71 4993 2273 4 MP
DP
41 71 -82 0 41 -71 5171 2273 4 MP
DP
41 71 -82 0 41 -71 5350 2273 4 MP
DP
41 71 -82 0 41 -71 5528 2273 4 MP
DP
41 71 -82 0 41 -71 5636 2273 4 MP
DP
gr

c9
12 0 12 0 12 0 12 0 12 0 12 0 12 0 12 0 
12 0 11 0 12 0 12 0 12 0 12 0 12 0 12 0 
12 0 12 0 12 0 11 0 12 0 12 0 12 0 12 0 
12 0 12 0 12 0 12 0 12 0 11 0 12 0 12 0 
12 0 12 0 12 0 12 0 12 0 12 0 12 0 12 0 
11 0 12 0 12 0 12 0 12 0 12 0 12 0 12 0 
12 0 12 0 11 0 12 0 12 0 12 0 12 0 12 0 
12 0 12 0 12 0 12 0 11 0 12 0 12 0 12 0 
12 0 12 0 12 0 12 0 12 0 12 0 11 0 12 0 
12 0 12 0 12 0 12 0 12 0 12 0 12 0 12 0 
11 0 12 0 12 0 12 0 12 0 12 0 12 0 12 0 
12 0 12 0 12 0 11 0 12 0 12 0 12 0 12 0 
12 0 12 0 12 0 12 0 12 0 11 0 12 0 12 0 
12 0 12 0 12 0 12 0 12 0 12 0 12 0 11 0 
12 0 12 0 12 0 12 0 12 0 12 0 12 0 12 0 
12 0 11 0 12 0 12 0 12 0 12 0 12 0 12 0 
12 0 12 0 12 0 12 0 11 0 12 0 12 0 12 0 
12 0 12 0 12 0 12 0 12 0 12 0 11 0 12 0 
12 0 12 0 12 0 12 0 12 0 12 0 12 0 12 0 
11 0 12 0 12 0 12 0 12 0 12 0 12 0 12 0 
12 0 12 0 11 0 12 0 12 0 12 0 12 0 12 0 
12 0 12 0 12 0 12 0 11 0 12 0 12 0 12 0 
12 0 12 0 12 0 12 0 12 0 12 0 12 0 11 0 
12 0 12 0 12 68 12 0 12 0 12 0 12 0 12 0 
12 0 11 0 12 0 12 0 12 0 12 0 12 0 12 0 
12 0 12 0 12 0 11 0 12 0 12 0 12 0 12 0 
12 0 12 0 12 0 12 0 12 0 11 0 12 0 12 0 
12 0 12 0 12 0 12 0 12 0 12 0 12 0 12 0 
11 0 12 0 12 0 12 0 12 0 12 0 12 0 12 0 
12 0 12 0 11 0 12 0 12 0 12 0 12 0 12 0 
12 0 12 0 12 0 12 0 11 0 12 0 12 0 12 0 
12 0 12 0 12 0 12 0 12 0 12 0 11 0 12 0 
12 0 12 0 12 0 12 0 12 0 12 0 12 0 12 0 
12 0 11 0 12 0 12 0 12 0 12 0 12 0 12 0 
12 28 12 0 12 0 11 0 12 0 12 0 12 0 12 0 
12 0 12 0 12 0 12 0 12 0 11 0 12 0 12 0 
12 0 12 0 12 0 12 0 12 0 12 0 12 0 11 0 
12 0 12 0 12 0 2077 2177 300 MP stroke
12 0 12 0 12 0 12 0 12 0 12 0 11 0 12 0 
12 0 12 0 12 0 12 0 12 0 12 0 12 0 12 0 
12 0 11 0 12 0 12 0 12 0 12 0 12 0 12 0 
12 0 12 0 12 0 11 0 12 0 12 0 12 0 12 0 
12 0 12 0 12 0 12 0 12 0 11 0 12 0 12 0 
12 0 12 0 12 0 12 0 12 0 12 0 12 0 11 0 
12 0 12 0 12 0 12 0 12 0 12 0 12 0 12 0 
12 0 12 0 11 0 12 0 12 0 12 0 12 0 12 0 
12 0 12 67 12 0 12 0 11 0 12 0 12 0 12 17 
12 0 12 0 12 0 12 0 12 0 12 0 11 0 12 0 
12 0 12 0 12 0 12 0 12 0 12 0 12 41 12 0 
11 0 12 0 12 0 12 0 12 0 12 0 12 155 12 0 
12 0 12 0 11 493 899 1404 100 MP stroke
1065 2093 PD
92 0 1019 2093 2 MP stroke
92 0 1019 2093 2 MP stroke
1244 2110 PD
91 0 1198 2110 2 MP stroke
91 0 1198 2110 2 MP stroke
1422 2177 PD
92 0 1376 2177 2 MP stroke
92 0 1376 2177 2 MP stroke
1601 2177 PD
91 0 1555 2177 2 MP stroke
91 0 1555 2177 2 MP stroke
1779 2177 PD
91 0 1734 2177 2 MP stroke
91 0 1734 2177 2 MP stroke
1958 2177 PD
92 0 1912 2177 2 MP stroke
92 0 1912 2177 2 MP stroke
2136 2177 PD
91 0 2091 2177 2 MP stroke
91 0 2091 2177 2 MP stroke
2315 2177 PD
92 0 2269 2177 2 MP stroke
92 0 2269 2177 2 MP stroke
2493 2205 PD
91 0 2448 2205 2 MP stroke
91 0 2448 2205 2 MP stroke
2672 2205 PD
92 0 2626 2205 2 MP stroke
92 0 2626 2205 2 MP stroke
2850 2205 PD
91 0 2805 2205 2 MP stroke
91 0 2805 2205 2 MP stroke
3029 2205 PD
92 0 2983 2205 2 MP stroke
92 0 2983 2205 2 MP stroke
3208 2205 PD
91 0 3162 2205 2 MP stroke
91 0 3162 2205 2 MP stroke
3386 2205 PD
92 0 3340 2205 2 MP stroke
92 0 3340 2205 2 MP stroke
3565 2273 PD
91 0 3519 2273 2 MP stroke
91 0 3519 2273 2 MP stroke
3743 2273 PD
92 0 3697 2273 2 MP stroke
92 0 3697 2273 2 MP stroke
3922 2273 PD
91 0 3876 2273 2 MP stroke
91 0 3876 2273 2 MP stroke
4100 2273 PD
92 0 4054 2273 2 MP stroke
92 0 4054 2273 2 MP stroke
4279 2273 PD
91 0 4233 2273 2 MP stroke
91 0 4233 2273 2 MP stroke
4457 2273 PD
91 0 4412 2273 2 MP stroke
91 0 4412 2273 2 MP stroke
4636 2273 PD
92 0 4590 2273 2 MP stroke
92 0 4590 2273 2 MP stroke
4814 2273 PD
91 0 4769 2273 2 MP stroke
91 0 4769 2273 2 MP stroke
4993 2273 PD
92 0 4947 2273 2 MP stroke
92 0 4947 2273 2 MP stroke
5171 2273 PD
91 0 5126 2273 2 MP stroke
91 0 5126 2273 2 MP stroke
5350 2273 PD
92 0 5304 2273 2 MP stroke
92 0 5304 2273 2 MP stroke
5528 2273 PD
91 0 5483 2273 2 MP stroke
91 0 5483 2273 2 MP stroke
5636 2273 PD
91 0 5590 2273 2 MP stroke
91 0 5590 2273 2 MP stroke
gs 992 2020 4718 327 rc
  36   36 1065 2093 FO
  36   36 1244 2110 FO
  36   36 1422 2177 FO
  36   36 1601 2177 FO
  36   36 1779 2177 FO
  36   36 1958 2177 FO
  36   36 2136 2177 FO
  36   36 2315 2177 FO
  36   36 2493 2205 FO
  36   36 2672 2205 FO
  36   36 2850 2205 FO
  36   36 3029 2205 FO
  36   36 3208 2205 FO
  36   36 3386 2205 FO
  36   36 3565 2273 FO
  36   36 3743 2273 FO
  36   36 3922 2273 FO
  36   36 4100 2273 FO
  36   36 4279 2273 FO
  36   36 4457 2273 FO
  36   36 4636 2273 FO
  36   36 4814 2273 FO
  36   36 4993 2273 FO
  36   36 5171 2273 FO
  36   36 5350 2273 FO
  36   36 5528 2273 FO
  36   36 5636 2273 FO
gr

c10
12 0 12 0 12 0 12 0 12 0 12 0 12 0 12 0 
12 0 11 0 12 0 12 0 12 0 12 0 12 0 12 0 
12 0 12 0 12 0 11 0 12 0 12 0 12 0 12 0 
12 0 12 0 12 0 12 0 12 0 11 0 12 0 12 0 
12 0 12 0 12 0 12 0 12 0 12 0 12 0 12 0 
11 0 12 0 12 0 12 0 12 0 12 0 12 0 12 0 
12 0 12 0 11 0 12 0 12 0 12 0 12 0 12 0 
12 0 12 0 12 0 12 0 11 0 12 0 12 0 12 0 
12 0 12 0 12 0 12 0 12 0 12 0 11 0 12 0 
12 0 12 0 12 0 12 0 12 0 12 0 12 0 12 0 
11 0 12 0 12 0 12 0 12 0 12 0 12 0 12 0 
12 0 12 0 12 69 11 0 12 0 12 0 12 0 12 0 
12 0 12 0 12 0 12 0 12 0 11 0 12 0 12 0 
12 0 12 0 12 0 12 0 12 0 12 0 12 0 11 0 
12 0 12 0 12 0 12 0 12 0 12 0 12 0 12 0 
12 0 11 0 12 0 12 0 12 0 12 0 12 0 12 0 
12 0 12 0 12 0 12 0 11 0 12 0 12 0 12 0 
12 0 12 0 12 0 12 0 12 0 12 0 11 0 12 0 
12 0 12 0 12 0 12 0 12 0 12 0 12 0 12 0 
11 0 12 0 12 0 12 0 12 0 12 0 12 0 12 0 
12 0 12 0 11 0 12 0 12 0 12 0 12 0 12 0 
12 0 12 0 12 0 12 0 11 0 12 0 12 0 12 0 
12 0 12 0 12 0 12 0 12 0 12 0 12 0 11 0 
12 0 12 0 12 0 12 0 12 0 12 0 12 0 12 0 
12 0 11 0 12 0 12 0 12 0 12 0 12 0 12 0 
12 0 12 0 12 0 11 0 12 0 12 0 12 0 12 0 
12 0 12 0 12 0 12 0 12 0 11 0 12 0 12 0 
12 0 12 0 12 0 12 0 12 0 12 0 12 0 12 0 
11 0 12 0 12 50 12 0 12 0 12 0 12 0 12 0 
12 0 12 0 11 0 12 0 12 0 12 0 12 0 12 0 
12 0 12 149 12 165 12 0 11 0 12 0 12 0 12 0 
12 0 12 0 12 0 12 0 12 0 12 0 11 0 12 0 
12 0 12 0 12 0 12 0 12 0 12 0 12 0 12 0 
12 0 11 0 12 0 12 0 12 0 12 0 12 0 12 0 
12 0 12 0 12 0 11 0 12 0 12 0 12 0 12 0 
12 0 12 0 12 0 12 0 12 0 11 0 12 0 12 0 
12 0 12 0 12 0 12 0 12 0 12 0 12 0 11 0 
12 0 12 0 12 0 2077 1594 300 MP stroke
12 0 12 0 12 0 12 0 12 0 12 0 11 0 12 0 
12 0 12 0 12 0 12 0 12 0 12 0 12 87 12 0 
12 0 11 0 12 17 12 0 12 51 12 0 12 0 12 0 
12 0 12 0 12 0 11 0 12 0 12 0 12 0 12 0 
12 0 12 0 12 0 12 0 12 0 11 0 12 0 12 0 
12 0 12 0 12 0 12 0 12 0 12 0 12 0 11 0 
12 0 12 0 12 0 12 0 12 0 12 0 12 0 12 0 
12 0 12 0 11 0 12 0 12 0 12 0 12 0 12 0 
12 0 12 0 12 0 12 0 11 0 12 0 12 0 12 0 
12 0 12 0 12 0 12 0 12 0 12 0 11 0 12 0 
12 0 12 0 12 0 12 0 12 0 12 0 12 0 12 0 
11 42 12 0 12 0 12 41 12 0 12 0 12 0 12 0 
12 0 12 27 11 0 899 1329 100 MP stroke
1065 1439 PD
92 0 1019 1439 2 MP stroke
92 0 1019 1439 2 MP stroke
1244 1439 PD
91 0 1198 1439 2 MP stroke
91 0 1198 1439 2 MP stroke
1422 1439 PD
92 0 1376 1439 2 MP stroke
92 0 1376 1439 2 MP stroke
1601 1439 PD
91 0 1555 1439 2 MP stroke
91 0 1555 1439 2 MP stroke
1779 1439 PD
91 0 1734 1439 2 MP stroke
91 0 1734 1439 2 MP stroke
1958 1594 PD
92 0 1912 1594 2 MP stroke
92 0 1912 1594 2 MP stroke
2136 1594 PD
91 0 2091 1594 2 MP stroke
91 0 2091 1594 2 MP stroke
2315 1594 PD
92 0 2269 1594 2 MP stroke
92 0 2269 1594 2 MP stroke
2493 1594 PD
91 0 2448 1594 2 MP stroke
91 0 2448 1594 2 MP stroke
2672 1594 PD
92 0 2626 1594 2 MP stroke
92 0 2626 1594 2 MP stroke
2850 1908 PD
91 0 2805 1908 2 MP stroke
91 0 2805 1908 2 MP stroke
3029 1958 PD
92 0 2983 1958 2 MP stroke
92 0 2983 1958 2 MP stroke
3208 1958 PD
91 0 3162 1958 2 MP stroke
91 0 3162 1958 2 MP stroke
3386 1958 PD
92 0 3340 1958 2 MP stroke
92 0 3340 1958 2 MP stroke
3565 1958 PD
91 0 3519 1958 2 MP stroke
91 0 3519 1958 2 MP stroke
3743 1958 PD
92 0 3697 1958 2 MP stroke
92 0 3697 1958 2 MP stroke
3922 1958 PD
91 0 3876 1958 2 MP stroke
91 0 3876 1958 2 MP stroke
4100 1958 PD
92 0 4054 1958 2 MP stroke
92 0 4054 1958 2 MP stroke
4279 1958 PD
91 0 4233 1958 2 MP stroke
91 0 4233 1958 2 MP stroke
4457 1958 PD
91 0 4412 1958 2 MP stroke
91 0 4412 1958 2 MP stroke
4636 2027 PD
92 0 4590 2027 2 MP stroke
92 0 4590 2027 2 MP stroke
4814 2027 PD
91 0 4769 2027 2 MP stroke
91 0 4769 2027 2 MP stroke
4993 2027 PD
92 0 4947 2027 2 MP stroke
92 0 4947 2027 2 MP stroke
5171 2027 PD
91 0 5126 2027 2 MP stroke
91 0 5126 2027 2 MP stroke
5350 2027 PD
92 0 5304 2027 2 MP stroke
92 0 5304 2027 2 MP stroke
5528 2027 PD
91 0 5483 2027 2 MP stroke
91 0 5483 2027 2 MP stroke
5636 2027 PD
91 0 5590 2027 2 MP stroke
91 0 5590 2027 2 MP stroke
gs 992 1366 4718 735 rc
1029 1439 mt 1101 1439 L
1065 1403 mt 1065 1475 L
1208 1439 mt 1280 1439 L
1244 1403 mt 1244 1475 L
1386 1439 mt 1458 1439 L
1422 1403 mt 1422 1475 L
1565 1439 mt 1637 1439 L
1601 1403 mt 1601 1475 L
1743 1439 mt 1815 1439 L
1779 1403 mt 1779 1475 L
1922 1594 mt 1994 1594 L
1958 1558 mt 1958 1630 L
2100 1594 mt 2172 1594 L
2136 1558 mt 2136 1630 L
2279 1594 mt 2351 1594 L
2315 1558 mt 2315 1630 L
2457 1594 mt 2529 1594 L
2493 1558 mt 2493 1630 L
2636 1594 mt 2708 1594 L
2672 1558 mt 2672 1630 L
2814 1908 mt 2886 1908 L
2850 1872 mt 2850 1944 L
2993 1958 mt 3065 1958 L
3029 1922 mt 3029 1994 L
3172 1958 mt 3244 1958 L
3208 1922 mt 3208 1994 L
3350 1958 mt 3422 1958 L
3386 1922 mt 3386 1994 L
3529 1958 mt 3601 1958 L
3565 1922 mt 3565 1994 L
3707 1958 mt 3779 1958 L
3743 1922 mt 3743 1994 L
3886 1958 mt 3958 1958 L
3922 1922 mt 3922 1994 L
4064 1958 mt 4136 1958 L
4100 1922 mt 4100 1994 L
4243 1958 mt 4315 1958 L
4279 1922 mt 4279 1994 L
4421 1958 mt 4493 1958 L
4457 1922 mt 4457 1994 L
4600 2027 mt 4672 2027 L
4636 1991 mt 4636 2063 L
4778 2027 mt 4850 2027 L
4814 1991 mt 4814 2063 L
4957 2027 mt 5029 2027 L
4993 1991 mt 4993 2063 L
5135 2027 mt 5207 2027 L
5171 1991 mt 5171 2063 L
5314 2027 mt 5386 2027 L
5350 1991 mt 5350 2063 L
5492 2027 mt 5564 2027 L
5528 1991 mt 5528 2063 L
5600 2027 mt 5672 2027 L
5636 1991 mt 5636 2063 L
1040 1414 mt 1090 1464 L
1090 1414 mt 1040 1464 L
1219 1414 mt 1269 1464 L
1269 1414 mt 1219 1464 L
1397 1414 mt 1447 1464 L
1447 1414 mt 1397 1464 L
1576 1414 mt 1626 1464 L
1626 1414 mt 1576 1464 L
1754 1414 mt 1804 1464 L
1804 1414 mt 1754 1464 L
1933 1569 mt 1983 1619 L
1983 1569 mt 1933 1619 L
2111 1569 mt 2161 1619 L
2161 1569 mt 2111 1619 L
2290 1569 mt 2340 1619 L
2340 1569 mt 2290 1619 L
2468 1569 mt 2518 1619 L
2518 1569 mt 2468 1619 L
2647 1569 mt 2697 1619 L
2697 1569 mt 2647 1619 L
2825 1883 mt 2875 1933 L
2875 1883 mt 2825 1933 L
3004 1933 mt 3054 1983 L
3054 1933 mt 3004 1983 L
3183 1933 mt 3233 1983 L
3233 1933 mt 3183 1983 L
3361 1933 mt 3411 1983 L
3411 1933 mt 3361 1983 L
3540 1933 mt 3590 1983 L
3590 1933 mt 3540 1983 L
3718 1933 mt 3768 1983 L
3768 1933 mt 3718 1983 L
3897 1933 mt 3947 1983 L
3947 1933 mt 3897 1983 L
4075 1933 mt 4125 1983 L
4125 1933 mt 4075 1983 L
4254 1933 mt 4304 1983 L
4304 1933 mt 4254 1983 L
4432 1933 mt 4482 1983 L
4482 1933 mt 4432 1983 L
4611 2002 mt 4661 2052 L
4661 2002 mt 4611 2052 L
4789 2002 mt 4839 2052 L
4839 2002 mt 4789 2052 L
4968 2002 mt 5018 2052 L
5018 2002 mt 4968 2052 L
5146 2002 mt 5196 2052 L
5196 2002 mt 5146 2052 L
5325 2002 mt 5375 2052 L
5375 2002 mt 5325 2052 L
5503 2002 mt 5553 2052 L
5553 2002 mt 5503 2052 L
5611 2002 mt 5661 2052 L
5661 2002 mt 5611 2052 L
gr

c11
12 0 12 0 12 0 12 0 12 0 12 0 12 0 12 0 
12 0 11 0 12 0 12 0 12 0 12 0 12 0 12 0 
12 0 12 0 12 0 11 0 12 0 12 0 12 0 12 0 
12 0 12 0 12 0 12 0 12 0 11 0 12 0 12 0 
12 0 12 0 12 0 12 0 12 0 12 0 12 0 12 0 
11 0 12 0 12 0 12 0 12 0 12 0 12 0 12 0 
12 0 12 0 11 0 12 0 12 0 12 0 12 0 12 0 
12 0 12 0 12 0 12 0 11 0 12 0 12 0 12 0 
12 0 12 0 12 0 12 0 12 0 12 0 11 0 12 0 
12 0 12 0 12 0 12 0 12 0 12 0 12 0 12 0 
11 0 12 0 12 0 12 0 12 0 12 0 12 0 12 0 
12 0 12 0 12 0 11 0 12 0 12 0 12 0 12 0 
12 0 12 0 12 0 12 0 12 0 11 0 12 0 12 0 
12 0 12 0 12 0 12 0 12 0 12 0 12 0 11 0 
12 0 12 0 12 0 12 0 12 0 12 0 12 0 12 0 
12 0 11 0 12 0 12 0 12 0 12 0 12 0 12 0 
12 0 12 0 12 0 12 0 11 0 12 0 12 0 12 0 
12 0 12 0 12 0 12 0 12 0 12 0 11 0 12 0 
12 0 12 0 12 0 12 0 12 0 12 0 12 0 12 0 
11 0 12 0 12 0 12 0 12 0 12 0 12 0 12 0 
12 0 12 0 11 0 12 0 12 0 12 0 12 0 12 0 
12 0 12 0 12 0 12 0 11 0 12 0 12 0 12 0 
12 0 12 0 12 0 12 0 12 5 12 0 12 0 11 0 
12 0 12 0 12 0 12 0 12 0 12 0 12 0 12 0 
12 0 11 0 12 0 12 0 12 0 12 0 12 0 12 0 
12 0 12 0 12 0 11 0 12 0 12 0 12 0 12 0 
12 0 12 0 12 0 12 0 12 0 11 0 12 0 12 0 
12 0 12 0 12 0 12 0 12 0 12 0 12 0 12 0 
11 0 12 0 12 0 12 0 12 0 12 0 12 0 12 0 
12 0 12 0 11 0 12 22 12 0 12 0 12 0 12 0 
12 0 12 0 12 0 12 80 11 0 12 133 12 0 12 0 
12 0 12 0 12 0 12 0 12 0 12 0 11 0 12 0 
12 0 12 0 12 0 12 0 12 0 12 0 12 0 12 0 
12 0 11 0 12 0 12 0 12 0 12 0 12 0 12 0 
12 0 12 0 12 0 11 0 12 0 12 0 12 0 12 0 
12 0 12 0 12 0 12 0 12 0 11 0 12 0 12 108 
12 0 12 0 12 0 12 0 12 0 12 0 12 0 11 0 
12 0 12 0 12 1401 2077 2177 300 MP stroke
12 0 12 0 12 0 12 0 12 0 12 0 11 0 12 0 
12 0 12 0 12 0 12 0 12 0 12 0 12 0 12 0 
12 0 11 0 12 0 12 0 12 0 12 0 12 0 12 0 
12 0 12 0 12 0 11 0 12 0 12 0 12 0 12 0 
12 0 12 89 12 0 12 0 12 0 11 0 12 0 12 0 
12 0 12 0 12 0 12 0 12 0 12 0 12 0 11 0 
12 0 12 0 12 0 12 0 12 0 12 0 12 0 12 0 
12 0 12 0 11 0 12 0 12 0 12 0 12 0 12 0 
12 0 12 0 12 0 12 0 11 0 12 0 12 0 12 0 
12 0 12 0 12 0 12 0 12 0 12 0 11 93 12 0 
12 0 12 0 12 0 12 0 12 0 12 0 12 193 12 0 
11 0 12 0 12 0 12 0 12 0 12 0 12 0 12 0 
12 0 12 120 11 0 899 1682 100 MP stroke
1065 1995 PD
92 0 1019 1995 2 MP stroke
92 0 1019 1995 2 MP stroke
1244 2088 PD
91 0 1198 2088 2 MP stroke
91 0 1198 2088 2 MP stroke
1422 2088 PD
92 0 1376 2088 2 MP stroke
92 0 1376 2088 2 MP stroke
1601 2088 PD
91 0 1555 2088 2 MP stroke
91 0 1555 2088 2 MP stroke
1779 2177 PD
91 0 1734 2177 2 MP stroke
91 0 1734 2177 2 MP stroke
1958 2177 PD
92 0 1912 2177 2 MP stroke
92 0 1912 2177 2 MP stroke
2136 3578 PD
91 0 2091 3578 2 MP stroke
91 0 2091 3578 2 MP stroke
2315 3686 PD
92 0 2269 3686 2 MP stroke
92 0 2269 3686 2 MP stroke
2493 3686 PD
91 0 2448 3686 2 MP stroke
91 0 2448 3686 2 MP stroke
2672 3686 PD
92 0 2626 3686 2 MP stroke
92 0 2626 3686 2 MP stroke
2850 3921 PD
91 0 2805 3921 2 MP stroke
91 0 2805 3921 2 MP stroke
3029 3921 PD
92 0 2983 3921 2 MP stroke
92 0 2983 3921 2 MP stroke
3208 3921 PD
91 0 3162 3921 2 MP stroke
91 0 3162 3921 2 MP stroke
3386 3921 PD
92 0 3340 3921 2 MP stroke
92 0 3340 3921 2 MP stroke
3565 3926 PD
91 0 3519 3926 2 MP stroke
91 0 3519 3926 2 MP stroke
3743 3926 PD
92 0 3697 3926 2 MP stroke
92 0 3697 3926 2 MP stroke
3922 3926 PD
91 0 3876 3926 2 MP stroke
91 0 3876 3926 2 MP stroke
4100 3926 PD
92 0 4054 3926 2 MP stroke
92 0 4054 3926 2 MP stroke
4279 3926 PD
91 0 4233 3926 2 MP stroke
91 0 4233 3926 2 MP stroke
4457 3926 PD
91 0 4412 3926 2 MP stroke
91 0 4412 3926 2 MP stroke
4636 3926 PD
92 0 4590 3926 2 MP stroke
92 0 4590 3926 2 MP stroke
4814 3926 PD
91 0 4769 3926 2 MP stroke
91 0 4769 3926 2 MP stroke
4993 3926 PD
92 0 4947 3926 2 MP stroke
92 0 4947 3926 2 MP stroke
5171 3926 PD
91 0 5126 3926 2 MP stroke
91 0 5126 3926 2 MP stroke
5350 3926 PD
92 0 5304 3926 2 MP stroke
92 0 5304 3926 2 MP stroke
5528 3926 PD
91 0 5483 3926 2 MP stroke
91 0 5483 3926 2 MP stroke
5636 3926 PD
91 0 5590 3926 2 MP stroke
91 0 5590 3926 2 MP stroke
gs 992 1922 4718 2078 rc
0 j
36 47 -36 47 -36 -47 36 -47 1065 2042 5 MP
DP
36 47 -36 47 -36 -47 36 -47 1244 2135 5 MP
DP
36 47 -36 47 -36 -47 36 -47 1422 2135 5 MP
DP
36 47 -36 47 -36 -47 36 -47 1601 2135 5 MP
DP
36 47 -36 47 -36 -47 36 -47 1779 2224 5 MP
DP
36 47 -36 47 -36 -47 36 -47 1958 2224 5 MP
DP
36 47 -36 47 -36 -47 36 -47 2136 3625 5 MP
DP
36 47 -36 47 -36 -47 36 -47 2315 3733 5 MP
DP
36 47 -36 47 -36 -47 36 -47 2493 3733 5 MP
DP
36 47 -36 47 -36 -47 36 -47 2672 3733 5 MP
DP
36 47 -36 47 -36 -47 36 -47 2850 3968 5 MP
DP
36 47 -36 47 -36 -47 36 -47 3029 3968 5 MP
DP
36 47 -36 47 -36 -47 36 -47 3208 3968 5 MP
DP
36 47 -36 47 -36 -47 36 -47 3386 3968 5 MP
DP
36 47 -36 47 -36 -47 36 -47 3565 3973 5 MP
DP
36 47 -36 47 -36 -47 36 -47 3743 3973 5 MP
DP
36 47 -36 47 -36 -47 36 -47 3922 3973 5 MP
DP
36 47 -36 47 -36 -47 36 -47 4100 3973 5 MP
DP
36 47 -36 47 -36 -47 36 -47 4279 3973 5 MP
DP
36 47 -36 47 -36 -47 36 -47 4457 3973 5 MP
DP
36 47 -36 47 -36 -47 36 -47 4636 3973 5 MP
DP
36 47 -36 47 -36 -47 36 -47 4814 3973 5 MP
DP
36 47 -36 47 -36 -47 36 -47 4993 3973 5 MP
DP
36 47 -36 47 -36 -47 36 -47 5171 3973 5 MP
DP
36 47 -36 47 -36 -47 36 -47 5350 3973 5 MP
DP
36 47 -36 47 -36 -47 36 -47 5528 3973 5 MP
DP
36 47 -36 47 -36 -47 36 -47 5636 3973 5 MP
DP
gr

c12
12 0 12 0 12 0 12 0 12 0 12 0 12 0 12 0 
12 0 11 0 12 0 12 0 12 0 12 0 12 0 12 0 
12 0 12 0 12 0 11 0 12 0 12 0 12 0 12 0 
12 0 12 0 12 0 12 0 12 0 11 0 12 0 12 0 
12 0 12 0 12 0 12 0 12 0 12 0 12 0 12 0 
11 0 12 0 12 0 12 0 12 0 12 0 12 0 12 0 
12 0 12 0 11 0 12 0 12 0 12 0 12 0 12 0 
12 0 12 0 12 0 12 0 11 0 12 0 12 0 12 0 
12 0 12 0 12 0 12 0 12 0 12 0 11 0 12 0 
12 0 12 0 12 0 12 0 12 0 12 0 12 0 12 0 
11 0 12 0 12 0 12 0 12 0 12 0 12 0 12 0 
12 0 12 0 12 0 11 0 12 0 12 0 12 0 12 0 
12 0 12 0 12 0 12 0 12 0 11 0 12 0 12 0 
12 0 12 0 12 0 12 0 12 0 12 0 12 0 11 0 
12 0 12 0 12 0 12 0 12 0 12 0 12 0 12 0 
12 0 11 0 12 0 12 0 12 0 12 0 12 0 12 0 
12 0 12 0 12 0 12 0 11 0 12 0 12 0 12 0 
12 0 12 0 12 0 12 0 12 0 12 0 11 0 12 0 
12 0 12 0 12 0 12 0 12 0 12 0 12 0 12 0 
11 0 12 0 12 0 12 0 12 0 12 0 12 0 12 0 
12 0 12 0 11 0 12 0 12 0 12 0 12 0 12 0 
12 0 12 0 12 0 12 0 11 0 12 0 12 0 12 0 
12 0 12 0 12 0 12 0 12 0 12 0 12 0 11 0 
12 0 12 0 12 0 12 0 12 0 12 0 12 0 12 49 
12 0 11 0 12 0 12 0 12 0 12 0 12 0 12 0 
12 0 12 0 12 11 11 0 12 0 12 0 12 0 12 0 
12 0 12 0 12 0 12 0 12 0 11 0 12 0 12 0 
12 0 12 0 12 0 12 0 12 0 12 0 12 0 12 0 
11 0 12 0 12 0 12 0 12 0 12 0 12 0 12 0 
12 0 12 0 11 0 12 0 12 0 12 0 12 0 12 0 
12 0 12 0 12 62 12 0 11 0 12 0 12 0 12 0 
12 0 12 0 12 0 12 0 12 0 12 0 11 0 12 0 
12 0 12 0 12 0 12 0 12 0 12 0 12 0 12 0 
12 0 11 29 12 0 12 0 12 0 12 0 12 0 12 0 
12 0 12 73 12 0 11 0 12 0 12 0 12 0 12 0 
12 0 12 0 12 0 12 30 12 0 11 0 12 0 12 0 
12 9 12 0 12 0 12 0 12 0 12 0 12 0 11 0 
12 0 12 0 12 1804 2077 2083 300 MP stroke
12 0 12 0 12 0 12 0 12 0 12 0 11 0 12 0 
12 0 12 0 12 0 12 0 12 0 12 0 12 0 12 0 
12 0 11 0 12 0 12 0 12 0 12 0 12 0 12 0 
12 0 12 0 12 0 11 0 12 0 12 0 12 0 12 0 
12 0 12 0 12 0 12 0 12 0 11 0 12 0 12 0 
12 0 12 0 12 0 12 0 12 0 12 0 12 0 11 0 
12 0 12 0 12 0 12 0 12 0 12 0 12 0 12 0 
12 0 12 0 11 0 12 0 12 0 12 63 12 49 12 0 
12 0 12 0 12 0 12 94 11 0 12 0 12 0 12 0 
12 0 12 0 12 0 12 0 12 0 12 0 11 0 12 0 
12 0 12 0 12 0 12 0 12 0 12 0 12 0 12 0 
11 0 12 0 12 0 12 0 12 0 12 0 12 0 12 0 
12 0 12 84 11 643 899 1150 100 MP stroke
1065 1877 PD
92 0 1019 1877 2 MP stroke
92 0 1019 1877 2 MP stroke
1244 1877 PD
91 0 1198 1877 2 MP stroke
91 0 1198 1877 2 MP stroke
1422 2083 PD
92 0 1376 2083 2 MP stroke
92 0 1376 2083 2 MP stroke
1601 2083 PD
91 0 1555 2083 2 MP stroke
91 0 1555 2083 2 MP stroke
1779 2083 PD
91 0 1734 2083 2 MP stroke
91 0 1734 2083 2 MP stroke
1958 2083 PD
92 0 1912 2083 2 MP stroke
92 0 1912 2083 2 MP stroke
2136 3887 PD
91 0 2091 3887 2 MP stroke
91 0 2091 3887 2 MP stroke
2315 3926 PD
92 0 2269 3926 2 MP stroke
92 0 2269 3926 2 MP stroke
2493 4028 PD
91 0 2448 4028 2 MP stroke
91 0 2448 4028 2 MP stroke
2672 4028 PD
92 0 2626 4028 2 MP stroke
92 0 2626 4028 2 MP stroke
2850 4090 PD
91 0 2805 4090 2 MP stroke
91 0 2805 4090 2 MP stroke
3029 4090 PD
92 0 2983 4090 2 MP stroke
92 0 2983 4090 2 MP stroke
3208 4090 PD
91 0 3162 4090 2 MP stroke
91 0 3162 4090 2 MP stroke
3386 4150 PD
92 0 3340 4150 2 MP stroke
92 0 3340 4150 2 MP stroke
3565 4150 PD
91 0 3519 4150 2 MP stroke
91 0 3519 4150 2 MP stroke
3743 4150 PD
92 0 3697 4150 2 MP stroke
92 0 3697 4150 2 MP stroke
3922 4150 PD
91 0 3876 4150 2 MP stroke
91 0 3876 4150 2 MP stroke
4100 4150 PD
92 0 4054 4150 2 MP stroke
92 0 4054 4150 2 MP stroke
4279 4150 PD
91 0 4233 4150 2 MP stroke
91 0 4233 4150 2 MP stroke
4457 4150 PD
91 0 4412 4150 2 MP stroke
91 0 4412 4150 2 MP stroke
4636 4150 PD
92 0 4590 4150 2 MP stroke
92 0 4590 4150 2 MP stroke
4814 4150 PD
91 0 4769 4150 2 MP stroke
91 0 4769 4150 2 MP stroke
4993 4150 PD
92 0 4947 4150 2 MP stroke
92 0 4947 4150 2 MP stroke
5171 4150 PD
91 0 5126 4150 2 MP stroke
91 0 5126 4150 2 MP stroke
5350 4150 PD
92 0 5304 4150 2 MP stroke
92 0 5304 4150 2 MP stroke
5528 4150 PD
91 0 5483 4150 2 MP stroke
91 0 5483 4150 2 MP stroke
5636 4150 PD
91 0 5590 4150 2 MP stroke
91 0 5590 4150 2 MP stroke
gs 992 1804 4718 2420 rc
0 j
0 -58 -58 0 0 58 58 0 1036 1848 5 MP
DP
0 -58 -58 0 0 58 58 0 1215 1848 5 MP
DP
0 -58 -58 0 0 58 58 0 1393 2054 5 MP
DP
0 -58 -58 0 0 58 58 0 1572 2054 5 MP
DP
0 -58 -58 0 0 58 58 0 1750 2054 5 MP
DP
0 -58 -58 0 0 58 58 0 1929 2054 5 MP
DP
0 -58 -58 0 0 58 58 0 2107 3858 5 MP
DP
0 -58 -58 0 0 58 58 0 2286 3897 5 MP
DP
0 -58 -58 0 0 58 58 0 2464 3999 5 MP
DP
0 -58 -58 0 0 58 58 0 2643 3999 5 MP
DP
0 -58 -58 0 0 58 58 0 2821 4061 5 MP
DP
0 -58 -58 0 0 58 58 0 3000 4061 5 MP
DP
0 -58 -58 0 0 58 58 0 3179 4061 5 MP
DP
0 -58 -58 0 0 58 58 0 3357 4121 5 MP
DP
0 -58 -58 0 0 58 58 0 3536 4121 5 MP
DP
0 -58 -58 0 0 58 58 0 3714 4121 5 MP
DP
0 -58 -58 0 0 58 58 0 3893 4121 5 MP
DP
0 -58 -58 0 0 58 58 0 4071 4121 5 MP
DP
0 -58 -58 0 0 58 58 0 4250 4121 5 MP
DP
0 -58 -58 0 0 58 58 0 4428 4121 5 MP
DP
0 -58 -58 0 0 58 58 0 4607 4121 5 MP
DP
0 -58 -58 0 0 58 58 0 4785 4121 5 MP
DP
0 -58 -58 0 0 58 58 0 4964 4121 5 MP
DP
0 -58 -58 0 0 58 58 0 5142 4121 5 MP
DP
0 -58 -58 0 0 58 58 0 5321 4121 5 MP
DP
0 -58 -58 0 0 58 58 0 5499 4121 5 MP
DP
0 -58 -58 0 0 58 58 0 5607 4121 5 MP
DP
gr

c13
12 0 12 0 12 0 12 0 12 0 12 0 12 0 12 0 
12 0 11 0 12 0 12 0 12 0 12 0 12 0 12 0 
12 0 12 0 12 0 11 0 12 0 12 0 12 0 12 0 
12 0 12 0 12 0 12 0 12 0 11 0 12 0 12 0 
12 0 12 0 12 0 12 0 12 0 12 0 12 0 12 0 
11 0 12 0 12 0 12 0 12 0 12 0 12 0 12 0 
12 0 12 0 11 0 12 0 12 0 12 0 12 0 12 0 
12 0 12 0 12 0 12 0 11 0 12 0 12 0 12 0 
12 0 12 0 12 0 12 0 12 0 12 0 11 0 12 0 
12 0 12 0 12 0 12 0 12 0 12 0 12 0 12 0 
11 0 12 0 12 0 12 0 12 0 12 0 12 0 12 0 
12 0 12 0 12 0 11 0 12 0 12 0 12 0 12 0 
12 0 12 0 12 0 12 0 12 0 11 0 12 0 12 0 
12 0 12 0 12 0 12 0 12 0 12 0 12 0 11 0 
12 0 12 0 12 0 12 0 12 0 12 0 12 0 12 0 
12 0 11 0 12 0 12 0 12 0 12 0 12 0 12 0 
12 0 12 0 12 0 12 0 11 0 12 0 12 0 12 0 
12 0 12 0 12 0 12 0 12 0 12 0 11 0 12 0 
12 0 12 0 12 0 12 0 12 0 12 0 12 0 12 0 
11 0 12 0 12 0 12 0 12 0 12 0 12 0 12 0 
12 0 12 0 11 0 12 0 12 0 12 0 12 0 12 0 
12 0 12 0 12 0 12 0 11 0 12 0 12 0 12 0 
12 0 12 0 12 0 12 0 12 0 12 0 12 0 11 0 
12 0 12 0 12 0 12 0 12 0 12 0 12 0 12 0 
12 0 11 0 12 0 12 0 12 0 12 0 12 0 12 0 
12 0 12 0 12 0 11 0 12 0 12 0 12 0 12 0 
12 0 12 0 12 0 12 0 12 0 11 0 12 0 12 0 
12 0 12 0 12 0 12 0 12 0 12 0 12 0 12 0 
11 0 12 0 12 0 12 0 12 0 12 0 12 0 12 0 
12 0 12 0 11 0 12 0 12 0 12 0 12 0 12 0 
12 0 12 0 12 0 12 0 11 0 12 0 12 0 12 0 
12 0 12 0 12 0 12 0 12 0 12 0 11 0 12 0 
12 0 12 0 12 0 12 140 12 0 12 0 12 0 12 0 
12 0 11 0 12 0 12 0 12 0 12 0 12 0 12 0 
12 0 12 0 12 0 11 0 12 0 12 0 12 0 12 0 
12 0 12 0 12 0 12 0 12 0 11 0 12 0 12 0 
12 0 12 0 12 0 12 0 12 0 12 0 12 0 11 0 
12 0 12 0 12 0 2077 1424 300 MP stroke
12 0 12 0 12 0 12 0 12 0 12 0 11 0 12 0 
12 0 12 0 12 0 12 0 12 0 12 0 12 0 12 0 
12 0 11 0 12 0 12 0 12 0 12 0 12 0 12 0 
12 0 12 0 12 0 11 0 12 0 12 0 12 0 12 0 
12 0 12 0 12 0 12 0 12 0 11 0 12 0 12 0 
12 0 12 0 12 0 12 0 12 0 12 0 12 0 11 0 
12 0 12 0 12 0 12 0 12 0 12 0 12 0 12 0 
12 0 12 0 11 0 12 0 12 0 12 0 12 0 12 0 
12 0 12 0 12 0 12 0 11 0 12 0 12 0 12 0 
12 0 12 0 12 0 12 0 12 0 12 0 11 0 12 0 
12 0 12 0 12 0 12 0 12 0 12 0 12 0 12 0 
11 0 12 0 12 0 12 0 12 0 12 0 12 0 12 0 
12 0 12 0 11 0 899 1424 100 MP stroke
1065 1424 PD
92 0 1019 1424 2 MP stroke
92 0 1019 1424 2 MP stroke
1244 1424 PD
91 0 1198 1424 2 MP stroke
91 0 1198 1424 2 MP stroke
1422 1424 PD
92 0 1376 1424 2 MP stroke
92 0 1376 1424 2 MP stroke
1601 1424 PD
91 0 1555 1424 2 MP stroke
91 0 1555 1424 2 MP stroke
1779 1424 PD
91 0 1734 1424 2 MP stroke
91 0 1734 1424 2 MP stroke
1958 1424 PD
92 0 1912 1424 2 MP stroke
92 0 1912 1424 2 MP stroke
2136 1424 PD
91 0 2091 1424 2 MP stroke
91 0 2091 1424 2 MP stroke
2315 1424 PD
92 0 2269 1424 2 MP stroke
92 0 2269 1424 2 MP stroke
2493 1424 PD
91 0 2448 1424 2 MP stroke
91 0 2448 1424 2 MP stroke
2672 1564 PD
92 0 2626 1564 2 MP stroke
92 0 2626 1564 2 MP stroke
2850 1564 PD
91 0 2805 1564 2 MP stroke
91 0 2805 1564 2 MP stroke
3029 1564 PD
92 0 2983 1564 2 MP stroke
92 0 2983 1564 2 MP stroke
3208 1564 PD
91 0 3162 1564 2 MP stroke
91 0 3162 1564 2 MP stroke
3386 1564 PD
92 0 3340 1564 2 MP stroke
92 0 3340 1564 2 MP stroke
3565 1564 PD
91 0 3519 1564 2 MP stroke
91 0 3519 1564 2 MP stroke
3743 1564 PD
92 0 3697 1564 2 MP stroke
92 0 3697 1564 2 MP stroke
3922 1564 PD
91 0 3876 1564 2 MP stroke
91 0 3876 1564 2 MP stroke
4100 1564 PD
92 0 4054 1564 2 MP stroke
92 0 4054 1564 2 MP stroke
4279 1564 PD
91 0 4233 1564 2 MP stroke
91 0 4233 1564 2 MP stroke
4457 1564 PD
91 0 4412 1564 2 MP stroke
91 0 4412 1564 2 MP stroke
4636 1564 PD
92 0 4590 1564 2 MP stroke
92 0 4590 1564 2 MP stroke
4814 1564 PD
91 0 4769 1564 2 MP stroke
91 0 4769 1564 2 MP stroke
4993 1564 PD
92 0 4947 1564 2 MP stroke
92 0 4947 1564 2 MP stroke
5171 1564 PD
91 0 5126 1564 2 MP stroke
91 0 5126 1564 2 MP stroke
5350 1564 PD
92 0 5304 1564 2 MP stroke
92 0 5304 1564 2 MP stroke
5528 1564 PD
91 0 5483 1564 2 MP stroke
91 0 5483 1564 2 MP stroke
5636 1564 PD
91 0 5590 1564 2 MP stroke
91 0 5590 1564 2 MP stroke
gs 992 1351 4718 287 rc
0 j
-41 71 -41 -71 82 0 1024 1448 4 MP
DP
-41 71 -41 -71 82 0 1203 1448 4 MP
DP
-41 71 -41 -71 82 0 1381 1448 4 MP
DP
-41 71 -41 -71 82 0 1560 1448 4 MP
DP
-41 71 -41 -71 82 0 1738 1448 4 MP
DP
-41 71 -41 -71 82 0 1917 1448 4 MP
DP
-41 71 -41 -71 82 0 2095 1448 4 MP
DP
-41 71 -41 -71 82 0 2274 1448 4 MP
DP
-41 71 -41 -71 82 0 2452 1448 4 MP
DP
-41 71 -41 -71 82 0 2631 1588 4 MP
DP
-41 71 -41 -71 82 0 2809 1588 4 MP
DP
-41 71 -41 -71 82 0 2988 1588 4 MP
DP
-41 71 -41 -71 82 0 3167 1588 4 MP
DP
-41 71 -41 -71 82 0 3345 1588 4 MP
DP
-41 71 -41 -71 82 0 3524 1588 4 MP
DP
-41 71 -41 -71 82 0 3702 1588 4 MP
DP
-41 71 -41 -71 82 0 3881 1588 4 MP
DP
-41 71 -41 -71 82 0 4059 1588 4 MP
DP
-41 71 -41 -71 82 0 4238 1588 4 MP
DP
-41 71 -41 -71 82 0 4416 1588 4 MP
DP
-41 71 -41 -71 82 0 4595 1588 4 MP
DP
-41 71 -41 -71 82 0 4773 1588 4 MP
DP
-41 71 -41 -71 82 0 4952 1588 4 MP
DP
-41 71 -41 -71 82 0 5130 1588 4 MP
DP
-41 71 -41 -71 82 0 5309 1588 4 MP
DP
-41 71 -41 -71 82 0 5487 1588 4 MP
DP
-41 71 -41 -71 82 0 5595 1588 4 MP
DP
gr

0 sg
12 0 12 0 12 0 12 0 12 0 12 0 12 0 12 0 
12 0 11 0 12 0 12 0 12 0 12 0 12 0 12 0 
12 0 12 0 12 0 11 0 12 0 12 0 12 0 12 0 
12 0 12 0 12 0 12 0 12 0 11 0 12 0 12 0 
12 0 12 0 12 0 12 0 12 0 12 0 12 0 12 0 
11 0 12 0 12 0 12 0 12 0 12 0 12 0 12 0 
12 0 12 0 11 0 12 0 12 0 12 0 12 0 12 0 
12 0 12 0 12 0 12 0 11 0 12 0 12 0 12 0 
12 0 12 0 12 0 12 0 12 0 12 0 11 0 12 0 
12 0 12 0 12 0 12 0 12 0 12 0 12 0 12 0 
11 0 12 0 12 0 12 0 12 0 12 0 12 0 12 0 
12 0 12 0 12 0 11 0 12 0 12 0 12 0 12 0 
12 0 12 0 12 0 12 0 12 0 11 0 12 0 12 0 
12 0 12 0 12 0 12 0 12 0 12 0 12 0 11 0 
12 0 12 0 12 0 12 0 12 0 12 0 12 0 12 0 
12 0 11 0 12 0 12 0 12 0 12 0 12 0 12 0 
12 0 12 0 12 0 12 0 11 0 12 0 12 0 12 0 
12 0 12 0 12 0 12 0 12 0 12 0 11 0 12 0 
12 0 12 0 12 0 12 0 12 0 12 0 12 0 12 0 
11 0 12 0 12 0 12 0 12 0 12 0 12 0 12 0 
12 0 12 0 11 0 12 0 12 0 12 0 12 0 12 0 
12 0 12 0 12 0 12 0 11 0 12 0 12 0 12 0 
12 0 12 0 12 0 12 0 12 0 12 0 12 0 11 0 
12 0 12 0 12 0 12 0 12 0 12 0 12 0 12 0 
12 0 11 0 12 0 12 0 12 0 12 0 12 0 12 0 
12 32 12 0 12 0 11 0 12 0 12 0 12 0 12 0 
12 0 12 0 12 0 12 0 12 0 11 0 12 0 12 0 
12 0 12 0 12 0 12 0 12 0 12 0 12 0 12 0 
11 0 12 0 12 0 12 0 12 0 12 0 12 0 12 0 
12 0 12 0 11 0 12 0 12 0 12 0 12 0 12 0 
12 0 12 0 12 0 12 0 11 0 12 0 12 0 12 0 
12 0 12 0 12 0 12 0 12 0 12 0 11 0 12 0 
12 0 12 0 12 0 12 0 12 0 12 0 12 0 12 0 
12 0 11 0 12 0 12 0 12 0 12 0 12 0 12 0 
12 0 12 0 12 0 11 0 12 0 12 0 12 0 12 0 
12 0 12 0 12 0 12 0 12 0 11 0 12 0 12 0 
12 0 12 0 12 0 12 0 12 0 12 0 12 0 11 0 
12 0 12 0 12 0 2077 2253 300 MP stroke
12 0 12 0 12 0 12 0 12 0 12 0 11 0 12 0 
12 0 12 0 12 0 12 0 12 121 12 0 12 0 12 0 
12 0 11 0 12 0 12 0 12 0 12 0 12 0 12 0 
12 0 12 0 12 0 11 0 12 0 12 0 12 0 12 0 
12 0 12 0 12 0 12 0 12 0 11 0 12 0 12 74 
12 0 12 0 12 0 12 0 12 0 12 0 12 0 11 0 
12 0 12 0 12 0 12 0 12 0 12 0 12 0 12 0 
12 0 12 0 11 0 12 0 12 0 12 0 12 0 12 0 
12 0 12 0 12 0 12 0 11 0 12 0 12 0 12 0 
12 0 12 0 12 0 12 0 12 0 12 0 11 0 12 0 
12 0 12 0 12 0 12 0 12 0 12 0 12 0 12 0 
11 0 12 0 12 0 12 0 12 0 12 0 12 0 12 322 
12 0 12 184 11 852 899 700 100 MP stroke
1065 2058 PD
92 0 1019 2058 2 MP stroke
92 0 1019 2058 2 MP stroke
1244 2058 PD
91 0 1198 2058 2 MP stroke
91 0 1198 2058 2 MP stroke
1422 2058 PD
92 0 1376 2058 2 MP stroke
92 0 1376 2058 2 MP stroke
1601 2058 PD
91 0 1555 2058 2 MP stroke
91 0 1555 2058 2 MP stroke
1779 2132 PD
91 0 1734 2132 2 MP stroke
91 0 1734 2132 2 MP stroke
1958 2253 PD
92 0 1912 2253 2 MP stroke
92 0 1912 2253 2 MP stroke
2136 2253 PD
91 0 2091 2253 2 MP stroke
91 0 2091 2253 2 MP stroke
2315 2253 PD
92 0 2269 2253 2 MP stroke
92 0 2269 2253 2 MP stroke
2493 2253 PD
91 0 2448 2253 2 MP stroke
91 0 2448 2253 2 MP stroke
2672 2253 PD
92 0 2626 2253 2 MP stroke
92 0 2626 2253 2 MP stroke
2850 2253 PD
91 0 2805 2253 2 MP stroke
91 0 2805 2253 2 MP stroke
3029 2253 PD
92 0 2983 2253 2 MP stroke
92 0 2983 2253 2 MP stroke
3208 2253 PD
91 0 3162 2253 2 MP stroke
91 0 3162 2253 2 MP stroke
3386 2285 PD
92 0 3340 2285 2 MP stroke
92 0 3340 2285 2 MP stroke
3565 2285 PD
91 0 3519 2285 2 MP stroke
91 0 3519 2285 2 MP stroke
3743 2285 PD
92 0 3697 2285 2 MP stroke
92 0 3697 2285 2 MP stroke
3922 2285 PD
91 0 3876 2285 2 MP stroke
91 0 3876 2285 2 MP stroke
4100 2285 PD
92 0 4054 2285 2 MP stroke
92 0 4054 2285 2 MP stroke
4279 2285 PD
91 0 4233 2285 2 MP stroke
91 0 4233 2285 2 MP stroke
4457 2285 PD
91 0 4412 2285 2 MP stroke
91 0 4412 2285 2 MP stroke
4636 2285 PD
92 0 4590 2285 2 MP stroke
92 0 4590 2285 2 MP stroke
4814 2285 PD
91 0 4769 2285 2 MP stroke
91 0 4769 2285 2 MP stroke
4993 2285 PD
92 0 4947 2285 2 MP stroke
92 0 4947 2285 2 MP stroke
5171 2285 PD
91 0 5126 2285 2 MP stroke
91 0 5126 2285 2 MP stroke
5350 2285 PD
92 0 5304 2285 2 MP stroke
92 0 5304 2285 2 MP stroke
5528 2285 PD
91 0 5483 2285 2 MP stroke
91 0 5483 2285 2 MP stroke
5636 2285 PD
91 0 5590 2285 2 MP stroke
91 0 5590 2285 2 MP stroke
gs 992 1985 4718 374 rc
1029 2058 mt 1101 2058 L
1065 2022 mt 1065 2094 L
1208 2058 mt 1280 2058 L
1244 2022 mt 1244 2094 L
1386 2058 mt 1458 2058 L
1422 2022 mt 1422 2094 L
1565 2058 mt 1637 2058 L
1601 2022 mt 1601 2094 L
1743 2132 mt 1815 2132 L
1779 2096 mt 1779 2168 L
1922 2253 mt 1994 2253 L
1958 2217 mt 1958 2289 L
2100 2253 mt 2172 2253 L
2136 2217 mt 2136 2289 L
2279 2253 mt 2351 2253 L
2315 2217 mt 2315 2289 L
2457 2253 mt 2529 2253 L
2493 2217 mt 2493 2289 L
2636 2253 mt 2708 2253 L
2672 2217 mt 2672 2289 L
2814 2253 mt 2886 2253 L
2850 2217 mt 2850 2289 L
2993 2253 mt 3065 2253 L
3029 2217 mt 3029 2289 L
3172 2253 mt 3244 2253 L
3208 2217 mt 3208 2289 L
3350 2285 mt 3422 2285 L
3386 2249 mt 3386 2321 L
3529 2285 mt 3601 2285 L
3565 2249 mt 3565 2321 L
3707 2285 mt 3779 2285 L
3743 2249 mt 3743 2321 L
3886 2285 mt 3958 2285 L
3922 2249 mt 3922 2321 L
4064 2285 mt 4136 2285 L
4100 2249 mt 4100 2321 L
4243 2285 mt 4315 2285 L
4279 2249 mt 4279 2321 L
4421 2285 mt 4493 2285 L
4457 2249 mt 4457 2321 L
4600 2285 mt 4672 2285 L
4636 2249 mt 4636 2321 L
4778 2285 mt 4850 2285 L
4814 2249 mt 4814 2321 L
4957 2285 mt 5029 2285 L
4993 2249 mt 4993 2321 L
5135 2285 mt 5207 2285 L
5171 2249 mt 5171 2321 L
5314 2285 mt 5386 2285 L
5350 2249 mt 5350 2321 L
5492 2285 mt 5564 2285 L
5528 2249 mt 5528 2321 L
5600 2285 mt 5672 2285 L
5636 2249 mt 5636 2321 L
gr

gr

1 sg
0 1064 1538 0 0 -1064 4658 1513 4 MP
PP
-1538 0 0 1064 1538 0 0 -1064 4658 1513 5 MP stroke
4 w
DO
SO
6 w
0 sg
4658 1513 mt 6196 1513 L
4658  449 mt 6196  449 L
4658 1513 mt 4658  449 L
6196 1513 mt 6196  449 L
4658 1513 mt 6196 1513 L
4658 1513 mt 4658  449 L
4658 1513 mt 6196 1513 L
4658  449 mt 6196  449 L
4658 1513 mt 4658  449 L
6196 1513 mt 6196  449 L
5125  580 mt 
(original BO) s
gs 4658 449 1539 1065 rc
gs 4836 465 147 147 rc
0 j
41 71 -82 0 41 -71 4909 585 4 MP
c8
DP
gr

c8
gr

c8
0 sg
5125  728 mt 
(random embedding) s
gs 4658 449 1539 1065 rc
gs 4836 612 147 147 rc
c9
  36   36 4909  685 FO
gr

c9
gr

c9
0 sg
5125  876 mt 
(subpsace learning) s
gs 4658 449 1539 1065 rc
gs 4836 760 147 147 rc
c10
4873  833 mt 4945  833 L
4909  797 mt 4909  869 L
4884  808 mt 4934  858 L
4934  808 mt 4884  858 L
gr

c10
gr

c10
0 sg
5125 1024 mt 
(additive model) s
gs 4658 449 1539 1065 rc
gs 4836 908 147 147 rc
0 j
36 47 -36 47 -36 -47 36 -47 4909 1028 5 MP
c11
DP
gr

c11
gr

c11
0 sg
5125 1171 mt 
(anova ve) s
gs 4658 449 1539 1065 rc
gs 4836 1055 147 147 rc
0 j
0 -58 -58 0 0 58 58 0 4880 1099 5 MP
c12
DP
gr

c12
gr

c12
0 sg
5125 1319 mt 
(genetic algorithm) s
gs 4658 449 1539 1065 rc
gs 4836 1203 147 147 rc
0 j
-41 71 -41 -71 82 0 4868 1300 4 MP
c13
DP
gr

c13
gr

c13
0 sg
5125 1467 mt 
(random selection) s
gs 4658 449 1539 1065 rc
gs 4836 1350 147 147 rc
4873 1423 mt 4945 1423 L
4909 1387 mt 4909 1459 L
gr

gr


end %%Color Dict

eplot
%%EndObject

epage
end

showpage

%%Trailer
%%EOF
